350810.76554720604,1007.43
350810.793684413,1007.41
350810.82182162005,1007.41
350810.849958827,1007.42
350810.878096034,1007.42
350810.906233241,1007.42
350810.934370448,1007.44
350810.96250765503,1007.44
350810.990644862,1007.44
350811.01878206903,1007.44
350811.046919277,1007.39
350811.075056484,1007.39
350811.105696132,1007.41
350811.13633578003,1007.41
350811.16700594604,1007.41
350811.197645595,1007.41
350811.228315761,1007.41
350811.258955409,1007.41
350811.289625575,1007.41
350811.320265224,1007.4
350811.35093539004,1007.4
350811.381575038,1007.4
350811.41224520403,1007.42
350811.442884853,1007.42
350811.473555019,1007.42
350811.504316737,1007.38
350811.53504793905,1007.38
350811.56596224505,1007.38
350811.596846034,1007.39
350811.62776034104,1007.39
350811.65864413005,1007.39
350811.68955843704,1007.4
350811.72044222604,1007.4
350811.75135653204,1007.4
350811.78224032104,1007.38
350811.81315462803,1007.38
350811.84403841704,1007.38
350811.874952724,1007.39
350811.90583651303,1007.39
350811.93675081903,1007.39
350811.967634609,1007.39
350811.998548915,1007.39
350812.02943270403,1007.39
350812.060347011,1007.39
350812.0912308,1007.39
350812.122145107,1007.39
350812.153028896,1007.36
350812.183943202,1007.36
350812.214826991,1007.36
350812.245741298,1007.36
350812.276625087,1007.39
350812.307539394,1007.39
350812.338423183,1007.39
350812.369337489,1007.39
350812.400221278,1007.39
350812.431135585,1007.38
350812.462019374,1007.38
350812.492933681,1007.38
350812.52381747,1007.38
350812.554731777,1007.37
350812.585615566,1007.37
350812.616529872,1007.37
350812.647413661,1007.39
350812.678327968,1007.39
350812.709211757,1007.39
350812.74012606405,1007.39
350812.771009853,1007.39
350812.801924159,1007.39
350812.832807948,1007.38
350812.86372225505,1007.38
350812.89460604405,1007.38
350812.92552035104,1007.39
350812.95640414004,1007.39
350812.98731844604,1007.39
350813.01820223604,1007.39
350813.04911654204,1007.38
350813.08000033104,1007.38
350813.11091463803,1007.4
350813.14179842704,1007.4
350813.172712734,1007.4
350813.20359652303,1007.41
350813.23451082903,1007.41
350813.26539461804,1007.41
350813.296308925,1007.41
350813.32719271403,1007.4
350813.358107021,1007.4
350813.38899081,1007.4
350813.419905116,1007.41
350813.45078890503,1007.41
350813.481703212,1007.41
350813.512587001,1007.39
350813.543501308,1007.39
350813.574385097,1007.39
350813.605299403,1007.4
350813.636183193,1007.4
350813.667097499,1007.4
350813.697981288,1007.41
350813.728895595,1007.41
350813.759779384,1007.41
350813.790693691,1007.37
350813.82157748,1007.37
350813.852491786,1007.37
350813.883375575,1007.38
350813.914289882,1007.38
350813.945173671,1007.38
350813.976087978,1007.38
350814.006971767,1007.38
350814.037886073,1007.38
350814.068769862,1007.37
350814.09968416905,1007.37
350814.130567958,1007.37
350814.16148226504,1007.37
350814.19236605405,1007.37
350814.22328036104,1007.37
350814.25416415004,1007.37
350814.28504793905,1007.38
350814.31596224505,1007.38
350814.346846034,1007.38
350814.37776034104,1007.39
350814.40864413005,1007.39
350814.43955843704,1007.39
350814.47044222604,1007.39
350814.501360717,1007.39
350814.532244506,1007.39
350814.56315881305,1007.37
350814.594042602,1007.37
350814.62495690904,1007.37
350814.65584069805,1007.38
350814.68675500405,1007.38
350814.71763879404,1007.38
350814.74855310004,1007.38
350814.77943688905,1007.38
350814.81035119604,1007.38
350814.84123498504,1007.39
350814.87214929203,1007.39
350814.90303308103,1007.39
350814.93394738704,1007.39
350814.96483117604,1007.39
350814.99574548303,1007.39
350815.02662927203,1007.39
350815.057543579,1007.4
350815.088427368,1007.4
350815.119341674,1007.4
350815.15022546303,1007.4
350815.18113977,1007.4
350815.212023559,1007.38
350815.242937866,1007.38
350815.273821655,1007.38
350815.304735962,1007.38
350815.335619751,1007.38
350815.366534057,1007.38
350815.397417846,1007.38
350815.428332153,1007.38
350815.459215942,1007.38
350815.490130249,1007.38
350815.521014038,1007.39
350815.551928344,1007.39
350815.582812133,1007.39
350815.61372644,1007.39
350815.644610229,1007.39
350815.675524536,1007.39
350815.706408325,1007.39
350815.737322631,1007.39
350815.768206421,1007.39
350815.799120727,1007.39
350815.830004516,1007.39
350815.86091882305,1007.39
350815.891802612,1007.39
350815.92271691904,1007.39
350815.95360070805,1007.39
350815.98451501405,1007.39
350816.01539880305,1007.39
350816.04631311004,1007.39
350816.07719689904,1007.4
350816.10811120603,1007.4
350816.13899499504,1007.4
350816.16990930104,1007.4
350816.20079309004,1007.4
350816.23170739703,1007.4
350816.26259118604,1007.4
350816.293505493,1007.4
350816.32438928203,1007.4
350816.35530358803,1007.4
350816.386187378,1007.4
350816.417101684,1007.4
350816.44798547303,1007.4
350816.47889978,1007.4
350816.509783569,1007.4
350816.540697876,1007.4
350816.571581665,1007.4
350816.602495971,1007.4
350816.63337976,1007.4
350816.664294067,1007.4
350816.695177856,1007.4
350816.726092163,1007.4
350816.756975952,1007.4
350816.787890258,1007.4
350816.818774047,1007.4
350816.849688354,1007.4
350816.880572143,1007.4
350816.91148645,1007.4
350816.942370239,1007.4
350816.973284546,1007.4
350817.004168335,1007.4
350817.035082641,1007.37
350817.06596643,1007.37
350817.096850219,1007.37
350817.127764526,1007.38
350817.158648315,1007.38
350817.18956262205,1007.38
350817.220446411,1007.38
350817.251360717,1007.38
350817.282244506,1007.38
350817.31315881305,1007.38
350817.344042602,1007.38
350817.37495690904,1007.38
350817.40584069805,1007.38
350817.43675500405,1007.38
350817.46763879404,1007.38
350817.49855310004,1007.38
350817.52943688905,1007.38
350817.56035119604,1007.38
350817.59123498504,1007.38
350817.62214929203,1007.38
350817.65303308103,1007.38
350817.68394738704,1007.38
350817.71483117604,1007.38
350817.74574548303,1007.38
350817.77662927203,1007.38
350817.807543579,1007.38
350817.838427368,1007.38
350817.869341674,1007.38
350817.90022546303,1007.39
350817.93113977,1007.39
350817.962023559,1007.39
350817.992937866,1007.39
350818.023821655,1007.39
350818.054735962,1007.39
350818.085619751,1007.39
350818.116534057,1007.39
350818.147417846,1007.39
350818.178332153,1007.39
350818.209215942,1007.39
350818.240130249,1007.39
350818.271014038,1007.39
350818.301928344,1007.39
350818.332812133,1007.39
350818.36372644,1007.39
350818.394610229,1007.39
350818.425524536,1007.39
350818.456408325,1007.39
350818.487322631,1007.39
350818.518206421,1007.39
350818.549120727,1007.39
350818.580004516,1007.39
350818.61091882305,1007.39
350818.641802612,1007.39
350818.67271691904,1007.39
350818.70360070805,1007.39
350818.73451501405,1007.39
350818.76539880305,1007.39
350818.79631311004,1007.39
350818.82719689904,1007.39
350818.85811120603,1007.39
350818.88899499504,1007.39
350818.91990930104,1007.39
350818.95079309004,1007.39
350818.98170739703,1007.39
350819.01259118604,1007.39
350819.043505493,1007.39
350819.07438928203,1007.39
350819.10530358803,1007.39
350819.136187378,1007.39
350819.167101684,1007.39
350819.19798547303,1007.39
350819.22889978,1007.39
350819.259783569,1007.39
350819.290697876,1007.39
350819.321581665,1007.39
350819.352495971,1007.39
350819.38337976,1007.39
350819.414294067,1007.39
350819.445177856,1007.39
350819.476092163,1007.39
350819.506975952,1007.39
350819.537890258,1007.39
350819.568774047,1007.39
350819.599688354,1007.39
350819.630572143,1007.4
350819.66148645,1007.4
350819.692370239,1007.39
350819.723284546,1007.39
350819.754168335,1007.39
350819.785082641,1007.39
350819.81596643,1007.4
350819.846850219,1007.4
350819.877764526,1007.4
350819.908648315,1007.4
350819.93956262205,1007.4
350819.970446411,1007.4
350820.001360717,1007.4
350820.032244506,1007.4
350820.06315881305,1007.4
350820.094042602,1007.4
350820.12495690904,1007.4
350820.15584069805,1007.4
350820.18675500405,1007.39
350820.21763879404,1007.39
350820.24855310004,1007.39
350820.27943688905,1007.39
350820.31035119604,1007.39
350820.34123498504,1007.39
350820.37214929203,1007.4
350820.40303308103,1007.4
350820.43394738704,1007.4
350820.46483117604,1007.4
350820.49574548303,1007.4
350820.52662927203,1007.4
350820.557543579,1007.4
350820.588427368,1007.4
350820.619341674,1007.4
350820.65022546303,1007.4
350820.68113977,1007.4
350820.712023559,1007.4
350820.742937866,1007.4
350820.773821655,1007.4
350820.804735962,1007.4
350820.835619751,1007.4
350820.866534057,1007.4
350820.897417846,1007.4
350820.928332153,1007.4
350820.959215942,1007.4
350820.990130249,1007.4
350821.021014038,1007.4
350821.051928344,1007.4
350821.082812133,1007.4
350821.11372644,1007.4
350821.144610229,1007.4
350821.175524536,1007.4
350821.206408325,1007.4
350821.237322631,1007.4
350821.268206421,1007.4
350821.299120727,1007.4
350821.330004516,1007.4
350821.36091882305,1007.4
350821.391802612,1007.4
350821.42271691904,1007.4
350821.45360070805,1007.4
350821.48451501405,1007.4
350821.51539880305,1007.4
350821.54631311004,1007.4
350821.57719689904,1007.4
350821.60811120603,1007.4
350821.63899499504,1007.4
350821.66990930104,1007.4
350821.70079309004,1007.4
350821.73170739703,1007.4
350821.76259118604,1007.4
350821.793505493,1007.4
350821.82438928203,1007.4
350821.85530358803,1007.4
350821.886187378,1007.4
350821.917101684,1007.4
350821.94798547303,1007.4
350821.97889978,1007.4
350822.009783569,1007.4
350822.040697876,1007.4
350822.071581665,1007.4
350822.102495971,1007.4
350822.13337976,1007.4
350822.164294067,1007.4
350822.195177856,1007.4
350822.226092163,1007.4
350822.256975952,1007.4
350822.287890258,1007.4
350822.318774047,1007.4
350822.349688354,1007.4
350822.380572143,1007.4
350822.41148645,1007.4
350822.442370239,1007.4
350822.473284546,1007.4
350822.504168335,1007.4
350822.535082641,1007.4
350822.56596643,1007.4
350822.596880737,1007.4
350822.627764526,1007.4
350822.658648315,1007.4
350822.68956262205,1007.4
350822.720446411,1007.4
350822.751360717,1007.4
350822.782244506,1007.4
350822.81315881305,1007.4
350822.844042602,1007.4
350822.87495690904,1007.41
350822.90584069805,1007.41
350822.93675500405,1007.41
350822.96763879404,1007.41
350822.99855310004,1007.41
350823.02943688905,1007.41
350823.06035119604,1007.41
350823.09123498504,1007.41
350823.12214929203,1007.41
350823.15303308103,1007.41
350823.18394738704,1007.41
350823.21483117604,1007.41
350823.24574548303,1007.39
350823.27662927203,1007.39
350823.307543579,1007.39
350823.338427368,1007.39
350823.369341674,1007.39
350823.40022546303,1007.39
350823.43113977,1007.39
350823.462023559,1007.39
350823.492937866,1007.39
350823.523821655,1007.39
350823.554735962,1007.39
350823.585619751,1007.39
350823.616534057,1007.39
350823.647417846,1007.39
350823.678332153,1007.39
350823.709215942,1007.39
350823.740130249,1007.39
350823.771014038,1007.39
350823.801928344,1007.39
350823.832812133,1007.39
350823.86372644,1007.39
350823.894610229,1007.39
350823.925524536,1007.39
350823.956408325,1007.39
350823.987322631,1007.39
350824.018206421,1007.39
350824.049120727,1007.39
350824.080004516,1007.39
350824.11091882305,1007.39
350824.141802612,1007.39
350824.17271691904,1007.39
350824.20360070805,1007.39
350824.23451501405,1007.39
350824.26539880305,1007.39
350824.29631311004,1007.39
350824.32719689904,1007.39
350824.35811120603,1007.39
350824.38899499504,1007.39
350824.41990930104,1007.39
350824.45079309004,1007.39
350824.48170739703,1007.39
350824.512612837,1007.39
350824.543527144,1007.39
350824.574410933,1007.39
350824.605325239,1007.39
350824.636209029,1007.39
350824.667123335,1007.4
350824.698007124,1007.4
350824.728921431,1007.4
350824.75980522,1007.4
350824.790719527,1007.4
350824.821603316,1007.4
350824.852517622,1007.4
350824.883401411,1007.4
350824.914315718,1007.4
350824.945199507,1007.4
350824.97611381405,1007.4
350825.00699760305,1007.4
350825.03791190905,1007.4
350825.068795698,1007.4
350825.09971000504,1007.4
350825.13059379405,1007.4
350825.16150810104,1007.4
350825.19239189004,1007.4
350825.22330619703,1007.4
350825.25418998604,1007.4
350825.28510429204,1007.4
350825.31598808104,1007.4
350825.34690238803,1007.4
350825.37778617704,1007.4
350825.408700484,1007.4
350825.43958427303,1007.4
350825.47046806203,1007.4
350825.50138236803,1007.4
350825.53226615704,1007.4
350825.563180464,1007.4
350825.59406425303,1007.4
350825.62497856,1007.4
350825.655862349,1007.4
350825.686776655,1007.4
350825.717660445,1007.4
350825.748574751,1007.4
350825.77945854,1007.4
350825.810372847,1007.4
350825.841256636,1007.41
350825.872170943,1007.41
350825.903054732,1007.41
350825.933969038,1007.41
350825.964852827,1007.41
350825.995767134,1007.41
350826.026650923,1007.41
350826.05756523,1007.41
350826.088449019,1007.41
350826.119363325,1007.41
350826.150247114,1007.41
350826.181161421,1007.41
350826.21204521,1007.41
350826.242959517,1007.41
350826.273843306,1007.41
350826.30475761305,1007.41
350826.335641402,1007.41
350826.366555708,1007.41
350826.397439497,1007.41
350826.42835380405,1007.41
350826.459237593,1007.41
350826.49015190004,1007.41
350826.52103568905,1007.41
350826.55194999505,1007.41
350826.58283378405,1007.41
350826.61374809104,1007.41
350826.64463188004,1007.41
350826.67554618703,1007.42
350826.70642997604,1007.42
350826.73734428204,1007.42
350826.76822807203,1007.42
350826.79914237803,1007.42
350826.83002616704,1007.42
350826.860940474,1007.42
350826.89182426303,1007.42
350826.92273857,1007.42
350826.953622359,1007.42
350826.984536665,1007.42
350827.01542045403,1007.42
350827.046334761,1007.42
350827.07721855,1007.42
350827.108132857,1007.42
350827.139016646,1007.42
350827.169930952,1007.42
350827.200814741,1007.42
350827.231729048,1007.42
350827.262612837,1007.42
350827.293527144,1007.42
350827.324410933,1007.42
350827.355325239,1007.42
350827.386209029,1007.42
350827.417123335,1007.42
350827.448007124,1007.42
350827.478921431,1007.42
350827.50980522,1007.42
350827.540719527,1007.42
350827.571603316,1007.4
350827.602517622,1007.4
350827.633401411,1007.4
350827.664315718,1007.4
350827.695199507,1007.4
350827.72611381405,1007.4
350827.75699760305,1007.4
350827.78791190905,1007.4
350827.818795698,1007.4
350827.84971000504,1007.4
350827.88059379405,1007.4
350827.91150810104,1007.4
350827.94239189004,1007.4
350827.97330619703,1007.4
350828.00418998604,1007.4
350828.03510429204,1007.4
350828.06598808104,1007.4
350828.09690238803,1007.4
350828.12778617704,1007.4
350828.158700484,1007.4
350828.18958427303,1007.4
350828.22049857903,1007.4
350828.25138236803,1007.4
350828.28226615704,1007.4
350828.313180464,1007.4
350828.34406425303,1007.4
350828.37497856,1007.4
350828.405862349,1007.4
350828.436776655,1007.4
350828.467660445,1007.4
350828.498574751,1007.41
350828.52945854,1007.41
350828.560372847,1007.41
350828.591256636,1007.41
350828.622170943,1007.41
350828.653054732,1007.41
350828.683969038,1007.41
350828.714852827,1007.41
350828.745767134,1007.41
350828.776650923,1007.41
350828.80756523,1007.41
350828.838449019,1007.41
350828.869363325,1007.41
350828.900247114,1007.41
350828.931161421,1007.41
350828.96204521,1007.41
350828.992959517,1007.41
350829.023843306,1007.41
350829.05475761305,1007.41
350829.085641402,1007.41
350829.116555708,1007.41
350829.147439497,1007.41
350829.17835380405,1007.42
350829.209237593,1007.42
350829.24015190004,1007.42
350829.27103568905,1007.42
350829.30194999505,1007.42
350829.33283378405,1007.42
350829.36374809104,1007.42
350829.39463188004,1007.42
350829.42554618703,1007.42
350829.45642997604,1007.42
350829.48734428204,1007.42
350829.51822807203,1007.42
350829.54914237803,1007.42
350829.58002616704,1007.42
350829.610940474,1007.42
350829.64182426303,1007.42
350829.67273857,1007.42
350829.703622359,1007.42
350829.734536665,1007.43
350829.76542045403,1007.43
350829.796334761,1007.43
350829.82721855,1007.43
350829.858132857,1007.43
350829.889016646,1007.43
350829.919930952,1007.43
350829.950814741,1007.43
350829.981729048,1007.43
350830.012612837,1007.43
350830.043527144,1007.43
350830.074410933,1007.43
350830.105325239,1007.43
350830.136209029,1007.43
350830.167123335,1007.43
350830.198007124,1007.43
350830.228921431,1007.43
350830.25980522,1007.43
350830.290719527,1007.43
350830.321603316,1007.43
350830.352517622,1007.43
350830.383401411,1007.43
350830.414315718,1007.43
350830.445199507,1007.43
350830.47611381405,1007.43
350830.50699760305,1007.43
350830.53791190905,1007.43
350830.568795698,1007.43
350830.59971000504,1007.43
350830.63059379405,1007.43
350830.66150810104,1007.43
350830.69239189004,1007.43
350830.72330619703,1007.43
350830.75418998604,1007.43
350830.78510429204,1007.44
350830.81598808104,1007.44
350830.84690238803,1007.44
350830.87778617704,1007.44
350830.908700484,1007.44
350830.93958427303,1007.44
350830.97049857903,1007.44
350831.00138236803,1007.44
350831.032296675,1007.44
350831.063180464,1007.44
350831.09406425303,1007.44
350831.12497856,1007.44
350831.155862349,1007.44
350831.186776655,1007.41
350831.217660445,1007.41
350831.248574751,1007.41
350831.27945854,1007.41
350831.310372847,1007.41
350831.341256636,1007.41
350831.372170943,1007.41
350831.403054732,1007.41
350831.433969038,1007.41
350831.464852827,1007.41
350831.495767134,1007.41
350831.526650923,1007.41
350831.55756523,1007.41
350831.588449019,1007.41
350831.619363325,1007.41
350831.650247114,1007.41
350831.681161421,1007.41
350831.71204521,1007.41
350831.742959517,1007.41
350831.773843306,1007.41
350831.80475761305,1007.41
350831.835641402,1007.41
350831.866555708,1007.41
350831.897439497,1007.41
350831.92835380405,1007.41
350831.959237593,1007.41
350831.99015190004,1007.41
350832.02103568905,1007.41
350832.05194999505,1007.41
350832.08283378405,1007.41
350832.11374809104,1007.41
350832.14463188004,1007.41
350832.17554618703,1007.41
350832.20642997604,1007.41
350832.23734428204,1007.41
350832.26822807203,1007.41
350832.29914237803,1007.41
350832.33002616704,1007.41
350832.360940474,1007.41
350832.39182426303,1007.41
350832.42273857,1007.42
350832.453622359,1007.42
350832.484536665,1007.42
350832.51542045403,1007.42
350832.546334761,1007.42
350832.57721855,1007.42
350832.608132857,1007.42
350832.639016646,1007.42
350832.669930952,1007.42
350832.700814741,1007.42
350832.731729048,1007.42
350832.762612837,1007.42
350832.793527144,1007.42
350832.824410933,1007.42
350832.855325239,1007.42
350832.886209029,1007.42
350832.917123335,1007.42
350832.948007124,1007.42
350832.978921431,1007.42
350833.00980522,1007.42
350833.040719527,1007.42
350833.071603316,1007.42
350833.102517622,1007.42
350833.133401411,1007.42
350833.164315718,1007.42
350833.195199507,1007.42
350833.22611381405,1007.42
350833.25699760305,1007.43
350833.28791190905,1007.43
350833.318795698,1007.43
350833.34971000504,1007.43
350833.38059379405,1007.43
350833.41150810104,1007.43
350833.44239189004,1007.43
350833.47330619703,1007.43
350833.50418998604,1007.43
350833.53510429204,1007.43
350833.56598808104,1007.43
350833.59690238803,1007.43
350833.62778617704,1007.43
350833.658700484,1007.44
350833.68958427303,1007.44
350833.72049857903,1007.44
350833.75138236803,1007.44
350833.782296675,1007.44
350833.813180464,1007.44
350833.84406425303,1007.44
350833.87497856,1007.44
350833.905862349,1007.44
350833.936776655,1007.44
350833.967660445,1007.44
350833.998574751,1007.44
350834.02945854,1007.44
350834.060372847,1007.44
350834.091256636,1007.44
350834.122170943,1007.44
350834.153054732,1007.44
350834.183969038,1007.44
350834.214852827,1007.44
350834.245767134,1007.44
350834.276650923,1007.44
350834.30756523,1007.44
350834.338449019,1007.45
350834.369363325,1007.45
350834.400247114,1007.45
350834.431161421,1007.45
350834.46204521,1007.45
350834.492959517,1007.45
350834.523811537,1007.45
350834.554725844,1007.45
350834.585609633,1007.45
350834.616523939,1007.45
350834.647407728,1007.45
350834.678322035,1007.45
350834.709205824,1007.45
350834.740120131,1007.45
350834.77100392,1007.45
350834.801918226,1007.45
350834.832802015,1007.45
350834.863716322,1007.45
350834.894600111,1007.45
350834.92551441805,1007.45
350834.956398207,1007.45
350834.987312513,1007.45
350835.01819630305,1007.45
350835.04911060905,1007.45
350835.079994398,1007.45
350835.11090870504,1007.45
350835.14179249405,1007.45
350835.17270680104,1007.45
350835.20359059004,1007.45
350835.23450489604,1007.45
350835.26538868505,1007.45
350835.29630299204,1007.45
350835.32718678104,1007.45
350835.35810108803,1007.45
350835.38898487703,1007.45
350835.41989918303,1007.45
350835.45078297204,1007.45
350835.481697279,1007.4
350835.51258106803,1007.4
350835.543495375,1007.4
350835.574379164,1007.4
350835.60529347,1007.4
350835.63617726,1007.4
350835.667091566,1007.4
350835.697975355,1007.4
350835.728889662,1007.4
350835.759773451,1007.4
350835.790687758,1007.4
350835.821571547,1007.4
350835.852485853,1007.4
350835.883369642,1007.4
350835.914283949,1007.4
350835.945167738,1007.4
350835.976082045,1007.4
350836.006965834,1007.4
350836.03788014,1007.41
350836.068763929,1007.41
350836.099678236,1007.41
350836.130562025,1007.41
350836.161476332,1007.41
350836.192360121,1007.41
350836.22327442805,1007.41
350836.254158217,1007.41
350836.285072523,1007.41
350836.315956312,1007.41
350836.34687061905,1007.41
350836.377754408,1007.41
350836.40866871504,1007.41
350836.43955250405,1007.42
350836.47046681005,1007.42
350836.50135059905,1007.42
350836.53226490604,1007.42
350836.56314869504,1007.42
350836.59406300203,1007.42
350836.62494679104,1007.42
350836.65583058004,1007.42
350836.68674488604,1007.42
350836.71762867604,1007.42
350836.74854298204,1007.42
350836.77942677104,1007.42
350836.81034107803,1007.43
350836.84122486704,1007.43
350836.872139174,1007.43
350836.90302296303,1007.43
350836.93393726903,1007.43
350836.96482105803,1007.43
350836.995735365,1007.43
350837.026619154,1007.43
350837.057533461,1007.43
350837.08841725,1007.43
350837.119331556,1007.43
350837.150215345,1007.43
350837.181129652,1007.44
350837.212013441,1007.44
350837.242927748,1007.44
350837.273811537,1007.44
350837.304725844,1007.44
350837.335609633,1007.44
350837.366523939,1007.44
350837.397407728,1007.44
350837.428322035,1007.44
350837.459205824,1007.44
350837.490120131,1007.45
350837.52100392,1007.45
350837.551918226,1007.45996
350837.582802015,1007.45996
350837.613716322,1007.45996
350837.644600111,1007.45996
350837.67551441805,1007.45996
350837.706398207,1007.45996
350837.737312513,1007.45996
350837.76819630305,1007.47
350837.79911060905,1007.47
350837.829994398,1007.47
350837.86090870504,1007.47
350837.89179249405,1007.47
350837.92270680104,1007.47
350837.95359059004,1007.47
350837.98450489604,1007.47
350838.01538868505,1007.47
350838.04630299204,1007.48
350838.07718678104,1007.48
350838.10810108803,1007.48
350838.13898487703,1007.48
350838.16989918303,1007.48
350838.20078297204,1007.48
350838.231697279,1007.49
350838.26258106803,1007.49
350838.293495375,1007.49
350838.32431812905,1007.49
350838.355140883,1007.49
350838.38596363604,1007.49
350838.41678639,1007.49
350838.44760914403,1007.5
350838.478431898,1007.5
350838.509254652,1007.5
350838.54007740604,1007.5
350838.57090016,1007.5
350838.601722914,1007.5
350838.63254566805,1007.52
350838.663368422,1007.52
350838.69419117604,1007.52
350838.725013929,1007.48
350838.75583668303,1007.48
350838.786659437,1007.49
350838.817482191,1007.49
350838.84830494504,1007.49
350838.879127699,1007.49
350838.90995045303,1007.5
350838.940773207,1007.5
350838.971595961,1007.5
350839.00241871504,1007.5
350839.033241469,1007.5
350839.06406422204,1007.5
350839.094886976,1007.5
350839.12570973,1007.52
350839.15653248405,1007.52
350839.187355238,1007.52
350839.21817799204,1007.52
350839.249000746,1007.52
350839.2798235,1007.53
350839.31064625405,1007.53
350839.341469008,1007.53
350839.37229176104,1007.53
350839.403114515,1007.53
350839.43393726903,1007.53
350839.464760023,1007.53
350839.495582777,1007.53
350839.52640553104,1007.53
350839.557228285,1007.54
350839.588051039,1007.54
350839.61887379305,1007.54
350839.649696547,1007.54
350839.68051930104,1007.55
350839.711342054,1007.55
350839.74216480803,1007.55
350839.772987562,1007.55
350839.803810316,1007.55
350839.83463307004,1007.55
350839.865455824,1007.55
350839.89627857803,1007.55
350839.927101332,1007.55
350839.957924086,1007.55
350839.98874684004,1007.55
350840.019569594,1007.55
350840.05039234704,1007.55
350840.081215101,1007.55
350840.112037855,1007.55
350840.14286060905,1007.56
350840.173683363,1007.56
350840.20450611704,1007.56
350840.235328871,1007.56
350840.266151625,1007.56
350840.29697437905,1007.56
350840.327797133,1007.57
350840.35861988604,1007.57
350840.38944264,1007.57
350840.42026539403,1007.57
350840.451088148,1007.57
350840.481910902,1007.57
350840.51273365604,1007.57
350840.54355641,1007.57
350840.574379164,1007.57
350840.60520191805,1007.57
350840.636024672,1007.57996
350840.66684742604,1007.57996
350840.697670179,1007.57996
350840.72849293303,1007.57996
350840.759315687,1007.57996
350840.790138441,1007.57996
350840.82096119504,1007.57996
350840.851783949,1007.57996
350840.88260670303,1007.57996
350840.913429457,1007.57996
350840.944252211,1007.57996
350840.97507496504,1007.57996
350841.005897719,1007.57996
350841.03672047204,1007.57996
350841.067543226,1007.57996
350841.09836598,1007.6
350841.12918873405,1007.6
350841.160011488,1007.6
350841.19083424204,1007.6
350841.221656996,1007.6
350841.25247975,1007.6
350841.28330250405,1007.6
350841.314125258,1007.6
350841.34494801104,1007.6
350841.375770765,1007.6
350841.40659351903,1007.61
350841.437416273,1007.61
350841.468239027,1007.61
350841.49906178104,1007.61
350841.529884535,1007.61
350841.560707289,1007.62
350841.59153004305,1007.62
350841.622352797,1007.62
350841.65317555104,1007.62
350841.683998304,1007.62
350841.71482105803,1007.62
350841.745643812,1007.62
350841.776466566,1007.62
350841.80728932004,1007.62
350841.838112074,1007.62
350841.86893482803,1007.63
350841.899757582,1007.63
350841.930580336,1007.63
350841.96140309004,1007.63
350841.992225844,1007.63
350842.02304859704,1007.63
350842.053871351,1007.63
350842.084694105,1007.63
350842.11551685905,1007.63
350842.146339613,1007.64
350842.17716236704,1007.64
350842.207985121,1007.64
350842.238807875,1007.64
350842.26963062905,1007.64
350842.300453383,1007.64
350842.33127613604,1007.65
350842.36209889,1007.65
350842.39292164403,1007.65
350842.423744398,1007.62
350842.454567152,1007.62
350842.48538990604,1007.62
350842.51621266,1007.63
350842.547035414,1007.63
350842.57785816805,1007.63
350842.608680922,1007.63
350842.63950367604,1007.63
350842.670326429,1007.63
350842.70114918303,1007.63
350842.731971937,1007.63
350842.762794691,1007.63
350842.79361744504,1007.64
350842.824440199,1007.64
350842.85526295303,1007.64
350842.886085707,1007.64
350842.916908461,1007.64
350842.94773121504,1007.64
350842.978553969,1007.64
350843.00937672204,1007.65
350843.040199476,1007.65
350843.07102223,1007.65
350843.10184498405,1007.65
350843.132667738,1007.65
350843.16349049204,1007.65
350843.194313246,1007.65
350843.225136,1007.65
350843.25595875405,1007.65
350843.286781508,1007.66
350843.31760426104,1007.66
350843.348427015,1007.66
350843.37924976903,1007.66
350843.410072523,1007.66
350843.440895277,1007.66
350843.47171803104,1007.66
350843.502540785,1007.66
350843.533363539,1007.66
350843.56418629305,1007.67
350843.595009047,1007.67
350843.62583180104,1007.67
350843.656654554,1007.67
350843.68747730803,1007.68
350843.718300062,1007.68
350843.749122816,1007.68
350843.77994557004,1007.68
350843.810768324,1007.68
350843.84159107803,1007.68
350843.872413832,1007.69
350843.903236586,1007.69
350843.93405934004,1007.69
350843.964882094,1007.69
350843.99570484704,1007.69
350844.026527601,1007.69
350844.057350355,1007.69
350844.08817310905,1007.69
350844.118995863,1007.69
350844.14981861704,1007.7
350844.180641371,1007.7
350844.211464125,1007.7
350844.24228687905,1007.7
350844.273109633,1007.7
350844.30393238604,1007.7
350844.33475514,1007.7
350844.36557789403,1007.7
350844.396400648,1007.7
350844.427223402,1007.70996
350844.45804615604,1007.70996
350844.48886891,1007.70996
350844.51971308404,1007.70996
350844.550535838,1007.70996
350844.581358592,1007.70996
350844.61218134605,1007.70996
350844.643004099,1007.72
350844.67382685305,1007.72
350844.704649607,1007.72
350844.73547236103,1007.72
350844.766295115,1007.72
350844.797117869,1007.73
350844.82794062304,1007.73
350844.858763377,1007.73
350844.88958613103,1007.73
350844.920408885,1007.73
350844.951231639,1007.73
350844.98205439205,1007.73
350845.012877146,1007.74
350845.04369990004,1007.74
350845.074522654,1007.74
350845.105345408,1007.74
350845.13616816205,1007.74
350845.166990916,1007.74
350845.19781367003,1007.74
350845.228636424,1007.74
350845.259459178,1007.74
350845.290281931,1007.75
350845.321104685,1007.75
350845.35192743904,1007.75
350845.382750193,1007.76
350845.413572947,1007.76
350845.444395701,1007.76
350845.475218455,1007.76
350845.50604120904,1007.76
350845.536863963,1007.76
350845.567686717,1007.76
350845.59850947105,1007.76
350845.629332224,1007.76
350845.66015497805,1007.76
350845.690977732,1007.77
350845.72180048603,1007.77
350845.75262324,1007.77
350845.783445994,1007.77
350845.81426874804,1007.77
350845.845091502,1007.77
350845.87591425603,1007.78
350845.90673701,1007.78
350845.937559764,1007.78
350845.96838251705,1007.78
350845.999205271,1007.78
350846.03002802504,1007.78
350846.060850779,1007.78
350846.091673533,1007.78
350846.12249628705,1007.78
350846.153319041,1007.79
350846.18414179503,1007.79
350846.214964549,1007.79
350846.245787303,1007.79
350846.276610056,1007.79
350846.30743281,1007.79
350846.33825556404,1007.8
350846.369078318,1007.8
350846.399901072,1007.8
350846.430723826,1007.8
350846.46154658,1007.8
350846.49236933404,1007.8
350846.523192088,1007.81
350846.554014842,1007.81
350846.58483759605,1007.81
350846.615660349,1007.81
350846.64648310305,1007.81
350846.677305857,1007.81
350846.70812861103,1007.79
350846.738951365,1007.79
350846.769774119,1007.79
350846.80059687304,1007.79
350846.831419627,1007.79
350846.86224238103,1007.79
350846.893065135,1007.79
350846.923887889,1007.79
350846.95471064205,1007.79
350846.985533396,1007.79
350847.01635615004,1007.8
350847.047178904,1007.8
350847.078001658,1007.8
350847.10882441205,1007.8
350847.139647166,1007.8
350847.17046992003,1007.8
350847.201292674,1007.81
350847.232115428,1007.81
350847.262938181,1007.81
350847.293760935,1007.81
350847.32458368904,1007.81
350847.355406443,1007.81
350847.386229197,1007.81
350847.417051951,1007.81
350847.447874705,1007.81
350847.47869745904,1007.82
350847.509520213,1007.82
350847.540342967,1007.82
350847.57116572105,1007.82
350847.601988474,1007.82
350847.63281122805,1007.82
350847.663633982,1007.82
350847.69445673603,1007.82
350847.72527949,1007.82
350847.756102244,1007.82996
350847.78692499804,1007.82996
350847.817747752,1007.82996
350847.84857050603,1007.82996
350847.87939326,1007.82996
350847.910216014,1007.82996
350847.94103876705,1007.82996
350847.971861521,1007.82996
350848.00268427504,1007.82996
350848.033507029,1007.83997
350848.064329783,1007.83997
350848.09515253705,1007.83997
350848.125975291,1007.83997
350848.15679804503,1007.83997
350848.187620799,1007.83997
350848.218443553,1007.83997
350848.249266306,1007.83997
350848.28008906,1007.83997
350848.31091181404,1007.83997
350848.341734568,1007.85
350848.372557322,1007.85
350848.403380076,1007.85
350848.43420283,1007.85
350848.46502558404,1007.85
350848.495848338,1007.85
350848.526671092,1007.86
350848.55749384605,1007.86
350848.588316599,1007.86
350848.61913935305,1007.86
350848.649962107,1007.86
350848.68078486103,1007.86
350848.711607615,1007.87
350848.742430369,1007.87
350848.77325312304,1007.87
350848.804075877,1007.87
350848.83489863103,1007.87
350848.865721385,1007.87
350848.896544139,1007.87
350848.92736689205,1007.88
350848.958189646,1007.88
350848.98901240004,1007.88
350849.019835154,1007.88
350849.050657908,1007.88
350849.08148066205,1007.88
350849.112303416,1007.88
350849.14312617003,1007.88
350849.173948924,1007.88
350849.204771678,1007.89
350849.235594431,1007.89
350849.266417185,1007.89
350849.29723993904,1007.89
350849.328062693,1007.89
350849.358885447,1007.89
350849.389708201,1007.89
350849.420530955,1007.89
350849.45135370904,1007.89
350849.482176463,1007.9
350849.512999217,1007.9
350849.54382197105,1007.9
350849.574644724,1007.9
350849.60546747805,1007.9
350849.636290232,1007.9
350849.66711298603,1007.9
350849.69793574,1007.9
350849.728758494,1007.9
350849.75958124804,1007.9
350849.790404002,1007.9
350849.82122675603,1007.9
350849.85204951,1007.9
350849.882872264,1007.91
350849.91369501705,1007.91
350849.944517771,1007.91
350849.97534052504,1007.91
350850.006163279,1007.91
350850.036986033,1007.91
350850.06780878705,1007.91
350850.098631541,1007.91
350850.12945429503,1007.91
350850.160277049,1007.91
350850.191099803,1007.91
350850.221922556,1007.91
350850.25274531,1007.92
350850.28356806404,1007.92
350850.314390818,1007.92
350850.345213572,1007.92
350850.376036326,1007.92
350850.40685908,1007.92
350850.43768183404,1007.92
350850.468504588,1007.92
350850.499327342,1007.92
350850.53015009605,1007.92
350850.560972849,1007.92
350850.59179560305,1007.92
350850.622618357,1007.92
350850.65344111103,1007.92
350850.684263865,1007.92
350850.715086619,1007.93
350850.74590937304,1007.93
350850.776732127,1007.93
350850.80755488103,1007.93
350850.838377635,1007.93
350850.869200389,1007.93
350850.90002314205,1007.93
350850.930845896,1007.9
350850.96166865004,1007.9
350850.992491404,1007.9
350851.023314158,1007.9
350851.05413691205,1007.9
350851.084959666,1007.9
350851.11578242003,1007.9
350851.146605174,1007.9
350851.177427928,1007.9
350851.208250681,1007.91
350851.239073435,1007.91
350851.26989618904,1007.91
350851.300718943,1007.91
350851.331541697,1007.91
350851.362364451,1007.91
350851.393187205,1007.91
350851.42400995904,1007.91
350851.454832713,1007.91
350851.485655467,1007.94
350851.51647822105,1007.94
350851.547300974,1007.94
350851.57812372805,1007.94
350851.608946482,1007.94
350851.63976923603,1007.94
350851.67059199,1007.91
350851.701414744,1007.91
350851.73223749804,1007.91
350851.763060252,1007.94
350851.79388300603,1007.94
350851.82470576,1007.94
350851.855528514,1007.94
350851.88635126705,1007.94
350851.917174021,1007.94
350851.94799677504,1007.94
350851.978819529,1007.94
350852.009642283,1007.94
350852.04046503705,1007.94
350852.071287791,1007.94
350852.10211054503,1007.94
350852.132933299,1007.94
350852.163756053,1007.91
350852.194578806,1007.91
350852.22540156,1007.91
350852.25622431404,1007.91
350852.287047068,1007.91
350852.317869822,1007.91
350852.348692576,1007.91
350852.37951533,1007.91
350852.41033808404,1007.91
350852.441160838,1007.93
350852.471983592,1007.93
350852.50280634605,1007.93
350852.533629099,1007.9
350852.56445185305,1007.9
350852.595274607,1007.9
350852.62609736103,1007.9
350852.656920115,1007.9
350852.687742869,1007.9
350852.71856562304,1007.9
350852.749388377,1007.9
350852.78021113103,1007.9
350852.811033885,1007.9
350852.841856639,1007.9
350852.87267939205,1007.9
350852.903502146,1007.9
350852.93432490004,1007.9
350852.965147654,1007.9
350852.995970408,1007.9
350853.02679316205,1007.9
350853.057615916,1007.9
350853.08843867003,1007.89
350853.119261424,1007.89
350853.150084178,1007.89
350853.180906931,1007.89
350853.211729685,1007.89
350853.24255243904,1007.89
350853.273375193,1007.89
350853.304197947,1007.89
350853.335020701,1007.89
350853.365843455,1007.89
350853.39666620904,1007.89
350853.427488963,1007.89
350853.458311717,1007.89
350853.48913447105,1007.89
350853.519957224,1007.89
350853.55077997805,1007.89
350853.581602732,1007.89
350853.61242548603,1007.89
350853.64324824,1007.89
350853.674070994,1007.88
350853.70489374804,1007.88
350853.735716502,1007.88
350853.76653925603,1007.88
350853.79736201,1007.88
350853.828184764,1007.88
350853.85900751705,1007.88
350853.889830271,1007.88
350853.92065302504,1007.88
350853.951475779,1007.88
350853.982298533,1007.88
350854.01312128705,1007.88
350854.043944041,1007.87
350854.07476679503,1007.87
350854.105589549,1007.87
350854.136412303,1007.87
350854.167235056,1007.87
350854.19805781,1007.87
350854.22888056404,1007.87
350854.259703318,1007.86
350854.290526072,1007.86
350854.321348826,1007.86
350854.35217158,1007.86
350854.38299433404,1007.86
350854.413817088,1007.86
350854.444639842,1007.86
350854.47546259605,1007.86
350854.50627679,1007.86
350854.537099544,1007.86
350854.56792229804,1007.86
350854.598745052,1007.86
350854.629567806,1007.86
350854.66039056005,1007.86
350854.691213314,1007.86
350854.72203606804,1007.85
350854.752858822,1007.85
350854.783681576,1007.85
350854.81450433005,1007.85
350854.845327083,1007.85
350854.87614983704,1007.85
350854.906972591,1007.85
350854.93779534503,1007.85
350854.968618099,1007.85
350854.999440853,1007.83997
350855.03026360704,1007.83997
350855.061086361,1007.83997
350855.091909115,1007.83997
350855.12273186905,1007.83997
350855.153554622,1007.83997
350855.18437737605,1007.83997
350855.21520013,1007.83997
350855.24602288404,1007.83997
350855.276845638,1007.82996
350855.307668392,1007.82996
350855.33849114605,1007.82996
350855.3693139,1007.82996
350855.40013665403,1007.82996
350855.430959408,1007.82996
350855.461782162,1007.82996
350855.492604915,1007.82996
350855.523427669,1007.82996
350855.55425042304,1007.82996
350855.585073177,1007.82996
350855.615895931,1007.82996
350855.64671868505,1007.82996
350855.677541439,1007.82
350855.70836419304,1007.82
350855.739186947,1007.82
350855.770009701,1007.82
350855.80083245505,1007.82
350855.831655208,1007.82
350855.86247796204,1007.82
350855.893300716,1007.82
350855.92412347003,1007.82
350855.954946224,1007.81
350855.985768978,1007.81
350856.01659173204,1007.81
350856.047414486,1007.81
350856.07823724,1007.81
350856.10905999405,1007.81
350856.139882747,1007.81
350856.17070550105,1007.81
350856.201528255,1007.81
350856.23235100904,1007.81
350856.263173763,1007.81
350856.293996517,1007.81
350856.32481927105,1007.81
350856.355642025,1007.81
350856.38646477903,1007.81
350856.417287533,1007.81
350856.448110287,1007.8
350856.47893304,1007.8
350856.509755794,1007.8
350856.54057854804,1007.8
350856.571401302,1007.8
350856.602224056,1007.8
350856.63304681005,1007.8
350856.663869564,1007.8
350856.69469231804,1007.8
350856.725515072,1007.79
350856.756337826,1007.79
350856.78716058005,1007.79
350856.817983333,1007.79
350856.84880608704,1007.79
350856.879628841,1007.79
350856.91045159503,1007.79
350856.941274349,1007.79
350856.972097103,1007.79
350857.00291985704,1007.79
350857.033742611,1007.79
350857.064565365,1007.79
350857.09538811905,1007.78
350857.126210872,1007.78
350857.15703362605,1007.78
350857.18785638,1007.78
350857.21867913404,1007.78
350857.249501888,1007.78
350857.280324642,1007.77
350857.31114739605,1007.77
350857.34197015,1007.77
350857.37279290403,1007.77
350857.403615658,1007.77
350857.434438412,1007.77
350857.465261165,1007.77
350857.496083919,1007.77
350857.52690667304,1007.77
350857.557729427,1007.76
350857.588552181,1007.76
350857.61937493505,1007.76
350857.650197689,1007.76
350857.68102044304,1007.76
350857.711843197,1007.76
350857.742665951,1007.76
350857.77348870505,1007.76
350857.804311458,1007.76
350857.83513421204,1007.76
350857.865956966,1007.75
350857.89677972003,1007.75
350857.927602474,1007.75
350857.958425228,1007.75
350857.98924798204,1007.75
350858.020070736,1007.75
350858.05089349,1007.75
350858.08171624405,1007.75
350858.112538997,1007.75
350858.14336175105,1007.75
350858.174184505,1007.74
350858.20500725904,1007.74
350858.235830013,1007.74
350858.266652767,1007.74
350858.29747552105,1007.74
350858.328298275,1007.74
350858.35912102903,1007.74
350858.389943783,1007.74
350858.420766537,1007.74
350858.45158929,1007.73
350858.482412044,1007.73
350858.51323479804,1007.73
350858.544057552,1007.73
350858.574880306,1007.73
350858.60570306005,1007.73
350858.636525814,1007.72
350858.66734856804,1007.72
350858.698171322,1007.72
350858.728994076,1007.72
350858.75981683005,1007.72
350858.790639583,1007.72
350858.82146233704,1007.72
350858.852285091,1007.72
350858.88310784503,1007.72
350858.913930599,1007.70996
350858.944753353,1007.70996
350858.97557610704,1007.70996
350859.006398861,1007.70996
350859.037221615,1007.70996
350859.06804436905,1007.70996
350859.098867122,1007.7
350859.12968987605,1007.7
350859.16051263,1007.7
350859.19133538404,1007.7
350859.222158138,1007.7
350859.252980892,1007.7
350859.28380364605,1007.7
350859.3146264,1007.7
350859.34544915403,1007.7
350859.376271908,1007.7
350859.407094662,1007.7
350859.437917415,1007.7
350859.468740169,1007.7
350859.49956292304,1007.69
350859.530385677,1007.69
350859.561208431,1007.69
350859.59203118505,1007.69
350859.622853939,1007.69
350859.65367669304,1007.69
350859.684499447,1007.69
350859.715322201,1007.69
350859.74614495505,1007.69
350859.776967708,1007.68
350859.80779046204,1007.68
350859.838613216,1007.68
350859.86943597003,1007.68
350859.900258724,1007.68
350859.931081478,1007.68
350859.96190423204,1007.67
350859.992726986,1007.67
350860.02354974,1007.67
350860.05437249405,1007.67
350860.085195247,1007.67
350860.11601800105,1007.67
350860.146840755,1007.67
350860.17766350904,1007.67
350860.208486263,1007.67
350860.239309017,1007.66
350860.27013177105,1007.66
350860.300954525,1007.66
350860.33177727903,1007.66
350860.362600033,1007.66
350860.393422787,1007.66
350860.42424554,1007.66
350860.455068294,1007.66
350860.48589104804,1007.66
350860.516713802,1007.66
350860.547536556,1007.66
350860.57835931005,1007.66
350860.609182064,1007.66
350860.64000481804,1007.65
350860.670827572,1007.65
350860.701650326,1007.65
350860.73247308005,1007.65
350860.763295833,1007.65
350860.79411858704,1007.65
350860.824941341,1007.65
350860.85576409503,1007.65
350860.886586849,1007.65
350860.917409603,1007.64
350860.94823235704,1007.64
350860.979055111,1007.64
350861.009877865,1007.64
350861.04070061905,1007.64
350861.071523372,1007.64
350861.10234612605,1007.64
350861.13316888,1007.64
350861.16399163404,1007.64
350861.194814388,1007.63
350861.225637142,1007.63
350861.25645989605,1007.63
350861.28728265,1007.63
350861.31810540403,1007.63
350861.348928158,1007.63
350861.379750912,1007.63
350861.410573665,1007.63
350861.441396419,1007.63
350861.47221917304,1007.62
350861.503041927,1007.62
350861.533864681,1007.62
350861.56468743505,1007.62
350861.595510189,1007.62
350861.62633294304,1007.62
350861.657155697,1007.62
350861.687978451,1007.62
350861.71880120505,1007.62
350861.749623958,1007.62
350861.78044671204,1007.61
350861.811269466,1007.61
350861.84209222003,1007.61
350861.872914974,1007.61
350861.903737728,1007.61
350861.93456048204,1007.61
350861.965383236,1007.6
350861.99620599,1007.6
350862.02702874405,1007.6
350862.057851497,1007.6
350862.08867425105,1007.6
350862.119497005,1007.6
350862.15031975904,1007.57996
350862.181142513,1007.57996
350862.211965267,1007.57996
350862.24278802105,1007.57996
350862.273610775,1007.57996
350862.30443352903,1007.57996
350862.335256283,1007.57
350862.366079037,1007.57
350862.39690179,1007.57
350862.427724544,1007.57
350862.45854729804,1007.57
350862.489370052,1007.57
350862.520192806,1007.57
350862.55101556005,1007.57
350862.581838314,1007.57
350862.61266106804,1007.57
350862.643483822,1007.56
350862.674306576,1007.56
350862.70512933005,1007.56
350862.735952083,1007.56
350862.76677483704,1007.56
350862.797597591,1007.56
350862.82842034503,1007.56
350862.859243099,1007.56
350862.890065853,1007.56
350862.92088860704,1007.55
350862.951711361,1007.55
350862.982534115,1007.55
350863.01335686905,1007.55
350863.044179622,1007.55
350863.07500237605,1007.55
350863.10582513,1007.55
350863.13664788404,1007.55
350863.167470638,1007.55
350863.198293392,1007.55
350863.22911614605,1007.55
350863.2599389,1007.55
350863.29076165403,1007.55
350863.321584408,1007.55
350863.352407162,1007.55
350863.383229915,1007.55
350863.414052669,1007.55
350863.44487542304,1007.55
350863.475698177,1007.55
350863.506520931,1007.55
350863.53734368505,1007.55
350863.568166439,1007.54
350863.59898919304,1007.54
350863.629811947,1007.54
350863.660634701,1007.54
350863.69145745505,1007.54
350863.722280208,1007.54
350863.75310296204,1007.54
350863.783925716,1007.54
350863.81474847003,1007.54
350863.845571224,1007.54
350863.876393978,1007.54
350863.90721673204,1007.54
350863.938039486,1007.54
350863.96886224,1007.53
350863.99968499405,1007.53
350864.030507747,1007.53
350864.06133050105,1007.53
350864.092153255,1007.53
350864.12297600904,1007.53
350864.153798763,1007.53
350864.184621517,1007.53
350864.21544427105,1007.53
350864.246267025,1007.52
350864.27708977903,1007.52
350864.307912533,1007.52
350864.338735287,1007.52
350864.36955804,1007.52
350864.400380794,1007.52
350864.43120354804,1007.5
350864.462026302,1007.5
350864.492862105,1007.5
350864.52368485904,1007.5
350864.554507613,1007.5
350864.58533036703,1007.5
350864.616153121,1007.5
350864.646975875,1007.5
350864.67779862904,1007.5
350864.708621382,1007.5
350864.739535689,1007.49
350864.770419478,1007.49
350864.801333785,1007.49
350864.832217574,1007.49
350864.86313188,1007.49
350864.89401567,1007.49
350864.924929976,1007.49
350864.955813765,1007.49
350864.98672807205,1007.49
350865.017611861,1007.48
350865.04852616804,1007.48
350865.07940995705,1007.48
350865.11032426305,1007.48
350865.141208052,1007.48
350865.17212235904,1007.48
350865.20303666603,1007.47
350865.23392045504,1007.47
350865.26483476104,1007.47
350865.29571855004,1007.47
350865.32663285703,1007.47
350865.35751664604,1007.47
350865.388430953,1007.47
350865.41931474203,1007.47
350865.45022904803,1007.47
350865.481112838,1007.47
350865.512027144,1007.47
350865.542910933,1007.47
350865.57382524,1007.47
350865.604739546,1007.47
350865.635623336,1007.47
350865.666537642,1007.47
350865.697421431,1007.45996
350865.728335738,1007.45996
350865.759219527,1007.45996
350865.790133834,1007.45996
350865.821017623,1007.45996
350865.851931929,1007.45
350865.882815718,1007.45
350865.913730025,1007.45
350865.944613814,1007.45
350865.975528121,1007.45
350866.006442427,1007.45
350866.037326216,1007.45
350866.06824052305,1007.45
350866.099124312,1007.45
350866.13003861904,1007.45
350866.16092240805,1007.45
350866.19183671405,1007.45
350866.22272050404,1007.45
350866.25363481004,1007.44
350866.28451859904,1007.44
350866.31543290603,1007.44
350866.34631669504,1007.44
350866.377231002,1007.44
350866.408145308,1007.44
350866.43902909703,1007.44
350866.469943404,1007.44
350866.500827193,1007.44
350866.5317415,1007.44
350866.562625289,1007.44
350866.593539595,1007.44
350866.624423384,1007.44
350866.655337691,1007.43
350866.68622148,1007.43
350866.717135787,1007.43
350866.748019576,1007.43
350866.778933882,1007.43
350866.809817671,1007.43
350866.840731978,1007.43
350866.871646285,1007.43
350866.902530074,1007.43
350866.93344438,1007.43
350866.96432817,1007.43
350866.995242476,1007.43
350867.026126265,1007.43
350867.05704057205,1007.43
350867.087924361,1007.42
350867.11883866804,1007.42
350867.14972245705,1007.42
350867.18063676305,1007.42
350867.211520552,1007.43
350867.24243485904,1007.43
350867.27334916603,1007.43
350867.30423295504,1007.42
350867.33514726104,1007.42
350867.36603105004,1007.42
350867.39694535703,1007.42
350867.42782914604,1007.42
350867.458743453,1007.42
350867.48962724203,1007.42
350867.52054154803,1007.42
350867.551425338,1007.42
350867.582339644,1007.42
350867.613223433,1007.42
350867.64413774,1007.42
350867.675052046,1007.42
350867.705935836,1007.42
350867.736850142,1007.42
350867.767733931,1007.42
350867.798648238,1007.42
350867.829532027,1007.42
350867.860446334,1007.42
350867.891330123,1007.42
350867.922244429,1007.42
350867.953128218,1007.42
350867.984042525,1007.42
350868.014926314,1007.42
350868.045840621,1007.42
350868.076754927,1007.42
350868.107638716,1007.42
350868.13855302305,1007.42
350868.169436812,1007.42
350868.20035111904,1007.42
350868.23123490805,1007.42
350868.26214921405,1007.42
350868.29303300404,1007.42
350868.32394731004,1007.42
350868.35483109904,1007.42
350868.38574540603,1007.42
350868.41662919504,1007.42
350868.447543502,1007.42
350868.478457808,1007.42
350868.50934159703,1007.42
350868.540255904,1007.39
350868.571139693,1007.39
350868.602054,1007.39
350868.632937789,1007.39
350868.663852095,1007.39
350868.694735884,1007.39
350868.725650191,1007.39
350868.75653398,1007.39
350868.787448287,1007.39
350868.818332076,1007.4
350868.849246382,1007.4
350868.880130171,1007.4
350868.911044478,1007.4
350868.941958785,1007.39
350868.972842574,1007.39
350869.00375688,1007.39
350869.03464067,1007.39
350869.065554976,1007.39
350869.096438765,1007.4
350869.12735307205,1007.4
350869.158236861,1007.4
350869.18915116804,1007.4
350869.22003495705,1007.4
350869.25094926305,1007.4
350869.281833052,1007.4
350869.31274735904,1007.4
350869.34366166603,1007.4
350869.37454545504,1007.4
350869.40545976104,1007.4
350869.43634355004,1007.4
350869.46725785703,1007.4
350869.49814164604,1007.4
350869.529055953,1007.4
350869.55993974203,1007.4
350869.59085404803,1007.4
350869.621737838,1007.4
350869.652652144,1007.4
350869.683535933,1007.4
350869.71445024,1007.4
350869.745364546,1007.4
350869.776248336,1007.4
350869.807162642,1007.4
350869.838046431,1007.4
350869.868960738,1007.4
350869.899844527,1007.4
350869.930758834,1007.4
350869.961642623,1007.4
350869.992556929,1007.4
350870.023440718,1007.4
350870.054355025,1007.41
350870.085238814,1007.41
350870.116153121,1007.41
350870.147067427,1007.41
350870.177951216,1007.41
350870.20886552305,1007.41
350870.239749312,1007.41
350870.27066361904,1007.41
350870.30154740805,1007.41
350870.33246171405,1007.41
350870.36334550404,1007.41
350870.39425981004,1007.41
350870.42514359904,1007.41
350870.45605790603,1007.41
350870.48694169504,1007.41
350870.517856002,1007.41
350870.548770308,1007.41
350870.57965409703,1007.41
350870.610568404,1007.41
350870.641452193,1007.41
350870.6723665,1007.41
350870.703250289,1007.41
350870.734164595,1007.41
350870.765048384,1007.41
350870.795962691,1007.41
350870.82684648,1007.41
350870.857760787,1007.41
350870.888644576,1007.41
350870.919558882,1007.41
350870.950442671,1007.41
350870.981356978,1007.41
350871.012271285,1007.41
350871.043155074,1007.41
350871.07406938,1007.41
350871.10495317,1007.41
350871.135867476,1007.41
350871.166751265,1007.41
350871.19766557205,1007.41
350871.228549361,1007.41
350871.25946366804,1007.41
350871.29034745705,1007.41
350871.32126176305,1007.41
350871.352145552,1007.41
350871.38305985904,1007.41
350871.41397416603,1007.41
350871.44485795504,1007.41
350871.47577226104,1007.41
350871.50665605004,1007.41
350871.53757035703,1007.41
350871.56845414604,1007.41
350871.599368453,1007.41
350871.63025224203,1007.41
350871.66116654803,1007.41
350871.692050338,1007.41
350871.722964644,1007.41
350871.753848433,1007.41
350871.78476274,1007.41
350871.815677046,1007.41
350871.846560836,1007.41
350871.877475142,1007.41
350871.908358931,1007.41
350871.939273238,1007.41
350871.970157027,1007.41
350872.001071334,1007.41
350872.031955123,1007.41
350872.062869429,1007.41
350872.093753218,1007.41
350872.124667525,1007.41
350872.155551314,1007.41
350872.186465621,1007.41
350872.217379927,1007.41
350872.248263716,1007.41
350872.27917802305,1007.41
350872.310061812,1007.41
350872.34097611904,1007.41
350872.37185990805,1007.41
350872.40277421405,1007.41
350872.43365800404,1007.41
350872.46457231004,1007.41
350872.49545609904,1007.41
350872.52637040603,1007.41
350872.55725419504,1007.41
350872.588168502,1007.41
350872.61905229103,1007.41
350872.64996659703,1007.41
350872.680880904,1007.41
350872.711764693,1007.41
350872.742679,1007.42
350872.773562789,1007.42
350872.804477095,1007.42
350872.835360884,1007.41
350872.866275191,1007.41
350872.89715898,1007.41
350872.928073287,1007.41
350872.958957076,1007.41
350872.989871382,1007.41
350873.020755171,1007.42
350873.051669478,1007.42
350873.082583785,1007.42
350873.113467574,1007.42
350873.14438188,1007.42
350873.17526567,1007.42
350873.206179976,1007.42
350873.237063765,1007.42
350873.26797807205,1007.42
350873.298861861,1007.42
350873.32977616804,1007.42
350873.36065995705,1007.42
350873.39157426305,1007.42
350873.422458052,1007.42
350873.45337235904,1007.42
350873.48428666603,1007.42
350873.51517045504,1007.43
350873.54608476104,1007.43
350873.57696855004,1007.43
350873.60788285703,1007.43
350873.63876664604,1007.43
350873.669680953,1007.43
350873.70056474203,1007.43
350873.73147904803,1007.43
350873.762362838,1007.43
350873.793277144,1007.44
350873.824160933,1007.44
350873.85507524,1007.44
350873.885989546,1007.44
350873.916873336,1007.44
350873.947787642,1007.44
350873.978671431,1007.44
350874.009585738,1007.41
350874.040469527,1007.41
350874.071383834,1007.41
350874.102267623,1007.41
350874.133181929,1007.41
350874.164065718,1007.41
350874.194980025,1007.41
350874.225863814,1007.41
350874.256778121,1007.41
350874.287692427,1007.41
350874.318576216,1007.41
350874.34949052305,1007.41
350874.380374312,1007.41
350874.41128861904,1007.41
350874.44217240805,1007.41
350874.47308671405,1007.41
350874.503966572,1007.41
350874.534880878,1007.41
350874.565764667,1007.41
350874.59667897405,1007.41
350874.627562763,1007.41
350874.65847707004,1007.41
350874.68936085905,1007.41
350874.72027516505,1007.41
350874.75118947204,1007.41
350874.78207326104,1007.41
350874.81298756803,1007.41
350874.84387135704,1007.42
350874.87478566304,1007.42
350874.90566945204,1007.42
350874.93658375903,1007.42
350874.96746754803,1007.42
350874.998381855,1007.42
350875.029265644,1007.42
350875.06017995003,1007.42
350875.09106373903,1007.42
350875.121978046,1007.42
350875.152892353,1007.42
350875.183776142,1007.42
350875.214690448,1007.42
350875.245574238,1007.42
350875.276488544,1007.42
350875.307372333,1007.42
350875.33828664,1007.42
350875.369170429,1007.42
350875.400084736,1007.42
350875.430968525,1007.42
350875.461882831,1007.42
350875.49276662,1007.42
350875.523680927,1007.42
350875.55459523405,1007.42
350875.585479023,1007.42
350875.616393329,1007.42
350875.647277118,1007.42
350875.67819142505,1007.42
350875.70907521405,1007.42
350875.73998952104,1007.42
350875.77087331004,1007.42
350875.80178761604,1007.43
350875.83267140604,1007.43
350875.86358571204,1007.43
350875.89446950104,1007.43
350875.92538380803,1007.43
350875.95629811403,1007.43
350875.987181904,1007.43
350876.01809621,1007.43
350876.04897999903,1007.43
350876.079894306,1007.43
350876.110778095,1007.43
350876.141692402,1007.43
350876.172576191,1007.43
350876.203490497,1007.43
350876.234374286,1007.43
350876.265288593,1007.43
350876.296172382,1007.43
350876.327086689,1007.43
350876.358000995,1007.43
350876.388884784,1007.43
350876.419799091,1007.43
350876.45068288,1007.43
350876.481597187,1007.43
350876.512480976,1007.43
350876.543395282,1007.43
350876.574279072,1007.43
350876.605193378,1007.43
350876.636077167,1007.43
350876.66699147405,1007.43
350876.697875263,1007.43
350876.72878957004,1007.43
350876.75967335905,1007.43
350876.79058766505,1007.43
350876.82150197204,1007.43
350876.85238576104,1007.43
350876.88330006803,1007.43
350876.91418385704,1007.43
350876.94509816304,1007.43
350876.97598195204,1007.43
350877.00689625903,1007.43
350877.03778004803,1007.43
350877.068694355,1007.43
350877.099578144,1007.43
350877.13049245003,1007.43
350877.16137623903,1007.43
350877.192290546,1007.43
350877.223204853,1007.43
350877.254088642,1007.43
350877.285002948,1007.43
350877.315886738,1007.43
350877.346801044,1007.43
350877.377684833,1007.43
350877.40859914,1007.43
350877.439482929,1007.43
350877.470397236,1007.43
350877.501281025,1007.43
350877.532195331,1007.43
350877.56307912,1007.43
350877.593993427,1007.43
350877.62490773405,1007.43
350877.655791523,1007.43
350877.686705829,1007.43
350877.717589618,1007.43
350877.74850392505,1007.43
350877.77938771405,1007.43
350877.81030202104,1007.43
350877.84118581004,1007.43
350877.87210011604,1007.43
350877.90298390604,1007.43
350877.93389821204,1007.43
350877.96478200104,1007.43
350877.99569630803,1007.43
350878.02661061403,1007.43
350878.057494404,1007.43
350878.08840871,1007.43
350878.11929249903,1007.43
350878.150206806,1007.43
350878.181090595,1007.43
350878.212004902,1007.43
350878.242888691,1007.43
350878.273802997,1007.41
350878.304686786,1007.41
350878.335601093,1007.41
350878.366484882,1007.41
350878.397399189,1007.41
350878.428282978,1007.41
350878.459197284,1007.41
350878.490111591,1007.4
350878.52099538,1007.4
350878.551909687,1007.4
350878.582793476,1007.4
350878.613707782,1007.4
350878.644591572,1007.4
350878.675505878,1007.4
350878.706389667,1007.4
350878.73730397405,1007.4
350878.768187763,1007.4
350878.79910207004,1007.4
350878.82998585905,1007.4
350878.86090016505,1007.4
350878.89181447204,1007.4
350878.92269826104,1007.4
350878.95361256803,1007.4
350878.98449635704,1007.4
350879.01541066304,1007.4
350879.04629445204,1007.4
350879.07720875903,1007.4
350879.10809254803,1007.4
350879.139006855,1007.4
350879.169890644,1007.4
350879.20080495003,1007.4
350879.23168873903,1007.4
350879.262603046,1007.4
350879.293517353,1007.4
350879.324401142,1007.4
350879.355315448,1007.4
350879.386199238,1007.4
350879.417113544,1007.4
350879.447997333,1007.4
350879.47891164,1007.4
350879.509795429,1007.4
350879.540709736,1007.4
350879.571593525,1007.4
350879.602507831,1007.4
350879.63339162,1007.4
350879.664305927,1007.4
350879.69522023405,1007.4
350879.726104023,1007.4
350879.757018329,1007.4
350879.787902118,1007.4
350879.81881642505,1007.4
350879.84970021405,1007.4
350879.88061452104,1007.4
350879.91149831004,1007.41
350879.94241261604,1007.41
350879.97329640604,1007.41
350880.00421071204,1007.41
350880.03509450104,1007.41
350880.06600880803,1007.41
350880.09692311403,1007.41
350880.127806904,1007.41
350880.15872121,1007.41
350880.18960499903,1007.41
350880.220519306,1007.41
350880.251403095,1007.41
350880.282317402,1007.41
350880.313201191,1007.41
350880.344115497,1007.41
350880.374999286,1007.41
350880.405913593,1007.41
350880.436797382,1007.41
350880.467711689,1007.41
350880.498595478,1007.41
350880.529509784,1007.41
350880.560424091,1007.41
350880.59130788,1007.41
350880.622222187,1007.41
350880.653105976,1007.42
350880.684020282,1007.42
350880.714904072,1007.42
350880.745818378,1007.42
350880.776702167,1007.42
350880.80761647405,1007.42
350880.838500263,1007.42
350880.86941457004,1007.42
350880.90029835905,1007.42
350880.93121266505,1007.42
350880.96212697204,1007.43
350880.99301076104,1007.43
350881.02392506803,1007.43
350881.05480885704,1007.43
350881.08572316304,1007.43
350881.11660695204,1007.43
350881.14752125903,1007.43
350881.17840504803,1007.43
350881.209319355,1007.43
350881.240203144,1007.43
350881.27111745003,1007.43
350881.30200123903,1007.43
350881.332915546,1007.43
350881.363829853,1007.43
350881.394713642,1007.43
350881.425627948,1007.43
350881.456511738,1007.43
350881.487426044,1007.43
350881.518309833,1007.43
350881.54922414,1007.43
350881.580107929,1007.43
350881.611022236,1007.43
350881.641906025,1007.43
350881.672820331,1007.43
350881.70370412,1007.43
350881.734618427,1007.43
350881.76553273405,1007.43
350881.796416523,1007.43
350881.827330829,1007.43
350881.858214618,1007.43
350881.88912892505,1007.43
350881.92001271405,1007.43
350881.95092702104,1007.43
350881.98181081004,1007.43
350882.01272511604,1007.43
350882.04360890604,1007.43
350882.07452321204,1007.43
350882.10540700104,1007.43
350882.13632130803,1007.43
350882.16723561403,1007.43
350882.198119404,1007.43
350882.22903371,1007.44
350882.25991749903,1007.44
350882.290831806,1007.44
350882.321715595,1007.44
350882.352629902,1007.44
350882.383513691,1007.44
350882.414427997,1007.44
350882.445311786,1007.44
350882.476226093,1007.44
350882.507109882,1007.44
350882.538024189,1007.44
350882.568907978,1007.44
350882.599822284,1007.44
350882.630736591,1007.44
350882.66162038,1007.39
350882.692534687,1007.39
350882.723418476,1007.39
350882.754332782,1007.39
350882.785216572,1007.39
350882.816130878,1007.39
350882.847014667,1007.39
350882.87792897405,1007.39
350882.908812763,1007.39
350882.93972707004,1007.39
350882.97061085905,1007.39
350883.00152516505,1007.39
350883.03243947204,1007.39
350883.06332326104,1007.39
350883.09423756803,1007.39
350883.12512135704,1007.39
350883.15603566304,1007.39
350883.18691945204,1007.39
350883.21783375903,1007.39
350883.24871754803,1007.39
350883.279631855,1007.39
350883.310515644,1007.39
350883.34142995003,1007.39
350883.37231373903,1007.39
350883.403228046,1007.39
350883.434142353,1007.4
350883.465026142,1007.4
350883.495940448,1007.4
350883.526824238,1007.4
350883.557738544,1007.4
350883.588622333,1007.4
350883.61953664,1007.4
350883.650420429,1007.4
350883.681334736,1007.4
350883.712218525,1007.4
350883.743132831,1007.4
350883.77401662,1007.4
350883.804930927,1007.4
350883.83584523405,1007.4
350883.866729023,1007.4
350883.897643329,1007.4
350883.928527118,1007.4
350883.95944142505,1007.4
350883.99032521405,1007.4
350884.02123952104,1007.4
350884.05212331004,1007.4
350884.08303761604,1007.4
350884.11392140604,1007.4
350884.14483571204,1007.4
350884.17571950104,1007.4
350884.20663380803,1007.4
350884.23751759704,1007.4
350884.268431904,1007.4
350884.29934621,1007.4
350884.33022999903,1007.4
350884.361144306,1007.4
350884.392028095,1007.4
350884.422942402,1007.4
350884.453826191,1007.4
350884.484740497,1007.4
350884.515624286,1007.4
350884.54654657404,1007.4
350884.57743036305,1007.4
350884.60834467004,1007.4
350884.63922845904,1007.4
350884.67014276504,1007.41
350884.70105707203,1007.41
350884.73194086103,1007.41
350884.762855168,1007.41
350884.793738957,1007.41
350884.82465326303,1007.41
350884.855537053,1007.41
350884.886451359,1007.41
350884.917335148,1007.41
350884.948249455,1007.41
350884.979133244,1007.41
350885.010047551,1007.41
350885.04093134,1007.41
350885.071845646,1007.41
350885.102759953,1007.41
350885.133643742,1007.41
350885.164558049,1007.41
350885.195441838,1007.41
350885.226356144,1007.41
350885.257239933,1007.41
350885.28815424,1007.41
350885.319038029,1007.41
350885.349952336,1007.41
350885.380836125,1007.41
350885.411750431,1007.41
350885.44263422,1007.42
350885.47354852705,1007.42
350885.50446283404,1007.42
350885.53534662304,1007.42
350885.56626092904,1007.42
350885.59714471904,1007.42
350885.62805902504,1007.42
350885.65894281404,1007.42
350885.68985712103,1007.42
350885.72074091004,1007.42
350885.751655217,1007.42
350885.78253900603,1007.42
350885.81345331203,1007.42
350885.84433710104,1007.39
350885.875251408,1007.39
350885.906165715,1007.4
350885.937049504,1007.4
350885.96796381,1007.4
350885.998847599,1007.4
350886.029761906,1007.4
350886.060645695,1007.4
350886.091560002,1007.4
350886.122443791,1007.4
350886.153358097,1007.4
350886.184241887,1007.4
350886.215156193,1007.4
350886.246039982,1007.4
350886.276954289,1007.4
350886.307838078,1007.4
350886.338752385,1007.4
350886.369666691,1007.4
350886.40055048,1007.4
350886.43146478705,1007.4
350886.462348576,1007.4
350886.49326288304,1007.4
350886.52414667205,1007.4
350886.55506097805,1007.4
350886.585944767,1007.4
350886.61685907404,1007.4
350886.64774286305,1007.4
350886.67865717004,1007.4
350886.70954095904,1007.4
350886.74045526504,1007.4
350886.77136957203,1007.4
350886.80225336103,1007.4
350886.833167668,1007.4
350886.864051457,1007.4
350886.89496576303,1007.4
350886.925849553,1007.4
350886.956763859,1007.4
350886.987647648,1007.4
350887.018561955,1007.4
350887.049445744,1007.4
350887.080360051,1007.4
350887.11124384,1007.4
350887.142158146,1007.4
350887.173072453,1007.4
350887.203956242,1007.4
350887.234870549,1007.4
350887.265754338,1007.4
350887.296668644,1007.4
350887.327552433,1007.4
350887.35846674,1007.4
350887.389350529,1007.4
350887.420264836,1007.4
350887.451148625,1007.4
350887.482062931,1007.4
350887.51294672,1007.4
350887.54386102705,1007.4
350887.57477533404,1007.4
350887.60565912304,1007.4
350887.63657342904,1007.4
350887.66745721904,1007.4
350887.69837152504,1007.4
350887.72925531404,1007.4
350887.76016962103,1007.4
350887.79105341004,1007.4
350887.821967717,1007.4
350887.85285150603,1007.4
350887.88376581203,1007.4
350887.91464960104,1007.4
350887.945563908,1007.4
350887.976478215,1007.4
350888.007362004,1007.4
350888.03827631,1007.41
350888.069160099,1007.41
350888.100074406,1007.41
350888.130958195,1007.41
350888.161872502,1007.41
350888.192756291,1007.41
350888.223670597,1007.41
350888.254554387,1007.41
350888.285468693,1007.41
350888.316352482,1007.41
350888.347266789,1007.41
350888.378150578,1007.41
350888.409064885,1007.41
350888.439979191,1007.41
350888.47086298,1007.41
350888.50177728705,1007.41
350888.532661076,1007.41
350888.56357538304,1007.41
350888.59445917205,1007.41
350888.62537347805,1007.41
350888.656257267,1007.41
350888.68717157404,1007.41
350888.71805536305,1007.41
350888.74896967004,1007.41
350888.77985345904,1007.41
350888.81076776504,1007.41
350888.84168207203,1007.41
350888.87256586103,1007.41
350888.903480168,1007.41
350888.934363957,1007.41
350888.96527826303,1007.41
350888.996162053,1007.41
350889.027076359,1007.41
350889.057960148,1007.41
350889.088874455,1007.38
350889.119758244,1007.38
350889.150672551,1007.38
350889.18155634,1007.38
350889.212470646,1007.38
350889.243384953,1007.38
350889.274268742,1007.38
350889.305183049,1007.38
350889.336066838,1007.38
350889.366981144,1007.39
350889.397864933,1007.39
350889.42877924,1007.39
350889.459663029,1007.39
350889.490577336,1007.39
350889.521461125,1007.39
350889.552375431,1007.39
350889.58325922,1007.39
350889.61417352705,1007.39
350889.64508783404,1007.39
350889.67597162304,1007.39
350889.70688592904,1007.39
350889.73776971904,1007.39
350889.76868402504,1007.39
350889.79956781404,1007.39
350889.83048212103,1007.39
350889.86136591004,1007.39
350889.892280217,1007.39
350889.92316400603,1007.39
350889.95407831203,1007.39
350889.98496210104,1007.39
350890.015876408,1007.39
350890.046790715,1007.39
350890.077674504,1007.39
350890.10858881,1007.39
350890.139472599,1007.39
350890.170386906,1007.39
350890.201270695,1007.4
350890.232185002,1007.4
350890.263068791,1007.4
350890.293983097,1007.4
350890.324866887,1007.4
350890.355781193,1007.4
350890.386664982,1007.4
350890.417579289,1007.4
350890.448463078,1007.4
350890.479377385,1007.4
350890.510291691,1007.4
350890.54117548,1007.4
350890.57208978705,1007.4
350890.602973576,1007.4
350890.63388788304,1007.4
350890.664741154,1007.4
350890.695594426,1007.4
350890.72644769703,1007.4
350890.75730096904,1007.4
350890.78815424,1007.4
350890.819007512,1007.4
350890.849860783,1007.4
350890.88071405404,1007.4
350890.911567326,1007.4
350890.942420597,1007.4
350890.973273869,1007.4
350891.00412714004,1007.4
350891.03498041205,1007.4
350891.065833683,1007.4
350891.096686955,1007.4
350891.12754022604,1007.4
350891.15839349804,1007.4
350891.189246769,1007.4
350891.220100041,1007.4
350891.25095331203,1007.4
350891.28180658404,1007.4
350891.312659855,1007.4
350891.343513127,1007.4
350891.374366398,1007.4
350891.40521967004,1007.4
350891.436072941,1007.4
350891.466926213,1007.39
350891.497779484,1007.39
350891.52863275603,1007.39
350891.55948602705,1007.39
350891.590339299,1007.39
350891.62119257,1007.39
350891.652045842,1007.37
350891.68289911305,1007.37
350891.713752385,1007.37
350891.744605656,1007.37
350891.775458928,1007.37
350891.80631219904,1007.37
