0.0,0.0,0.0,0.0
1.0,0.94,0.0,0.0
2.0,1.89,0.0,0.0
3.0,2.83,0.0,0.0
4.0,3.77,0.0,0.0
5.0,4.72,0.0,0.0
6.0,5.66,0.0,0.0
7.0,6.6,0.0,0.0
8.0,7.2,0.5,0.0
9.0,7.2,1.86,0.0
10.0,7.2,3.22,0.0
11.0,7.2,4.58,0.0
12.0,7.2,5.93,0.0
13.0,7.2,7.29,0.0
14.0,7.2,8.65,0.0
15.0,7.2,10.01,0.0
16.0,7.2,11.37,0.0
17.0,7.2,12.73,0.0
18.0,7.2,14.09,0.0
19.0,7.2,15.45,0.0
20.0,7.2,16.8,0.0
21.0,7.9,17.5,0.0
22.0,9.33,17.5,0.0
23.0,10.76,17.5,0.0
24.0,12.19,17.5,0.0
25.0,13.62,17.5,0.0
26.0,14.0,18.08,-0.2
27.0,14.0,18.87,-0.46
28.0,14.0,19.65,-0.73
29.0,14.0,20.44,-0.99
30.0,14.0,21.22,-1.26
31.0,14.0,22.01,-1.52
32.0,14.0,22.79,-1.79
33.0,14.0,23.58,-2.05
34.0,14.0,24.36,-2.32
35.0,14.0,25.15,-2.58
36.0,14.0,25.93,-2.85
37.0,14.0,26.72,-3.12
38.0,14.0,27.51,-3.38
39.0,14.0,28.29,-3.65
40.0,14.0,29.08,-3.91
41.0,14.0,29.86,-4.18
42.0,14.0,30.65,-4.44
43.0,14.0,31.43,-4.71
44.0,14.0,31.79,-4.83
45.0,14.0,31.04,-4.58
46.0,14.0,30.29,-4.32
47.0,14.0,29.55,-4.07
48.0,14.0,28.8,-3.82
49.0,14.0,28.05,-3.56
50.0,14.0,27.3,-3.31
51.0,14.0,26.55,-3.06
52.0,14.0,25.8,-2.81
53.0,14.0,25.05,-2.55
54.0,14.0,24.31,-2.3
55.0,14.0,23.56,-2.05
56.0,14.0,22.81,-1.79
57.0,14.0,22.06,-1.54
58.0,14.0,21.31,-1.29
59.0,14.0,20.56,-1.04
60.0,14.0,19.81,-0.78
61.0,14.0,19.07,-0.53
62.0,14.0,18.32,-0.28
63.0,14.0,17.57,-0.02
64.0,12.89,17.5,0.0
65.0,11.66,17.5,0.0
66.0,10.44,17.5,0.0
67.0,9.21,17.5,0.0
68.0,7.98,17.5,0.0
69.0,6.76,17.5,0.0
70.0,5.53,17.5,0.0
71.0,4.31,17.5,0.0
72.0,3.08,17.5,0.0
73.0,1.85,17.5,0.0
74.0,0.63,17.5,0.0
75.0,0.0,16.88,0.0
76.0,0.0,15.62,0.0
77.0,0.0,14.35,0.0
78.0,0.0,13.09,0.0
79.0,0.0,11.83,0.0
80.0,0.0,10.56,0.0
81.0,0.0,9.3,0.0
82.0,0.0,8.03,0.0
83.0,0.0,6.77,0.0
84.0,0.0,5.5,0.0
85.0,0.0,4.24,0.0
86.0,0.0,2.98,0.0
87.0,0.0,1.71,0.0
88.0,0.0,0.45,0.0
89.0,0.0,0.0,0.0
