{
	"root" : "/Users/iida/Documents/PDRChallenge/myprogram/processcorrectdata/pdrdata", 
    "route" : "overall",
    "origin_dirpath" : "Testdata", 
    "origin_correct_filename" : "coordinate-correct.txt", 
    "origin_estimate_filename" : "coordinate-correct.txt", 
    "coordinate_correct_1sec_dirpath" : "coordinate_correct_1sec", 
    "coordinate_correct_1sec_filename" : "coordinate_correct_1sec.csv", 
    "coordinate_estimate_1sec_dirpath" : "coordinate_estimate_1sec", 
    "coordinate_estimate_1sec_filename" : "coordinate_estimate_1sec.csv", 
    "error_dirpath" : "error", 
    "error_filename" : "error.csv", 
    "error_collection_filepath" : "error_collection.csv", 
    "evalation_result_filepath" : "evalation_result.csv", 
    "trajectory_flag" : "1",
    "floor_image_filepath" : "/Users/iida/Documents/PDRChallenge/myprogram/processcorrectdata/program/8F-floormap.png",
    "coordinate_abs_dirpath" : "/Users/iida/Documents/PDRChallenge/myprogram/processcorrectdata/program/correct_coordinate_abs",
    "coordinate_abs_filename" : "coordinate-abs.txt",
    "trajectory_image_dirpath" : "trajectory",
	"trajectory_image_filename" : "trajectory.png"
}
