1.4386602580977886E9,1004.45795
1.438660258130076E9,1004.4879
1.438660258165324E9,1004.45795
1.4386602581984966E9,1004.54785
1.4386602582307537E9,1004.5179
1.438660258266032E9,1004.61786
1.4386602582992043E9,1004.5179
1.4386602583340251E9,1004.4879
1.4386602583689678E9,1004.4879
1.438660258404246E9,1004.5179
1.4386602584344585E9,1004.54785
1.4386602584697063E9,1004.5779
1.4386602585049539E9,1004.5779
1.4386602585351663E9,1004.54785
1.438660258570414E9,1004.6478
1.438660258605662E9,1004.5179
1.4386602586358745E9,1004.5179
1.4386602586711223E9,1004.5179
1.43866025870637E9,1004.45795
1.4386602587365825E9,1004.45795
1.4386602587718303E9,1004.5179
1.438660258807078E9,1004.5779
1.4386602588373766E9,1004.5179
1.4386602588726242E9,1004.4879
1.4386602589078722E9,1004.45795
1.4386602589380844E9,1004.6478
1.4386602589733324E9,1004.61786
1.4386602590085802E9,1004.54785
1.4386602590387926E9,1004.54785
1.4386602590740404E9,1004.54785
1.438660259109288E9,1004.5179
1.4386602591395006E9,1004.5779
1.4386602591747482E9,1004.4879
1.4386602592099962E9,1004.5179
1.4386602592402084E9,1004.54785
1.4386602592754564E9,1004.5779
1.4386602593107042E9,1004.6478
1.4386602593409166E9,1004.6478
1.4386602593761644E9,1004.54785
1.438660259411412E9,1004.5179
1.4386602594416246E9,1004.54785
1.4386602594768114E9,1004.54785
1.4386602595120592E9,1004.5779
1.438660259542241E9,1004.5779
1.43866025957755E9,1004.6478
1.4386602596127975E9,1004.5879
1.4386602596430101E9,1004.61786
1.4386602596782577E9,1004.61786
1.4386602597135055E9,1004.61786
1.438660259743718E9,1004.5779
1.4386602597789962E9,1004.5879
1.4386602598142443E9,1004.61786
1.4386602598444564E9,1004.5879
1.4386602598797045E9,1004.5879
1.4386602599149523E9,1004.6478
1.4386602599451647E9,1004.5879
1.4386602599803817E9,1004.5879
1.43866026001566E9,1004.5879
1.4386602600458724E9,1004.5879
1.4386602600811203E9,1004.5879
1.4386602601163683E9,1004.5879
1.4386602601465805E9,1004.5879
1.4386602601818285E9,1004.5179
1.4386602602170763E9,1004.5879
1.4386602602472887E9,1004.6478
1.4386602602825363E9,1004.54785
1.438660260317784E9,1004.61786
1.4386602603479965E9,1004.5179
1.4386602603832443E9,1004.54785
1.4386602604184923E9,1004.5879
1.4386602604487047E9,1004.54785
1.4386602604839525E9,1004.6478
1.4386602605192003E9,1004.54785
1.4386602605494127E9,1004.54785
1.4386602605846603E9,1004.54785
1.438660260619908E9,1004.6778
1.4386602606501205E9,1004.54785
1.4386602606853683E9,1004.6778
1.4386602607207272E9,1004.6478
1.4386602607509394E9,1004.70776
1.4386602607861874E9,1004.54785
1.4386602608214352E9,1004.4879
1.4386602608516476E9,1004.6478
1.4386602608869565E9,1004.61786
1.438660260922143E9,1004.61786
1.4386602609523556E9,1004.61786
1.4386602609875119E9,1004.5179
1.4386602610227902E9,1004.5879
1.4386602610530026E9,1004.54785
1.4386602610883114E9,1004.5879
1.4386602611235592E9,1004.6478
1.4386602611538022E9,1004.5879
1.4386602611890194E9,1004.5879
1.438660261224267E9,1004.5879
1.4386602612544794E9,1004.5879
1.4386602612897272E9,1004.5879
1.4386602613249753E9,1004.6778
1.4386602613551877E9,1004.5179
1.4386602613903742E9,1004.6778
1.4386602614256525E9,1004.5879
1.4386602614558344E9,1004.5879
1.4386602614910824E9,1004.61786
1.438660261526391E9,1004.61786
1.4386602615566034E9,1004.61786
1.4386602615918818E9,1004.6778
1.4386602616270993E9,1004.61786
1.4386602616573977E9,1004.54785
1.4386602616926458E9,1004.54785
1.4386602617278936E9,1004.54785
1.438660261758106E9,1004.70776
1.4386602617933536E9,1004.61786
1.4386602618286014E9,1004.61786
1.4386602618588138E9,1004.7178
1.4386602618940313E9,1004.6778
1.4386602619292483E9,1004.5879
1.438660261959461E9,1004.61786
1.4386602619947085E9,1004.61786
1.4386602620299869E9,1004.5879
1.4386602620601687E9,1004.5879
1.4386602620954168E9,1004.5879
1.438660262130695E9,1004.61786
1.4386602621609073E9,1004.5879
1.4386602621961553E9,1004.54785
1.4386602622314336E9,1004.5879
1.438660262261646E9,1004.6778
1.4386602622968938E9,1004.7178
1.4386602623321414E9,1004.61786
1.438660262362354E9,1004.6778
1.4386602623976016E9,1004.6478
1.4386602624328494E9,1004.5879
1.4386602624630618E9,1004.5179
1.4386602624983096E9,1004.5879
1.4386602625335271E9,1004.5879
1.438660262563709E9,1004.6478
1.438660262598926E9,1004.5879
1.438660262634235E9,1004.61786
1.4386602626644168E9,1004.6778
1.438660262699451E9,1004.5879
1.4386602627349432E9,1004.5879
1.4386602627651553E9,1004.5879
1.4386602628004642E9,1004.5879
1.4386602628356817E9,1004.5879
1.438660262865894E9,1004.54785
1.438660262901142E9,1004.5879
1.4386602629365728E9,1004.4879
1.438660262966602E9,1004.5179
1.4386602630018497E9,1004.4879
1.438660263037128E9,1004.54785
1.4386602630673099E9,1004.54785
1.438660263102558E9,1004.4879
1.4386602631378057E9,1004.5179
1.438660263168018E9,1004.4879
1.438660263203266E9,1004.5879
1.4386602632384527E9,1004.61786
1.4386602632686648E9,1004.45795
1.4386602633039129E9,1004.5179
1.4386602633391912E9,1004.5179
1.438660263369373E9,1004.5179
1.4386602634046206E9,1004.5179
1.4386602634398685E9,1004.54785
1.4386602634701421E9,1004.61786
1.43866026350539E9,1004.54785
1.4386602635409622E9,1004.4879
1.438660263571083E9,1004.4879
1.4386602636062698E9,1004.5179
1.4386602636415482E9,1004.54785
1.4386602636716995E9,1004.4879
1.4386602637069473E9,1004.5179
1.4386602637422562E9,1004.5179
1.438660263772438E9,1004.428
1.4386602638077164E9,1004.45795
1.4386602638429642E9,1004.45795
1.4386602638732984E9,1004.45795
1.4386602639090042E9,1004.428
1.4386602639442825E9,1004.5179
1.4386602639741592E9,1004.54785
1.4386602640097427E9,1004.5179
1.4386602640444717E9,1004.4879
1.438660264074623E9,1004.45795
1.438660264109871E9,1004.54785
1.4386602641450882E9,1004.38794
1.43866026417527E9,1004.4879
1.438660264210518E9,1004.5879
1.4386602642457657E9,1004.428
1.438660264275978E9,1004.54785
1.438660264311226E9,1004.5179
1.4386602643465042E9,1004.5179
1.4386602643767166E9,1004.54785
1.438660264411934E9,1004.5879
1.4386602644472122E9,1004.4879
1.4386602644773886E9,1004.54785
1.4386602645126364E9,1004.45795
1.4386602645479453E9,1004.54785
1.4386602645781577E9,1004.54785
1.4386602646134055E9,1004.4879
1.4386602646486838E9,1004.5179
1.4386602646795068E9,1004.61786
1.438660264714663E9,1004.54785
1.4386602647493002E9,1004.5179
1.4386602647795126E9,1004.5879
1.438660264814791E9,1004.4879
1.4386602648500388E9,1004.4879
1.4386602648802207E9,1004.6478
1.4386602649154992E9,1004.54785
1.438660264950747E9,1004.54785
1.4386602649809594E9,1004.5179
1.4386602650162072E9,1004.4879
1.438660265051394E9,1004.54785
1.438660265081698E9,1004.54785
1.4386602651169455E9,1004.5179
1.4386602651521933E9,1004.5179
1.4386602651824057E9,1004.54785
1.4386602652176535E9,1004.5179
1.4386602652527184E9,1004.54785
1.438660265283053E9,1004.55786
1.4386602653183312E9,1004.45795
1.4386602653535483E9,1004.61786
1.4386602653837914E9,1004.5879
1.438660265419039E9,1004.6778
1.438660265454287E9,1004.5879
1.4386602654844992E9,1004.5879
1.4386602655197473E9,1004.45795
1.4386602655550256E9,1004.5879
1.4386602655852377E9,1004.6478
1.4386602656204858E9,1004.5179
1.4386602656557333E9,1004.5179
1.438660265686495E9,1004.5879
1.4386602657217429E9,1004.5179
1.438660265756991E9,1004.428
1.4386602657871728E9,1004.4879
1.438660265822451E9,1004.5179
1.438660265857699E9,1004.4879
1.438660265887301E9,1004.4879
1.4386602659225793E9,1004.5879
1.4386602659578269E9,1004.55786
1.4386602659880087E9,1004.4879
1.438660266023287E9,1004.5179
1.4386602660585046E9,1004.4879
1.4386602660887473E9,1004.5879
1.4386602661239648E9,1004.55786
1.438660266159243E9,1004.55786
1.438660266189425E9,1004.61786
1.4386602662246726E9,1004.4879
1.4386602662599509E9,1004.428
1.4386602662901633E9,1004.5179
1.4386602663254416E9,1004.5179
1.4386602663609226E9,1004.5179
1.4386602663911347E9,1004.55786
1.4386602664263523E9,1004.4879
1.4386602664615693E9,1004.45795
1.4386602664918125E9,1004.5179
1.4386602665267549E9,1004.4879
1.4386602665623078E9,1004.55786
1.4386602665924897E9,1004.55786
1.4386602666277378E9,1004.4879
1.4386602666629856E9,1004.5179
1.4386602666932285E9,1004.38794
1.4386602667284763E9,1004.55786
1.438660266763724E9,1004.55786
1.4386602667945163E9,1004.55786
1.438660266829886E9,1004.55786
1.4386602668658054E9,1004.45795
1.438660266895224E9,1004.4879
1.4386602669307163E9,1004.5179
1.4386602669657505E9,1004.61786
1.4386602669959626E9,1004.55786
1.4386602670306003E9,1004.4879
1.438660267065848E9,1004.55786
1.4386602670960298E9,1004.5879
1.438660267131308E9,1004.5179
1.438660267166556E9,1004.4879
1.4386602671967683E9,1004.55786
1.4386602672319858E9,1004.5179
1.4386602672672641E9,1004.55786
1.4386602672982945E9,1004.5879
1.438660267333451E9,1004.5179
1.438660267368729E9,1004.5879
1.4386602673989723E9,1004.5179
1.438660267434159E9,1004.4879
1.4386602674694374E9,1004.4879
1.4386602674996803E9,1004.55786
1.438660267534867E9,1004.4879
1.4386602675701149E9,1004.61786
1.4386602675997474E9,1004.5179
1.4386602676349645E9,1004.5179
1.4386602676702125E9,1004.55786
1.438660267700425E9,1004.55786
1.4386602677356727E9,1004.4879
1.4386602677709634E9,1004.5179
1.438660267801054E9,1004.55786
1.4386602678364239E9,1004.55786
1.4386602678716717E9,1004.5879
1.4386602679024942E9,1004.45795
1.4386602679377117E9,1004.5879
1.4386602679729595E9,1004.55786
1.4386602680035992E9,1004.5879
1.4386602680384502E9,1004.6478
1.4386602680736065E9,1004.55786
1.4386602681039715E9,1004.5179
1.438660268139158E9,1004.55786
1.4386602681743145E9,1004.55786
1.438660268203947E9,1004.4879
1.4386602682392254E9,1004.5179
1.438660268274473E9,1004.61786
1.4386602683046856E9,1004.5879
1.438660268339964E9,1004.55786
1.4386602683752117E9,1004.6478
1.438660268405424E9,1004.61786
1.4386602684406414E9,1004.5879
1.4386602684759197E9,1004.55786
1.4386602685061321E9,1004.61786
1.4386602685419598E9,1004.61786
1.4386602685771465E9,1004.4879
1.43866026860742E9,1004.6478
1.4386602686426678E9,1004.55786
1.4386602686775494E9,1004.55786
1.4386602687075124E9,1004.5879
1.4386602687428212E9,1004.5879
1.4386602687780688E9,1004.55786
1.4386602688082814E9,1004.61786
1.438660268843529E9,1004.5179
1.438660268878777E9,1004.6478
1.4386602689089892E9,1004.5879
1.4386602689442372E9,1004.5879
1.438660268979485E9,1004.61786
1.4386602690096974E9,1004.55786
1.4386602690449452E9,1004.45795
1.4386602690801928E9,1004.4879
1.4386602691118395E9,1004.61786
1.4386602691456838E9,1004.55786
1.438660269181481E9,1004.45795
1.4386602692116628E9,1004.55786
1.438660269246941E9,1004.5879
1.4386602692815785E9,1004.55786
1.438660269311791E9,1004.5879
1.4386602693470693E9,1004.55786
1.4386602693822863E9,1004.5879
1.4386602694124682E9,1004.5879
1.4386602694477468E9,1004.61786
1.438660269483025E9,1004.5179
1.438660269513207E9,1004.5179
1.4386602695484853E9,1004.5179
1.438660269583733E9,1004.5879
1.4386602696139455E9,1004.5879
1.4386602696491933E9,1004.5179
1.4386602696844716E9,1004.5179
1.4386602697146535E9,1004.5179
1.4386602697505114E9,1004.5179
1.4386602697857592E9,1004.5879
1.4386602698160024E9,1004.5179
1.4386602698506093E9,1004.4879
1.4386602698858263E9,1004.45795
1.438660269916039E9,1004.55786
1.4386602699513173E9,1004.4879
1.4386602699865649E9,1004.5879
1.4386602700167468E9,1004.55786
1.4386602700519948E9,1004.6478
1.4386602700872731E9,1004.6478
1.4386602701174853E9,1004.5179
1.4386602701527333E9,1004.5879
1.4386602701879811E9,1004.5879
1.438660270218163E9,1004.55786
1.4386602702534106E9,1004.5179
1.438660270288628E9,1004.5179
1.438660270319512E9,1004.5179
1.4386602703547595E9,1004.55786
1.4386602703893666E9,1004.6478
1.4386602704196095E9,1004.55786
1.438660270454796E9,1004.5179
1.4386602704901052E9,1004.5179
1.4386602705203176E9,1004.55786
1.4386602705555654E9,1004.5179
1.438660270591046E9,1004.45795
1.4386602706212585E9,1004.55786
1.4386602706570861E9,1004.55786
1.4386602706923645E9,1004.5179
1.4386602707225766E9,1004.4879
1.4386602707578247E9,1004.4879
1.4386602707929504E9,1004.4879
1.4386602708232238E9,1004.5179
1.4386602708584716E9,1004.55786
1.438660270893689E9,1004.5279
1.4386602709239929E9,1004.4879
1.4386602709587524E9,1004.4879
1.4386602709938476E9,1004.5279
1.4386602710240905E9,1004.4879
1.4386602710593383E9,1004.5279
1.4386602710945861E9,1004.55786
1.4386602711247373E9,1004.55786
1.4386602711600463E9,1004.55786
1.4386602711952941E9,1004.5879
1.4386602712255063E9,1004.61786
1.4386602712607543E9,1004.5279
1.4386602712960021E9,1004.6478
1.4386602713267026E9,1004.6478
1.4386602713620422E9,1004.5879
1.43866027139729E9,1004.5879
1.4386602714272277E9,1004.5879
1.4386602714621704E9,1004.5279
1.4386602714974484E9,1004.5279
1.4386602715276558E9,1004.5879
1.4386602715629036E9,1004.61786
1.4386602715987005E9,1004.5279
1.4386602716288824E9,1004.6878
1.4386602716640694E9,1004.5279
1.4386602716994088E9,1004.6478
1.4386602717296822E9,1004.55786
1.4386602717648995E9,1004.5279
1.4386602718001168E9,1004.5879
1.4386602718303597E9,1004.5879
1.4386602718663704E9,1004.6478
1.4386602719008553E9,1004.5879
1.4386602719310372E9,1004.55786
1.4386602719657357E9,1004.4879
1.438660272000953E9,1004.5879
1.4386602720311654E9,1004.5879
1.4386602720664132E9,1004.6478
1.4386602721025765E9,1004.5879
1.4386602721330025E9,1004.5879
1.4386602721678536E9,1004.6878
1.4386602722029793E9,1004.6478
1.4386602722333138E9,1004.5879
1.4386602722684393E9,1004.61786
1.438660272308204E9,1004.55786
1.4386602723346016E9,1004.5279
1.438660272370002E9,1004.5879
1.4386602724052193E9,1004.5879
1.4386602724346077E9,1004.61786
1.4386602724692757E9,1004.55786
1.438660272504493E9,1004.5279
1.438660272534675E9,1004.55786
1.4386602725699227E9,1004.5879
1.4386602726051705E9,1004.4879
1.4386602726361153E9,1004.4879
1.438660272671607E9,1004.55786
1.4386602727071602E9,1004.61786
1.4386602727375863E9,1004.5279
1.4386602727719796E9,1004.4879
1.4386602728078988E9,1004.5879
1.4386602728374703E9,1004.55786
1.4386602728720772E9,1004.4879
1.4386602729072945E9,1004.5279
1.4386602729373543E9,1004.5879
