0.0,0.0,0.0,0.0
1.0,1.04,0.0,0.0
2.0,2.09,0.0,0.0
3.0,3.13,0.0,0.0
4.0,4.18,0.0,0.0
5.0,5.22,0.0,0.0
6.0,6.26,0.0,0.0
7.0,7.2,0.15,0.0
8.0,7.2,1.6,0.0
9.0,7.2,3.06,0.0
10.0,7.2,4.51,0.0
11.0,7.2,5.96,0.0
12.0,7.2,7.41,0.0
13.0,7.2,8.86,0.0
14.0,7.2,10.32,0.0
15.0,7.2,11.77,0.0
16.0,7.2,13.22,0.0
17.0,7.2,14.67,0.0
18.0,7.2,16.13,0.0
19.0,7.28,17.5,0.0
20.0,8.74,17.5,0.0
21.0,10.2,17.5,0.0
22.0,11.67,17.5,0.0
23.0,13.13,17.5,0.0
24.0,14.0,17.89,-0.13
25.0,14.0,18.86,-0.46
26.0,14.0,19.82,-0.79
27.0,14.0,20.79,-1.11
28.0,14.0,21.76,-1.44
29.0,14.0,22.72,-1.77
30.0,14.0,23.69,-2.09
31.0,14.0,24.66,-2.42
32.0,14.0,25.62,-2.75
33.0,14.0,26.59,-3.07
34.0,14.0,27.56,-3.4
35.0,14.0,28.52,-3.73
36.0,14.0,29.49,-4.05
37.0,14.0,30.46,-4.38
38.0,14.0,31.42,-4.71
39.0,14.0,31.67,-4.79
40.0,14.0,30.84,-4.51
41.0,14.0,30.02,-4.23
42.0,14.0,29.19,-3.95
43.0,14.0,28.36,-3.67
44.0,14.0,27.54,-3.39
45.0,14.0,26.71,-3.11
46.0,14.0,25.89,-2.83
47.0,14.0,25.06,-2.56
48.0,14.0,24.24,-2.28
49.0,14.0,23.41,-2.0
50.0,14.0,22.58,-1.72
51.0,14.0,21.76,-1.44
52.0,14.0,20.93,-1.16
53.0,14.0,20.11,-0.88
54.0,14.0,19.28,-0.6
55.0,14.0,18.46,-0.32
56.0,14.0,17.63,-0.04
57.0,12.84,17.5,0.0
58.0,11.45,17.5,0.0
59.0,10.07,17.5,0.0
60.0,8.68,17.5,0.0
61.0,7.3,17.5,0.0
62.0,5.92,17.5,0.0
63.0,4.53,17.5,0.0
64.0,3.15,17.5,0.0
65.0,1.77,17.5,0.0
66.0,0.38,17.5,0.0
67.0,0.0,16.49,0.0
68.0,0.0,15.09,0.0
69.0,0.0,13.7,0.0
70.0,0.0,12.3,0.0
71.0,0.0,10.91,0.0
72.0,0.0,9.51,0.0
73.0,0.0,8.12,0.0
74.0,0.0,6.72,0.0
75.0,0.0,5.33,0.0
76.0,0.0,3.93,0.0
77.0,0.0,2.53,0.0
78.0,0.0,1.14,0.0
79.0,0.0,0.0,0.0
