0.0,0.0,0.0,0.0
1.0,1.15,0.0,0.0
2.0,2.3,0.0,0.0
3.0,3.45,0.0,0.0
4.0,4.6,0.0,0.0
5.0,5.75,0.0,0.0
6.0,6.9,0.0,0.0
7.0,8.05,0.0,0.0
8.0,9.2,0.0,0.0
9.0,10.35,0.0,0.0
10.0,11.5,0.0,0.0
11.0,12.65,0.0,0.0
12.0,13.8,0.0,0.0
13.0,14.0,0.62,-0.21
14.0,14.0,1.37,-0.46
15.0,14.0,2.13,-0.72
16.0,14.0,2.88,-0.97
17.0,14.0,3.63,-1.23
18.0,14.0,4.38,-1.48
19.0,14.0,5.14,-1.74
20.0,14.0,5.89,-1.99
21.0,14.0,6.64,-2.24
22.0,14.0,7.4,-2.5
23.0,14.0,8.15,-2.75
24.0,14.0,8.9,-3.01
25.0,14.0,9.65,-3.26
26.0,14.0,10.41,-3.52
27.0,14.0,11.16,-3.77
28.0,14.0,11.91,-4.03
29.0,14.0,12.67,-4.28
30.0,14.0,13.42,-4.53
31.0,14.0,14.17,-4.79
32.0,13.19,14.5,-4.9
33.0,11.74,14.5,-4.9
34.0,11.3,13.78,-4.9
35.0,11.3,12.73,-4.9
36.0,11.3,11.69,-4.9
37.0,11.3,10.65,-4.9
38.0,11.3,9.6,-4.9
39.0,11.3,8.56,-4.9
40.0,11.3,7.51,-4.9
41.0,11.3,6.47,-4.9
42.0,11.3,5.43,-4.9
43.0,11.3,4.6,-4.9
44.0,11.3,5.45,-4.9
45.0,11.3,6.31,-4.9
46.0,11.3,7.16,-4.9
47.0,11.3,8.02,-4.9
48.0,11.3,8.87,-4.9
49.0,11.3,9.73,-4.9
50.0,11.3,10.58,-4.9
51.0,11.3,11.44,-4.9
52.0,11.3,12.3,-4.9
53.0,11.3,13.15,-4.9
54.0,11.3,14.01,-4.9
55.0,11.71,14.5,-4.9
56.0,12.69,14.5,-4.9
57.0,13.67,14.5,-4.9
58.0,14.0,14.04,-4.75
59.0,14.0,13.36,-4.51
60.0,14.0,12.67,-4.28
61.0,14.0,11.98,-4.05
62.0,14.0,11.29,-3.82
63.0,14.0,10.6,-3.58
64.0,14.0,9.91,-3.35
65.0,14.0,9.23,-3.12
66.0,14.0,8.54,-2.89
67.0,14.0,7.85,-2.65
68.0,14.0,7.16,-2.42
69.0,14.0,6.47,-2.19
70.0,14.0,5.79,-1.96
71.0,14.0,5.1,-1.72
72.0,14.0,4.41,-1.49
73.0,14.0,3.72,-1.26
74.0,14.0,3.03,-1.02
75.0,14.0,2.34,-0.79
76.0,14.0,1.66,-0.56
77.0,14.0,0.97,-0.33
78.0,14.0,0.28,-0.09
79.0,14.64,0.0,0.0
80.0,15.73,0.0,0.0
81.0,16.81,0.0,0.0
82.0,17.9,0.0,0.0
83.0,18.99,0.0,0.0
84.0,20.07,0.0,0.0
85.0,21.16,0.0,0.0
86.0,22.0,-0.25,0.0
87.0,22.0,-1.35,0.0
88.0,22.0,-2.45,0.0
89.0,22.0,-3.55,0.0
90.0,22.0,-4.65,0.0
91.0,22.0,-5.75,0.0
92.0,22.0,-6.85,0.0
93.0,22.0,-7.95,0.0
94.0,22.0,-9.06,0.0
95.0,22.0,-10.16,0.0
96.0,22.0,-11.26,0.0
97.0,22.0,-12.36,0.0
98.0,22.0,-13.46,0.0
99.0,22.0,-14.56,0.0
100.0,22.0,-15.66,0.0
101.0,22.0,-16.77,0.0
102.0,21.63,-17.5,0.0
103.0,20.5,-17.5,0.0
104.0,19.38,-17.5,0.0
105.0,18.25,-17.5,0.0
106.0,17.13,-17.5,0.0
107.0,16.01,-17.5,0.0
108.0,14.88,-17.5,0.0
109.0,13.76,-17.5,0.0
110.0,12.64,-17.5,0.0
111.0,11.51,-17.5,0.0
112.0,10.39,-17.5,0.0
113.0,9.27,-17.5,0.0
114.0,8.14,-17.5,0.0
115.0,7.2,-17.31,0.0
116.0,7.2,-16.17,0.0
117.0,7.2,-15.03,0.0
118.0,7.2,-13.89,0.0
119.0,7.2,-12.74,0.0
120.0,7.2,-11.6,0.0
121.0,7.2,-10.46,0.0
122.0,7.2,-9.31,0.0
123.0,7.2,-8.17,0.0
124.0,7.2,-7.03,0.0
125.0,7.2,-5.88,0.0
126.0,7.2,-4.74,0.0
127.0,7.2,-3.6,0.0
128.0,7.2,-2.45,0.0
129.0,7.2,-1.31,0.0
130.0,7.2,-0.17,0.0
131.0,6.41,0.0,0.0
132.0,5.48,0.0,0.0
133.0,4.56,0.0,0.0
134.0,3.63,0.0,0.0
135.0,2.7,0.0,0.0
136.0,1.78,0.0,0.0
137.0,0.85,0.0,0.0
138.0,0.0,0.0,0.0
