0.0,0.0,0.0,0.0
1.0,1.12,0.0,0.0
2.0,2.23,0.0,0.0
3.0,3.35,0.0,0.0
4.0,4.47,0.0,0.0
5.0,5.58,0.0,0.0
6.0,6.7,0.0,0.0
7.0,7.2,0.83,0.0
8.0,7.2,2.33,0.0
9.0,7.2,3.83,0.0
10.0,7.2,5.33,0.0
11.0,7.2,6.84,0.0
12.0,7.2,8.34,0.0
13.0,7.2,9.84,0.0
14.0,7.2,11.34,0.0
15.0,7.2,12.84,0.0
16.0,7.2,14.35,0.0
17.0,7.2,15.85,0.0
18.0,7.2,17.35,0.0
19.0,8.62,17.5,0.0
20.0,10.19,17.5,0.0
21.0,11.77,17.5,0.0
22.0,13.34,17.5,0.0
23.0,14.0,17.97,-0.16
24.0,14.0,18.79,-0.43
25.0,14.0,19.6,-0.71
26.0,14.0,20.41,-0.98
27.0,14.0,21.23,-1.26
28.0,14.0,22.04,-1.53
29.0,14.0,22.85,-1.81
30.0,14.0,23.67,-2.08
31.0,14.0,24.48,-2.36
32.0,14.0,25.29,-2.63
33.0,14.0,26.1,-2.91
34.0,14.0,26.92,-3.18
35.0,14.0,27.73,-3.46
36.0,14.0,28.54,-3.73
37.0,14.0,29.36,-4.01
38.0,14.0,30.17,-4.28
39.0,14.0,30.98,-4.56
40.0,14.0,31.8,-4.83
41.0,14.0,31.39,-4.69
42.0,14.0,30.58,-4.42
43.0,14.0,29.76,-4.14
44.0,14.0,28.95,-3.87
45.0,14.0,28.14,-3.6
46.0,14.0,27.33,-3.32
47.0,14.0,26.51,-3.05
48.0,14.0,25.7,-2.77
49.0,14.0,24.89,-2.5
50.0,14.0,24.07,-2.22
51.0,14.0,23.26,-1.95
52.0,14.0,22.45,-1.67
53.0,14.0,21.64,-1.4
54.0,14.0,20.82,-1.12
55.0,14.0,20.01,-0.85
56.0,14.0,19.2,-0.57
57.0,14.0,18.39,-0.3
58.0,14.0,17.57,-0.02
59.0,12.66,17.5,0.0
60.0,11.19,17.5,0.0
61.0,9.71,17.5,0.0
62.0,8.24,17.5,0.0
63.0,6.77,17.5,0.0
64.0,5.3,17.5,0.0
65.0,3.83,17.5,0.0
66.0,2.35,17.5,0.0
67.0,0.88,17.5,0.0
68.0,0.0,16.96,0.0
69.0,0.0,15.61,0.0
70.0,0.0,14.26,0.0
71.0,0.0,12.9,0.0
72.0,0.0,11.55,0.0
73.0,0.0,10.2,0.0
74.0,0.0,8.85,0.0
75.0,0.0,7.5,0.0
76.0,0.0,6.15,0.0
77.0,0.0,4.8,0.0
78.0,0.0,3.45,0.0
79.0,0.0,2.09,0.0
80.0,0.0,0.74,0.0
81.0,0.0,0.0,0.0
