1.4386608705366728E9,1004.308
1.4386608705707607E9,1004.40796
1.438660870603964E9,1004.378
1.4386608706362517E9,1004.40796
1.438660870671469E9,1004.338
1.4386608707046416E9,1004.338
1.4386608707369292E9,1004.308
1.4386608707743437E9,1004.338
1.438660870809744E9,1004.338
1.4386608708398955E9,1004.378
1.4386608708751433E9,1004.4679
1.438660870910391E9,1004.4379
1.4386608709406035E9,1004.378
1.4386608709758205E9,1004.4379
1.4386608710110989E9,1004.40796
1.4386608710413113E9,1004.40796
1.4386608710765593E9,1004.4379
1.438660871111807E9,1004.50793
1.4386608711420195E9,1004.50793
1.4386608711772673E9,1004.40796
1.438660871212515E9,1004.338
1.4386608712427275E9,1004.378
1.4386608712781224E9,1004.40796
1.43866087131337E9,1004.4379
1.4386608713435826E9,1004.4379
1.4386608713788302E9,1004.50793
1.438660871414078E9,1004.4379
1.4386608714442904E9,1004.4379
1.4386608714795382E9,1004.4379
1.4386608715147862E9,1004.4379
1.4386608715449984E9,1004.50793
1.4386608715802464E9,1004.4379
1.438660871615494E9,1004.4379
1.4386608716457067E9,1004.378
1.4386608716809542E9,1004.50793
1.4386608717161105E9,1004.378
1.438660871746384E9,1004.50793
1.4386608717816136E9,1004.40796
1.4386608718168616E9,1004.50793
1.4386608718471045E9,1004.4379
1.438660871882352E9,1004.4379
1.4386608719176307E9,1004.4379
1.438660871947782E9,1004.4379
1.4386608719830604E9,1004.40796
1.4386608720183082E9,1004.4379
1.43866087204849E9,1004.50793
1.4386608720837684E9,1004.378
1.438660872119016E9,1004.4679
1.4386608721491978E9,1004.40796
1.4386608721845374E9,1004.378
1.4386608722196631E9,1004.4379
1.438660872249906E9,1004.50793
1.438660872285123E9,1004.50793
1.4386608723205235E9,1004.40796
1.4386608723506446E9,1004.4379
1.4386608723858924E9,1004.338
1.43866087242114E9,1004.40796
1.4386608724513524E9,1004.4679
1.4386608724866004E9,1004.378
1.4386608725218787E9,1004.378
1.438660872552091E9,1004.40796
1.438660872587339E9,1004.4679
1.4386608726225867E9,1004.378
1.4386608726527991E9,1004.40796
1.4386608726881025E9,1004.378
1.4386608727232893E9,1004.50793
1.438660872753532E9,1004.4379
1.438660872788719E9,1004.40796
1.4386608728240278E9,1004.40796
1.4386608728542097E9,1004.40796
1.4386608728894575E9,1004.338
1.4386608729247663E9,1004.378
1.4386608729549787E9,1004.40796
1.4386608729902265E9,1004.338
1.438660873025474E9,1004.378
1.4386608730556867E9,1004.378
1.4386608730909343E9,1004.40796
1.4386608731261823E9,1004.40796
1.4386608731563337E9,1004.40796
1.4386608731915815E9,1004.40796
1.438660873226829E9,1004.40796
1.4386608732570415E9,1004.4679
1.4386608732922893E9,1004.378
1.4386608733275678E9,1004.4379
1.4386608733577497E9,1004.4379
1.438660873393028E9,1004.4379
1.4386608734282758E9,1004.378
1.4386608734585185E9,1004.40796
1.4386608734937665E9,1004.5379
1.4386608735290143E9,1004.40796
1.4386608735589824E9,1004.4379
1.4386608735944746E9,1004.4379
1.4386608736297529E9,1004.4379
1.4386608736599348E9,1004.4679
1.4386608736951823E9,1004.4379
1.4386608737303693E9,1004.40796
1.4386608737605817E9,1004.40796
1.43866087379586E9,1004.40796
1.4386608738311076E9,1004.4379
1.4386608738613203E9,1004.40796
1.4386608738965678E9,1004.4379
1.4386608739318159E9,1004.378
1.438660873962028E9,1004.40796
1.438660873997276E9,1004.40796
1.4386608740325239E9,1004.40796
1.4386608740627363E9,1004.40796
1.438660874097984E9,1004.40796
1.4386608741332316E9,1004.40796
1.4386608741634443E9,1004.348
1.4386608741986918E9,1004.40796
1.4386608742339702E9,1004.348
1.4386608742641826E9,1004.348
1.4386608742994306E9,1004.40796
1.4386608743346784E9,1004.4379
1.4386608743648603E9,1004.50793
1.4386608744001386E9,1004.40796
1.4386608744353254E9,1004.50793
1.4386608744655683E9,1004.4379
1.4386608745008159E9,1004.348
1.438660874536064E9,1004.4679
1.4386608745664177E9,1004.40796
1.4386608746016653E9,1004.4679
1.4386608746369133E9,1004.4679
1.4386608746671257E9,1004.40796
1.4386608747023735E9,1004.378
1.4386608747376823E9,1004.40796
1.4386608747678642E9,1004.378
1.438660874803112E9,1004.4379
1.4386608748381157E9,1004.50793
1.4386608748685722E9,1004.4379
1.438660874903759E9,1004.4679
1.4386608749390068E9,1004.4679
1.4386608749692192E9,1004.308
1.438660875004467E9,1004.378
1.4386608750397453E9,1004.4379
1.4386608750699577E9,1004.378
1.4386608751052055E9,1004.348
1.438660875140453E9,1004.50793
1.4386608751706047E9,1004.4379
1.4386608752059135E9,1004.4679
1.4386608752411613E9,1004.4379
1.4386608752713737E9,1004.40796
1.438660875306591E9,1004.378
1.4386608753418999E9,1004.378
1.4386608753720512E9,1004.378
1.4386608754075127E9,1004.40796
1.4386608754426079E9,1004.40796
1.4386608754727592E9,1004.40796
1.4386608755080628E9,1004.40796
1.4386608755433717E9,1004.4679
1.438660875573584E9,1004.4379
1.438660875608832E9,1004.4679
1.4386608756440794E9,1004.348
1.438660875674292E9,1004.40796
1.4386608757095397E9,1004.348
1.4386608757447875E9,1004.40796
1.4386608757749693E9,1004.40796
1.4386608758102782E9,1004.40796
1.4386608758455262E9,1004.40796
1.4386608758757384E9,1004.40796
1.4386608759115357E9,1004.40796
1.4386608759462342E9,1004.40796
1.4386608759764466E9,1004.40796
1.4386608760116637E9,1004.4379
1.4386608760468812E9,1004.40796
1.4386608760770934E9,1004.4679
1.4386608761121275E9,1004.40796
1.4386608761476197E9,1004.4679
1.4386608761778321E9,1004.348
1.43866087621308E9,1004.348
1.4386608762483275E9,1004.348
1.4386608762785401E9,1004.378
1.4386608763138185E9,1004.40796
1.438660876349585E9,1004.348
1.4386608763798277E9,1004.378
1.438660876415106E9,1004.378
1.438660876450354E9,1004.378
1.438660876480536E9,1004.348
1.4386608765151427E9,1004.348
1.438660876550421E9,1004.4379
1.438660876580603E9,1004.50793
1.438660876615851E9,1004.40796
1.4386608766511595E9,1004.4379
1.438660876681372E9,1004.40796
1.43866087671662E9,1004.4779
1.4386608767518678E9,1004.50793
1.4386608767820802E9,1004.50793
1.438660876817328E9,1004.4779
1.4386608768525755E9,1004.4379
1.438660876883429E9,1004.378
1.4386608769186156E9,1004.378
1.4386608769533446E9,1004.378
1.4386608769835265E9,1004.4379
1.438660877018744E9,1004.40796
1.4386608770539918E9,1004.378
1.4386608770841737E9,1004.4779
1.4386608771194212E9,1004.4779
1.4386608771546996E9,1004.40796
1.4386608771848814E9,1004.378
1.4386608772201598E9,1004.4379
1.4386608772554078E9,1004.4379
1.43866087728562E9,1004.348
1.438660877320868E9,1004.378
1.4386608773561158E9,1004.40796
1.4386608773862865E9,1004.5379
1.4386608774217782E9,1004.4779
1.4386608774570565E9,1004.378
1.4386608774872692E9,1004.40796
1.4386608775225167E9,1004.378
1.4386608775577648E9,1004.4779
1.4386608775885265E9,1004.40796
1.4386608776231945E9,1004.40796
1.4386608776584423E9,1004.378
1.4386608776886241E9,1004.40796
1.438660877723872E9,1004.378
1.4386608777591503E9,1004.4379
1.4386608777893624E9,1004.4779
1.4386608778246105E9,1004.4779
1.4386608778598583E9,1004.4379
1.4386608778900707E9,1004.40796
1.438660877925349E9,1004.308
1.4386608779606273E9,1004.348
1.4386608779908397E9,1004.378
1.4386608780260875E9,1004.40796
1.4386608780613353E9,1004.348
1.4386608780920663E9,1004.308
1.4386608781273143E9,1004.40796
1.4386608781619518E9,1004.50793
1.4386608781921642E9,1004.4379
1.438660878227412E9,1004.308
1.43866087826269E9,1004.378
1.4386608782929027E9,1004.4379
1.4386608783281448E9,1004.378
1.4386608783633926E9,1004.4379
1.4386608783935745E9,1004.348
1.4386608784288528E9,1004.4379
1.4386608784641616E9,1004.308
1.4386608784943435E9,1004.378
1.4386608785295913E9,1004.40796
1.4386608785653884E9,1004.378
1.4386608785956314E9,1004.4379
1.4386608786308486E9,1004.348
1.4386608786658523E9,1004.378
1.4386608786962783E9,1004.378
1.4386608787315261E9,1004.4779
1.4386608787662857E9,1004.40796
1.438660878796437E9,1004.40796
1.4386608788316543E9,1004.348
1.4386608788669326E9,1004.4779
1.438660878897145E9,1004.40796
1.4386608789323928E9,1004.378
1.4386608789676406E9,1004.4379
1.438660878997853E9,1004.40796
1.4386608790331008E9,1004.4379
1.4386608790683486E9,1004.378
1.4386608790985916E9,1004.50793
1.4386608791338394E9,1004.4779
1.4386608791690261E9,1004.4379
1.438660879199269E9,1004.40796
1.4386608792345169E9,1004.4779
1.4386608792697647E9,1004.4779
1.438660879299977E9,1004.378
1.4386608793352249E9,1004.4379
1.438660879370473E9,1004.50793
1.4386608794006548E9,1004.4779
1.4386608794359634E9,1004.40796
1.4386608794712112E9,1004.378
1.438660879501393E9,1004.4779
1.4386608795367022E9,1004.378
1.4386608795724685E9,1004.4379
1.4386608796027725E9,1004.4779
1.4386608796379592E9,1004.40796
1.4386608796777236E9,1004.4379
1.4386608797035108E9,1004.40796
1.4386608797386367E9,1004.4379
1.4386608797738845E9,1004.40796
1.438660879803517E9,1004.40796
1.438660879838765E9,1004.348
1.4386608798739822E9,1004.4379
1.4386608799041946E9,1004.378
1.4386608799394426E9,1004.40796
1.4386608799747207E9,1004.4379
1.4386608800049026E9,1004.378
1.438660880040181E9,1004.378
1.4386608800754287E9,1004.4379
1.4386608801056411E9,1004.4779
1.438660880140889E9,1004.4779
1.4386608801761367E9,1004.4379
1.4386608802065516E9,1004.40796
1.4386608802417994E9,1004.4779
1.4386608802770777E9,1004.4379
1.438660880307229E9,1004.4779
1.4386608803424463E9,1004.40796
1.4386608803777552E9,1004.4379
1.4386608804081202E9,1004.40796
1.4386608804431846E9,1004.5379
1.4386608804784632E9,1004.4379
1.4386608805086756E9,1004.40796
1.4386608805439234E9,1004.4379
1.4386608805791712E9,1004.378
1.438660880609994E9,1004.378
1.4386608806452417E9,1004.40796
1.438660880680398E9,1004.378
1.438660880710702E9,1004.378
1.4386608807459192E9,1004.378
1.4386608807811365E9,1004.4379
1.4386608808113794E9,1004.40796
1.4386608808465662E9,1004.378
1.4386608808812952E9,1004.348
1.4386608809115076E9,1004.4779
1.4386608809467554E9,1004.4379
1.4386608809820032E9,1004.378
1.4386608810122156E9,1004.378
1.4386608810474634E9,1004.378
1.4386608810827112E9,1004.40796
1.4386608811129236E9,1004.378
1.4386608811483798E9,1004.40796
1.4386608811836274E9,1004.40796
1.43866088121384E9,1004.4779
1.4386608812490876E9,1004.4379
1.4386608812843354E9,1004.40796
1.4386608813153415E9,1004.4379
1.4386608813511078E9,1004.378
1.4386608813856537E9,1004.4379
1.4386608814158356E9,1004.378
1.4386608814507477E9,1004.4379
1.4386608814857209E9,1004.348
1.438660881515964E9,1004.50793
1.4386608815512116E9,1004.308
1.438660881586429E9,1004.308
1.4386608816166847E9,1004.378
1.438660881651902E9,1004.40796
1.4386608816871803E9,1004.40796
1.4386608817173622E9,1004.4379
1.4386608817526405E9,1004.348
1.4386608817878578E9,1004.4379
1.438660881818711E9,1004.4379
1.4386608818539894E9,1004.378
1.4386608818893287E9,1004.5379
1.4386608819193885E9,1004.4779
1.4386608819546669E9,1004.4779
1.4386608819899147E9,1004.4779
1.4386608820195167E9,1004.378
1.438660882054795E9,1004.4779
1.4386608820900123E9,1004.40796
1.438660882120225E9,1004.50793
1.4386608821554725E9,1004.40796
1.4386608821907203E9,1004.5379
1.4386608822209327E9,1004.4779
1.4386608822561805E9,1004.4379
1.4386608822914283E9,1004.348
1.4386608823216407E9,1004.4779
1.4386608823574686E9,1004.378
1.4386608823926857E9,1004.50793
1.4386608824230506E9,1004.4379
1.4386608824581764E9,1004.40796
1.4386608824934242E9,1004.50793
1.4386608825233927E9,1004.4779
1.4386608825585432E9,1004.40796
1.4386608825935774E9,1004.40796
1.4386608826237288E9,1004.50793
1.438660882659007E9,1004.4779
1.4386608826942546E9,1004.4779
1.438660882724406E9,1004.4779
1.4386608827596843E9,1004.40796
