1.4386610120655036E9,760.3421
1.4386610121069772E9,1004.95764
1.4386610121404853E9,1004.94763
1.4386610121724067E9,1005.0076
1.4386610122076545E9,1005.0576
1.4386610122411933E9,1005.1476
1.4386610122731147E9,1005.17755
1.438661012308393E9,1005.2075
1.4386610123420236E9,1005.15753
1.4386610123738532E9,1005.10754
1.4386610124090705E9,1005.1476
1.4386610124426093E9,1005.1875
1.4386610124745307E9,1005.2575
1.4386610125097785E9,1005.3474
1.4386610125433784E9,1005.4174
1.4386610125752997E9,1005.4374
1.4386610126104865E9,1005.48737
1.4386610126440864E9,1005.5873
1.4386610126759772E9,1005.6273
1.4386610127111945E9,1005.6173
1.438661012744947E9,1005.57733
1.4386610127766547E9,1005.5673
1.438661012811933E9,1005.6173
1.4386610128454719E9,1005.6073
1.4386610128773932E9,1005.4974
1.438661012912641E9,1005.4474
1.4386610129463325E9,1005.4574
1.4386610129781013E9,1005.48737
1.4386610130133493E9,1005.53735
1.43866101304701E9,1005.57733
1.438661013078962E9,1005.6073
1.438661013114057E9,1005.66724
1.4386610131476874E9,1005.73724
1.4386610131794868E9,1005.7172
1.438661013214765E9,1005.6273
1.4386610132494025E9,1005.5673
1.4386610132802558E9,1005.53735
1.4386610133154426E9,1005.6273
1.438661013349958E9,1005.7672
1.4386610133810248E9,1005.9171
1.4386610134162424E9,1006.077
1.4386610134505744E9,1006.147
1.4386610134816413E9,1006.10706
1.4386610135169196E9,1006.067
1.438661013551374E9,1006.0271
1.4386610135824409E9,1006.0271
1.4386610136175666E9,1006.03705
1.4386610136518989E9,1005.98706
1.438661013684217E9,1005.89716
1.438661013718305E9,1005.84717
1.4386610137524543E9,1005.7972
1.4386610137844672E9,1005.83716
1.438661013819013E9,1005.8572
1.4386610138531318E9,1005.84717
1.4386610138852057E9,1005.84717
1.4386610139196906E9,1005.82715
1.4386610139537787E9,1005.7672
1.4386610139856696E9,1005.72723
1.4386610140203986E9,1005.5573
1.4386610140544257E9,1005.4174
1.4386610140863166E9,1005.27747
1.4386610141211069E9,1005.1476
1.4386610141549811E9,1005.10754
1.438661014187055E9,1005.11755
1.4386610142220285E9,1005.0976
1.4386610142557502E9,1005.0276
1.4386610142878242E9,1004.9877
1.4386610143225837E9,1005.01764
1.4386610143563058E9,1005.0876
1.4386610143883798E9,1005.1376
1.4386610144232612E9,1005.22754
1.4386610144569526E9,1005.2975
1.4386610144892097E9,1005.36743
1.4386610145240302E9,1005.4174
1.438661014557569E9,1005.4974
1.438661014589643E9,1005.42737
1.4386610146246467E9,1005.3974
1.4386610146583686E9,1005.4074
1.4386610146902292E9,1005.32745
1.4386610147254157E9,1005.1975
1.438661014758924E9,1005.11755
1.4386610147908149E9,1005.10754
1.438661014826124E9,1005.10754
1.4386610148596015E9,1005.0976
1.4386610148914924E9,1005.12756
1.4386610149276254E9,1005.1875
1.4386610149604318E9,1005.2475
1.4386610149922614E9,1005.2975
1.4386610150283332E9,1005.4574
1.4386610150610483E9,1005.5873
1.4386610150929084E9,1005.63727
1.4386610151287665E9,1005.6473
1.4386610151617255E9,1005.4974
1.438661015193586E9,1005.4074
1.4386610152291389E9,1005.32745
1.4386610152623115E9,1005.2975
1.4386610152942026E9,1005.26746
1.438661015329786E9,1005.2075
1.43866101536305E9,1005.11755
1.438661015394941E9,1005.0476
1.4386610154304633E9,1005.0276
1.4386610154637275E9,1005.0876
1.4386610154956183E9,1005.11755
1.4386610155310493E9,1005.2075
1.438661015564466E9,1005.32745
1.4386610155963569E9,1005.4474
1.4386610156316962E9,1005.5573
1.4386610156651437E9,1005.6173
1.4386610156970344E9,1005.5673
1.4386610157324347E9,1005.5073
1.4386610157658515E9,1005.4574
1.438661015797773E9,1005.3474
1.4386610158330817E9,1005.1975
1.4386610158665595E9,1005.0976
1.438661015898481E9,1005.0476
1.4386610159336982E9,1005.0276
1.438661015967298E9,1005.0576
1.4386610159991584E9,1005.0776
1.4386610160344367E9,1005.12756
1.438661016068006E9,1005.15753
1.4386610160998664E9,1005.1975
1.4386610161351447E9,1005.26746
1.4386610161686835E9,1005.3974
1.438661016200605E9,1005.51733
1.4386610162358527E9,1005.6073
1.4386610162693915E9,1005.48737
1.4386610163012824E9,1005.4174
1.4386610163365607E9,1005.3974
1.43866101637013E9,1005.36743
1.438661016402021E9,1005.33746
1.4386610164372687E9,1005.22754
1.438661016470838E9,1005.1476
1.438661016502729E9,1005.0676
1.4386610165379767E9,1005.01764
1.4386610165715463E9,1005.0476
1.4386610166034064E9,1005.0976
1.4386610166386847E9,1005.15753
1.438661016672254E9,1005.2375
1.4386610167041144E9,1005.33746
1.4386610167393928E9,1005.4174
1.438661016772962E9,1005.48737
1.438661016804853E9,1005.48737
1.4386610168401008E9,1005.4574
1.4386610168736703E9,1005.4574
1.438661016905561E9,1005.31744
1.4386610169408088E9,1005.1975
1.4386610169743476E9,1005.0976
1.438661017006269E9,1005.0976
1.4386610170414865E9,1005.0776
1.438661017075086E9,1005.12756
1.4386610171069772E9,1005.1476
1.4386610171422248E9,1005.17755
1.4386610171757944E9,1005.1975
1.438661017207685E9,1005.2075
1.4386610172429328E9,1005.27747
1.4386610172765021E9,1005.31744
1.438661017308393E9,1005.36743
1.4386610173436408E9,1005.4474
1.4386610173772101E9,1005.4074
1.4386610174091012E9,1005.32745
1.4386610174443183E9,1005.2075
1.4386610174778876E9,1005.1875
1.4386610175097785E9,1005.2475
1.4386610175450568E9,1005.17755
1.4386610175786262E9,1005.0676
1.438661017610517E9,1005.0476
1.438661017645765E9,1004.9976
1.438661017679304E9,1004.97766
1.4386610177111945E9,1005.0276
1.4386610177464423E9,1005.0776
1.4386610177800424E9,1005.12756
1.4386610178119025E9,1005.1975
1.4386610178471808E9,1005.2975
1.4386610178807502E9,1005.4074
1.438661017912641E9,1005.4474
1.4386610179478583E9,1005.42737
1.438661017981428E9,1005.37744
1.4386610180133493E9,1005.27747
1.4386610180485969E9,1005.1476
1.4386610180830207E9,1005.12756
1.438661018114057E9,1005.0476
1.4386610181493049E9,1004.9976
1.4386610181836371E9,1004.97766
1.438661018214765E9,1004.96765
1.438661018250013E9,1004.95764
1.4386610182842536E9,1004.9877
1.4386610183154733E9,1005.0576
1.438661018350721E9,1005.1476
1.43866101838487E9,1005.2475
1.438661018416181E9,1005.3075
1.438661018451429E9,1005.3974
1.438661018485456E9,1005.36743
1.4386610185175912E9,1005.2475
1.4386610185521064E9,1005.16754
1.4386610185860724E9,1005.0776
1.438661018618177E9,1005.0776
1.438661018652845E9,1005.11755
1.4386610186866584E9,1005.0776
1.4386610187187324E9,1005.0276
1.438661018753553E9,1004.96765
1.4386610187872443E9,1004.95764
1.4386610188193183E9,1004.9976
1.4386610188542612E9,1005.0276
1.4386610188878608E9,1005.0476
1.4386610189199347E9,1005.12756
1.438661018954969E9,1005.2375
1.438661018988569E9,1005.3574
1.4386610190205512E9,1005.4074
1.438661019055677E9,1005.33746
1.4386610190892463E9,1005.26746
1.4386610191211982E9,1005.33746
1.438661019156385E9,1005.27747
1.4386610191899543E9,1005.0876
1.4386610192218451E9,1005.0076
1.438661019257093E9,1004.9277
1.4386610192906623E9,1004.8777
1.4386610193225532E9,1004.8577
1.438661019357801E9,1004.9077
1.4386610193913398E9,1005.0076
1.4386610194232612E9,1005.0776
1.438661019458509E9,1005.12756
1.4386610194920478E9,1005.2575
1.4386610195239692E9,1005.36743
1.4386610195600715E9,1005.4374
1.4386610195927558E9,1005.4374
1.4386610196246772E9,1005.2875
1.4386610196606271E9,1005.1476
1.4386610196934943E9,1005.12756
1.4386610197253852E9,1005.16754
1.4386610197612128E9,1005.16754
1.4386610197942026E9,1005.0776
1.4386610198260627E9,1005.0076
1.4386610198617988E9,1004.9277
1.4386610198949103E9,1004.9077
1.4386610199267707E9,1004.9277
1.4386610199624457E9,1005.0276
1.4386610199955878E9,1005.10754
1.4386610200274787E9,1005.2475
1.4386610200630927E9,1005.3474
1.4386610200963266E9,1005.4374
1.4386610201282172E9,1005.4574
1.4386610201637092E9,1005.38745
1.4386610201970038E9,1005.32745
1.4386610202288947E9,1005.1975
1.4386610202643256E9,1005.0576
1.4386610202977424E9,1005.0076
1.4386610203296335E9,1004.95764
1.4386610203649726E9,1004.91766
1.4386610203984199E9,1004.95764
1.4386610204303107E9,1005.0076
1.438661020465589E9,1005.0776
1.4386610204991584E9,1005.12756
1.4386610205310493E9,1005.15753
1.4386610205662973E9,1005.22754
1.438661020599836E9,1005.3474
1.4386610206317575E9,1005.42737
1.4386610206669745E9,1005.4574
1.4386610207005746E9,1005.33746
1.4386610207324347E9,1005.1975
1.438661020767713E9,1005.1875
1.4386610208012824E9,1005.1875
1.4386610208331428E9,1005.2075
1.4386610208684213E9,1005.1476
1.4386610209019601E9,1005.0276
1.4386610209338815E9,1004.97766
1.4386610209690986E9,1004.95764
1.4386610210026984E9,1004.95764
1.4386610210345893E9,1005.0476
1.438661021069837E9,1005.1376
1.438661021103376E9,1005.22754
1.438661021135267E9,1005.3075
1.4386610211705453E9,1005.3974
1.4386610212041144E9,1005.48737
1.4386610212359748E9,1005.3974
1.4386610212712226E9,1005.3075
1.4386610213048224E9,1005.3075
1.4386610213367133E9,1005.2075
1.438661021371961E9,1005.0776
1.4386610214055305E9,1005.0076
1.438661021437391E9,1004.97766
1.4386610214726694E9,1004.95764
1.4386610215062082E9,1004.9976
1.4386610215380988E9,1005.0776
1.4386610215735297E9,1005.1376
1.4386610216069465E9,1005.15753
1.4386610216388068E9,1005.2475
1.4386610216740549E9,1005.33746
1.438661021707624E9,1005.38745
1.438661021739515E9,1005.4374
1.4386610217747934E9,1005.36743
1.4386610218083322E9,1005.2575
1.4386610218402228E9,1005.22754
1.4386610218754706E9,1005.1875
1.4386610219090705E9,1005.1376
1.4386610219409614E9,1005.0676
1.4386610219762044E9,1004.95764
1.4386610220097432E9,1004.91766
1.4386610220416646E9,1004.8877
1.4386610220769122E9,1004.9377
1.4386610221104817E9,1004.9976
1.438661022142342E9,1005.0576
1.43866102217759E9,1005.1875
1.4386610222111895E9,1005.31744
1.4386610222430806E9,1005.37744
1.4386610222783284E9,1005.4174
1.4386610223118978E9,1005.3474
1.4386610223437886E9,1005.2975
1.4386610223790362E9,1005.2575
1.43866102241346E9,1005.12756
1.4386610224444964E9,1005.0676
1.4386610224797444E9,1004.97766
1.438661022514046E9,1004.8977
1.4386610225452046E9,1004.8877
1.4386610225804524E9,1004.9277
1.4386610226146624E9,1005.0276
1.4386610226459126E9,1005.0676
1.4386610226811602E9,1005.12756
1.438661022715218E9,1005.2475
1.4386610227473528E9,1005.2975
1.4386610227818685E9,1005.33746
1.438661022815865E9,1005.4174
1.438661022847939E9,1005.31744
1.4386610228825765E9,1005.2475
1.4386610229164813E9,1005.17755
1.4386610229485555E9,1005.12756
1.4386610229832842E9,1005.10754
1.4386610230170977E9,1004.97766
1.4386610230491717E9,1004.91766
1.4386610230839925E9,1004.91766
1.438661023117684E9,1004.91766
1.4386610231497881E9,1004.9277
1.4386610231847005E9,1005.0076
1.4386610232183306E9,1005.10754
1.438661023250435E9,1005.22754
1.4386610232854083E9,1005.2975
1.4386610233189776E9,1005.38745
1.4386610233510823E9,1005.4174
1.438661023386086E9,1005.36743
1.4386610234197161E9,1005.31744
1.4386610234516988E9,1005.2975
1.4386610234868245E9,1005.1875
1.4386610235203633E9,1005.0976
1.4386610235523458E9,1005.0476
1.438661023587502E9,1004.9877
1.438661023621071E9,1004.95764
1.4386610236530538E9,1004.96765
1.4386610236882405E9,1005.0376
1.4386610237218099E9,1005.0876
1.4386610237537007E9,1005.1476
1.4386610237889485E9,1005.2475
1.4386610238225179E9,1005.2975
1.4386610238544085E9,1005.3474
1.4386610238896563E9,1005.37744
1.4386610239231951E9,1005.2875
1.4386610239551167E9,1005.2075
1.438661023991097E9,1005.0976
1.438661024023934E9,1005.0576
1.4386610240558248E9,1005.0276
1.438661024091683E9,1004.9377
1.4386610241246111E9,1004.9077
1.4386610241565325E9,1004.9277
1.438661024192238E9,1004.9277
1.4386610242253497E9,1004.96765
1.4386610242572408E9,1005.0576
1.4386610242928545E9,1005.16754
1.438661024326058E9,1005.27747
1.4386610243579488E9,1005.32745
1.438661024393471E9,1005.4174
1.4386610244267352E9,1005.37744
1.438661024458626E9,1005.36743
1.4386610244940875E9,1005.33746
1.4386610245274737E9,1005.2375
1.4386610245593343E9,1005.0976
1.438661024594704E9,1004.9877
1.438661024628182E9,1004.9077
1.4386610246600728E9,1004.8877
1.4386610246953816E9,1004.9077
1.4386610247288592E9,1004.9877
1.4386610247607806E9,1005.0376
1.4386610247960286E9,1005.0776
1.4386610248295977E9,1005.12756
1.4386610248614888E9,1005.2475
1.438661024896706E9,1005.31744
1.438661024930306E9,1005.4174
1.438661024962166E9,1005.3574
1.4386610249974444E9,1005.2975
1.4386610250309832E9,1005.22754
1.4386610250629046E9,1005.1875
1.4386610250981526E9,1005.16754
1.4386610251316915E9,1005.0676
1.4386610251636128E9,1005.0076
1.43866102519883E9,1004.96765
1.43866102523243E9,1004.9377
1.43866102526429E9,1004.95764
1.4386610252995684E9,1005.0276
1.4386610253331072E9,1005.0976
1.4386610253650286E9,1005.17755
1.4386610254002767E9,1005.27747
1.4386610254338458E9,1005.36743
1.4386610254657063E9,1005.42737
1.4386610255009847E9,1005.37744
1.438661025534554E9,1005.3474
1.4386610255664449E9,1005.31744
1.4386610256016622E9,1005.22754
1.4386610256352313E9,1005.15753
1.4386610256671526E9,1005.0576
1.4386610257024007E9,1004.94763
1.4386610257359698E9,1004.9077
1.4386610257678304E9,1004.9377
1.438661025803078E9,1004.9877
1.438661025836678E9,1005.0676
1.438661025868569E9,1005.1376
1.4386610259037862E9,1005.2475
1.4386610259373858E9,1005.36743
1.4386610259692767E9,1005.4174
1.4386610260044942E9,1005.4674
1.4386610260380938E9,1005.3474
1.4386610260699544E9,1005.2475
1.4386610261052327E9,1005.1476
1.4386610261387715E9,1005.0776
1.4386610261706622E9,1005.0276
1.4386610262059102E9,1004.97766
1.4386610262395098E9,1004.9377
1.4386610262714007E9,1004.9277
1.4386610263066182E9,1004.91766
1.4386610263401875E9,1004.9277
1.438661026372109E9,1005.0276
1.438661026407326E9,1005.1476
1.4386610264408956E9,1005.22754
1.4386610264728167E9,1005.3075
1.4386610265080342E9,1005.38745
1.4386610265416033E9,1005.42737
1.4386610265735247E9,1005.36743
1.4386610266087422E9,1005.32745
1.438661026642342E9,1005.2975
1.438661026674233E9,1005.1476
1.43866102670945E9,1005.0476
1.43866102674305E9,1004.9976
1.4386610267749102E9,1004.96765
1.4386610268101885E9,1004.9377
1.4386610268437579E9,1004.95764
1.4386610268756185E9,1004.9976
1.4386610269108968E9,1005.0476
1.438661026945351E9,1005.0776
1.4386610269763265E9,1005.1376
1.438661027011574E9,1005.26746
1.4386610270459979E9,1005.38745
1.4386610270770648E9,1005.42737
1.4386610271122823E9,1005.33746
1.4386610271465838E9,1005.27747
1.438661027177773E9,1005.2175
1.4386610272129903E9,1005.1376
1.4386610272472308E9,1005.10754
1.438661027278481E9,1005.0576
1.438661027313698E9,1004.95764
1.438661027347878E9,1004.91766
1.4386610273792195E9,1004.8977
1.4386610274144366E9,1004.8977
1.438661027448525E9,1004.9277
1.4386610274807515E9,1005.0076
1.4386610275151448E9,1005.16754
1.4386610275492022E9,1005.26746
1.4386610275813067E9,1005.3474
1.4386610276158526E9,1005.4374
1.4386610276498187E9,1005.38745
1.4386610276819234E9,1005.32745
1.4386610277165608E9,1005.2575
1.4386610277504659E9,1005.17755
1.4386610277825398E9,1005.0376
1.4386610278172688E9,1004.95764
1.4386610278510516E9,1004.91766
1.4386610278831563E9,1004.91766
1.4386610279179766E9,1004.9377
1.4386610279516988E9,1005.0076
1.4386610279837728E9,1005.0776
1.4386610280186849E9,1005.0576
1.4386610280522845E9,1005.10754
1.4386610280843585E9,1005.2175
1.4386610281193929E9,1005.26746
1.4386610281529317E9,1005.37744
1.438661028184914E9,1005.32745
1.4386610282201006E9,1005.2375
1.4386610282536702E9,1005.12756
1.4386610282855914E9,1005.0876
1.438661028320809E9,1005.0976
1.438661028354378E9,1005.01764
1.438661028386269E9,1004.95764
1.438661028421517E9,1004.9277
1.4386610284550557E9,1004.9077
1.438661028486977E9,1004.9277
1.438661028522957E9,1004.9877
1.4386610285557942E9,1005.0376
1.4386610285876849E9,1005.11755
1.438661028623543E9,1005.1875
1.438661028656502E9,1005.2375
1.438661028688393E9,1005.2975
1.4386610287242208E9,1005.2975
1.4386610287572103E9,1005.2475
1.4386610287891011E9,1005.27747
1.4386610288248372E9,1005.1476
1.438661028857918E9,1005.0676
1.4386610288897786E9,1004.9877
1.4386610289254537E9,1004.9277
1.438661028958626E9,1004.8877
1.4386610289905171E9,1004.8777
1.4386610290261006E9,1004.8977
1.4386610290593343E9,1004.95764
1.4386610290912251E9,1004.97766
1.4386610291267474E9,1005.0376
1.4386610291600115E9,1005.11755
1.438661029191933E9,1005.1476
1.4386610292273943E9,1005.2375
1.43866102926075E9,1005.22754
1.4386610292926412E9,1005.12756
1.4386610293280416E9,1005.0776
1.4386610293614583E9,1005.0476
1.438661029393349E9,1005.0776
1.438661029428658E9,1005.0976
1.438661029462166E9,1005.01764
1.438661029494057E9,1004.96765
1.4386610295293658E9,1004.8977
1.4386610295628743E9,1004.8677
1.4386610295947347E9,1004.8877
1.438661029630013E9,1004.9077
1.4386610296635518E9,1004.95764
1.438661029695473E9,1005.0776
1.4386610297307208E9,1005.1476
1.4386610297642596E9,1005.26746
1.4386610297961507E9,1005.3075
1.438661029831429E9,1005.26746
1.4386610298649983E9,1005.2175
1.4386610298968892E9,1005.2175
1.4386610299321063E9,1005.0976
1.4386610299656756E9,1004.9976
1.438661029997597E9,1004.96765
1.4386610300328448E9,1004.9377
1.438661030066414E9,1004.9077
1.4386610300983052E9,1004.8877
1.438661030133553E9,1004.9277
1.4386610301670918E9,1004.9877
1.4386610301989827E9,1005.0476
1.4386610302342303E9,1005.10754
1.4386610302678304E9,1005.16754
1.438661030299721E9,1005.1975
1.4386610303349688E9,1005.2375
1.4386610303685076E9,1005.1875
1.4386610304003987E9,1005.11755
1.438661030435677E9,1005.0476
1.4386610304692464E9,1005.01764
1.4386610305011373E9,1005.0276
1.4386610305363543E9,1004.9976
1.4386610305699236E9,1004.91766
1.438661030601845E9,1004.8777
1.4386610306370625E9,1004.8577
1.4386610306706622E9,1004.8877
1.4386610307025533E9,1004.9277
1.4386610307377706E9,1004.95764
1.4386610307713704E9,1005.0476
1.4386610308032613E9,1005.0976
1.4386610308385088E9,1005.1476
1.4386610308720477E9,1005.2375
1.438661030903969E9,1005.2875
1.438661030939217E9,1005.22754
1.4386610309727862E9,1005.17755
1.4386610310046773E9,1005.16754
1.438661031039925E9,1005.0776
1.4386610310734944E9,1004.95764
1.4386610311053545E9,1004.9077
1.4386610311406024E9,1004.8877
1.4386610311742024E9,1004.8877
1.438661031206093E9,1004.94763
1.438661031241341E9,1005.0376
1.4386610312749102E9,1005.0576
1.4386610313067708E9,1005.0776
1.4386610313420184E9,1005.12756
1.438661031375588E9,1005.1476
1.4386610314074786E9,1005.17755
1.4386610314427264E9,1005.1875
1.4386610314762957E9,1005.2375
1.438661031508217E9,1005.2575
1.4386610315434651E9,1005.1975
1.4386610315770342E9,1005.1476
1.4386610316089253E9,1005.0976
1.4386610316441731E9,1005.01764
1.438661031678597E9,1004.9277
1.4386610317096334E9,1004.8877
1.438661031744881E9,1004.91766
1.4386610317792134E9,1004.94763
1.4386610318103411E9,1004.95764
1.4386610318455586E9,1004.97766
1.4386610318797994E9,1005.0676
1.4386610319110494E9,1005.10754
1.4386610319462664E9,1005.12756
1.4386610319803786E9,1005.12756
1.4386610320124526E9,1005.2175
1.4386610320469682E9,1005.2975
1.4386610320809648E9,1005.26746
1.4386610321130996E9,1005.17755
1.438661032147676E9,1005.0976
1.4386610321816115E9,1005.0076
1.4386610322137465E9,1004.95764
1.4386610322484145E9,1004.94763
1.438661032282289E9,1004.95764
1.438661032314363E9,1004.96765
1.4386610323491228E9,1004.95764
1.4386610323829055E9,1004.95764
1.4386610324150102E9,1004.96765
1.4386610324498E9,1004.9976
1.438661032483522E9,1005.0576
1.4386610325156267E9,1005.10754
1.4386610325505385E9,1005.12756
1.4386610325841691E9,1005.11755
1.4386610326162734E9,1005.0476
1.4386610326512468E9,1005.0576
1.438661032684816E9,1005.10754
1.4386610327169204E9,1005.0976
1.4386610327519546E9,1005.0776
1.4386610327855544E9,1005.0076
1.4386610328175673E9,1004.9077
1.4386610328526626E9,1004.8577
1.438661032886232E9,1004.8377
1.4386610329182146E9,1004.8377
1.4386610329533708E9,1004.8477
1.43866103298694E9,1004.8677
1.438661033018831E9,1004.91766
1.438661033054048E9,1004.97766
1.4386610330876482E9,1004.9976
1.4386610331195388E9,1005.0376
1.4386610331547866E9,1005.0476
1.438661033188356E9,1004.97766
1.4386610332202468E9,1004.9277
1.438661033255525E9,1004.8877
1.4386610332890337E9,1004.81775
1.438661033320955E9,1004.7278
1.438661033356935E9,1004.6978
1.4386610333897414E9,1004.6978
1.4386610334216628E9,1004.6978
1.438661033457521E9,1004.6978
1.43866103349048E9,1004.7178
1.4386610335223708E9,1004.76776
1.4386610335581374E9,1004.8677
1.4386610335911577E9,1004.94763
1.4386610336230788E9,1005.0576
1.4386610336587234E9,1005.12756
1.438661033691896E9,1005.1975
1.4386610337237563E9,1005.2975
1.4386610337593398E9,1005.2475
1.4386610337925735E9,1005.1476
1.4386610338244948E9,1005.0976
1.4386610338600173E9,1005.0276
1.438661033893312E9,1004.9277
1.4386610339252028E9,1004.8377
1.4386610339606338E9,1004.7778
1.4386610339939895E9,1004.7478
1.4386610340259109E9,1004.7478
1.4386610340612502E9,1004.7877
1.438661034094728E9,1004.82776
1.4386610341265886E9,1004.91766
1.4386610341618667E9,1005.0276
1.4386610341954057E9,1005.0676
1.4386610342272964E9,1005.17755
1.4386610342626052E9,1005.2975
1.4386610342961135E9,1005.2475
1.4386610343280349E9,1005.16754
1.4386610343632524E9,1005.0776
1.4386610343968215E9,1005.0476
1.438661034428743E9,1005.0076
1.4386610344639602E9,1004.95764
1.4386610344975295E9,1004.9277
1.438661034529451E9,1004.9077
1.4386610345646987E9,1004.9377
1.438661034598268E9,1004.97766
1.438661034630159E9,1005.0276
1.4386610346653764E9,1005.0476
1.4386610346989455E9,1005.10754
1.4386610347308671E9,1005.1975
1.4386610347661147E9,1005.2375
1.4386610347996535E9,1005.32745
1.4386610348315444E9,1005.38745
1.4386610348667922E9,1005.2975
1.4386610349003615E9,1005.16754
1.438661034932283E9,1005.1975
1.4386610349675307E9,1005.16754
1.4386610350011E9,1005.0976
1.4386610350329912E9,1004.9976
1.4386610350682082E9,1004.95764
1.4386610351017776E9,1004.8877
1.438661035133699E9,1004.8577
1.4386610351689467E9,1004.8877
1.438661035202516E9,1004.95764
1.438661035234407E9,1005.01764
1.4386610352696242E9,1005.12756
1.438661035303224E9,1005.2075
1.4386610353351152E9,1005.2975
1.4386610353703322E9,1005.37744
1.4386610354039016E9,1005.37744
1.4386610354357924E9,1005.3574
1.4386610354710402E9,1005.3474
1.4386610355046096E9,1005.17755
1.4386610355365005E9,1004.9877
1.4386610355718398E9,1004.9277
1.438661035605348E9,1004.9277
1.4386610356372392E9,1004.91766
1.4386610356724563E9,1004.9077
1.4386610357060256E9,1004.91766
1.438661035737947E9,1004.9877
1.4386610357731643E9,1004.9976
1.4386610358067641E9,1004.9976
1.438661035838655E9,1005.0876
1.4386610358738723E9,1005.2175
1.4386610359074419E9,1005.33746
1.4386610359393325E9,1005.3974
1.4386610359745803E9,1005.31744
1.4386610360081496E9,1005.15753
1.438661036040071E9,1005.0376
1.4386610360753188E9,1005.0276
1.4386610361088576E9,1005.0676
1.438661036140779E9,1005.0576
1.438661036176027E9,1004.9877
1.4386610362104812E9,1004.91766
1.4386610362414873E9,1004.8777
1.4386610362767348E9,1004.8577
1.4386610363110976E9,1004.8877
1.4386610363421645E9,1004.95764
1.4386610363774428E9,1005.0376
1.4386610364116533E9,1005.1376
1.438661036442903E9,1005.2175
1.438661036478151E9,1005.36743
1.438661036512239E9,1005.4374
1.4386610365444655E9,1005.37744
1.4386610365788589E9,1005.2375
1.4386610366128554E9,1005.1975
1.4386610366449602E9,1005.10754
1.4386610366795669E9,1004.95764
1.4386610367135026E9,1004.8877
1.438661036745607E9,1004.8877
1.438661036780275E9,1004.9077
1.4386610368140883E9,1004.95764
1.438661036846193E9,1005.01764
1.4386610368809524E9,1005.0476
1.4386610369147048E9,1005.0376
1.4386610369468095E9,1005.0076
1.438661036981691E9,1005.0576
1.4386610370153213E9,1005.12756
1.438661037047426E9,1005.17755
1.4386610370823991E9,1005.22754
1.4386610371159682E9,1005.27747
1.4386610371480727E9,1005.17755
1.4386610371830764E9,1005.0576
1.4386610372166762E9,1005.0376
1.4386610372486892E9,1005.0476
1.438661037283815E9,1005.0076
1.4386610373173537E9,1004.97766
1.4386610373493361E9,1004.96765
1.438661037384523E9,1004.9877
1.4386610374180925E9,1004.9976
1.4386610374499831E9,1005.0076
1.438661037485231E9,1005.0276
1.4386610375188003E9,1005.0076
1.4386610375506606E9,1005.0076
1.438661037585939E9,1005.0376
1.4386610376194777E9,1005.0876
1.4386610376513994E9,1005.1376
1.4386610376873183E9,1005.15753
1.4386610377201858E9,1005.1476
1.4386610377521071E9,1005.12756
1.4386610377879348E9,1005.0876
1.4386610378209243E9,1004.9976
1.4386610378527846E9,1004.9377
1.4386610378885818E9,1004.91766
1.4386610379216323E9,1004.9077
1.4386610379535234E9,1004.8877
1.4386610379891982E9,1004.8877
1.4386610380223098E9,1004.9077
1.4386610380542006E9,1004.9377
1.4386610380898454E9,1004.9877
1.4386610381230483E9,1005.01764
1.4386610381549087E9,1005.0676
1.4386610381904922E9,1005.12756
1.4386610382237258E9,1005.17755
1.4386610382556474E9,1005.22754
1.4386610382911391E9,1005.26746
1.4386610383244646E9,1005.2075
1.4386610383563552E9,1005.15753
1.438661038391725E9,1005.11755
1.4386610384251723E9,1005.11755
1.4386610384570327E9,1005.11755
1.438661038492372E9,1005.0676
1.43866103852585E9,1005.01764
1.4386610385577714E9,1004.9277
1.43866103859308E9,1004.8877
1.4386610386265578E9,1004.8877
1.4386610386584792E9,1004.8977
1.4386610386936965E9,1004.9077
1.4386610387272964E9,1004.91766
1.4386610387591872E9,1005.0076
1.4386610387944353E9,1005.10754
1.4386610388280044E9,1005.1975
1.4386610388598647E9,1005.2875
1.438661038895143E9,1005.31744
1.4386610389286819E9,1005.16754
1.4386610389606032E9,1005.0876
1.438661038995851E9,1005.0976
1.4386610390294204E9,1005.0576
1.438661039061281E9,1004.96765
1.4386610390965593E9,1004.9277
1.4386610391301284E9,1004.9277
1.4386610391619887E9,1004.9377
1.438661039197267E9,1004.9377
1.4386610392308059E9,1004.95764
1.4386610392626967E9,1005.0076
1.4386610392979448E9,1005.0076
1.4386610393315444E9,1005.0276
1.438661039363405E9,1005.0976
1.4386610393986526E9,1005.17755
1.4386610394322524E9,1005.17755
1.4386610394641435E9,1005.1975
1.438661039499391E9,1005.2975
1.4386610395329604E9,1005.27747
1.4386610395648208E9,1005.17755
1.438661039600099E9,1005.1476
1.4386610396336684E9,1005.1376
1.438661039665529E9,1005.0876
1.4386610397007766E9,1005.0076
1.4386610397343764E9,1004.9277
1.4386610397662368E9,1004.8677
1.438661039801515E9,1004.82776
1.4386610398350844E9,1004.81775
1.4386610398669753E9,1004.7977
1.438661039902223E9,1004.76776
1.4386610399357924E9,1004.7278
1.4386610399676833E9,1004.6878
1.4386610400029006E9,1004.65784
1.4386610400365005E9,1004.75775
1.4386610400683913E9,1004.8577
1.4386610401036391E9,1004.96765
1.438661040137178E9,1005.0076
1.4386610401690993E9,1005.0876
1.4386610402043471E9,1005.22754
1.438661040237886E9,1005.27747
1.438661040269777E9,1005.2975
1.4386610403050246E9,1005.3075
1.438661040338594E9,1005.10754
1.4386610403704848E9,1004.91766
1.4386610404057326E9,1004.8877
1.4386610404393325E9,1004.8677
1.4386610404712234E9,1004.82776
1.4386610405064409E9,1004.81775
1.4386610405400405E9,1004.81775
1.438661040571901E9,1004.8377
1.4386610406071792E9,1004.9077
1.438661040640718E9,1005.0776
1.4386610406726394E9,1005.1875
1.4386610407078567E9,1005.3474
1.438661040742311E9,1005.36743
1.4386610407733474E9,1005.3075
1.4386610408085952E9,1005.27747
1.4386610408429275E9,1005.32745
1.4386610408740556E9,1005.2075
1.4386610409092727E9,1004.9976
1.438661040943544E9,1004.8777
1.4386610409747329E9,1004.7778
1.4386610410099807E9,1004.75775
1.4386610410440993E9,1004.7877
1.4386610410762956E9,1004.8477
1.4386610411107192E9,1004.8977
1.4386610411447463E9,1005.01764
1.4386610411768203E9,1005.16754
1.4386610412114272E9,1005.3574
1.4386610412453628E9,1005.4674
1.4386610412774673E9,1005.4474
1.4386610413121352E9,1005.37744
1.4386610413459792E9,1005.26746
1.4386610413780532E9,1005.10754
1.4386610414128435E9,1004.9877
1.4386610414465652E9,1004.8877
1.4386610414786391E9,1004.8377
1.4386610415135207E9,1004.81775
1.4386610415471208E9,1004.9077
1.4386610415792556E9,1005.0276
1.4386610416142592E9,1005.16754
1.4386610416478899E9,1005.22754
1.438661041679872E9,1005.38745
1.4386610417149675E9,1005.42737
1.4386610417485063E9,1005.36743
1.4386610417804885E9,1005.3574
1.4386610418156753E9,1005.4074
1.438661041849214E9,1005.2375
1.438661041881227E9,1005.0576
1.4386610419163527E9,1004.8477
1.4386610419499526E9,1004.8377
1.438661041981838E9,1004.8577
1.4386610420170858E9,1004.8477
1.4386610420506246E9,1004.91766
1.4386610420825155E9,1004.9877
1.4386610421177938E9,1005.0876
1.4386610421513631E9,1005.2575
1.4386610421832235E9,1005.4574
1.4386610422192037E9,1005.53735
1.438661042252071E9,1005.53735
1.438661042283962E9,1005.4574
1.4386610423197896E9,1005.2475
1.4386610423527792E9,1005.0476
1.4386610423846395E9,1004.96765
1.4386610424203756E9,1004.9077
1.4386610424534872E9,1004.8977
1.4386610424853475E9,1004.8977
1.4386610425210226E9,1004.95764
1.438661042554195E9,1005.0476
1.438661042586086E9,1005.17755
1.438661042621639E9,1005.26746
1.4386610426548727E9,1005.4074
1.4386610426867635E9,1005.4474
1.438661042722225E9,1005.4174
1.4386610427555804E9,1005.4974
1.4386610427875018E9,1005.48737
1.438661042822872E9,1005.3075
1.438661042856319E9,1005.1476
1.4386610428881795E9,1005.0676
1.4386610429234884E9,1005.0276
1.4386610429570272E9,1004.96765
1.438661042988918E9,1004.94763
1.4386610430241656E9,1004.97766
1.4386610430577352E9,1005.0876
1.4386610430896258E9,1005.2075
1.4386610431248434E9,1005.2975
1.4386610431584432E9,1005.4374
1.438661043190334E9,1005.4974
1.4386610432255514E9,1005.54736
1.4386610432591512E9,1005.5973
1.438661043291042E9,1005.48737
1.4386610433262897E9,1005.2575
1.4386610433598592E9,1005.11755
1.4386610433917196E9,1004.9877
1.438661043426998E9,1004.8877
1.4386610434605367E9,1004.8777
1.438661043492458E9,1004.9077
1.4386610435276754E9,1004.9377
1.4386610435612447E9,1005.0676
1.4386610435931354E9,1005.2475
1.4386610436284137E9,1005.3474
1.4386610436619525E9,1005.48737
1.4386610436938741E9,1005.53735
1.4386610437290914E9,1005.48737
1.4386610437626607E9,1005.4674
1.4386610437945821E9,1005.3974
1.43866104382983E9,1005.2975
1.4386610438633993E9,1005.0976
1.4386610438952901E9,1004.91766
1.4386610439305377E9,1004.8677
1.4386610439640765E9,1004.91766
1.4386610439959676E9,1004.96765
1.438661044031246E9,1005.0576
1.4386610440648153E9,1005.12756
1.4386610440967062E9,1005.2175
1.4386610441319232E9,1005.3574
1.4386610441655233E9,1005.4674
1.4386610441973834E9,1005.54736
1.4386610442326314E9,1005.5573
1.4386610442662313E9,1005.51733
1.4386610442980917E9,1005.4074
1.43866104433337E9,1005.2375
1.4386610443669393E9,1005.10754
1.4386610443988302E9,1005.0376
1.4386610444340472E9,1004.94763
1.4386610444676473E9,1004.94763
1.4386610444995382E9,1005.0076
1.438661044534786E9,1005.10754
1.438661044568355E9,1005.2175
1.4386610446002462E9,1005.31744
1.4386610446354635E9,1005.4374
1.4386610446690633E9,1005.5873
1.4386610447009542E9,1005.4674
1.438661044736202E9,1005.36743
1.4386610447697713E9,1005.33746
1.4386610448016622E9,1005.2975
1.4386610448368795E9,1005.15753
1.438661044870479E9,1005.0376
1.4386610449023702E9,1004.9976
1.438661044937618E9,1004.96765
1.4386610449720724E9,1004.95764
1.4386610450030782E9,1005.01764
1.438661045038326E9,1005.1376
1.4386610450726583E9,1005.2175
1.438661045103786E9,1005.2475
1.438661045139034E9,1005.4174
1.4386610451732748E9,1005.67725
1.4386610452044942E9,1005.6173
1.438661045239742E9,1005.4174
1.4386610452739217E9,1005.3574
1.4386610453052022E9,1005.36743
1.43866104534045E9,1005.32745
1.4386610453745382E9,1005.2575
1.4386610454067342E9,1005.2375
1.438661045441158E9,1005.2175
1.4386610454751852E9,1005.1875
1.438661045507259E9,1005.2075
1.438661045541866E9,1005.32745
1.4386610455758321E9,1005.4374
1.4386610456078756E9,1005.4674
1.4386610456425738E9,1005.4974
1.4386610456763873E9,1005.51733
1.438661045708492E9,1005.4374
1.438661045743282E9,1005.2975
1.4386610457770345E9,1005.26746
1.438661045809139E9,1005.27747
1.4386610458439596E9,1005.27747
1.438661045877651E9,1005.22754
1.4386610459097555E9,1005.17755
1.4386610459446676E9,1005.10754
1.438661045978298E9,1005.0876
1.438661046010372E9,1005.10754
1.438661046045406E9,1005.15753
1.438661046079006E9,1005.17755
1.4386610461109884E9,1005.2375
1.438661046146114E9,1005.26746
1.4386610461796834E9,1005.26746
1.4386610462116354E9,1005.4074
1.4386610462468219E9,1005.4674
1.4386610462803915E9,1005.36743
1.4386610463123434E9,1005.1975
1.4386610463475301E9,1005.1975
1.4386610463810995E9,1005.22754
1.4386610464129903E9,1005.1975
1.4386610464482381E9,1005.0976
1.438661046481777E9,1005.0576
1.4386610465136983E9,1005.0576
1.438661046549831E9,1005.0376
1.4386610465825155E9,1005.01764
1.4386610466143758E9,1004.9377
1.4386610466503255E9,1004.8677
1.4386610466832235E9,1004.8677
1.4386610467151144E9,1004.9377
1.4386610467509112E9,1005.0476
1.4386610467839315E9,1005.17755
1.4386610468158224E9,1005.27747
1.4386610468514974E9,1005.3974
1.4386610468846395E9,1005.4374
1.4386610469165304E9,1005.4374
1.4386610469520833E9,1005.53735
1.4386610469853475E9,1005.48737
1.4386610470172079E9,1005.3574
1.4386610470526998E9,1005.26746
1.438661047086025E9,1005.10754
1.4386610471179464E9,1005.0076
1.4386610471533163E9,1004.9877
1.438661047186733E9,1005.01764
1.4386610472186239E9,1005.0576
1.4386610472539327E9,1005.12756
1.438661047287441E9,1005.16754
1.438661047319332E9,1005.22754
1.4386610473546407E9,1005.38745
1.438661047388149E9,1005.4574
1.4386610474200704E9,1005.4474
1.4386610474552877E9,1005.48737
1.4386610474888873E9,1005.4374
1.4386610475207784E9,1005.32745
1.4386610475559957E9,1005.15753
1.438661047589565E9,1005.0476
1.438661047621456E9,1004.9976
1.4386610476567342E9,1005.0276
1.4386610476903036E9,1005.0576
1.4386610477221944E9,1005.0776
1.4386610477574117E9,1005.1875
1.4386610477910113E9,1005.31744
1.438661047822872E9,1005.4074
1.4386610478581197E9,1005.48737
1.4386610478917196E9,1005.4674
1.43866104792358E9,1005.3574
1.4386610479588275E9,1005.4174
1.438661047992397E9,1005.4374
1.438661048024288E9,1005.33746
1.4386610480595663E9,1005.1975
1.4386610480931354E9,1005.10754
1.438661048124996E9,1005.01764
1.4386610481602743E9,1004.96765
1.438661048193813E9,1005.01764
1.438661048225704E9,1005.0876
1.4386610482609823E9,1005.1376
1.4386610482945516E9,1005.22754
1.438661048326412E9,1005.3075
1.4386610483616598E9,1005.4174
1.438661048395229E9,1005.42737
1.43866104842712E9,1005.4374
1.4386610484623983E9,1005.51733
1.438661048495937E9,1005.48737
1.438661048527828E9,1005.3474
1.4386610485630758E9,1005.16754
1.4386610485966449E9,1005.0576
1.4386610486285663E9,1005.0276
1.4386610486638143E9,1005.0076
1.4386610486973834E9,1004.96765
1.4386610487292745E9,1005.0576
1.4386610487645223E9,1005.2075
1.4386610487980611E9,1005.22754
1.438661048829952E9,1005.27747
1.43866104886523E9,1005.4474
1.438661048898769E9,1005.4974
1.4386610489306903E9,1005.5973
1.4386610489659078E9,1005.5973
1.4386610489994771E9,1005.53735
1.4386610490313985E9,1005.38745
1.4386610490666158E9,1005.2375
1.4386610491002157E9,1005.1476
1.4386610491321065E9,1005.10754
1.438661049167354E9,1005.1376
1.4386610492009237E9,1005.17755
1.4386610492328143E9,1005.22754
1.4386610492680318E9,1005.2875
1.4386610493016012E9,1005.31744
1.438661049333492E9,1005.4574
1.4386610493687704E9,1005.5573
1.4386610494023397E9,1005.53735
1.4386610494342306E9,1005.4174
1.4386610494694479E9,1005.3574
1.438661049503902E9,1005.31744
1.4386610495349386E9,1005.2475
1.4386610495701864E9,1005.1376
1.4386610496044576E9,1005.11755
1.438661049635616E9,1005.1476
1.4386610496708636E9,1005.1476
1.4386610497051046E9,1005.2575
1.4386610497363546E9,1005.4674
1.4386610497716022E9,1005.5873
1.4386610498056905E9,1005.69727
1.4386610498378866E9,1005.7472
1.43866104987228E9,1005.68726
1.4386610499062765E9,1005.69727
1.438661049938381E9,1005.67725
1.4386610499729877E9,1005.53735
1.438661050006893E9,1005.31744
1.438661050038967E9,1005.17755
1.4386610500737264E9,1005.0776
1.4386610501074483E9,1005.0376
1.4386610501395528E9,1005.0676
1.438661050174404E9,1005.1875
1.4386610502080953E9,1005.26746
1.4386610502401693E9,1005.36743
1.4386610502751424E9,1005.4374
1.4386610503087728E9,1005.4974
1.4386610503407552E9,1005.6073
1.43866105037582E9,1005.69727
1.4386610504094198E9,1005.7672
1.4386610504414632E9,1005.7472
1.4386610504765584E9,1005.69727
1.4386610505101278E9,1005.6173
1.4386610505420492E9,1005.4974
1.4386610505772665E9,1005.3974
1.4386610506108053E9,1005.38745
1.4386610506427267E9,1005.38745
1.4386610506779745E9,1005.37744
1.4386610507115133E9,1005.4174
1.4386610507434347E9,1005.4974
1.438661050779415E9,1005.5873
1.4386610508122518E9,1005.6173
1.4386610508441122E9,1005.7172
1.4386610508800008E9,1005.68726
1.4386610509129293E9,1005.66724
1.4386610509448504E9,1005.7772
1.4386610509806173E9,1005.7572
1.4386610510136373E9,1005.5873
1.4386610510455282E9,1005.38745
1.4386610510812337E9,1005.27747
1.4386610511143453E9,1005.2075
1.4386610511462667E9,1005.2075
1.4386610511818807E9,1005.2575
1.4386610512150838E9,1005.3075
1.4386610512469442E9,1005.33746
1.4386610512825277E9,1005.4374
1.4386610513157613E9,1005.52734
1.4386610513476522E9,1005.6073
1.4386610513831747E9,1005.6573
1.4386610514164693E9,1005.7172
1.4386610514483602E9,1005.7772
1.43866105148373E9,1005.7073
1.4386610515171773E9,1005.57733
1.4386610515490985E9,1005.5073
1.438661051584438E9,1005.38745
1.4386610516179156E9,1005.31744
1.4386610516498067E9,1005.31744
1.4386610516850545E9,1005.2975
1.4386610517186239E9,1005.3075
1.4386610517504842E9,1005.3974
1.4386610517857623E9,1005.47736
1.4386610518193011E9,1005.54736
1.4386610518512225E9,1005.6573
1.4386610518864706E9,1005.7472
1.4386610519200397E9,1005.7772
1.4386610519519308E9,1005.84717
1.4386610519871614E9,1005.73724
1.4386610520207613E9,1005.5873
1.4386610520526521E9,1005.4674
1.4386610520879E9,1005.37744
1.4386610521214693E9,1005.3474
1.4386610521533601E9,1005.3474
1.438661052188608E9,1005.36743
1.4386610522221773E9,1005.4074
1.4386610522540681E9,1005.4974
1.438661052289316E9,1005.54736
1.4386610523228853E9,1005.6273
1.4386610523547456E9,1005.6573
1.4386610523899932E9,1005.7073
1.4386610524235933E9,1005.7972
1.4386610524554536E9,1005.72723
1.438661052490732E9,1005.5873
1.4386610525243013E9,1005.5073
1.4386610525561616E9,1005.4174
1.43866105259144E9,1005.37744
1.4386610526249788E9,1005.32745
1.4386610526568696E9,1005.31744
1.438661052692148E9,1005.38745
1.4386610527257173E9,1005.4974
1.4386610527576082E9,1005.5573
1.438661052792856E9,1005.6473
1.438661052826425E9,1005.6573
1.4386610528583162E9,1005.6173
1.438661052893564E9,1005.72723
1.4386610529271028E9,1005.7672
1.4386610529589937E9,1005.63727
1.4386610529942415E9,1005.5073
1.4386610530278108E9,1005.4174
1.4386610530597322E9,1005.32745
1.43866105309498E9,1005.2875
1.4386610531285188E9,1005.26746
1.4386610531604402E9,1005.2975
1.438661053195688E9,1005.31744
1.4386610532292268E9,1005.36743
1.4386610532611177E9,1005.4374
1.438661053296396E9,1005.4674
1.4386610533299654E9,1005.5073
1.4386610533618257E9,1005.57733
1.4386610533970735E9,1005.67725
1.4386610534306428E9,1005.7672
1.4386610534625337E9,1005.7772
1.4386610534977815E9,1005.7472
1.4386610535313509E9,1005.6273
1.4386610535632722E9,1005.4674
1.43866105359852E9,1005.38745
1.4386610536320894E9,1005.3574
1.43866105366398E9,1005.3474
1.4386610536991975E9,1005.31744
1.4386610537327669E9,1005.31744
1.4386610537646883E9,1005.3474
1.438661053799936E9,1005.3474
1.4386610538343294E9,1005.36743
1.4386610538653963E9,1005.4574
1.4386610539006135E9,1005.6473
1.4386610539349458E9,1005.73724
1.4386610539661043E9,1005.7172
1.438661054001352E9,1005.72723
1.4386610540355928E9,1005.8172
1.4386610540667818E9,1005.8072
1.43866105410206E9,1005.6573
1.4386610541362092E9,1005.57733
1.4386610541675203E9,1005.4574
1.4386610542027376E9,1005.3474
1.4386610542368562E9,1005.2875
1.4386610542690828E9,1005.3474
1.4386610543034456E9,1005.36743
1.438661054337503E9,1005.4174
1.438661054369577E9,1005.52734
1.438661054404184E9,1005.6273
1.4386610544380891E9,1005.73724
1.4386610544701934E9,1005.7972
1.438661054504892E9,1005.8572
1.438661054538675E9,1005.7972
1.4386610545719695E9,1005.72723
1.4386610546056E9,1005.69727
1.438661054639322E9,1005.69727
1.4386610546714265E9,1005.6473
1.4386610547062776E9,1005.51733
1.4386610547399385E9,1005.37744
1.438661054772043E9,1005.33746
1.4386610548069856E9,1005.36743
1.4386610548405855E9,1005.38745
1.43866105487269E9,1005.4174
1.4386610549077241E9,1005.5073
1.4386610549413238E9,1005.6073
1.4386610549733064E9,1005.68726
1.4386610550084321E9,1005.7772
1.438661055041971E9,1005.8572
1.4386610550739534E9,1005.8172
1.4386610551091402E9,1005.7472
1.438661055142679E9,1005.8172
1.4386610551746614E9,1005.87714
1.4386610552098482E9,1005.8172
1.438661055243387E9,1005.69727
1.4386610552752779E9,1005.6173
1.4386610553105254E9,1005.52734
1.438661055344095E9,1005.5073
1.4386610553760164E9,1005.54736
1.4386610554119966E9,1005.6073
1.438661055444803E9,1005.6573
1.4386610554766939E9,1005.7073
1.438661055512552E9,1005.72723
1.4386610555455415E9,1005.7472
1.4386610555774324E9,1005.7472
1.4386610556131685E9,1005.73724
1.4386610556462495E9,1005.67725
1.43866105567811E9,1005.66724
1.4386610557138155E9,1005.63727
1.438661055746927E9,1005.5873
1.438661055778818E9,1005.4974
1.4386610558144014E9,1005.4974
1.4386610558476655E9,1005.52734
1.4386610558795564E9,1005.52734
1.4386610559150786E9,1005.5073
1.4386610559483736E9,1005.52734
1.438661055980234E9,1005.5573
1.438661056015695E9,1005.5873
1.438661056049051E9,1005.63727
1.4386610560809724E9,1005.67725
1.4386610561163118E9,1005.67725
1.4386610561497896E9,1005.63727
1.4386610561816804E9,1005.7073
1.4386610562169893E9,1005.72723
1.4386610562504976E9,1005.6273
1.4386610562823882E9,1005.5073
1.4386610563176363E9,1005.52734
1.438661056351175E9,1005.5573
1.4386610563830965E9,1005.5573
1.4386610564183443E9,1005.5573
1.4386610564519136E9,1005.54736
1.4386610564838045E9,1005.51733
1.4386610565190217E9,1005.53735
1.4386610565526216E9,1005.53735
1.4386610565845122E9,1005.5673
1.4386610566197298E9,1005.5873
1.438661056653299E9,1005.6073
1.43866105668519E9,1005.6073
1.4386610567204683E9,1005.6273
1.4386610567540376E9,1005.63727
1.438661056785898E9,1005.73724
1.438661056821176E9,1005.7472
1.4386610568547149E9,1005.5973
1.4386610568866365E9,1005.5573
1.4386610569218843E9,1005.5873
1.4386610569554536E9,1005.5673
1.4386610569873445E9,1005.51733
1.4386610570225923E9,1005.4674
1.4386610570561616E9,1005.4574
1.4386610570880525E9,1005.47736
1.4386610571233E9,1005.51733
1.4386610571568696E9,1005.5573
1.4386610571887605E9,1005.57733
1.4386610572240083E9,1005.5973
1.4386610572575471E9,1005.6173
1.438661057289438E9,1005.6273
1.4386610573246858E9,1005.6273
1.4386610573582857E9,1005.6273
1.4386610573901765E9,1005.6273
1.438661057425424E9,1005.63727
1.438661057458963E9,1005.6273
1.438661057490854E9,1005.6573
1.4386610575261323E9,1005.7572
1.4386610575596712E9,1005.67725
1.438661057591562E9,1005.4674
1.4386610576268404E9,1005.4174
1.4386610576603792E9,1005.4974
1.4386610576922698E9,1005.5573
1.4386610577275178E9,1005.5973
1.4386610577610872E9,1005.5573
1.438661057792978E9,1005.4574
1.4386610578282564E9,1005.36743
1.4386610578617952E9,1005.33746
1.4386610578937166E9,1005.36743
1.4386610579289336E9,1005.42737
1.4386610579625032E9,1005.48737
1.438661057994394E9,1005.53735
1.4386610580296419E9,1005.57733
1.4386610580632417E9,1005.6073
1.4386610580951326E9,1005.6573
1.4386610581303499E9,1005.5973
1.4386610581648042E9,1005.5073
1.4386610581958406E9,1005.48737
1.4386610582310576E9,1005.4974
1.4386610582654512E9,1005.48737
1.4386610582965486E9,1005.47736
1.438661058331766E9,1005.4374
1.4386610583660982E9,1005.4574
1.4386610583972566E9,1005.48737
1.4386610584325044E9,1005.53735
1.438661058466684E9,1005.6073
1.4386610584979646E9,1005.6573
1.4386610585332124E9,1005.72723
1.43866105856727E9,1005.7472
1.4386610585993745E9,1005.7972
1.4386610586339204E9,1005.84717
1.4386610586679168E9,1005.78723
1.438661058699991E9,1005.5973
1.438661058734598E9,1005.53735
1.4386610587685332E9,1005.53735
1.438661058800638E9,1005.4974
1.4386610588353364E9,1005.42737
1.4386610588691804E9,1005.33746
1.4386610589012544E9,1005.27747
1.438661058936014E9,1005.2975
1.4386610589697664E9,1005.31744
1.4386610590018709E9,1005.36743
1.4386610590367525E9,1005.4674
1.4386610590704134E9,1005.5573
1.4386610591024873E9,1005.6173
1.43866105913743E9,1005.67725
1.4386610591710908E9,1005.7073
1.4386610592031038E9,1005.8072
1.4386610592381685E9,1005.73724
1.4386610592717073E9,1005.53735
1.4386610593036897E9,1005.4674
1.4386610593388765E9,1005.38745
1.4386610593724458E9,1005.26746
1.4386610594043672E9,1005.17755
1.438661059439554E9,1005.17755
1.4386610594731233E9,1005.1975
1.4386610595050445E9,1005.22754
1.4386610595402925E9,1005.2975
1.4386610595746248E9,1005.4474
1.4386610596057527E9,1005.5573
1.438661059641733E9,1005.66724
1.4386610596745698E9,1005.7472
1.4386610597064607E9,1005.7772
1.438661059742288E9,1005.72723
1.4386610597752779E9,1005.6273
1.4386610598071382E9,1005.53735
1.4386610598429046E9,1005.53735
1.4386610598759859E9,1005.4374
1.4386610599078462E9,1005.33746
1.4386610599435213E9,1005.26746
1.4386610599766634E9,1005.26746
1.4386610600085847E9,1005.31744
1.4386610600441072E9,1005.36743
1.4386610600774019E9,1005.42737
1.4386610601092927E9,1005.4974
1.4386610601447542E9,1005.6073
1.43866106017811E9,1005.69727
1.4386610602099702E9,1005.72723
1.4386610602453706E9,1005.7572
1.438661060278818E9,1005.73724
1.438661060310678E9,1005.63727
1.4386610603460176E9,1005.5073
1.438661060379526E9,1005.3974
1.4386610604113863E9,1005.33746
1.4386610604467256E9,1005.2475
1.438661060480234E9,1005.2375
1.4386610605121248E9,1005.2875
1.4386610605473726E9,1005.3474
1.438661060580942E9,1005.4074
1.438661060612802E9,1005.5873
1.4386610606480806E9,1005.7073
1.4386610606816194E9,1005.7073
1.4386610607135408E9,1005.7073
1.438661060748758E9,1005.82715
1.438661060782358E9,1005.7772
1.4386610608142488E9,1005.6273
1.4386610608494966E9,1005.5573
1.438661060883066E9,1005.4574
1.4386610609149568E9,1005.3574
1.4386610609502046E9,1005.22754
1.4386610609837434E9,1005.2375
1.4386610610156648E9,1005.2875
1.438661061050882E9,1005.3474
1.4386610610844514E9,1005.4174
1.4386610611163423E9,1005.53735
1.4386610611516206E9,1005.68726
1.4386610611851594E9,1005.7972
1.4386610612170808E9,1005.82715
1.438661061252298E9,1005.8172
1.438661061285898E9,1005.73724
1.4386610613177888E9,1005.6273
1.4386610613530366E9,1005.51733
1.4386610613865755E9,1005.4374
1.4386610614184663E9,1005.3474
1.4386610614537446E9,1005.2475
1.4386610614872835E9,1005.1875
1.4386610615192049E9,1005.1875
1.4386610615544221E9,1005.22754
1.4386610615879915E9,1005.2975
1.4386610616199129E9,1005.4174
1.4386610616551301E9,1005.5073
1.4386610616886995E9,1005.5573
1.4386610617205904E9,1005.5873
1.4386610617558687E9,1005.67725
1.4386610617894075E9,1005.6273
1.4386610618213289E9,1005.47736
1.4386610618565462E9,1005.42737
1.4386610618901458E9,1005.3974
1.438661061922037E9,1005.2975
1.4386610619572802E9,1005.1975
1.4386610619908493E9,1005.15753
1.4386610620227096E9,1005.17755
1.438661062057988E9,1005.2175
1.4386610620915575E9,1005.2475
1.4386610621234481E9,1005.2975
1.438661062158696E9,1005.3474
1.4386610621922653E9,1005.3974
1.4386610622241561E9,1005.53735
1.4386610622594042E9,1005.67725
1.4386610622929735E9,1005.7472
1.4386610623248336E9,1005.7572
1.438661062360112E9,1005.67725
1.4386610623936815E9,1005.53735
1.4386610624255416E9,1005.4074
1.4386610624607897E9,1005.36743
1.4386610624943588E9,1005.2975
1.43866106252625E9,1005.17755
1.4386610625614977E9,1005.0576
1.4386610625958908E9,1005.0876
1.4386610626269884E9,1005.17755
1.438661062662236E9,1005.3075
1.4386610626964767E9,1005.42737
1.4386610627276962E9,1005.5873
1.4386610627629137E9,1005.6273
1.4386610627971237E9,1005.6073
1.4386610628284044E9,1005.54736
1.4386610628636522E9,1005.4374
1.4386610628977401E9,1005.3574
1.4386610629298449E9,1005.2875
1.43866106296436E9,1005.1875
1.438661062998326E9,1005.10754
1.4386610630304306E9,1005.10754
1.438661063065068E9,1005.1975
1.4386610630989733E9,1005.2375
1.4386610631311083E9,1005.3474
1.4386610631657763E9,1005.4374
1.4386610631996202E9,1005.5873
1.438661063231755E9,1005.67725
1.4386610632664535E9,1005.72723
1.438661063300267E9,1005.67725
1.4386610633323715E9,1005.6073
1.4386610633671923E9,1005.48737
1.438661063400914E9,1005.38745
1.438661063432988E9,1005.22754
1.4386610634679003E9,1005.0676
1.4386610635015304E9,1005.0376
1.438661063533635E9,1005.10754
1.4386610635685775E9,1005.1875
1.4386610636021774E9,1005.27747
1.438661063634282E9,1005.3974
1.4386610636693163E9,1005.51733
1.438661063702916E9,1005.52734
1.438661063734929E9,1005.53735
1.4386610637700243E9,1005.67725
1.4386610638035936E9,1005.66724
1.4386610638355758E9,1005.5073
1.438661063870732E9,1005.32745
1.4386610639043014E9,1005.1875
1.4386610639362228E9,1005.12756
1.4386610639714403E9,1005.0876
1.4386610640050094E9,1005.10754
1.4386610640369308E9,1005.2175
1.4386610640721483E9,1005.2975
1.4386610641057177E9,1005.36743
1.4386610641376083E9,1005.4674
1.438661064172856E9,1005.6273
1.438661064206395E9,1005.7472
1.4386610642383163E9,1005.84717
1.4386610642744188E9,1005.8172
1.4386610643071334E9,1005.7172
1.4386610643390245E9,1005.53735
1.4386610643749132E9,1005.4174
1.4386610644078417E9,1005.27747
1.4386610644397323E9,1005.1875
1.4386610644755297E9,1005.10754
1.438661064508519E9,1005.0676
1.4386610645404403E9,1005.10754
1.438661064576207E9,1005.27747
1.4386610646092272E9,1005.4174
1.438661064641118E9,1005.52734
1.4386610646767623E9,1005.53735
1.4386610647099657E9,1005.53735
1.4386610647418258E9,1005.57733
1.4386610647773788E9,1005.51733
1.4386610648106735E9,1005.4074
1.4386610648425643E9,1005.3974
1.438661064877965E9,1005.2975
1.4386610649113815E9,1005.12756
1.4386610649432726E9,1005.0676
1.4386610649786422E9,1005.11755
1.4386610650120897E9,1005.2075
1.4386610650439804E9,1005.27747
1.4386610650792587E9,1005.4174
1.438661065112767E9,1005.4974
1.4386610651446884E9,1005.6173
1.4386610651799364E9,1005.67725
1.4386610652135055E9,1005.7172
1.4386610652453659E9,1005.7172
1.4386610652806442E9,1005.5873
1.4386610653142138E9,1005.4174
1.4386610653461044E9,1005.4174
1.4386610653813827E9,1005.2975
1.4386610654149215E9,1005.17755
1.4386610654468124E9,1005.0776
1.4386610654820604E9,1005.0976
1.4386610655155993E9,1005.12756
1.4386610655475206E9,1005.1975
1.4386610655827377E9,1005.3574
1.4386610656163378E9,1005.48737
1.4386610656482284E9,1005.5573
1.438661065683446E9,1005.6273
1.4386610657170455E9,1005.6473
1.4386610657489367E9,1005.5673
1.4386610657841845E9,1005.4374
1.4386610658177538E9,1005.4074
1.4386610658496447E9,1005.3075
1.4386610658848617E9,1005.1875
1.4386610659184618E9,1005.12756
1.438661065950322E9,1005.0776
1.4386610659856002E9,1005.10754
1.4386610660191696E9,1005.2175
1.4386610660510302E9,1005.31744
1.4386610660863085E9,1005.48737
1.4386610661198778E9,1005.6073
1.438661066151738E9,1005.6273
1.4386610661870162E9,1005.6273
1.438661066220555E9,1005.6073
1.4386610662524765E9,1005.4974
1.438661066287694E9,1005.38745
1.4386610663212936E9,1005.36743
1.4386610663531847E9,1005.31744
1.4386610663884017E9,1005.1875
1.4386610664219713E9,1005.0576
1.438661066453862E9,1004.9877
1.4386610664891098E9,1004.9976
1.438661066522679E9,1005.0276
1.43866106655457E9,1005.0676
1.4386610665898485E9,1005.17755
1.4386610666233873E9,1005.31744
1.4386610666552782E9,1005.4474
1.4386610666905258E9,1005.5873
1.4386610667241259E9,1005.6473
1.4386610667560167E9,1005.67725
1.4386610667912338E9,1005.67725
1.438661066824803E9,1005.66724
1.4386610668566942E9,1005.6273
1.438661066891942E9,1005.5073
1.4386610669255416E9,1005.3474
1.4386610669574327E9,1005.22754
1.4386610669926498E9,1005.15753
1.43866106702625E9,1005.10754
1.4386610670581405E9,1005.0476
1.4386610670933883E9,1005.0076
1.4386610671269577E9,1005.0376
1.4386610671588485E9,1005.0676
1.438661067194066E9,1005.12756
1.4386610672284899E9,1005.17755
1.4386610672595568E9,1005.2375
1.4386610672948046E9,1005.2875
1.4386610673290758E9,1005.32745
1.4386610673602645E9,1005.38745
1.4386610673955123E9,1005.4674
1.4386610674297228E9,1005.54736
1.4386610674609725E9,1005.5573
1.4386610674962206E9,1005.5873
1.4386610675303392E9,1005.52734
1.4386610675625353E9,1005.4574
1.4386610675969284E9,1005.42737
1.4386610676309557E9,1005.33746
1.4386610676630297E9,1005.27747
1.438661067697606E9,1005.2075
1.4386610677315416E9,1005.2175
1.4386610677636156E9,1005.2475
1.4386610677983446E9,1005.26746
1.4386610678320968E9,1005.26746
1.4386610678642013E9,1005.27747
1.4386610678990219E9,1005.3474
1.4386610679327133E9,1005.4474
1.4386610679648178E9,1005.53735
1.4386610679997604E9,1005.57733
1.4386610680333605E9,1005.6073
1.438661068065465E9,1005.6173
1.4386610681004686E9,1005.6073
1.4386610681340988E9,1005.51733
1.4386610681660814E9,1005.4974
1.4386610682011764E9,1005.4974
1.438661068234746E9,1005.36743
1.438661068266698E9,1005.2075
1.4386610683018844E9,1005.11755
1.4386610683354232E9,1005.10754
1.4386610683674057E9,1005.11755
1.4386610684025621E9,1005.16754
1.438661068436162E9,1005.2875
1.4386610684680529E9,1005.4174
1.4386610685033004E9,1005.5973
1.4386610685368392E9,1005.72723
1.4386610685687606E9,1005.7772
1.4386610686040084E9,1005.72723
1.4386610686375473E9,1005.6273
1.4386610686694384E9,1005.51733
1.4386610687055712E9,1005.4174
1.438661068738286E9,1005.26746
1.438661068770177E9,1005.16754
1.4386610688061264E9,1005.0576
1.438661068838994E9,1005.0376
1.4386610688708847E9,1005.12756
1.4386610689067428E9,1005.2875
1.4386610689396713E9,1005.4574
1.438661068971593E9,1005.5573
1.4386610690073898E9,1005.66724
1.4386610690403795E9,1005.6173
1.438661069072301E9,1005.5573
1.4386610691080062E9,1005.4974
1.438661069141118E9,1005.4174
1.4386610691730087E9,1005.31744
1.4386610692085922E9,1005.2475
1.4386610692418258E9,1005.15753
1.438661069273717E9,1005.0876
1.4386610693092394E9,1004.9976
1.4386610693425035E9,1004.96765
1.4386610693743942E9,1005.0076
1.4386610694098558E9,1005.0576
1.4386610694432113E9,1005.11755
1.4386610694751022E9,1005.26746
1.4386610695105028E9,1005.38745
1.4386610695439196E9,1005.48737
1.438661069575841E9,1005.53735
1.4386610696111495E9,1005.6573
1.4386610696446276E9,1005.7672
1.438661069676549E9,1005.7172
1.4386610697117965E9,1005.53735
1.4386610697453353E9,1005.3574
1.4386610697772567E9,1005.31744
1.438661069812535E9,1005.22754
1.4386610698460739E9,1005.0776
1.4386610698779345E9,1004.9877
1.438661069913182E9,1004.94763
1.4386610699467516E9,1004.97766
1.4386610699786727E9,1005.0376
1.43866107001389E9,1005.15753
1.4386610700474594E9,1005.31744
1.4386610700793808E9,1005.4374
1.4386610701146288E9,1005.5673
1.438661070148198E9,1005.5873
1.4386610701800585E9,1005.54736
1.4386610702153368E9,1005.38745
1.4386610702489061E9,1005.2475
1.4386610702807662E9,1005.15753
1.4386610703160446E9,1005.12756
1.438661070349614E9,1005.0376
1.4386610703815048E9,1004.95764
1.4386610704167223E9,1004.8777
1.4386610704502916E9,1004.8777
1.4386610704821825E9,1004.9377
1.4386610705174606E9,1005.0676
1.4386610705510302E9,1005.22754
1.4386610705829208E9,1005.3474
1.4386610706181686E9,1005.4974
1.4386610706517074E9,1005.6173
1.4386610706836288E9,1005.66724
1.4386610707188463E9,1005.5973
1.4386610707524157E9,1005.48737
1.438661070784337E9,1005.2875
1.4386610708195846E9,1005.16754
1.4386610708531542E9,1005.10754
1.4386610708850448E9,1005.0776
1.4386610709202623E9,1004.96765
1.4386610709538314E9,1004.91766
1.4386610709857528E9,1004.9377
1.4386610710210009E9,1005.0076
1.4386610710545397E9,1005.0776
1.438661071086461E9,1005.22754
1.4386610711217086E9,1005.3974
1.4386610711552474E9,1005.5073
1.4386610711871688E9,1005.53735
1.4386610712223864E9,1005.54736
1.4386610712559555E9,1005.5673
1.4386610712878768E9,1005.4174
1.438661071323125E9,1005.26746
1.4386610713566942E9,1005.22754
1.4386610713885543E9,1005.17755
1.4386610714238327E9,1005.0376
1.4386610714573715E9,1004.9077
1.4386610714892929E9,1004.8377
1.4386610715245407E9,1004.8577
1.4386610715580795E9,1004.8877
1.4386610715900009E9,1004.9877
1.438661071625249E9,1005.11755
1.4386610716587877E9,1005.2875
1.438661071690709E9,1005.3974
1.4386610717259567E9,1005.53735
1.4386610717595263E9,1005.6073
1.438661071791417E9,1005.6273
1.4386610718266344E9,1005.6173
1.4386610718602035E9,1005.52734
1.4386610718921251E9,1005.3474
1.438661071927373E9,1005.27747
1.4386610719609292E9,1005.1975
1.4386610719928198E9,1005.10754
1.4386610720280676E9,1004.97766
1.4386610720616677E9,1004.8677
1.4386610720935278E9,1004.8677
1.4386610721287758E9,1004.94763
1.4386610721623755E9,1005.0376
1.438661072194236E9,1005.10754
1.4386610722295144E9,1005.2375
1.4386610722630837E9,1005.3574
1.4386610722949438E9,1005.42737
1.4386610723301916E9,1005.4474
1.4386610723646154E9,1005.42737
1.4386610723956518E9,1005.2975
1.4386610724308999E9,1005.1975
1.438661072465232E9,1005.1476
1.4386610724963906E9,1005.0776
1.4386610725316384E9,1004.97766
1.4386610725658789E9,1004.8977
1.4386610725970986E9,1004.8577
1.4386610726323462E9,1004.8777
1.4386610726664953E9,1004.9377
1.4386610726978064E9,1004.97766
1.4386610727330544E9,1005.0776
1.4386610727670813E9,1005.1975
1.4386610727991858E9,1005.3075
1.4386610728337624E9,1005.36743
1.4386610728676672E9,1005.4174
1.4386610728997717E9,1005.4574
1.4386610729344397E9,1005.52734
1.438661072968345E9,1005.3974
1.4386610730004494E9,1005.2575
1.438661073035148E9,1005.15753
1.438661073068992E9,1005.0676
1.4386610731010964E9,1004.9377
1.4386610731358864E9,1004.8677
1.4386610731696692E9,1004.8377
1.4386610732017736E9,1004.7977
1.4386610732365637E9,1004.7877
1.4386610732703161E9,1004.8377
1.4386610733024209E9,1004.91766
1.438661073337272E9,1005.0376
1.4386610733709633E9,1005.2075
1.4386610734030373E9,1005.4074
1.4386610734380105E9,1005.4474
1.4386610734715798E9,1005.4374
1.4386610735036843E9,1005.3974
1.4386610735387182E9,1005.3075
1.4386610735734472E9,1005.1975
1.438661073604331E9,1005.1476
1.4386610736394265E9,1005.0576
1.4386610736729956E9,1004.9077
1.4386610737049475E9,1004.7977
1.4386610737401342E9,1004.75775
1.4386610737737038E9,1004.76776
1.4386610738055944E9,1004.7778
1.438661073840812E9,1004.81775
1.4386610738744116E9,1004.91766
1.438661073906333E9,1005.0276
1.4386610739415505E9,1005.12756
1.4386610739751196E9,1005.2075
1.4386610740069802E9,1005.2875
1.4386610740422277E9,1005.3075
1.438661074075797E9,1005.27747
1.4386610741077185E9,1005.26746
1.438661074143821E9,1005.26746
1.438661074176505E9,1005.2575
1.4386610742084265E9,1005.17755
1.438661074244407E9,1005.0676
1.4386610742772439E9,1005.0276
1.4386610743091347E9,1004.97766
1.4386610743450537E9,1005.0076
1.4386610743779519E9,1005.0576
1.4386610744098425E9,1005.0576
1.4386610744457312E9,1005.01764
1.4386610744786596E9,1004.9877
1.4386610745105505E9,1005.0076
1.4386610745463784E9,1005.0476
1.4386610745793374E9,1005.11755
1.438661074611228E9,1005.17755
1.4386610746469643E9,1005.2475
1.438661074680076E9,1005.31744
1.4386610747119665E9,1005.27747
1.4386610747476113E9,1005.1975
1.4386610747807531E9,1005.16754
1.4386610748126748E9,1005.1476
1.4386610748482885E9,1005.1476
1.4386610748814614E9,1005.10754
1.438661074913352E9,1005.0576
1.4386610749489355E9,1005.0076
1.4386610749821692E9,1004.9877
1.4386610750140905E9,1004.97766
1.438661075049552E9,1005.0276
1.4386610750828772E9,1005.0676
1.4386610751147988E9,1005.12756
1.4386610751501684E9,1005.1875
1.4386610751835854E9,1005.22754
1.4386610752155068E9,1005.2475
1.4386610752508461E9,1005.27747
1.438661075284324E9,1005.3474
1.438661075316184E9,1005.26746
1.438661075351493E9,1005.1476
1.4386610753850317E9,1005.1376
1.4386610754169228E9,1005.1376
1.4386610754522314E9,1005.0876
1.43866107548574E9,1005.0476
1.4386610755176308E9,1005.0376
1.4386610755528784E9,1005.0476
1.4386610755864477E9,1005.0676
1.4386610756183386E9,1005.11755
1.4386610756535866E9,1005.15753
1.4386610756871254E9,1005.15753
1.4386610757190468E9,1005.1476
1.4386610757542946E9,1005.17755
1.438661075787864E9,1005.1975
1.4386610758197548E9,1005.2975
1.4386610758550024E9,1005.31744
1.4386610758885717E9,1005.2975
1.4386610759204323E9,1005.1975
1.4386610759557106E9,1005.0876
1.4386610759892797E9,1005.0676
1.4386610760211709E9,1005.0576
1.4386610760564187E9,1005.0676
1.4386610760899575E9,1005.0976
1.438661076121848E9,1005.0776
1.438661076157096E9,1005.0476
1.4386610761906958E9,1005.0576
1.4386610762225564E9,1005.0776
1.4386610762578042E9,1005.12756
1.4386610762914038E9,1005.1875
1.4386610763232949E9,1005.2075
1.4386610763585427E9,1005.2475
1.4386610763920815E9,1005.2475
1.4386610764240026E9,1005.2475
1.4386610764592202E9,1005.2375
1.4386610764927893E9,1005.1975
1.4386610765247107E9,1005.16754
1.4386610765599282E9,1005.0976
1.4386610765935278E9,1005.0676
1.438661076625419E9,1005.0476
1.4386610766606665E9,1005.0376
1.438661076694236E9,1005.0576
1.4386610767261267E9,1005.0776
1.4386610767613745E9,1005.0876
1.4386610767949438E9,1005.0776
1.4386610768268044E9,1005.10754
1.4386610768620827E9,1005.22754
1.4386610768956518E9,1005.31744
1.438661076927543E9,1005.37744
1.4386610769627905E9,1005.27747
1.4386610769963293E9,1005.15753
1.4386610770282507E9,1005.15753
1.4386610770634682E9,1005.17755
1.4386610770970373E9,1005.17755
1.4386610771289587E9,1005.12756
1.4386610771642067E9,1005.0676
1.438661077197776E9,1005.0276
1.438661077229667E9,1004.9877
1.4386610772649145E9,1004.9976
1.4386610772984533E9,1005.0576
1.4386610773303747E9,1005.10754
1.4386610773656225E9,1005.17755
1.4386610773991919E9,1005.2475
1.4386610774310524E9,1005.31744
1.4386610774663002E9,1005.38745
1.4386610774999E9,1005.4074
1.4386610775317602E9,1005.3474
1.4386610775670385E9,1005.2875
1.438661077600608E9,1005.2175
1.4386610776324682E9,1005.15753
1.4386610776677163E9,1005.12756
1.4386610777013159E9,1005.0876
1.438661077733207E9,1005.0276
1.438661077768424E9,1004.9877
1.4386610778019936E9,1005.01764
1.438661077833915E9,1005.0576
1.438661077869132E9,1005.10754
1.4386610779027321E9,1005.17755
1.4386610779346228E9,1005.2575
1.4386610779698706E9,1005.31744
1.43866107800344E9,1005.3474
1.438661078035331E9,1005.36743
1.438661078070548E9,1005.26746
1.4386610781041481E9,1005.2175
1.438661078136039E9,1005.17755
1.4386610781712866E9,1005.1376
1.4386610782057104E9,1005.0976
1.4386610782367468E9,1005.0276
1.4386610782719948E9,1004.95764
1.4386610783063576E9,1004.95764
1.438661078337455E9,1004.94763
1.4386610783727028E9,1004.9877
1.4386610784070046E9,1005.0476
1.438661078438163E9,1005.0776
1.4386610784734106E9,1005.16754
1.4386610785076513E9,1005.27747
1.4386610785388708E9,1005.36743
1.4386610785741491E9,1005.3974
1.438661078608329E9,1005.31744
1.438661078639579E9,1005.2875
1.4386610786748269E9,1005.3075
1.438661078708976E9,1005.2175
1.438661078740287E9,1005.11755
1.4386610787755346E9,1005.0576
1.4386610788096228E9,1005.01764
1.438661078841819E9,1004.96765
1.4386610788762429E9,1004.95764
1.4386610789102697E9,1005.01764
1.438661078942405E9,1005.0576
1.4386610789769201E9,1005.0776
1.438661079010917E9,1005.12756
1.4386610790429907E9,1005.27747
1.4386610790776587E9,1005.3474
1.4386610791115334E9,1005.38745
1.438661079143638E9,1005.38745
1.4386610791783364E9,1005.2975
1.4386610792121499E9,1005.2975
1.4386610792442238E9,1005.22754
1.438661079279075E9,1005.1476
1.4386610793127663E9,1005.0476
1.4386610793448403E9,1004.9976
1.4386610793797827E9,1004.94763
1.4386610794133828E9,1004.9377
1.4386610794454873E9,1004.96765
1.438661079480491E9,1005.0376
1.438661079514121E9,1005.0976
1.438661079546134E9,1005.1875
1.4386610795811682E9,1005.27747
1.4386610796147375E9,1005.33746
1.4386610796467505E9,1005.4174
1.4386610796819067E9,1005.48737
1.438661079715476E9,1005.4174
1.438661079747428E9,1005.36743
1.438661079782615E9,1005.2975
1.438661079816184E9,1005.1875
1.4386610798480446E9,1005.0576
1.4386610798833227E9,1004.9877
1.4386610799168923E9,1004.96765
1.4386610799487524E9,1004.96765
1.4386610799847631E9,1005.0276
1.4386610800175695E9,1005.0976
1.4386610800494606E9,1005.1476
1.4386610800853493E9,1005.2075
1.4386610801182778E9,1005.27747
1.4386610801501992E9,1005.31744
1.438661080185996E9,1005.3574
1.4386610802190163E9,1005.3474
1.438661080250907E9,1005.31744
1.438661080286582E9,1005.26746
1.4386610803196936E9,1005.17755
1.4386610803515847E9,1005.12756
1.438661080387229E9,1005.0776
1.4386610804204323E9,1005.0076
1.4386610804523232E9,1004.94763
1.4386610804878454E9,1004.96765
1.4386610805211096E9,1004.95764
1.4386610805530005E9,1004.97766
1.4386610805885231E9,1005.0276
1.4386610806218176E9,1005.11755
1.4386610806537392E9,1005.2375
1.438661080689109E9,1005.32745
1.4386610807225258E9,1005.38745
1.4386610807544165E9,1005.3974
1.4386610807897255E9,1005.3075
1.4386610808232644E9,1005.3075
1.4386610808551245E9,1005.2875
1.4386610808903725E9,1005.1975
1.4386610809239721E9,1005.0976
1.4386610809558632E9,1005.0376
1.438661080991111E9,1004.9976
1.4386610810246804E9,1004.97766
1.4386610810565712E9,1004.97766
1.4386610810918188E9,1005.0376
1.4386610811253884E9,1005.0876
1.438661081157279E9,1005.11755
1.438661081192527E9,1005.2175
1.4386610812260962E9,1005.27747
1.4386610812579873E9,1005.3075
1.438661081293235E9,1005.36743
1.4386610813268044E9,1005.31744
1.4386610813586645E9,1005.26746
1.4386610813939123E9,1005.1975
1.4386610814275124E9,1005.0976
1.438661081459403E9,1005.0776
1.438661081494651E9,1005.0476
1.43866108152819E9,1005.01764
1.4386610815601113E9,1004.96765
1.438661081595359E9,1004.9277
1.438661081628898E9,1004.97766
1.4386610816608193E9,1005.0276
1.4386610816960669E9,1005.10754
1.4386610817296362E9,1005.2175
1.4386610817614968E9,1005.2875
1.438661081796775E9,1005.32745
1.4386610818303442E9,1005.38745
1.4386610818622353E9,1005.38745
1.438661081897483E9,1005.36743
1.4386610819310524E9,1005.2975
1.4386610819629126E9,1005.11755
1.4386610819981604E9,1004.9877
1.4386610820317297E9,1004.94763
1.4386610820636203E9,1004.9277
1.4386610820988684E9,1004.9077
1.4386610821324072E9,1004.91766
1.438661082164298E9,1004.9377
1.4386610821995764E9,1004.9976
1.4386610822331457E9,1005.0276
1.4386610822650366E9,1005.11755
1.4386610823002846E9,1005.22754
1.4386610823338537E9,1005.2575
1.4386610823657446E9,1005.33746
1.4386610824009619E9,1005.33746
1.4386610824345312E9,1005.2475
1.438661082466422E9,1005.2075
1.43866108250167E9,1005.12756
1.4386610825352392E9,1005.0476
1.43866108256713E9,1004.97766
1.4386610826024082E9,1004.9077
1.4386610826359777E9,1004.8677
1.4386610826678686E9,1004.8477
1.4386610827031164E9,1004.8577
1.4386610827366858E9,1004.9277
1.4386610827685766E9,1005.0076
1.438661082803794E9,1005.11755
1.438661082838187E9,1005.1975
1.4386610828692846E9,1005.2875
1.438661082904502E9,1005.38745
1.4386610829387732E9,1005.38745
1.4386610829699621E9,1005.3474
1.4386610830052404E9,1005.31744
1.438661083039359E9,1005.2175
1.4386610830715857E9,1005.0476
1.438661083105918E9,1004.9377
1.4386610831399755E9,1004.9077
1.4386610831720495E9,1004.8977
1.4386610832066565E9,1004.8877
1.4386610832405615E9,1004.91766
1.4386610832726355E9,1004.97766
1.438661083307334E9,1005.0076
1.438661083341178E9,1005.0376
1.438661083373252E9,1005.12756
1.4386610834080725E9,1005.2575
1.4386610834417944E9,1005.38745
1.4386610834738684E9,1005.4574
1.4386610835087805E9,1005.38745
1.4386610835423803E9,1005.2475
1.4386610835745153E9,1005.12756
1.4386610836094885E9,1005.0476
1.438661083643088E9,1005.0276
1.4386610836750708E9,1004.97766
1.4386610837101965E9,1004.9277
1.4386610837437658E9,1004.8777
1.4386610837758093E9,1004.8577
1.4386610838109045E9,1004.9077
1.4386610838444433E9,1005.0076
1.4386610838764257E9,1005.0876
1.438661083911582E9,1005.1875
1.4386610839451513E9,1005.2475
1.4386610839770727E9,1005.32745
1.4386610840123205E9,1005.38745
1.4386610840458593E9,1005.33746
1.4386610840777807E9,1005.27747
1.4386610841130285E9,1005.22754
1.4386610841465673E9,1005.0976
1.4386610841784887E9,1005.0076
1.438661084214469E9,1004.97766
1.4386610842473059E9,1004.9377
1.4386610842791967E9,1004.9077
1.4386610843149939E9,1004.8877
1.4386610843479834E9,1004.9077
1.4386610843799047E9,1004.97766
1.4386610844156103E9,1005.0276
1.4386610844487221E9,1005.0676
1.4386610844805822E9,1005.17755
1.4386610845161963E9,1005.2475
1.4386610845493994E9,1005.33746
1.4386610845813208E9,1005.32745
1.438661084616843E9,1005.26746
1.4386610846501074E9,1005.2075
1.4386610846820288E9,1005.11755
1.43866108471746E9,1005.0476
1.4386610847508457E9,1005.0076
1.4386610847827063E9,1004.95764
1.4386610848180761E9,1004.9077
1.4386610848515234E9,1004.8777
1.4386610848834448E9,1004.8777
1.4386610849187536E9,1004.9377
1.4386610849522314E9,1004.9976
1.4386610849841526E9,1005.0876
1.4386610850194006E9,1005.2175
1.43866108505297E9,1005.2875
1.4386610850848303E9,1005.33746
1.438661085120078E9,1005.2975
1.438661085153678E9,1005.2375
1.4386610851855383E9,1005.2375
1.438661085220786E9,1005.16754
1.438661085254386E9,1005.0876
1.4386610852862766E9,1004.97766
1.4386610853215246E9,1004.9277
1.4386610853550634E9,1004.8877
1.4386610853869848E9,1004.8777
1.4386610854222326E9,1004.8977
1.438661085455802E9,1004.97766
1.4386610854876928E9,1005.0476
1.43866108552291E9,1005.0876
1.43866108555651E9,1005.1476
1.4386610855883703E9,1005.2175
1.4386610856236181E9,1005.27747
1.4386610856571875E9,1005.2975
1.4386610856891088E9,1005.27747
1.4386610857243261E9,1005.15753
1.438661085757926E9,1005.0476
1.4386610857898169E9,1005.01764
1.4386610858250644E9,1005.0476
1.4386610858586032E9,1005.0076
1.4386610858904943E9,1004.95764
1.4386610859257421E9,1004.9077
1.4386610859593115E9,1004.8777
1.4386610859912329E9,1004.9077
1.4386610860264807E9,1004.95764
1.4386610860600195E9,1004.9976
1.4386610860919101E9,1005.0876
1.4386610861271887E9,1005.1875
1.4386610861607275E9,1005.3075
1.438661086192649E9,1005.33746
1.4386610862278662E9,1005.2175
1.438661086261466E9,1005.1376
1.4386610862933264E9,1005.1476
1.4386610863286047E9,1005.0976
1.438661086362174E9,1005.0476
1.4386610863940341E9,1004.96765
1.4386610864292822E9,1004.94763
1.4386610864628515E9,1004.97766
1.438661086494773E9,1004.9877
1.4386610865300207E9,1005.0276
1.43866108656359E9,1005.0676
1.4386610865954504E9,1005.0776
1.4386610866307287E9,1005.10754
1.4386610866642675E9,1005.17755
1.438661086696189E9,1005.2375
1.4386610867314367E9,1005.2575
1.438661086765006E9,1005.2875
1.4386610867968664E9,1005.17755
1.4386610868321447E9,1005.0276
1.4386610868664768E9,1004.9877
1.4386610868975744E9,1005.0276
1.438661086932822E9,1005.0476
1.4386610869670932E9,1005.0276
1.438661086998313E9,1005.0476
1.4386610870335302E9,1005.0676
1.4386610870676794E9,1005.0676
1.438661087099021E9,1005.0976
1.4386610871342688E9,1005.1376
1.4386610871683264E9,1005.17755
1.4386610872004614E9,1005.22754
1.4386610872349463E9,1005.2875
1.4386610872689734E9,1005.3474
1.4386610873010473E9,1005.36743
1.4386610873356848E9,1005.33746
1.4386610873695898E9,1005.3075
1.4386610874016943E9,1005.22754
1.4386610874363928E9,1005.11755
1.4386610874702368E9,1005.0876
1.4386610875023718E9,1005.0676
1.4386610875370703E9,1005.0276
1.4386610875721045E9,1005.0276
1.438661087602988E9,1005.0876
1.4386610876378088E9,1005.12756
1.4386610876715002E9,1005.1476
1.4386610877036045E9,1005.15753
1.4386610877385168E9,1005.1975
1.4386610877721167E9,1005.26746
1.4386610878042517E9,1005.2875
1.4386610878392248E9,1005.2975
1.4386610878728552E9,1005.2375
1.4386610879048681E9,1005.17755
1.4386610879399328E9,1005.17755
1.4386610879734716E9,1005.1875
1.438661088005515E9,1005.15753
1.4386610880406408E9,1005.11755
1.4386610880741796E9,1005.11755
1.438661088106162E9,1005.11755
1.4386610881413794E9,1005.0976
1.4386610881749182E9,1005.11755
1.4386610882067785E9,1005.1476
1.4386610882420568E9,1005.17755
1.4386610882756262E9,1005.2175
1.438661088307517E9,1005.2375
1.4386610883427343E9,1005.27747
1.4386610883763342E9,1005.3574
1.438661088408225E9,1005.3075
1.4386610884443274E9,1005.26746
1.4386610884770422E9,1005.2875
1.438661088508933E9,1005.2575
1.4386610885448217E9,1005.1376
1.4386610885777502E9,1005.0476
1.4386610886096106E9,1005.0476
1.4386610886454382E9,1005.01764
1.4386610886784582E9,1004.97766
1.4386610887103186E9,1004.9976
1.4386610887460546E9,1005.0976
1.4386610887791355E9,1005.1476
1.4386610888110266E9,1005.1875
1.4386610888467016E9,1005.2375
1.4386610888798742E9,1005.2975
1.438661088911765E9,1005.3474
1.4386610889472876E9,1005.4174
1.4386610889805517E9,1005.3574
1.4386610890124428E9,1005.2375
1.438661089047904E9,1005.16754
1.4386610890812902E9,1005.15753
1.4386610891131506E9,1005.1476
1.4386610891485205E9,1005.10754
1.4386610891819983E9,1005.0476
1.4386610892138891E9,1004.97766
1.438661089249259E9,1004.9377
1.4386610892827063E9,1004.9377
1.4386610893145664E9,1004.9976
1.438661089349845E9,1005.0776
1.4386610893834143E9,1005.1376
1.4386610894153051E9,1005.1975
1.4386610894505224E9,1005.26746
1.4386610894841223E9,1005.3474
1.4386610895159826E9,1005.3474
1.438661089551261E9,1005.33746
1.4386610895848303E9,1005.31744
1.4386610896167212E9,1005.2075
1.438661089651969E9,1005.11755
1.4386610896855383E9,1005.0476
1.4386610897174292E9,1004.9976
1.4386610897526464E9,1004.97766
1.4386610897862158E9,1004.9976
1.4386610898181372E9,1005.0476
1.438661089853385E9,1005.10754
1.4386610898869238E9,1005.1476
1.4386610899188147E9,1005.16754
1.4386610899540625E9,1005.2575
1.4386610899876318E9,1005.31744
1.4386610900195532E9,1005.37744
1.438661090054801E9,1005.3574
1.4386610900883703E9,1005.2175
1.4386610901202612E9,1005.0776
1.438661090155509E9,1004.9976
1.4386610901890783E9,1005.0076
1.4386610902209692E9,1005.0376
1.4386610902561865E9,1005.01764
1.4386610902897863E9,1004.97766
1.4386610903216772E9,1004.96765
1.4386610903568945E9,1005.0076
1.4386610903904943E9,1005.0376
1.4386610904223852E9,1005.0876
1.4386610904576025E9,1005.17755
1.4386610904911718E9,1005.2875
1.4386610905230627E9,1005.33746
1.4386610905583105E9,1005.42737
1.4386610905919101E9,1005.4174
1.4386610906238012E9,1005.3574
1.438661090659049E9,1005.2875
1.4386610906925879E9,1005.2075
1.4386610907245092E9,1005.0676
1.438661090759757E9,1004.96765
1.4386610907932959E9,1004.8877
1.4386610908252175E9,1004.8577
1.438661090860465E9,1004.8677
1.4386610908940341E9,1004.9277
1.4386610909259253E9,1005.0076
1.438661090961173E9,1005.0776
1.4386610909947424E9,1005.15753
1.4386610910266333E9,1005.2375
1.4386610910618505E9,1005.2975
1.4386610910954504E9,1005.33746
1.438661091127341E9,1005.3075
1.438661091162589E9,1005.2175
1.438661091196128E9,1005.15753
1.4386610912280493E9,1005.11755
1.438661091263297E9,1005.11755
1.4386610912968664E9,1005.0476
1.4386610913287573E9,1004.9976
1.4386610913640053E9,1004.9277
1.438661091398429E9,1004.8677
1.4386610914294348E9,1004.8777
1.4386610914646826E9,1004.94763
1.4386610914990149E9,1005.0476
1.4386610915301428E9,1005.11755
1.438661091565421E9,1005.22754
1.4386610915996618E9,1005.3075
1.4386610916308813E9,1005.42737
1.4386610916660986E9,1005.4174
1.4386610917002172E9,1005.3574
1.4386610917324133E9,1005.2975
1.4386610917668066E9,1005.1376
1.4386610918008032E9,1004.9877
1.4386610918329077E9,1004.9277
1.4386610918675451E9,1004.8877
1.4386610919014196E9,1004.8777
1.4386610919335241E9,1004.9077
1.4386610919682302E9,1005.0076
1.4386610920020435E9,1005.0676
1.4386610920341482E9,1005.0976
1.438661092068938E9,1005.11755
1.4386610921026907E9,1005.2075
1.4386610921347647E9,1005.2375
1.4386610921696463E9,1005.36743
1.4386610922032764E9,1005.4074
1.4386610922353811E9,1005.2575
1.4386610922703848E9,1005.16754
1.438661092304015E9,1005.1476
1.4386610923359976E9,1005.0976
1.4386610923710926E9,1005.0276
1.4386610924046621E9,1004.91766
1.4386610924365528E9,1004.8477
1.4386610924717703E9,1004.82776
1.43866109250537E9,1004.8477
1.4386610925372608E9,1004.9277
1.4386610925725088E9,1005.0076
1.4386610926060781E9,1005.11755
1.438661092637969E9,1005.2175
1.4386610926732166E9,1005.3075
1.4386610927067554E9,1005.37744
1.4386610927386768E9,1005.31744
1.438661092774657E9,1005.2975
1.4386610928074634E9,1005.3075
1.438661092839385E9,1005.2475
1.4386610928752127E9,1005.15753
1.4386610929082022E9,1004.9976
1.438661092940093E9,1004.8877
1.4386610929757984E9,1004.7977
1.4386610930088794E9,1004.75775
1.4386610930408008E9,1004.82776
1.4386610930764456E9,1004.94763
1.4386610931095874E9,1004.97766
1.438661093141509E9,1005.01764
1.4386610931770315E9,1005.11755
1.4386610932102957E9,1005.17755
1.4386610932421863E9,1005.2075
1.4386610932775867E9,1005.2875
1.4386610933110034E9,1005.2375
1.4386610933428943E9,1005.1875
1.4386610933782644E9,1005.0976
1.438661093411742E9,1005.0376
1.4386610934436026E9,1005.0076
1.4386610934789114E9,1004.94763
1.4386610935124502E9,1004.8977
1.438661093544341E9,1004.8577
1.4386610935795887E9,1004.81775
1.4386610936131275E9,1004.8477
1.4386610936450183E9,1004.95764
1.4386610936802664E9,1005.0676
1.4386610937138357E9,1005.17755
1.4386610937457266E9,1005.2375
1.4386610937809741E9,1005.31744
1.4386610938145742E9,1005.3974
1.4386610938464344E9,1005.3574
1.4386610938817127E9,1005.3075
1.4386610939152515E9,1005.2875
1.4386610939471426E9,1005.1376
1.438661093982421E9,1004.9877
1.43866109401599E9,1004.8977
1.4386610940478506E9,1004.8577
1.438661094083129E9,1004.82776
1.4386610941166983E9,1004.8477
1.438661094148589E9,1004.9377
1.4386610941838367E9,1005.01764
1.4386610942173755E9,1005.0476
1.438661094249297E9,1005.10754
1.438661094284545E9,1005.2075
1.4386610943180838E9,1005.3075
1.4386610943500051E9,1005.42737
1.4386610943852222E9,1005.3474
1.4386610944188223E9,1005.26746
1.4386610944506824E9,1005.15753
1.4386610944859607E9,1005.0476
1.43866109451953E9,1005.0376
1.438661094551421E9,1004.9976
1.438661094586669E9,1004.94763
1.4386610946202686E9,1004.9077
1.4386610946520987E9,1004.8777
1.4386610946873462E9,1004.9077
1.4386610947209463E9,1004.95764
1.438661094752837E9,1005.0476
1.4386610947880847E9,1005.16754
1.438661094821654E9,1005.27747
1.438661094853545E9,1005.3574
1.438661094888793E9,1005.48737
1.4386610949223318E9,1005.4574
1.4386610949542532E9,1005.37744
1.4386610949895008E9,1005.2575
1.4386610950230703E9,1005.1376
1.438661095054961E9,1005.01764
1.4386610950901785E9,1004.8977
1.438661095123778E9,1004.8477
1.4386610951556387E9,1004.8477
1.438661095190917E9,1004.8777
1.4386610952244864E9,1004.91766
1.4386610952563772E9,1004.9976
1.4386610952916248E9,1005.0876
1.4386610953251944E9,1005.17755
1.4386610953570545E9,1005.2575
1.4386610953923328E9,1005.33746
1.4386610954258716E9,1005.4474
1.438661095457793E9,1005.38745
1.4386610954930103E9,1005.27747
1.4386610955274649E9,1005.15753
1.4386610955585012E9,1005.0876
1.4386610955937488E9,1005.0276
1.4386610956280813E9,1004.96765
1.4386610956591785E9,1004.9277
1.4386610956944568E9,1004.8577
1.438661095728728E9,1004.7877
1.4386610957598867E9,1004.7877
1.4386610957951343E9,1004.9077
1.4386610958293445E9,1005.0476
1.4386610958606253E9,1005.1376
1.4386610958958728E9,1005.27747
1.438661095929961E9,1005.37744
1.4386610959620655E9,1005.4174
1.4386610959965808E9,1005.3075
1.4386610960305471E9,1005.2375
1.438661096062621E9,1005.2875
1.4386610960972583E9,1005.1476
1.438661096131133E9,1005.01764
1.4386610961632679E9,1004.96765
1.4386610961979969E9,1004.8877
1.4386610962317798E9,1004.82776
1.438661096263854E9,1004.80774
1.4386610962986746E9,1004.8477
1.4386610963323963E9,1004.9077
1.4386610963645008E9,1004.96765
1.438661096399413E9,1005.0676
1.4386610964330127E9,1005.2075
1.4386610964651477E9,1005.2575
1.4386610965001209E9,1005.2875
1.4386610965337515E9,1005.2375
1.4386610965657337E9,1005.15753
1.4386610966008291E9,1005.0976
1.438661096634368E9,1005.0276
1.4386610966663806E9,1005.0376
1.4386610967015371E9,1005.0076
1.4386610967351065E9,1004.94763
1.4386610967670584E9,1004.9377
1.4386610968022144E9,1004.91766
1.4386610968357837E9,1004.91766
1.4386610968676748E9,1004.95764
1.4386610969029531E9,1005.0076
1.4386610969365222E9,1005.0876
1.4386610969684134E9,1005.12756
1.4386610970043936E9,1005.22754
1.4386610970372305E9,1005.4374
1.4386610970691211E9,1005.3974
1.43866109710501E9,1005.3474
1.4386610971379383E9,1005.33746
1.4386610971698291E9,1005.1975
1.438661097205657E9,1005.01764
1.438661097238616E9,1004.91766
1.4386610972705069E9,1004.8777
1.4386610973062735E9,1004.8477
1.4386610973393545E9,1004.8377
1.4386610973712451E9,1004.9277
1.4386610974068286E9,1005.01764
1.4386610974400623E9,1005.0376
1.4386610974719532E9,1005.0676
1.4386610975074146E9,1005.16754
1.43866109754074E9,1005.26746
1.438661097573058E9,1005.4174
1.4386610976080005E9,1005.3474
1.4386610976414785E9,1005.2575
1.4386610976733692E9,1005.2075
1.438661097708617E9,1005.11755
1.4386610977421863E9,1005.0576
1.4386610977740772E9,1004.9976
1.4386610978093252E9,1004.91766
1.438661097842864E9,1004.8677
1.4386610978747854E9,1004.82776
1.4386610979100025E9,1004.9077
1.4386610979435718E9,1004.96765
1.4386610979754932E9,1005.0076
1.4386610980107107E9,1005.0576
1.4386610980442798E9,1005.1476
1.4386610980762012E9,1005.2075
1.4386610981114187E9,1005.3474
1.438661098144988E9,1005.32745
1.4386610981768787E9,1005.27747
1.438661098212157E9,1005.2475
1.4386610982456958E9,1005.17755
1.4386610982776172E9,1005.0976
1.438661098312865E9,1004.9877
1.4386610983464038E9,1004.9277
1.4386610983783252E9,1004.8877
1.4386610984135733E9,1004.91766
1.4386610984471426E9,1004.96765
1.4386610984790335E9,1004.9976
1.438661098514281E9,1005.0076
1.4386610985478506E9,1005.0976
1.4386610985797412E9,1005.15753
1.4386610986149588E9,1005.1875
1.4386610986485279E9,1005.2475
1.438661098680419E9,1005.2475
1.4386610987156973E9,1005.22754
1.4386610987492666E9,1005.2075
1.4386610987811575E9,1005.1376
1.438661098816405E9,1005.12756
1.4386610988499746E9,1005.0676
1.4386610988818653E9,1005.0076
1.438661098917113E9,1004.9377
1.4386610989506824E9,1004.9077
1.4386610989825735E9,1004.9277
1.4386610990178213E9,1004.9976
1.4386610990513601E9,1005.0476
1.4386610990832508E9,1005.11755
1.4386610991184986E9,1005.2475
1.438661099152068E9,1005.27747
1.4386610991839893E9,1005.31744
1.4386610992192373E9,1005.26746
1.4386610992528064E9,1005.22754
1.438661099284667E9,1005.2875
1.4386610993199146E9,1005.22754
1.4386610993535147E9,1005.0776
1.4386610993854055E9,1004.9877
1.4386610994206226E9,1004.91766
1.4386610994542224E9,1004.91766
1.4386610994860828E9,1004.9377
1.4386610995213614E9,1004.9877
1.4386610995549304E9,1004.9976
1.438661099586791E9,1005.0076
1.4386610996220694E9,1005.0576
1.4386610996556387E9,1005.1975
1.4386610996875296E9,1005.22754
1.4386610997227466E9,1005.32745
1.4386610997563465E9,1005.4374
1.4386610997882373E9,1005.3474
1.4386610998234549E9,1005.2575
1.4386610998578787E9,1005.1975
1.4386610998889456E9,1005.1875
1.4386610999241934E9,1005.11755
1.4386610999584646E9,1005.0276
1.4386610999896533E9,1004.97766
1.4386611000249012E9,1004.8977
1.4386611000591116E9,1004.8877
1.4386611000903614E9,1004.95764
1.4386611001256094E9,1005.01764
1.438661100159728E9,1005.10754
1.4386611001919546E9,1005.1975
1.4386611002262866E9,1005.2975
1.4386611002603445E9,1005.3974
1.4386611002924488E9,1005.4374
1.4386611003270252E9,1005.3574
1.438661100360961E9,1005.32745
1.4386611003930652E9,1005.26746
1.4386611004277334E9,1005.12756
1.4386611004616077E9,1005.0076
1.4386611004936817E9,1004.94763
1.4386611005284412E9,1004.97766
1.4386611005621939E9,1005.0076
1.4386611005942981E9,1005.0276
1.438661100629119E9,1005.0476
1.4386611006628406E9,1005.0576
1.4386611006949146E9,1005.0576
1.4386611007298574E9,1005.0876
1.4386611007634265E9,1005.15753
1.4386611007955616E9,1005.1975
1.4386611008305652E9,1005.2875
1.4386611008641956E9,1005.31744
1.438661100896178E9,1005.2375
1.4386611009312732E9,1005.22754
1.4386611009648426E9,1005.26746
1.4386611009968252E9,1005.2475
1.4386611010319815E9,1005.17755
1.4386611010655203E9,1005.12756
1.4386611010974417E9,1005.0976
1.4386611011326587E9,1005.0276
1.4386611011662588E9,1004.97766
1.4386611011981802E9,1004.95764
1.438661101233367E9,1004.9976
1.4386611012669666E9,1005.0276
1.4386611012988575E9,1005.0276
1.4386611013341055E9,1005.0776
1.4386611013676748E9,1005.17755
1.4386611013995657E9,1005.15753
1.4386611014355457E9,1005.0576
1.4386611014683828E9,1005.0276
1.438661101500243E9,1005.0276
1.4386611015361316E9,1005.0576
1.4386611015690906E9,1005.0576
1.4386611016009817E9,1005.0776
1.4386611016368093E9,1005.0776
1.4386611016697683E9,1005.0676
1.4386611017016897E9,1005.0676
1.438661101737395E9,1005.0776
1.438661101770476E9,1005.10754
1.4386611018023975E9,1005.0976
1.438661101837981E9,1005.0876
1.4386611018712146E9,1005.0876
1.4386611019030752E9,1005.0876
1.4386611019386282E9,1005.10754
1.4386611019719288E9,1005.10754
1.43866110200382E9,1005.12756
1.4386611020392203E9,1005.1376
1.4386611020726066E9,1005.12756
1.4386611021044974E9,1005.11755
1.4386611021398368E9,1005.11755
1.438661102173345E9,1005.10754
1.4386611022052054E9,1005.0876
1.4386611022404838E9,1005.0776
1.4386611022740529E9,1005.0776
1.438661102305944E9,1005.0776
1.4386611023412223E9,1005.0776
1.4386611023747306E9,1005.0776
1.438661102406652E9,1005.0776
1.4386611024418995E9,1005.0776
1.438661102475469E9,1005.0876
1.4386611025073597E9,1005.0976
1.4386611025425773E9,1005.0976
1.438661102576177E9,1005.0776
1.438661102608068E9,1005.0776
1.4386611026433158E9,1005.0776
1.4386611026768851E9,1005.0876
1.4386611027087452E9,1005.0976
1.4386611027440236E9,1005.0876
1.4386611027775931E9,1005.0776
1.4386611028094838E9,1005.0776
1.4386611028447318E9,1005.0776
1.438661102878301E9,1005.0776
1.438661102910192E9,1005.0776
1.4386611029454398E9,1005.0676
1.4386611029790092E9,1005.0676
1.4386611030108693E9,1005.11755
1.4386611030461173E9,1005.12756
