0.0,0.0,0.0,0.0
1.0,1.23,0.0,0.0
2.0,2.45,0.0,0.0
3.0,3.68,0.0,0.0
4.0,4.9,0.0,0.0
5.0,6.13,0.0,0.0
6.0,7.35,0.0,0.0
7.0,8.58,0.0,0.0
8.0,9.8,0.0,0.0
9.0,11.03,0.0,0.0
10.0,12.25,0.0,0.0
11.0,13.48,0.0,0.0
12.0,14.0,0.47,-0.16
13.0,14.0,1.28,-0.43
14.0,14.0,2.1,-0.71
15.0,14.0,2.91,-0.98
16.0,14.0,3.73,-1.26
17.0,14.0,4.55,-1.54
18.0,14.0,5.36,-1.81
19.0,14.0,6.18,-2.09
20.0,14.0,6.99,-2.36
21.0,14.0,7.81,-2.64
22.0,14.0,8.63,-2.92
23.0,14.0,9.44,-3.19
24.0,14.0,10.26,-3.47
25.0,14.0,11.07,-3.74
26.0,14.0,11.89,-4.02
27.0,14.0,12.71,-4.29
28.0,14.0,13.52,-4.57
29.0,14.0,14.34,-4.85
30.0,12.95,14.5,-4.9
31.0,11.64,14.5,-4.9
32.0,11.3,13.48,-4.9
33.0,11.3,12.11,-4.9
34.0,11.3,10.74,-4.9
35.0,11.3,9.37,-4.9
36.0,11.3,8.0,-4.9
37.0,11.3,6.62,-4.9
38.0,11.3,5.25,-4.9
39.0,11.3,5.1,-4.9
40.0,11.3,6.44,-4.9
41.0,11.3,7.77,-4.9
42.0,11.3,9.11,-4.9
43.0,11.3,10.44,-4.9
44.0,11.3,11.78,-4.9
45.0,11.3,13.11,-4.9
46.0,11.3,14.45,-4.9
47.0,12.7,14.5,-4.9
48.0,14.0,14.41,-4.87
49.0,14.0,13.54,-4.57
50.0,14.0,12.66,-4.28
51.0,14.0,11.79,-3.98
52.0,14.0,10.91,-3.69
53.0,14.0,10.04,-3.39
54.0,14.0,9.16,-3.1
55.0,14.0,8.29,-2.8
56.0,14.0,7.41,-2.5
57.0,14.0,6.54,-2.21
58.0,14.0,5.66,-1.91
59.0,14.0,4.78,-1.62
60.0,14.0,3.91,-1.32
61.0,14.0,3.03,-1.03
62.0,14.0,2.16,-0.73
63.0,14.0,1.28,-0.43
64.0,14.0,0.41,-0.14
65.0,14.73,0.0,0.0
66.0,16.11,0.0,0.0
67.0,17.48,0.0,0.0
68.0,18.85,0.0,0.0
69.0,20.23,0.0,0.0
70.0,21.6,0.0,0.0
71.0,22.0,-1.03,0.0
72.0,22.0,-2.47,0.0
73.0,22.0,-3.91,0.0
74.0,22.0,-5.35,0.0
75.0,22.0,-6.79,0.0
76.0,22.0,-8.23,0.0
77.0,22.0,-9.67,0.0
78.0,22.0,-11.11,0.0
79.0,22.0,-12.55,0.0
80.0,22.0,-13.99,0.0
81.0,22.0,-15.43,0.0
82.0,22.0,-16.87,0.0
83.0,21.2,-17.5,0.0
84.0,19.78,-17.5,0.0
85.0,18.35,-17.5,0.0
86.0,16.93,-17.5,0.0
87.0,15.5,-17.5,0.0
88.0,14.08,-17.5,0.0
89.0,12.65,-17.5,0.0
90.0,11.23,-17.5,0.0
91.0,9.8,-17.5,0.0
92.0,8.38,-17.5,0.0
93.0,7.2,-17.27,0.0
94.0,7.2,-15.93,0.0
95.0,7.2,-14.59,0.0
96.0,7.2,-13.25,0.0
97.0,7.2,-11.91,0.0
98.0,7.2,-10.57,0.0
99.0,7.2,-9.23,0.0
100.0,7.2,-7.89,0.0
101.0,7.2,-6.55,0.0
102.0,7.2,-5.21,0.0
103.0,7.2,-3.87,0.0
104.0,7.2,-2.53,0.0
105.0,7.2,-1.19,0.0
106.0,7.07,0.0,0.0
107.0,5.88,0.0,0.0
108.0,4.69,0.0,0.0
109.0,3.5,0.0,0.0
110.0,2.31,0.0,0.0
111.0,1.13,0.0,0.0
112.0,0.0,0.0,0.0
