87459.344417711,1006.2057
87459.377987047,1006.19696
87459.411556383,1006.19696
87459.44512571901,1006.19696
87459.478695055,1006.19696
87459.51226439001,1006.19696
87459.545833726,1006.19696
87459.579403062,1006.19696
87459.61297239801,1006.19696
87459.64654173401,1006.19696
87459.68011107,1006.19696
87459.713680406,1006.19696
87459.74724974201,1006.19696
87459.780819078,1006.19696
87459.814388414,1006.19696
87459.84795775001,1006.19696
87459.881527086,1006.19696
87459.915096422,1006.19696
87459.948665758,1006.19696
87459.98223509401,1006.19696
87460.01580443,1006.19696
87460.04937376501,1006.19696
87460.082943101,1006.19696
87460.116512437,1006.19696
87460.15008177301,1006.19696
87460.18365110901,1006.1972
87460.217220445,1006.207
87460.250789781,1006.207
87460.28435911701,1006.207
87460.317928453,1006.207
87460.351497789,1006.207
87460.38506712501,1006.207
87460.418636461,1006.207
87460.452205797,1006.207
87460.485775133,1006.207
87460.51934446901,1006.207
87460.552913805,1006.207
87460.58648314001,1006.207
87460.620052476,1006.207
87460.653621812,1006.2134
87460.68719114801,1006.217
87460.72076048401,1006.217
87460.754324297,1006.217
87460.78789363301,1006.21594
87460.821462969,1006.207
87460.855032305,1006.2103
87460.88860164101,1006.217
87460.922170977,1006.2113
87460.955740313,1006.207
87460.98930964901,1006.207
87461.02287898501,1006.207
87461.056448321,1006.207
87461.090017657,1006.2084
87461.123586992,1006.217
87461.157156328,1006.217
87461.19072566401,1006.217
87461.224295,1006.217
87461.257864336,1006.2097
87461.291433672,1006.207
87461.32500300801,1006.207
87461.358572344,1006.2063
87461.39214168,1006.19696
87461.42571101601,1006.19696
87461.459280352,1006.19696
87461.492849688,1006.19696
87461.52641902401,1006.19696
87461.55998836001,1006.19696
87461.593557696,1006.20575
87461.627127032,1006.207
87461.660696367,1006.207
87461.694265703,1006.207
87461.72783503901,1006.207
87461.761404375,1006.207
87461.794973711,1006.207
87461.828543047,1006.21387
87461.86211238301,1006.217
87461.895681719,1006.217
87461.929251055,1006.207
87461.96282039101,1006.207
87461.996389727,1006.207
87462.029959063,1006.207
87462.06352839901,1006.207
87462.09709773501,1006.207
87462.130667071,1006.207
87462.164236407,1006.207
87462.197805742,1006.207
87462.231375078,1006.207
87462.26494441401,1006.207
87462.29851375,1006.207
87462.332083086,1006.207
87462.365652422,1006.20154
87462.39922175801,1006.19696
87462.432791094,1006.19696
87462.46636043,1006.19696
87462.49992976601,1006.207
87462.533499102,1006.207
87462.567068438,1006.207
87462.60063777401,1006.207
87462.63420711001,1006.207
87462.667776446,1006.207
87462.701345782,1006.207
87462.734915117,1006.207
87462.768484453,1006.207
87462.80205378901,1006.20654
87462.835623125,1006.19696
87462.869192461,1006.19696
87462.902761797,1006.19696
87462.93633113301,1006.19696
87462.969900469,1006.19696
87463.003469805,1006.19696
87463.03703914101,1006.19696
87463.070608477,1006.19696
87463.104177813,1006.19696
87463.13774714901,1006.19495
87463.17131648501,1006.187
87463.204885821,1006.187
87463.238455157,1006.187
87463.272024492,1006.1936
87463.305593828,1006.19696
87463.33916316401,1006.18805
87463.3727325,1006.187
87463.406301836,1006.187
87463.439871172,1006.187
87463.47344050801,1006.187
87463.507009844,1006.187
87463.54057918,1006.187
87463.57414851601,1006.187
87463.607717852,1006.17883
87463.641287188,1006.177
87463.67485652401,1006.177
87463.70842586001,1006.177
87463.741995196,1006.177
87463.775564532,1006.177
87463.809133867,1006.177
87463.842703203,1006.177
87463.87627253901,1006.177
87463.909841875,1006.177
87463.943411211,1006.177
87463.976980547,1006.177
87464.01054988301,1006.177
87464.044119219,1006.177
87464.077688555,1006.177
87464.11125789101,1006.177
87464.144827227,1006.177
87464.178396563,1006.177
87464.21196589901,1006.177
87464.24553523501,1006.177
87464.279104571,1006.177
87464.312673907,1006.177
87464.346243242,1006.177
87464.379812578,1006.177
87464.41338191401,1006.177
87464.44695125,1006.177
87464.480520586,1006.177
87464.514089922,1006.177
87464.54765925801,1006.177
87464.581228594,1006.177
87464.61479793,1006.177
87464.64836726601,1006.177
87464.681936602,1006.177
87464.715505938,1006.1708
87464.74907527401,1006.167
87464.78264461001,1006.167
87464.816213946,1006.167
87464.849783282,1006.167
87464.883352617,1006.167
87464.916921953,1006.17017
87464.95049128901,1006.177
87464.984060625,1006.177
87465.017629961,1006.177
87465.051199297,1006.177
87465.08476863301,1006.177
87465.118337969,1006.177
87465.151907305,1006.1782
87465.18547664101,1006.187
87465.219045977,1006.187
87465.252615313,1006.187
87465.28618464901,1006.187
87465.31975398501,1006.187
87465.353323321,1006.187
87465.386892657,1006.187
87465.420461992,1006.187
87465.454031328,1006.187
87465.48760066401,1006.187
87465.52117,1006.187
87465.554739336,1006.187
87465.588308672,1006.187
87465.62187800801,1006.187
87465.655447344,1006.187
87465.68901668,1006.187
87465.72258601601,1006.187
87465.756155352,1006.187
87465.789724688,1006.187
87465.82329402401,1006.187
87465.85686336001,1006.187
87465.890432696,1006.187
87465.924002032,1006.187
87465.957571367,1006.187
87465.991140703,1006.187
87466.02471003901,1006.187
87466.058279375,1006.187
87466.091848711,1006.187
87466.125418047,1006.187
87466.15898738301,1006.187
87466.192556719,1006.187
87466.226126055,1006.187
87466.25969539101,1006.187
87466.293264727,1006.187
87466.326834063,1006.187
87466.36040339901,1006.187
87466.39397273501,1006.187
87466.427542071,1006.187
87466.461111407,1006.187
87466.494680742,1006.19446
87466.528250078,1006.19696
87466.56181941401,1006.19696
87466.59538875,1006.19696
87466.628958086,1006.19696
87466.662527422,1006.19696
87466.69609675801,1006.19696
87466.729666094,1006.19696
87466.76323543,1006.19696
87466.79680476601,1006.19696
87466.830374102,1006.19696
87466.863943438,1006.19714
87466.89751277401,1006.207
87466.93108211001,1006.20447
87466.964651446,1006.19696
87466.998220782,1006.19696
87467.031790117,1006.19696
87467.065359453,1006.19696
87467.09892878901,1006.19696
87467.132498125,1006.19696
87467.166067461,1006.187
87467.199636797,1006.187
87467.23320613301,1006.187
87467.266775469,1006.187
87467.300344805,1006.187
87467.33391414101,1006.187
87467.367483477,1006.187
87467.401052813,1006.187
87467.43462214901,1006.187
87467.46819148501,1006.187
87467.501760821,1006.187
87467.535330157,1006.187
87467.568899492,1006.187
87467.602468828,1006.187
87467.63603816401,1006.187
87467.6696075,1006.187
87467.703176836,1006.187
87467.736746172,1006.187
87467.77031550801,1006.187
87467.803884844,1006.187
87467.83745418,1006.187
87467.87102351601,1006.187
87467.904592852,1006.187
87467.938162188,1006.187
87467.97173152401,1006.187
87468.00530086001,1006.187
87468.038870196,1006.187
87468.072439532,1006.187
87468.106008867,1006.187
87468.139578203,1006.187
87468.17314753901,1006.187
87468.206716875,1006.187
87468.240286211,1006.187
87468.273855547,1006.187
87468.30742488301,1006.187
87468.340994219,1006.19696
87468.374563555,1006.19476
87468.40813289101,1006.187
87468.441702227,1006.187
87468.475271563,1006.187
87468.50884089901,1006.1938
87468.54241023501,1006.19696
87468.575979571,1006.19696
87468.609548907,1006.19696
87468.643118242,1006.19696
87468.676687578,1006.19696
87468.71025691401,1006.19696
87468.74382625,1006.19696
87468.777395586,1006.19696
87468.810964922,1006.19696
87468.84453425801,1006.19696
87468.878103594,1006.19696
87468.91167293,1006.19696
87468.94524226601,1006.19696
87468.978811602,1006.19696
87469.012380938,1006.19696
87469.04595027401,1006.19696
87469.07951961001,1006.19696
87469.113088946,1006.19696
87469.146658282,1006.19696
87469.180227617,1006.19696
87469.213796953,1006.19696
87469.24736628901,1006.19696
87469.280935625,1006.19696
87469.314504961,1006.19696
87469.348074297,1006.19696
87469.38164363301,1006.19696
87469.415212969,1006.19696
87469.448782305,1006.19696
87469.48235164101,1006.19696
87469.515920977,1006.19696
87469.549490313,1006.19696
87469.58305964901,1006.19696
87469.61662898501,1006.19696
87469.650198321,1006.19696
87469.683767657,1006.18964
87469.717336992,1006.187
87469.750906328,1006.187
87469.78447566401,1006.19696
87469.818045,1006.19696
87469.851614336,1006.19696
87469.885183672,1006.19696
87469.91875300801,1006.19696
87469.952322344,1006.1904
87469.98589168,1006.187
87470.01946101601,1006.187
87470.053030352,1006.187
87470.086599688,1006.187
87470.12016902401,1006.187
87470.15373836001,1006.187
87470.187307696,1006.187
87470.220877032,1006.187
87470.254446367,1006.187
87470.288015703,1006.187
87470.32158503901,1006.187
87470.355154375,1006.187
87470.388723711,1006.187
87470.422293047,1006.187
87470.45586238301,1006.187
87470.489431719,1006.187
87470.523001055,1006.187
87470.55657039101,1006.187
87470.590139727,1006.187
87470.623709063,1006.187
