0.0,0.0,0.0,0.0
1.0,1.31,0.0,0.0
2.0,2.62,0.0,0.0
3.0,3.92,0.0,0.0
4.0,5.23,0.0,0.0
5.0,6.54,0.0,0.0
6.0,7.85,0.0,0.0
7.0,9.15,0.0,0.0
8.0,10.46,0.0,0.0
9.0,11.77,0.0,0.0
10.0,13.08,0.0,0.0
11.0,14.39,0.0,0.0
12.0,15.69,0.0,0.0
13.0,17.0,0.0,0.0
14.0,18.0,-0.34,0.0
15.0,18.0,-1.76,0.0
16.0,18.0,-3.18,0.0
17.0,18.0,-4.61,0.0
18.0,18.0,-6.03,0.0
19.0,18.0,-7.45,0.0
20.0,18.0,-8.87,0.0
21.0,18.0,-10.3,0.0
22.0,18.0,-11.72,0.0
23.0,18.0,-13.14,0.0
24.0,18.0,-14.56,0.0
25.0,18.0,-15.99,0.0
26.0,18.0,-17.41,0.0
27.0,16.7,-17.5,0.0
28.0,15.32,-17.5,0.0
29.0,13.94,-17.5,0.0
30.0,12.55,-17.5,0.0
31.0,11.17,-17.5,0.0
32.0,9.79,-17.5,0.0
33.0,8.4,-17.5,0.0
34.0,7.02,-17.5,0.0
35.0,5.64,-17.5,0.0
36.0,4.25,-17.5,0.0
37.0,2.87,-17.5,0.0
38.0,1.48,-17.5,0.0
39.0,0.1,-17.5,0.0
40.0,0.0,-16.33,0.0
41.0,0.0,-15.06,0.0
42.0,0.0,-13.8,0.0
43.0,0.0,-12.53,0.0
44.0,0.0,-11.27,0.0
45.0,0.0,-10.0,0.0
46.0,0.0,-8.73,0.0
47.0,0.0,-7.47,0.0
48.0,0.0,-6.2,0.0
49.0,0.0,-4.94,0.0
50.0,0.0,-3.67,0.0
51.0,0.0,-2.41,0.0
52.0,0.0,-1.14,0.0
53.0,0.0,0.0,0.0
