0.0,0.0,0.0,0.0
1.0,1.37,0.0,0.0
2.0,2.74,0.0,0.0
3.0,4.1,0.0,0.0
4.0,5.47,0.0,0.0
5.0,6.84,0.0,0.0
6.0,8.21,0.0,0.0
7.0,9.58,0.0,0.0
8.0,10.94,0.0,0.0
9.0,12.31,0.0,0.0
10.0,13.68,0.0,0.0
11.0,15.05,0.0,0.0
12.0,16.42,0.0,0.0
13.0,17.5,0.32,0.0
14.0,17.5,1.86,0.0
15.0,17.5,3.4,0.0
16.0,17.5,4.94,0.0
17.0,17.5,6.48,0.0
18.0,17.5,8.02,0.0
19.0,17.5,9.56,0.0
20.0,17.5,11.1,0.0
21.0,17.5,12.64,0.0
22.0,17.5,14.18,0.0
23.0,17.5,15.72,0.0
24.0,17.5,17.26,0.0
25.0,16.71,18.0,0.0
26.0,15.19,18.0,0.0
27.0,13.67,18.0,0.0
28.0,12.15,18.0,0.0
29.0,10.63,18.0,0.0
30.0,9.1,18.0,0.0
31.0,7.58,18.0,0.0
32.0,6.06,18.0,0.0
33.0,4.54,18.0,0.0
34.0,3.02,18.0,0.0
35.0,1.5,18.0,0.0
36.0,0.0,17.98,0.0
37.0,0.0,16.55,0.0
38.0,0.0,15.13,0.0
39.0,0.0,13.7,0.0
40.0,0.0,12.28,0.0
41.0,0.0,10.85,0.0
42.0,0.0,9.42,0.0
43.0,0.0,8.0,0.0
44.0,0.0,6.57,0.0
45.0,0.0,5.15,0.0
46.0,0.0,3.72,0.0
47.0,0.0,2.3,0.0
48.0,0.0,0.87,0.0
49.0,0.0,0.0,0.0
