0.0,0.0,0.0,0.0
1.0,1.3,0.0,0.0
2.0,2.59,0.0,0.0
3.0,3.89,0.0,0.0
4.0,5.18,0.0,0.0
5.0,6.48,0.0,0.0
6.0,7.77,0.0,0.0
7.0,9.07,0.0,0.0
8.0,10.36,0.0,0.0
9.0,11.66,0.0,0.0
10.0,12.95,0.0,0.0
11.0,14.0,0.16,-0.05
12.0,14.0,0.98,-0.33
13.0,14.0,1.8,-0.61
14.0,14.0,2.62,-0.88
15.0,14.0,3.44,-1.16
16.0,14.0,4.25,-1.44
17.0,14.0,5.07,-1.71
18.0,14.0,5.89,-1.99
19.0,14.0,6.71,-2.27
20.0,14.0,7.53,-2.55
21.0,14.0,8.35,-2.82
22.0,14.0,9.17,-3.1
23.0,14.0,9.99,-3.38
24.0,14.0,10.81,-3.65
25.0,14.0,11.63,-3.93
26.0,14.0,12.45,-4.21
27.0,14.0,13.27,-4.48
28.0,14.0,14.09,-4.76
29.0,13.26,14.5,-4.9
30.0,11.77,14.5,-4.9
31.0,11.3,13.64,-4.9
32.0,11.3,12.38,-4.9
33.0,11.3,11.12,-4.9
34.0,11.3,9.85,-4.9
35.0,11.3,8.59,-4.9
36.0,11.3,7.33,-4.9
37.0,11.3,6.07,-4.9
38.0,11.3,4.8,-4.9
39.0,11.3,5.48,-4.9
40.0,11.3,6.77,-4.9
41.0,11.3,8.06,-4.9
42.0,11.3,9.35,-4.9
43.0,11.3,10.63,-4.9
44.0,11.3,11.92,-4.9
45.0,11.3,13.21,-4.9
46.0,11.3,14.5,-4.9
47.0,12.53,14.5,-4.9
48.0,13.76,14.5,-4.9
49.0,14.0,13.85,-4.68
50.0,14.0,13.04,-4.41
51.0,14.0,12.22,-4.13
52.0,14.0,11.41,-3.86
53.0,14.0,10.6,-3.58
54.0,14.0,9.79,-3.31
55.0,14.0,8.98,-3.03
56.0,14.0,8.16,-2.76
57.0,14.0,7.35,-2.48
58.0,14.0,6.54,-2.21
59.0,14.0,5.73,-1.94
60.0,14.0,4.91,-1.66
61.0,14.0,4.1,-1.39
62.0,14.0,3.29,-1.11
63.0,14.0,2.48,-0.84
64.0,14.0,1.67,-0.56
65.0,14.0,0.85,-0.29
66.0,14.0,0.04,-0.01
67.0,15.36,0.0,0.0
68.0,16.79,0.0,0.0
69.0,18.21,0.0,0.0
70.0,19.64,0.0,0.0
71.0,21.07,0.0,0.0
72.0,22.0,-0.5,0.0
73.0,22.0,-1.95,0.0
74.0,22.0,-3.39,0.0
75.0,22.0,-4.83,0.0
76.0,22.0,-6.28,0.0
77.0,22.0,-7.72,0.0
78.0,22.0,-9.16,0.0
79.0,22.0,-10.6,0.0
80.0,22.0,-12.05,0.0
81.0,22.0,-13.49,0.0
82.0,22.0,-14.93,0.0
83.0,22.0,-16.38,0.0
84.0,21.68,-17.5,0.0
85.0,20.24,-17.5,0.0
86.0,18.79,-17.5,0.0
87.0,17.35,-17.5,0.0
88.0,15.91,-17.5,0.0
89.0,14.46,-17.5,0.0
90.0,13.02,-17.5,0.0
91.0,11.57,-17.5,0.0
92.0,10.13,-17.5,0.0
93.0,8.69,-17.5,0.0
94.0,7.24,-17.5,0.0
95.0,7.2,-16.04,0.0
96.0,7.2,-14.54,0.0
97.0,7.2,-13.03,0.0
98.0,7.2,-11.53,0.0
99.0,7.2,-10.03,0.0
100.0,7.2,-8.52,0.0
101.0,7.2,-7.02,0.0
102.0,7.2,-5.52,0.0
103.0,7.2,-4.01,0.0
104.0,7.2,-2.51,0.0
105.0,7.2,-1.01,0.0
106.0,6.82,0.0,0.0
107.0,5.66,0.0,0.0
108.0,4.51,0.0,0.0
109.0,3.36,0.0,0.0
110.0,2.2,0.0,0.0
111.0,1.05,0.0,0.0
112.0,0.0,0.0,0.0
