347238.065620873,1007.32996
347238.09394118504,1007.37
347238.122261498,1007.37
347238.15058181004,1007.41
347238.178902123,1007.41
347238.20722243504,1007.41
347238.235542748,1007.43
347238.26386306004,1007.43
347238.292183373,1007.43
347238.32050368504,1007.43
347238.348823998,1007.45996
347238.37714431004,1007.45996
347238.405678246,1007.52
347238.436501,1007.52
347238.467293236,1007.52
347238.49811599,1007.52
347238.528908226,1007.52
347238.55973098,1007.52
347238.59052321705,1007.52
347238.621345971,1007.54
347238.65213820705,1007.54
347238.682960961,1007.54
347238.713753197,1007.56
347238.744575951,1007.56
347238.775368187,1007.56
347238.806190941,1007.56
347238.83698317804,1007.56
347238.867805932,1007.56
347238.89862868504,1007.61
347238.929420922,1007.61
347238.96024367603,1007.61
347238.991035912,1007.61
347239.02185866603,1007.61
347239.052650902,1007.61
347239.08347365604,1007.63
347239.114265892,1007.63
347239.14508864604,1007.63
347239.175880883,1007.65
347239.206703637,1007.65
347239.237495873,1007.65
347239.26831862703,1007.65
347239.299141381,1007.68
347239.32993361703,1007.68
347239.360756371,1007.68
347239.39154860703,1007.65
347239.422371361,1007.65
347239.453163598,1007.7
347239.483986351,1007.7
347239.514778588,1007.7
347239.54560134205,1007.7
347239.576393578,1007.70996
347239.60721633205,1007.70996
347239.638008568,1007.70996
347239.668831322,1007.69
347239.699654076,1007.69
347239.730446312,1007.72
347239.761269066,1007.72
347239.79206130304,1007.72
347239.822884057,1007.72
347239.85367629305,1007.75
347239.884499047,1007.75
347239.91532180103,1007.75
347239.946175072,1007.77
347239.977058861,1007.77
347240.00794265,1007.77
347240.03885695705,1007.75
347240.069740746,1007.75
347240.100624535,1007.75
347240.131508324,1007.76
347240.162392113,1007.76
347240.19330642,1007.76
347240.224190209,1007.77
347240.255073998,1007.77
347240.285957787,1007.77
347240.316841576,1007.77
347240.347755883,1007.8
347240.378639672,1007.8
347240.409523461,1007.8
347240.44040725,1007.8
347240.471291039,1007.8
347240.502174828,1007.79
347240.533089135,1007.79
347240.563972924,1007.79
347240.594856713,1007.79
347240.62574050203,1007.78
347240.65662429103,1007.78
347240.687538598,1007.78
347240.718422387,1007.8
347240.74930617603,1007.8
347240.78018996504,1007.8
347240.81107375404,1007.81
347240.84198806004,1007.81
347240.87287184905,1007.81
347240.90375563904,1007.82
347240.93463942804,1007.82
347240.96552321705,1007.82
347240.996407006,1007.82996
347241.027321312,1007.82996
347241.058205101,1007.82996
347241.08908889,1007.83997
347241.11997268,1007.83997
347241.150856469,1007.83997
347241.181770775,1007.83997
347241.212654564,1007.83997
347241.243538353,1007.83997
347241.274422142,1007.83997
347241.305305932,1007.81
347241.336220238,1007.81
347241.367104027,1007.83997
347241.397987816,1007.83997
347241.428871605,1007.83997
347241.459755394,1007.83997
347241.49063918303,1007.83997
347241.52155349,1007.83997
347241.552437279,1007.83997
347241.583321068,1007.82996
347241.61420485703,1007.82996
347241.64508864604,1007.82996
347241.676002953,1007.86
347241.70688674203,1007.86
347241.73777053104,1007.85
347241.76865432004,1007.85
347241.79953810904,1007.85
347241.83045241603,1007.85
347241.86133620504,1007.87
347241.89221999404,1007.87
347241.92310378305,1007.87
347241.953987572,1007.86
347241.984871361,1007.86
347242.01578566805,1007.86
347242.04666945705,1007.88
347242.077553246,1007.88
347242.108437035,1007.88
347242.139320824,1007.86
347242.170235131,1007.86
347242.20111892,1007.86
347242.232002709,1007.88
347242.262886498,1007.88
347242.293770287,1007.88
347242.324654076,1007.88
347242.355568383,1007.86
347242.386452172,1007.86
347242.417335961,1007.87
347242.44821975,1007.87
347242.479103539,1007.87
347242.510017846,1007.88
347242.540901635,1007.88
347242.571785424,1007.88
347242.602669213,1007.88
347242.63355300203,1007.87
347242.66446730803,1007.87
347242.695351098,1007.88
347242.726234887,1007.88
347242.75711867603,1007.88
347242.78800246504,1007.88
347242.81888625404,1007.89
347242.84980056004,1007.89
347242.88068434905,1007.89
347242.91156813904,1007.9
347242.94245192804,1007.9
347242.97333571705,1007.9
347243.00425002305,1007.9
347243.035133812,1007.9
347243.066017601,1007.9
347243.09690139,1007.86
347243.12778518,1007.86
347243.158699486,1007.86
347243.189583275,1007.86
347243.220467064,1007.86
347243.251350853,1007.86
347243.282234642,1007.86
347243.313118432,1007.87
347243.344032738,1007.87
347243.374932829,1007.87
347243.405816618,1007.87
347243.436700407,1007.87
347243.467584196,1007.88
347243.498498503,1007.88
347243.529382292,1007.88
347243.560266081,1007.88
347243.59114987,1007.88
347243.622033659,1007.88
347243.652947966,1007.88
347243.683831755,1007.89
347243.714715544,1007.89
347243.745599333,1007.89
347243.776483122,1007.89
347243.80736691103,1007.89
347243.838281218,1007.89
347243.869165007,1007.86
347243.90004879603,1007.86
347243.93093258503,1007.86
347243.96181637404,1007.86
347243.992730681,1007.86
347244.02361447003,1007.86
347244.05449825904,1007.87
347244.08538204804,1007.87
347244.11626583704,1007.87
347244.14718014403,1007.87
347244.17806393304,1007.87
347244.20894772204,1007.87
347244.23983151105,1007.87
347244.2707153,1007.87
347244.301599089,1007.87
347244.33251339605,1007.87
347244.36339718505,1007.87
347244.394280974,1007.87
347244.425164763,1007.88
347244.456048552,1007.88
347244.486962859,1007.88
347244.517846648,1007.88
347244.548730437,1007.88
347244.579614226,1007.88
347244.610498015,1007.88
347244.641412321,1007.88
347244.67229611,1007.88
347244.7031799,1007.88
347244.734063689,1007.88
347244.764947478,1007.88
347244.795831267,1007.88
347244.826745573,1007.88
347244.857629362,1007.88
347244.88851315103,1007.88
347244.919396941,1007.88
347244.95028073003,1007.88
347244.98119503603,1007.88
347245.01207882504,1007.88
347245.04296261404,1007.88
347245.07384640304,1007.88
347245.10473019205,1007.88
347245.13564449904,1007.88
347245.16652828804,1007.88
347245.19741207705,1007.89
347245.228295866,1007.89
347245.259179655,1007.89
347245.290063444,1007.89
347245.32097775105,1007.89
347245.35186154,1007.89
347245.382745329,1007.89
347245.413629118,1007.89
347245.444512907,1007.89
347245.475427214,1007.89
347245.506311003,1007.89
347245.537194792,1007.89
347245.568078581,1007.89
347245.59896237,1007.89
347245.629846159,1007.89
347245.660760466,1007.89
347245.691644255,1007.89
347245.722528044,1007.89
347245.753411833,1007.89
347245.784295622,1007.89
347245.815209929,1007.89
347245.846093718,1007.89
347245.876977507,1007.89
347245.90786129603,1007.89
347245.93874508503,1007.89
347245.969659392,1007.89
347246.000543181,1007.89
347246.03142697003,1007.89
347246.06231075904,1007.89
347246.09319454804,1007.89
347246.12407833704,1007.89
347246.15499264403,1007.89
347246.18587643304,1007.89
347246.21676022204,1007.89
347246.24764401105,1007.89
347246.2785278,1007.89
347246.30944210704,1007.89
347246.34032589605,1007.89
347246.37120968505,1007.89
347246.402093474,1007.89
347246.432977263,1007.89
347246.463891569,1007.89
347246.494775359,1007.89
347246.525659148,1007.89
347246.556542937,1007.89
347246.587426726,1007.89
347246.618310515,1007.89
347246.649224821,1007.89
347246.68010861,1007.89
347246.7109924,1007.89
347246.741876189,1007.89
347246.772759978,1007.89
347246.803674284,1007.89
347246.834558073,1007.88
347246.865441862,1007.88
347246.89632565103,1007.88
347246.927209441,1007.88
347246.958123747,1007.88
347246.98900753603,1007.89
347247.01989132504,1007.89
347247.05077511404,1007.89
347247.08165890304,1007.89
347247.11254269205,1007.91
347247.14345699904,1007.91
347247.17434078804,1007.91
347247.20522457705,1007.91
347247.236108366,1007.91
347247.266992155,1007.91
347247.29790646204,1007.91
347247.32879025105,1007.91
347247.35967404,1007.91
347247.390557829,1007.91
347247.421441618,1007.91
347247.452355925,1007.91
347247.483239714,1007.91
347247.514123503,1007.91
347247.545007292,1007.91
347247.575891081,1007.91
347247.60677487,1007.91
347247.637689177,1007.91
347247.668572966,1007.91
347247.699456755,1007.91
347247.730340544,1007.91
347247.761224333,1007.91
347247.79213864,1007.91
347247.823022429,1007.91
347247.853906218,1007.91
347247.884790007,1007.91
347247.91567379603,1007.91
347247.946588103,1007.9
347247.977471892,1007.9
347248.008355681,1007.9
347248.03923947003,1007.9
347248.07012325904,1007.9
347248.10100704804,1007.9
347248.13192135503,1007.9
347248.16280514403,1007.9
347248.19368893304,1007.9
347248.22457272204,1007.9
347248.25545651105,1007.9
347248.28637081705,1007.9
347248.31725460704,1007.9
347248.34813839605,1007.9
347248.37902218505,1007.9
347248.409905974,1007.9
347248.44082028,1007.9
347248.471704069,1007.9
347248.502587859,1007.9
347248.533471648,1007.9
347248.564355437,1007.9
347248.595239226,1007.9
347248.626153532,1007.9
347248.657037321,1007.9
347248.68792111,1007.9
347248.7188049,1007.9
347248.749688689,1007.9
347248.780602995,1007.9
347248.811486784,1007.9
347248.842370573,1007.9
347248.873254362,1007.9
347248.90413815103,1007.9
347248.935021941,1007.9
347248.965936247,1007.9
347248.99682003603,1007.9
347249.02770382504,1007.9
347249.05858761404,1007.9
347249.08947140304,1007.9
347249.12038571003,1007.9
347249.15126949904,1007.9
347249.18215328804,1007.9
347249.21303707705,1007.9
347249.243920866,1007.9
347249.27483517304,1007.9
347249.30571896204,1007.9
347249.33660275105,1007.9
347249.36748654,1007.9
347249.398370329,1007.9
347249.429254118,1007.9
347249.460168425,1007.9
