0.0,0.0,0.0,0.0
1.0,1.06,0.0,0.0
2.0,2.12,0.0,0.0
3.0,3.18,0.0,0.0
4.0,4.25,0.0,0.0
5.0,5.31,0.0,0.0
6.0,6.37,0.0,0.0
7.0,7.2,0.35,0.0
8.0,7.2,1.96,0.0
9.0,7.2,3.57,0.0
10.0,7.2,5.18,0.0
11.0,7.2,6.79,0.0
12.0,7.2,8.4,0.0
13.0,7.2,10.01,0.0
14.0,7.2,11.62,0.0
15.0,7.2,13.23,0.0
16.0,7.2,14.84,0.0
17.0,7.2,16.45,0.0
18.0,7.72,17.5,0.0
19.0,9.23,17.5,0.0
20.0,10.74,17.5,0.0
21.0,12.25,17.5,0.0
22.0,13.76,17.5,0.0
23.0,14.0,18.23,-0.25
24.0,14.0,19.1,-0.54
25.0,14.0,19.98,-0.84
26.0,14.0,20.85,-1.13
27.0,14.0,21.72,-1.43
28.0,14.0,22.6,-1.72
29.0,14.0,23.47,-2.02
30.0,14.0,24.34,-2.31
31.0,14.0,25.22,-2.61
32.0,14.0,26.09,-2.9
33.0,14.0,26.96,-3.2
34.0,14.0,27.83,-3.49
35.0,14.0,28.71,-3.79
36.0,14.0,29.58,-4.08
37.0,14.0,30.45,-4.38
38.0,14.0,31.33,-4.67
39.0,14.0,31.83,-4.84
40.0,14.0,31.1,-4.6
41.0,14.0,30.37,-4.35
42.0,14.0,29.63,-4.1
43.0,14.0,28.9,-3.85
44.0,14.0,28.17,-3.6
45.0,14.0,27.43,-3.36
46.0,14.0,26.7,-3.11
47.0,14.0,25.97,-2.86
48.0,14.0,25.24,-2.61
49.0,14.0,24.5,-2.37
50.0,14.0,23.77,-2.12
51.0,14.0,23.04,-1.87
52.0,14.0,22.3,-1.62
53.0,14.0,21.57,-1.38
54.0,14.0,20.84,-1.13
55.0,14.0,20.1,-0.88
56.0,14.0,19.37,-0.63
57.0,14.0,18.64,-0.38
58.0,14.0,17.9,-0.14
59.0,13.36,17.5,0.0
60.0,11.94,17.5,0.0
61.0,10.52,17.5,0.0
62.0,9.1,17.5,0.0
63.0,7.68,17.5,0.0
64.0,6.26,17.5,0.0
65.0,4.84,17.5,0.0
66.0,3.42,17.5,0.0
67.0,2.0,17.5,0.0
68.0,0.58,17.5,0.0
69.0,0.0,16.7,0.0
70.0,0.0,15.33,0.0
71.0,0.0,13.96,0.0
72.0,0.0,12.59,0.0
73.0,0.0,11.22,0.0
74.0,0.0,9.85,0.0
75.0,0.0,8.49,0.0
76.0,0.0,7.12,0.0
77.0,0.0,5.75,0.0
78.0,0.0,4.38,0.0
79.0,0.0,3.01,0.0
80.0,0.0,1.64,0.0
81.0,0.0,0.28,0.0
82.0,0.0,0.0,0.0
