0.0,0.0,0.0,0.0
11.165,14.0,0.0,0.0
29.415,14.0,14.5,-4.9
32.055,11.3,14.5,-4.9
39.955,11.3,4.5,-4.9
47.945,11.3,14.5,-4.9
50.175,14.0,14.5,-4.9
68.895,14.0,0.0,0.0
74.765,22.0,0.0,0.0
87.565,22.0,-17.5,0.0
98.845,7.2,-17.5,0.0
111.955,7.2,0.0,0.0
118.045,0.0,0.0,0.0
