0.0,0.0,0.0,0.0
1.0,1.25,0.0,0.0
2.0,2.5,0.0,0.0
3.0,3.74,0.0,0.0
4.0,4.99,0.0,0.0
5.0,6.24,0.0,0.0
6.0,7.2,0.4,0.0
7.0,7.2,2.13,0.0
8.0,7.2,3.87,0.0
9.0,7.2,5.6,0.0
10.0,7.2,7.33,0.0
11.0,7.2,9.07,0.0
12.0,7.2,10.8,0.0
13.0,7.2,12.53,0.0
14.0,7.2,14.26,0.0
15.0,7.2,16.0,0.0
16.0,7.41,17.5,0.0
17.0,9.02,17.5,0.0
18.0,10.63,17.5,0.0
19.0,12.24,17.5,0.0
20.0,13.85,17.5,0.0
21.0,14.0,18.25,-0.25
22.0,14.0,19.08,-0.53
23.0,14.0,19.91,-0.81
24.0,14.0,20.74,-1.09
25.0,14.0,21.57,-1.37
26.0,14.0,22.39,-1.65
27.0,14.0,23.22,-1.93
28.0,14.0,24.05,-2.21
29.0,14.0,24.88,-2.49
30.0,14.0,25.71,-2.77
31.0,14.0,26.54,-3.05
32.0,14.0,27.36,-3.33
33.0,14.0,28.19,-3.61
34.0,14.0,29.02,-3.89
35.0,14.0,29.85,-4.17
36.0,14.0,30.68,-4.45
37.0,14.0,31.51,-4.73
38.0,14.0,31.68,-4.79
39.0,14.0,30.88,-4.52
40.0,14.0,30.09,-4.25
41.0,14.0,29.29,-3.98
42.0,14.0,28.5,-3.72
43.0,14.0,27.7,-3.45
44.0,14.0,26.9,-3.18
45.0,14.0,26.11,-2.91
46.0,14.0,25.31,-2.64
47.0,14.0,24.52,-2.37
48.0,14.0,23.72,-2.1
49.0,14.0,22.93,-1.83
50.0,14.0,22.13,-1.56
51.0,14.0,21.33,-1.3
52.0,14.0,20.54,-1.03
53.0,14.0,19.74,-0.76
54.0,14.0,18.95,-0.49
55.0,14.0,18.15,-0.22
56.0,13.71,17.5,0.0
57.0,12.12,17.5,0.0
58.0,10.52,17.5,0.0
59.0,8.93,17.5,0.0
60.0,7.34,17.5,0.0
61.0,5.75,17.5,0.0
62.0,4.15,17.5,0.0
63.0,2.56,17.5,0.0
64.0,0.97,17.5,0.0
65.0,0.0,16.95,0.0
66.0,0.0,15.54,0.0
67.0,0.0,14.13,0.0
68.0,0.0,12.72,0.0
69.0,0.0,11.31,0.0
70.0,0.0,9.9,0.0
71.0,0.0,8.49,0.0
72.0,0.0,7.08,0.0
73.0,0.0,5.68,0.0
74.0,0.0,4.27,0.0
75.0,0.0,2.86,0.0
76.0,0.0,1.45,0.0
77.0,0.0,0.04,0.0
78.0,0.0,0.0,0.0
