0.0,0.0,0.0,0.0
1.0,1.28,0.0,0.0
2.0,2.57,0.0,0.0
3.0,3.85,0.0,0.0
4.0,5.13,0.0,0.0
5.0,6.41,0.0,0.0
6.0,7.7,0.0,0.0
7.0,8.98,0.0,0.0
8.0,10.26,0.0,0.0
9.0,11.55,0.0,0.0
10.0,12.83,0.0,0.0
11.0,14.11,0.0,0.0
12.0,15.39,0.0,0.0
13.0,16.68,0.0,0.0
14.0,17.96,0.0,0.0
15.0,18.0,-1.41,0.0
16.0,18.0,-2.87,0.0
17.0,18.0,-4.33,0.0
18.0,18.0,-5.79,0.0
19.0,18.0,-7.25,0.0
20.0,18.0,-8.7,0.0
21.0,18.0,-10.16,0.0
22.0,18.0,-11.62,0.0
23.0,18.0,-13.08,0.0
24.0,18.0,-14.54,0.0
25.0,18.0,-16.0,0.0
26.0,18.0,-17.45,0.0
27.0,16.51,-17.5,0.0
28.0,14.97,-17.5,0.0
29.0,13.43,-17.5,0.0
30.0,11.89,-17.5,0.0
31.0,10.36,-17.5,0.0
32.0,8.82,-17.5,0.0
33.0,7.28,-17.5,0.0
34.0,5.74,-17.5,0.0
35.0,4.2,-17.5,0.0
36.0,2.66,-17.5,0.0
37.0,1.12,-17.5,0.0
38.0,0.0,-17.14,0.0
39.0,0.0,-15.79,0.0
40.0,0.0,-14.45,0.0
41.0,0.0,-13.1,0.0
42.0,0.0,-11.76,0.0
43.0,0.0,-10.41,0.0
44.0,0.0,-9.07,0.0
45.0,0.0,-7.72,0.0
46.0,0.0,-6.38,0.0
47.0,0.0,-5.03,0.0
48.0,0.0,-3.69,0.0
49.0,0.0,-2.34,0.0
50.0,0.0,-1.0,0.0
51.0,0.0,0.0,0.0
