0.0,0.0,0.0,0.0
11.48,14.0,0.0,0.0
30.63,14.0,14.5,-4.9
32.95,11.3,14.5,-4.9
41.6,11.3,4.5,-4.9
50.07,11.3,14.5,-4.9
52.81,14.0,14.5,-4.9
70.73,14.0,0.0,0.0
76.795,22.0,0.0,0.0
90.381,22.0,-17.5,0.0
101.071,7.2,-17.5,0.0
113.35,7.2,0.0,0.0
120.13,0.0,0.0,0.0
