350281.28568098304,1007.52
350281.315954421,1007.52
350281.34622785804,1007.52
350281.376501296,1007.54
350281.40677473304,1007.54
350281.437048171,1007.54
350281.46732160804,1007.53
350281.497595046,1007.53
350281.52786848304,1007.53
350281.558141921,1007.53
350281.58841535804,1007.5
350281.618688796,1007.5
350281.64896223304,1007.53
350281.679235671,1007.53
350281.70950910804,1007.53
350281.739782546,1007.5
350281.77005598304,1007.5
350281.800329421,1007.5
350281.83060285804,1007.5
350281.860876296,1007.53
350281.89114973304,1007.53
350281.921423171,1007.53
350281.95169660804,1007.52
350281.981970046,1007.52
350282.01224348304,1007.52
350282.042516921,1007.54
350282.07279035804,1007.54
350282.103063796,1007.54
350282.13333723304,1007.53
350282.163610671,1007.53
350282.19388410804,1007.53
350282.224157546,1007.52
350282.25443098304,1007.52
350282.284704421,1007.52
350282.31497785804,1007.54
350282.345251296,1007.54
350282.37552473304,1007.54
350282.405798171,1007.53
350282.43607160804,1007.53
350282.466345046,1007.53
350282.49661848304,1007.53
350282.526891921,1007.52
350282.55716535804,1007.52
350282.587438796,1007.5
350282.61771223304,1007.5
350282.647985671,1007.5
350282.67825910804,1007.53
350282.708532546,1007.53
350282.73880598304,1007.53
350282.769079421,1007.53
350282.79935285804,1007.52
350282.829626296,1007.52
350282.85989973304,1007.52
350282.890173171,1007.52
350282.92044660804,1007.52
350282.950933669,1007.5
350282.981481764,1007.5
350283.012335036,1007.5
350283.043218825,1007.5
350283.074102614,1007.53
350283.104986403,1007.53
350283.135870192,1007.53
350283.16675398103,1007.53
350283.19763777003,1007.53
350283.22852155904,1007.53
350283.25940534804,1007.53
350283.29028913705,1007.53
350283.32117292704,1007.53
350283.35205671604,1007.52
350283.38294050505,1007.52
350283.413793776,1007.52
350283.444677565,1007.52
350283.475561354,1007.52
350283.506445143,1007.52
350283.537328932,1007.52
350283.56821272103,1007.52
350283.599096511,1007.52
350283.62998030003,1007.52
350283.66086408903,1007.52
350283.69174787804,1007.52
350283.72263166704,1007.56
350283.75351545605,1007.56
350283.78439924505,1007.56
350283.815252516,1007.56
350283.846136305,1007.56
350283.877020095,1007.56
350283.907903884,1007.55
350283.938787673,1007.55
350283.969671462,1007.55
350284.000555251,1007.55
350284.03143904003,1007.55
350284.06232282904,1007.55
350284.09320661804,1007.55
350284.12409040704,1007.55
350284.15497419605,1007.55
350284.185857985,1007.55
350284.216741774,1007.55
350284.247595046,1007.55
350284.278478835,1007.55
350284.309362624,1007.55
350284.340246413,1007.55
350284.371130202,1007.55
350284.402013991,1007.55
350284.43289778003,1007.55
350284.46378156904,1007.55
350284.49466535804,1007.57
350284.52554914705,1007.57
350284.55643293605,1007.57
350284.587316725,1007.57
350284.618200514,1007.57
350284.649053786,1007.57
350284.679937575,1007.56
350284.710821364,1007.56
350284.741705153,1007.56
350284.772588942,1007.56
350284.80347273103,1007.56
350284.83435652003,1007.56
350284.86524030904,1007.56
350284.89612409804,1007.56
350284.92700788705,1007.56
350284.95789167704,1007.56
350284.98877546604,1007.56
350285.01965925505,1007.56
350285.050543044,1007.56
350285.081396315,1007.55
350285.112280104,1007.55
350285.143163893,1007.55
350285.174047682,1007.55
350285.20493147103,1007.55
350285.235815261,1007.55
350285.26669905003,1007.55
350285.29758283903,1007.55
350285.32846662804,1007.55
350285.35935041704,1007.55
350285.39023420605,1007.55
350285.42111799505,1007.55
350285.452001784,1007.55
350285.482855055,1007.55
350285.513738845,1007.55
350285.544622634,1007.55
350285.575506423,1007.55
350285.606390212,1007.55
350285.637274001,1007.55
350285.66815779003,1007.55
350285.69904157904,1007.55
350285.72992536804,1007.55
350285.76080915704,1007.55
350285.79169294605,1007.55
350285.822576735,1007.55
350285.853460524,1007.55
350285.884313796,1007.55
350285.915197585,1007.55
350285.946081374,1007.55
350285.976965163,1007.55
350286.007848952,1007.55
350286.038732741,1007.55
350286.06961653003,1007.55
350286.10050028504,1007.55
350286.13138407405,1007.55
350286.162267863,1007.55
350286.193151652,1007.55
350286.224035441,1007.55
350286.25491923,1007.55
350286.28580302,1007.55
350286.316656291,1007.54
350286.34754008,1007.54
350286.378423869,1007.54
350286.40930765803,1007.56
350286.44019144704,1007.56
350286.47107523604,1007.56
350286.50195902504,1007.56
350286.53284281405,1007.56
350286.563726603,1007.56
350286.59461039305,1007.56
350286.625494182,1007.56
350286.656377971,1007.56
350286.68726176,1007.56
350286.718115031,1007.56
350286.74899882,1007.56
350286.77988260903,1007.56
350286.81076639803,1007.55
350286.84165018704,1007.55
350286.87253397703,1007.55
350286.90341776604,1007.55
350286.93430155504,1007.55
350286.96518534404,1007.55
350286.99606913305,1007.55
350287.026952922,1007.55
350287.057836711,1007.55
350287.0887205,1007.55
350287.119604289,1007.55
350287.150457561,1007.55
350287.18134135,1007.55
350287.212225139,1007.55
350287.243108928,1007.55
350287.27399271703,1007.55
350287.30487650604,1007.55
350287.33576029504,1007.55
350287.36664408405,1007.55
350287.39752787305,1007.55
350287.428411662,1007.55
350287.459295451,1007.55
350287.49017924,1007.55
350287.521063029,1007.55
350287.551916301,1007.55
350287.58280009,1007.55
350287.613683879,1007.55
350287.64456766803,1007.55
350287.67545145703,1007.55
350287.70633524604,1007.55
350287.73721903504,1007.55
350287.76810282405,1007.55
350287.798986613,1007.55
350287.829870402,1007.55
350287.860754191,1007.55
350287.89163798,1007.55
350287.92252177,1007.55
350287.953405559,1007.55
350287.98425883,1007.55
350288.015142619,1007.55
350288.04602640803,1007.55
350288.07691019704,1007.55
350288.10779398604,1007.55
350288.13867777504,1007.55
350288.16956156405,1007.55
350288.200445353,1007.55
350288.23132914305,1007.55
350288.262212932,1007.55
350288.293096721,1007.55
350288.32398051,1007.55
350288.354864299,1007.55
350288.38571757,1007.55
350288.41660135903,1007.55
350288.44748514803,1007.55
350288.47836893704,1007.55
350288.50925272703,1007.55
350288.54013651604,1007.55
350288.57102030504,1007.55
350288.60190409404,1007.55
350288.63278788305,1007.55
350288.663671672,1007.55
350288.694555461,1007.55
350288.72543925,1007.55
350288.756323039,1007.55
350288.787176311,1007.55
350288.8180601,1007.55
350288.848943889,1007.55
350288.879827678,1007.54
350288.91071146703,1007.54
350288.94159525604,1007.54
350288.97247904504,1007.54
350289.00336283405,1007.54
350289.03424662305,1007.54
350289.065130412,1007.54
350289.096014201,1007.54
350289.12689799,1007.54
350289.157781779,1007.54
350289.188665568,1007.54
350289.21951884,1007.54
350289.250402629,1007.54
350289.28128641803,1007.54
350289.31217020703,1007.54
350289.34305399604,1007.54
350289.37393778504,1007.54
350289.40482157405,1007.54
350289.435705363,1007.54
350289.466589152,1007.54
350289.497472941,1007.54
350289.52835673,1007.54
350289.55924052,1007.54
350289.590124309,1007.54
350289.62097758,1007.54
350289.651861369,1007.54
350289.68274515803,1007.54
350289.71362894704,1007.54
350289.74451273604,1007.54
350289.77539652504,1007.54
350289.80628031405,1007.54
350289.837164103,1007.54
350289.86804789305,1007.54
350289.898931682,1007.54
350289.929815471,1007.54
350289.96069926,1007.54
350289.991583049,1007.54
350290.022466838,1007.54
350290.05332010903,1007.54
350290.08420389803,1007.54
350290.11508768704,1007.54
350290.14597147703,1007.54
350290.17685526604,1007.54
350290.20773905504,1007.54
350290.23862284404,1007.54
350290.26950663305,1007.54
350290.300390422,1007.54
350290.331274211,1007.54
350290.362158,1007.54
350290.393041789,1007.54
350290.423925578,1007.54
350290.45477885,1007.54
350290.485662639,1007.54
350290.516546428,1007.54
350290.54743021703,1007.54
350290.57831400604,1007.54
350290.60919779504,1007.54
350290.64008158405,1007.54
350290.67096537305,1007.54
350290.701849162,1007.54
350290.732732951,1007.54
350290.76361674,1007.54
350290.794500529,1007.54
350290.825384318,1007.54
350290.856268107,1007.54
350290.887121379,1007.54
350290.91800516803,1007.54
350290.94888895703,1007.54
350290.97977274604,1007.54
350291.01065653504,1007.54
350291.04154032405,1007.54
350291.072424113,1007.54
350291.103307902,1007.54
350291.134191691,1007.54
350291.16507548,1007.55
350291.19595927,1007.55
350291.226843059,1007.55
350291.257726848,1007.54
350291.288580119,1007.54
350291.31946390803,1007.54
350291.35034769704,1007.54
350291.38123148604,1007.55
350291.41211527504,1007.55
350291.44299906405,1007.55
350291.473882853,1007.55
350291.50476664305,1007.55
350291.535650432,1007.55
350291.566534221,1007.55
350291.59741801,1007.55
350291.628301799,1007.55
350291.659185588,1007.55
350291.69003885903,1007.55
350291.72092264803,1007.55
350291.75180643704,1007.55
350291.78269022703,1007.55
350291.81357401604,1007.55
350291.84445780504,1007.55
350291.87534159404,1007.55
350291.90622538305,1007.55
350291.937109172,1007.55
350291.967992961,1007.55
350291.99887675,1007.55
350292.029760539,1007.55
350292.060644328,1007.55
350292.091528117,1007.55
350292.122381389,1007.55
350292.153265178,1007.55
350292.18414896703,1007.55
350292.21503275604,1007.55
350292.24591654504,1007.55
350292.27680033405,1007.55
350292.30768412305,1007.55
350292.338567912,1007.55
350292.369451701,1007.55
350292.40033549,1007.55
350292.431219279,1007.55
350292.462103068,1007.55
350292.492986857,1007.55
350292.523840129,1007.55
350292.55472391803,1007.55
350292.58560770703,1007.55
350292.61649149604,1007.55
350292.64737528504,1007.55
350292.67825907405,1007.55
350292.709142863,1007.55
350292.740026652,1007.55
350292.770910441,1007.55
350292.80179423,1007.55
350292.83267802,1007.55
350292.863561809,1007.55
350292.894445598,1007.55
350292.925329387,1007.55
350292.95618265803,1007.55
350292.98706644704,1007.55
350293.01795023604,1007.55
350293.04883402504,1007.55
350293.07971781405,1007.55
350293.110601603,1007.55
350293.14148539305,1007.55
350293.172369182,1007.55
350293.203252971,1007.55
350293.23413676,1007.55
350293.265020549,1007.55
350293.295904338,1007.55
350293.326788127,1007.55
350293.35764139803,1007.55
350293.38852518704,1007.55
350293.41940897703,1007.55
350293.45029276604,1007.55
350293.48117655504,1007.55
350293.51206034404,1007.55
350293.54294413305,1007.55
350293.573827922,1007.55
350293.604711711,1007.55
350293.6355955,1007.55
350293.666479289,1007.55
350293.697363078,1007.55
350293.728246867,1007.55
350293.759130656,1007.55
350293.789983928,1007.55
350293.82086771703,1007.55
350293.85175150604,1007.55
350293.88263529504,1007.55
350293.91351908405,1007.55
350293.94440287305,1007.54
350293.975286662,1007.54
350294.006170451,1007.54
350294.03705424,1007.54
350294.067938029,1007.54
350294.098821818,1007.54
350294.129705607,1007.54
350294.160589396,1007.54
350294.19144266803,1007.54
350294.22232645703,1007.54
350294.25321024604,1007.54
350294.28409403504,1007.54
350294.31497782405,1007.54
350294.345861613,1007.54
350294.376745402,1007.54
350294.407629191,1007.54
350294.43851298,1007.54
350294.46939677,1007.54
350294.500280559,1007.54
350294.531164348,1007.54
350294.562048137,1007.54
350294.59290140803,1007.54
350294.62378519704,1007.54
350294.65466898604,1007.54
350294.68555277504,1007.54
350294.71643656405,1007.54
350294.747320353,1007.54
350294.77820414305,1007.54
350294.809087932,1007.54
350294.839971721,1007.54
350294.87085551,1007.54
350294.901739299,1007.54
350294.932623088,1007.54
350294.963506877,1007.54
350294.994390666,1007.54
350295.02524393704,1007.54
350295.05612772703,1007.54
350295.08701151604,1007.54
350295.11789530504,1007.54
350295.14877909404,1007.54
350295.17966288305,1007.54
350295.210546672,1007.54
350295.241430461,1007.54
350295.27231425,1007.54
350295.303198039,1007.54
350295.334081828,1007.54
350295.364965617,1007.54
350295.395849406,1007.54
350295.426702678,1007.54
350295.45758646703,1007.54
350295.48847025604,1007.54
350295.51935404504,1007.54
350295.55023783405,1007.54
350295.58112162305,1007.55
350295.612005412,1007.55
350295.642889201,1007.55
350295.67377299,1007.55
350295.704656779,1007.55
350295.735540568,1007.55
350295.766424357,1007.52
350295.797308146,1007.52
350295.828191936,1007.52
350295.85904520703,1007.52
350295.88992899604,1007.52
350295.92081278504,1007.52
350295.95169657405,1007.52
350295.982580363,1007.52
350296.013464152,1007.52
350296.044347941,1007.52
350296.07523173,1007.52
350296.10611552,1007.52
350296.13697121805,1007.52
350296.16785500705,1007.52
350296.198738796,1007.52
350296.229622585,1007.52
350296.260475856,1007.52
350296.291359645,1007.52
350296.322243434,1007.52
350296.35312722303,1007.52
350296.38401101204,1007.52
350296.41489480203,1007.52
350296.44577859103,1007.52
350296.47666238004,1007.52
350296.50754616904,1007.52
350296.53842995805,1007.52
350296.569313747,1007.52
350296.600197536,1007.52
350296.631081325,1007.52
350296.661965114,1007.52
350296.692818386,1007.52
350296.723702175,1007.53
350296.754585964,1007.53
350296.785469753,1007.53
350296.81635354203,1007.53
350296.84723733104,1007.53
350296.87812112004,1007.53
350296.90900490904,1007.53
350296.93988869805,1007.53
350296.970772487,1007.53
350297.001656276,1007.53
350297.032540065,1007.53
350297.063423854,1007.53
350297.094277126,1007.53
350297.125160915,1007.53
350297.156044704,1007.53
350297.186928493,1007.53
350297.21781228203,1007.53
350297.24869607104,1007.53
350297.27957986004,1007.53
350297.31046364905,1007.53
350297.34134743805,1007.53
350297.372231227,1007.53
350297.403115016,1007.53
350297.433998805,1007.53
350297.464882595,1007.53
350297.495735866,1007.53
350297.526619655,1007.53
350297.557503444,1007.53
350297.58838723303,1007.53
350297.61927102203,1007.53
350297.65015481104,1007.53
350297.68103860004,1007.53
350297.71192238905,1007.53
350297.74280617904,1007.53
350297.77368996805,1007.53
350297.80457375705,1007.53
350297.835457546,1007.53
350297.866341335,1007.53
350297.897225124,1007.53
350297.928078395,1007.53
350297.958962184,1007.53
350297.98984597303,1007.53
350298.02072976204,1007.53
350298.05161355203,1007.53
350298.08249734103,1007.53
350298.11338113004,1007.53
350298.14426491904,1007.53
350298.17514870805,1007.53
350298.206032497,1007.53
350298.236916286,1007.53
350298.267800075,1007.53
350298.298683864,1007.53
350298.329537136,1007.53
350298.360420925,1007.53
350298.391304714,1007.53
350298.422188503,1007.54
350298.45307229203,1007.54
350298.48395608104,1007.54
350298.51483987004,1007.54
350298.54572365904,1007.54
350298.57660744805,1007.54
350298.607491237,1007.54
350298.638375026,1007.54
350298.669258815,1007.54
350298.700142604,1007.54
350298.731026393,1007.54
350298.761879665,1007.54
350298.792763454,1007.54
350298.823647243,1007.54
350298.85453103203,1007.54
350298.88541482104,1007.54
350298.91629861004,1007.54
350298.94718239905,1007.54
350298.97806618805,1007.54
350299.008949977,1007.54
350299.039833766,1007.54
350299.070717555,1007.54
350299.101601345,1007.54
350299.132485134,1007.54
350299.163338405,1007.54
350299.194222194,1007.54
350299.22510598303,1007.54
350299.25598977203,1007.54
350299.28687356104,1007.54
350299.31775735004,1007.54
350299.34864113905,1007.54
350299.37952492904,1007.54
350299.41040871805,1007.54
350299.44129250705,1007.54
350299.472176296,1007.55
350299.503060085,1007.55
350299.533943874,1007.55
350299.564827663,1007.52
350299.595680934,1007.52
350299.62656472303,1007.52
350299.65744851204,1007.52
350299.68833230203,1007.52
350299.71921609103,1007.52
350299.75009988004,1007.52
350299.78098366904,1007.52
350299.81186745805,1007.52
350299.842751247,1007.52
350299.873635036,1007.52
350299.904518825,1007.52
350299.935402614,1007.52
350299.966286403,1007.52
350299.997139675,1007.52
350300.028023464,1007.52
350300.058907253,1007.53
350300.08979104203,1007.53
350300.12067483104,1007.53
350300.15155862004,1007.53
350300.18244240904,1007.53
350300.21332619805,1007.53
350300.244209987,1007.53
350300.275093776,1007.53
350300.305977565,1007.53
350300.336861354,1007.53
350300.367745143,1007.53
350300.398598415,1007.53
350300.429482204,1007.53
350300.460365993,1007.53
350300.49124978203,1007.53
350300.52213357104,1007.53
350300.55301736004,1007.53
350300.58390114905,1007.53
350300.61478493805,1007.53
350300.645668727,1007.53
350300.676552516,1007.53
350300.707436305,1007.53
350300.738320095,1007.53
350300.769203884,1007.53
350300.800087673,1007.53
350300.830940944,1007.53
350300.86182473303,1007.53
350300.89270852203,1007.53
350300.92359231104,1007.53
350300.95447610004,1007.53
350300.98535988905,1007.53
350301.01624367904,1007.53
350301.04712746805,1007.53
350301.07801125705,1007.53
350301.108895046,1007.53
350301.139778835,1007.53
350301.170662624,1007.53
350301.201546413,1007.53
350301.232399684,1007.53
350301.26328347303,1007.53
350301.29416726204,1007.53
350301.32505105203,1007.53
350301.35593484103,1007.53
350301.38681863004,1007.53
350301.41770241904,1007.53
350301.44858620805,1007.53
350301.479469997,1007.53
350301.510353786,1007.53
350301.541237575,1007.53
350301.572121364,1007.54
350301.603005153,1007.54
350301.633888942,1007.54
350301.664742214,1007.54
350301.695626003,1007.54
350301.72650979203,1007.54
350301.75739358104,1007.54
350301.78827737004,1007.54
350301.81916115904,1007.54
350301.85004494805,1007.54
350301.880928737,1007.54
350301.911812526,1007.54
350301.942696315,1007.54
350301.973580104,1007.54
350302.004463893,1007.54
350302.035347682,1007.54
350302.066200954,1007.54
350302.097084743,1007.54
350302.12796853203,1007.54
350302.15885232104,1007.54
350302.18973611004,1007.54
350302.22061989905,1007.54
350302.25150368805,1007.54
350302.282387477,1007.54
350302.313271266,1007.54
350302.344155055,1007.54
350302.375038845,1007.54
350302.405922634,1007.54
350302.436806423,1007.55
350302.467690212,1007.55
350302.49854348303,1007.55
350302.52942727203,1007.55
350302.56031106104,1007.55
350302.59119485004,1007.55
350302.62207863905,1007.55
350302.65296242904,1007.55
350302.68384621805,1007.55
350302.71473000705,1007.55
350302.745613796,1007.55
350302.776497585,1007.55
350302.807381374,1007.55
350302.838265163,1007.55
350302.869148952,1007.55
350302.90000222303,1007.55
350302.93088601204,1007.48
350302.96176980203,1007.48
350302.99265359103,1007.48
350303.02353738004,1007.48
350303.05442116904,1007.48
350303.08530495805,1007.48
350303.116188747,1007.48
350303.147072536,1007.48
350303.177956325,1007.48
350303.208840114,1007.48
350303.239723903,1007.48
350303.270607692,1007.48
350303.301460964,1007.49
350303.332344753,1007.49
350303.36322854203,1007.49
350303.39411233104,1007.49
350303.42499612004,1007.49
350303.45587990904,1007.49
350303.48676369805,1007.49
350303.517647487,1007.49
350303.548531276,1007.49
350303.579415065,1007.49
350303.610298854,1007.49
350303.641182643,1007.49
350303.672066432,1007.49
350303.702950221,1007.49
350303.733803493,1007.49
350303.76468728203,1007.49
350303.79557107104,1007.49
350303.82645486004,1007.49
350303.85733864905,1007.49
350303.88822243805,1007.49
350303.919106227,1007.49
350303.949990016,1007.49
350303.980873805,1007.49
350304.011757595,1007.49
350304.042641384,1007.49
350304.073525173,1007.49
350304.104408962,1007.49
350304.13526223303,1007.49
350304.16614602203,1007.49
350304.19702981104,1007.49
350304.22791360004,1007.49
350304.25879738905,1007.49
350304.28968117904,1007.49
350304.32056496805,1007.48
350304.35144875705,1007.48
350304.382332546,1007.48
350304.413216335,1007.48
350304.444100124,1007.48
350304.474983913,1007.48
350304.505867702,1007.48
350304.536751491,1007.48
350304.56760476204,1007.48
350304.59848855203,1007.48
350304.62937234103,1007.48
350304.66025613004,1007.48
350304.69113991904,1007.48
350304.72202370805,1007.48
350304.752907497,1007.48
350304.783791286,1007.48
350304.814675075,1007.48
350304.845558864,1007.48
350304.876442653,1007.48
350304.907326442,1007.48
350304.938210231,1007.48
350304.969063503,1007.48
350304.99994729203,1007.48
350305.03083108104,1007.48
350305.06171487004,1007.48
350305.09259865904,1007.48
350305.12348244805,1007.48
350305.154366237,1007.48
350305.185250026,1007.48
350305.216133815,1007.48
350305.247017604,1007.48
350305.277901393,1007.48
350305.308785182,1007.48
350305.339668971,1007.48
350305.370522243,1007.48
350305.40140603203,1007.48
350305.43228982104,1007.48
350305.46317361004,1007.48
350305.49405739905,1007.48
350305.52494118805,1007.48
350305.555824977,1007.48
350305.586708766,1007.48
350305.617592555,1007.48
350305.648476345,1007.48
350305.679360134,1007.48
350305.710243923,1007.48
350305.741127712,1007.48
350305.772011501,1007.48
350305.80286477203,1007.48
350305.83374856104,1007.48
350305.86463235004,1007.48
350305.89551613905,1007.48
350305.92639992904,1007.48
350305.95728371805,1007.48
350305.98816750705,1007.48
350306.019051296,1007.48
350306.049935085,1007.49
350306.080818874,1007.49
350306.111702663,1007.49
350306.142588452,1007.49
350306.17347224103,1007.49
350306.204325512,1007.49
350306.23520930205,1007.49
350306.26609309105,1007.49
350306.29697688,1007.49
350306.327860669,1007.49
350306.358744458,1007.49
350306.389628247,1007.49
350306.420512036,1007.49
350306.451395825,1007.49
350306.482279614,1007.49
350306.513163403,1007.49
350306.54404719203,1007.49
350306.57493098103,1007.49
350306.60581477004,1007.49
350306.63666804205,1007.49
350306.667551831,1007.49
350306.69843562,1007.49
350306.729319409,1007.49
350306.760203198,1007.49
350306.791086987,1007.49
350306.821970776,1007.49
350306.852854565,1007.49
350306.883738354,1007.49
350306.914622143,1007.49
350306.94550593203,1007.49
350306.97638972104,1007.49
350307.00727351103,1007.49
350307.03812678205,1007.49
350307.069010571,1007.49
350307.09989436,1007.45996
350307.130778149,1007.45996
350307.161661938,1007.45996
350307.192545727,1007.45996
350307.223429516,1007.45996
350307.254313305,1007.45996
350307.285197095,1007.45996
350307.316080884,1007.45996
350307.346964673,1007.45996
350307.377848462,1007.45996
350307.40873225103,1007.45996
350307.43961604004,1007.45996
350307.470469311,1007.45996
350307.5013531,1007.47
350307.532236889,1007.47
350307.563120679,1007.47
350307.594004468,1007.47
350307.624888257,1007.47
350307.655772046,1007.47
350307.686655835,1007.47
350307.717539624,1007.47
350307.748423413,1007.47
350307.779307202,1007.47
350307.81019099103,1007.47
350307.84107478004,1007.47
350307.87192805205,1007.47
350307.90281184105,1007.47
350307.93369563,1007.47
350307.964579419,1007.47
350307.995463208,1007.47
350308.026346997,1007.47
350308.057230786,1007.47
350308.088114575,1007.47
350308.118998364,1007.47
350308.149882153,1007.47
350308.18076594203,1007.47
350308.21164973103,1007.47
350308.24253352004,1007.47
350308.27338679205,1007.47
350308.304270581,1007.47
350308.33515437,1007.48
350308.366038159,1007.48
350308.396921948,1007.48
350308.427805737,1007.48
350308.458689526,1007.48
350308.489573315,1007.48
350308.520457104,1007.48
350308.551340893,1007.48
350308.58222468203,1007.48
350308.61310847104,1007.48
350308.64399226103,1007.48
350308.67487605003,1007.48
350308.705729321,1007.48
350308.73661311,1007.48
350308.767496899,1007.48
350308.798380688,1007.48
350308.829264477,1007.48
350308.860148266,1007.48
350308.891032055,1007.48
350308.921915845,1007.48
350308.952799634,1007.48
350308.983683423,1007.48
350309.014567212,1007.48
350309.04545100103,1007.48
350309.07633479004,1007.48
350309.107188061,1007.48
350309.13807185,1007.48
350309.168955639,1007.48
350309.199839429,1007.48
350309.230723218,1007.48
350309.261607007,1007.48
350309.292490796,1007.48
350309.323374585,1007.48
350309.354258374,1007.48
350309.385142163,1007.48
350309.416025952,1007.48
350309.44690974103,1007.48
350309.47779353004,1007.48
350309.50867731904,1007.48
350309.53953059105,1007.48
350309.57041438,1007.48
350309.601298169,1007.48
350309.632181958,1007.48
350309.663065747,1007.48
350309.693949536,1007.48
350309.724833325,1007.48
350309.755717114,1007.48
350309.786600903,1007.48
350309.81748469203,1007.48
350309.84836848103,1007.48
350309.87925227004,1007.48
350309.91013605904,1007.48
350309.940989331,1007.48
350309.97187312,1007.48
350310.002756909,1007.48
350310.033640698,1007.48
350310.064524487,1007.48
350310.095408276,1007.48
350310.126292065,1007.48
350310.157175854,1007.48
350310.188059643,1007.48
350310.21894343203,1007.48
350310.24982722104,1007.48
350310.28071101103,1007.48
350310.31159480003,1007.48
350310.34247858904,1007.48
350310.37333186,1007.48
350310.404215649,1007.48
350310.435099438,1007.48
350310.465983227,1007.48
350310.496867016,1007.48
350310.527750805,1007.48
350310.558634595,1007.48
350310.589518384,1007.48
350310.620402173,1007.48
350310.651285962,1007.49
350310.68216975103,1007.49
350310.71305354004,1007.49
350310.74393732904,1007.49
350310.7747906,1007.49
350310.805674389,1007.49
350310.836558179,1007.48
350310.867441968,1007.48
350310.898325757,1007.48
350310.929209546,1007.49
350310.960093335,1007.49
350310.990977124,1007.49
350311.021860913,1007.48
350311.052744702,1007.48
350311.08362849103,1007.48
350311.11451228004,1007.48
350311.14539606904,1007.48
350311.17624934105,1007.48
350311.20713313,1007.48
350311.238016919,1007.49
350311.268900708,1007.49
350311.299784497,1007.48
350311.330668286,1007.48
350311.361552075,1007.48
350311.392435864,1007.48
350311.423319653,1007.49
350311.45420344203,1007.49
350311.48508723103,1007.49
350311.51597102004,1007.49
350311.54685480904,1007.49
350311.57773859805,1007.49
350311.60859187,1007.49
350311.639475659,1007.49
350311.670359448,1007.49
350311.701243237,1007.49
350311.732127026,1007.49
350311.763010815,1007.49
350311.793894604,1007.49
350311.824778393,1007.49
350311.85566218203,1007.49
350311.88654597104,1007.49
350311.91742976103,1007.49
350311.94831355003,1007.49
350311.97919733904,1007.49
350312.01005061,1007.49
350312.040934399,1007.49
350312.071818188,1007.49
350312.102701977,1007.49
350312.133585766,1007.49
350312.164469555,1007.49
350312.195353345,1007.49
350312.226237134,1007.49
350312.257120923,1007.49
350312.288004712,1007.49
350312.31888850103,1007.49
350312.34977229004,1007.49
350312.38065607904,1007.49
350312.41153986804,1007.49
350312.442393139,1007.49
350312.473276929,1007.5
350312.504160718,1007.5
350312.535044507,1007.5
350312.565928296,1007.5
350312.596812085,1007.5
350312.627695874,1007.5
350312.658579663,1007.5
350312.689463452,1007.5
350312.72034724103,1007.5
350312.75123103004,1007.5
350312.78211481904,1007.5
350312.81299860805,1007.5
350312.84385188,1007.5
350312.874735669,1007.5
350312.905619458,1007.5
350312.936503247,1007.5
350312.967387036,1007.5
350312.998270825,1007.5
350313.029154614,1007.5
350313.060038403,1007.5
350313.09092219203,1007.5
350313.12180598103,1007.5
350313.15268977004,1007.5
350313.18357355904,1007.5
350313.21445734805,1007.5
350313.245341137,1007.5
350313.276194409,1007.5
350313.307078198,1007.5
350313.337961987,1007.5
350313.368845776,1007.5
350313.399729565,1007.5
350313.430613354,1007.5
350313.461497143,1007.5
350313.49238093203,1007.5
350313.52326472104,1007.5
350313.55414851103,1007.5
350313.58503230003,1007.5
350313.61591608904,1007.5
350313.64679987804,1007.5
350313.677653149,1007.5
350313.708536938,1007.5
350313.739420727,1007.5
350313.770304516,1007.5
350313.801188305,1007.5
350313.832072095,1007.5
350313.862955884,1007.5
350313.893839673,1007.52
350313.924723462,1007.52
350313.95560725103,1007.52
350313.98649104004,1007.52
350314.01737482904,1007.52
350314.04825861804,1007.52
350314.079111889,1007.52
350314.109995679,1007.52
350314.140879468,1007.52
350314.171763257,1007.52
350314.202647046,1007.52
350314.233530835,1007.52
350314.264414624,1007.52
350314.295298413,1007.52
350314.326182202,1007.52
350314.35706599103,1007.52
350314.38794978004,1007.52
350314.41883356904,1007.52
350314.44971735805,1007.52
350314.48060114705,1007.52
350314.511454419,1007.52
350314.542338208,1007.52
350314.573221997,1007.52
350314.604105786,1007.52
350314.634989575,1007.52
350314.665873364,1007.52
350314.696757153,1007.52
350314.72764094203,1007.52
350314.75852473103,1007.53
350314.78940852004,1007.53
350314.82029230904,1007.53
350314.85117609805,1007.53
350314.882059887,1007.53
350314.912913159,1007.53
350314.943796948,1007.53
350314.974680737,1007.53
350315.005564526,1007.53
350315.036448315,1007.53
350315.067332104,1007.53
350315.098215893,1007.53
350315.12909968203,1007.53
350315.15998347104,1007.53
350315.19086726103,1007.53
350315.22175105003,1007.53
350315.25263483904,1007.53
350315.28351862804,1007.53
350315.31440241705,1007.53
350315.345255688,1007.53
350315.376139477,1007.53
350315.407023266,1007.53
350315.437907055,1007.53
350315.468790845,1007.53
350315.499674634,1007.53
350315.530558423,1007.53
350315.561442212,1007.53
350315.59232600103,1007.53
350315.62320979004,1007.53
350315.65409357904,1007.53
350315.68497736804,1007.53
350315.71586115705,1007.53
350315.746714429,1007.53
350315.777598218,1007.53
350315.808482007,1007.53
350315.839365796,1007.53
350315.870249585,1007.53
350315.901133374,1007.53
350315.932017163,1007.53
350315.962900952,1007.53
350315.99378474103,1007.53
350316.02466853004,1007.53
350316.05555231904,1007.53
350316.08643610805,1007.53
350316.11732715904,1007.53
350316.14821094804,1007.53
350316.17906422005,1007.53
350316.209948009,1007.53
350316.240831798,1007.53
350316.271715587,1007.54
350316.302599376,1007.54
350316.333483165,1007.54
350316.364366954,1007.54
350316.395250743,1007.54
350316.426134532,1007.54
350316.45701832103,1007.54
350316.48790211004,1007.54
350316.51878589904,1007.54
350316.54966968903,1007.54
350316.58052296,1007.54
350316.611406749,1007.54
350316.642290538,1007.54
350316.673174327,1007.54
350316.704058116,1007.54
350316.734941905,1007.54
350316.765825694,1007.54
350316.796709483,1007.54
350316.827593273,1007.54
350316.858477062,1007.54
350316.889360851,1007.54
350316.92024464003,1007.54
350316.95112842903,1007.5
350316.9819817,1007.5
350317.012865489,1007.5
350317.043749278,1007.5
350317.074633067,1007.5
350317.105516857,1007.5
350317.136400646,1007.5
350317.167284435,1007.5
350317.198168224,1007.5
350317.229052013,1007.5
350317.259935802,1007.5
350317.290819591,1007.5
350317.32170338003,1007.5
350317.35258716904,1007.5
350317.38347095804,1007.5
350317.41432423005,1007.5
350317.445208019,1007.5
350317.476091808,1007.5
350317.506975597,1007.5
350317.537859386,1007.5
350317.568743175,1007.5
350317.599626964,1007.5
350317.630510753,1007.5
350317.661394542,1007.5
350317.69227833103,1007.5
350317.72316212003,1007.5
350317.75404590904,1007.5
350317.78492969804,1007.5
350317.81578297005,1007.5
350317.846666759,1007.5
350317.877550548,1007.5
350317.908434337,1007.5
350317.939318126,1007.5
350317.970201915,1007.5
350318.001085704,1007.5
350318.031969493,1007.5
350318.062853282,1007.5
350318.09373707103,1007.5
350318.12462086004,1007.5
350318.15550464904,1007.5
350318.18638843903,1007.5
350318.21727222804,1007.5
350318.248125499,1007.5
350318.279009288,1007.5
350318.309893077,1007.5
350318.340776866,1007.5
350318.371660655,1007.5
350318.402544444,1007.5
350318.433428233,1007.5
350318.464312023,1007.5
350318.495195812,1007.5
350318.526079601,1007.5
350318.55696339003,1007.5
350318.58784717903,1007.5
350318.61873096804,1007.5
350318.649584239,1007.5
350318.680468028,1007.5
350318.711351817,1007.5
350318.742235607,1007.5
350318.773119396,1007.5
350318.804003185,1007.5
350318.834886974,1007.5
350318.865770763,1007.5
350318.896654552,1007.5
350318.927538341,1007.5
350318.95842213003,1007.52
350318.98930591904,1007.52
350319.02018970804,1007.52
350319.05107349704,1007.52
350319.081926769,1007.52
350319.112810558,1007.52
350319.143694347,1007.52
350319.174578136,1007.52
350319.205461925,1007.52
350319.236345714,1007.52
350319.267229503,1007.52
350319.298113292,1007.52
350319.32899708103,1007.52
350319.35988087003,1007.52
350319.39076465904,1007.52
350319.42164844804,1007.52
350319.45253223705,1007.52
350319.483385509,1007.52
350319.514269298,1007.52
350319.545153087,1007.52
350319.576036876,1007.52
350319.606920665,1007.52
350319.637804454,1007.52
350319.668688243,1007.52
350319.699572032,1007.52
350319.73045582103,1007.52
350319.76133961004,1007.52
350319.79222339904,1007.52
350319.82310718903,1007.52
350319.85399097804,1007.52
350319.884844249,1007.53
350319.915728038,1007.53
350319.946611827,1007.53
350319.977495616,1007.53
350320.008379405,1007.53
350320.039263194,1007.53
350320.070146983,1007.53
350320.101030773,1007.49
350320.131914562,1007.49
350320.162798351,1007.49
350320.19368214003,1007.49
350320.22456592903,1007.49
350320.25544971804,1007.49
350320.28633350704,1007.49
350320.317186778,1007.49
350320.348070567,1007.49
350320.378954357,1007.5
350320.409838146,1007.5
350320.440721935,1007.5
350320.471605724,1007.5
350320.502489513,1007.5
350320.533373302,1007.5
350320.564257091,1007.5
350320.59514088003,1007.5
350320.62602466904,1007.5
350320.65690845804,1007.5
350320.68779224704,1007.5
350320.718645519,1007.5
350320.749529308,1007.5
350320.780413097,1007.5
350320.811296886,1007.5
350320.842180675,1007.5
350320.873064464,1007.5
350320.903948253,1007.5
350320.934832042,1007.5
350320.96571583103,1007.52
350320.99659962003,1007.52
350321.02748340904,1007.52
350321.05836719804,1007.52
350321.08925098705,1007.52
350321.12013477605,1007.52
350321.150988048,1007.52
350321.181871837,1007.52
350321.212755626,1007.52
350321.243639415,1007.52
350321.274523204,1007.52
350321.305406993,1007.52
350321.336290782,1007.52
350321.36717457103,1007.52
350321.39805836004,1007.52
350321.42894214904,1007.52
350321.45982593903,1007.52
350321.49070972804,1007.52
350321.52159351704,1007.52
350321.552446788,1007.52
350321.583330577,1007.52
350321.614214366,1007.53
350321.645098155,1007.53
350321.675981944,1007.53
350321.706865733,1007.53
350321.737749523,1007.53
350321.768633312,1007.53
350321.799517101,1007.52
350321.83040089003,1007.52
350321.86128467903,1007.52
350321.89216846804,1007.53
350321.92305225704,1007.53
350321.95393604605,1007.53
350321.984789317,1007.53
350322.015673107,1007.53
350322.046556896,1007.53
350322.077440685,1007.53
350322.108324474,1007.53
350322.139208263,1007.53
350322.170092052,1007.53
350322.200975841,1007.53
350322.23185963003,1007.53
350322.26274341904,1007.53
350322.29362720804,1007.53
350322.32451099704,1007.53
350322.35539478605,1007.53
350322.386248058,1007.53
350322.417131847,1007.53
350322.448015636,1007.53
350322.478899425,1007.53
350322.509783214,1007.53
350322.540667003,1007.53
350322.571550792,1007.53
350322.60243458103,1007.53
350322.63331837003,1007.53
350322.66420215904,1007.53
350322.69508594804,1007.53
350322.72596973705,1007.53
350322.75685352605,1007.53
350322.787706798,1007.53
350322.818590587,1007.53
350322.849474376,1007.53
350322.880358165,1007.53
350322.911241954,1007.53
350322.942125743,1007.53
350322.973009532,1007.53
350323.00389332103,1007.53
350323.03477711004,1007.53
350323.06566089904,1007.53
350323.09654468903,1007.53
350323.12742847804,1007.5
350323.15831226704,1007.5
350323.18919605605,1007.5
350323.220049327,1007.5
350323.250933116,1007.5
350323.281816905,1007.5
350323.312700694,1007.5
350323.343584483,1007.5
350323.374468273,1007.5
350323.405352062,1007.5
350323.436235851,1007.5
350323.46711964003,1007.5
350323.49800342903,1007.5
350323.52888721804,1007.5
350323.55977100704,1007.5
350323.59065479605,1007.5
350323.621508067,1007.5
350323.652391857,1007.5
350323.683275646,1007.5
350323.714159435,1007.5
350323.745043224,1007.5
350323.775927013,1007.5
350323.806810802,1007.52
350323.837694591,1007.52
350323.86857838003,1007.52
350323.89946216904,1007.52
350323.93034595804,1007.52
350323.96122974704,1007.52
350323.99211353605,1007.52
350324.022997325,1007.52
350324.053850597,1007.52
350324.084734386,1007.52
350324.115618175,1007.52
350324.146501964,1007.52
350324.177385753,1007.52
350324.208269542,1007.52
350324.23915333103,1007.52
350324.27003712003,1007.52
350324.30092090904,1007.52
350324.33180469804,1007.52
350324.36268848705,1007.52
350324.39357227605,1007.52
350324.42445606604,1007.52
350324.455309337,1007.52
350324.486193126,1007.52
350324.517076915,1007.52
350324.547960704,1007.52
350324.578844493,1007.52
350324.609728282,1007.52
350324.64061207103,1007.52
350324.67149586004,1007.52
350324.70237964904,1007.52
350324.73326343903,1007.52
350324.76414722804,1007.52
350324.79503101704,1007.52
350324.82591480605,1007.52
350324.85679859505,1007.52
350324.887651866,1007.52
350324.918535655,1007.52
350324.949419444,1007.52
350324.980303233,1007.52
350325.011187023,1007.52
350325.042070812,1007.52
350325.072954601,1007.52
350325.10383839003,1007.52
350325.13472217903,1007.52
350325.16560596804,1007.52
350325.19648975704,1007.52
350325.22737354605,1007.52
350325.258257335,1007.52
350325.289110607,1007.52
350325.319994396,1007.52
350325.350878185,1007.53
350325.381761974,1007.53
350325.412645763,1007.53
350325.443529552,1007.53
350325.474413341,1007.53
350325.50529713003,1007.53
350325.53618091904,1007.53
350325.56706470804,1007.53
350325.59794849704,1007.53
350325.62883228605,1007.53
350325.659716075,1007.53
350325.690569347,1007.53
350325.721453136,1007.53
350325.752336925,1007.53
350325.783220714,1007.53
350325.814104503,1007.53
350325.844988292,1007.53
350325.87587208103,1007.53
350325.90675587003,1007.53
350325.93763965904,1007.53
350325.96852344804,1007.53
350325.99940723705,1007.53
350326.03029102605,1007.54
350326.06117481604,1007.54
350326.09205860505,1007.54
350326.122911876,1007.54
350326.15380767,1007.54
350326.184691459,1007.5
350326.215575248,1007.5
350326.246459037,1007.5
350326.277342826,1007.5
350326.308226615,1007.5
350326.339110404,1007.5
350326.369994194,1007.5
350326.400877983,1007.5
350326.431761772,1007.5
350326.462645561,1007.5
350326.49352935003,1007.52
350326.52438262105,1007.52
350326.55526641,1007.52
350326.586150199,1007.52
350326.617033988,1007.52
350326.647917778,1007.52
350326.678801567,1007.52
350326.709685356,1007.52
350326.740569145,1007.52
350326.771452934,1007.52
350326.802336723,1007.52
350326.833220512,1007.52
350326.864104301,1007.52
350326.89498809003,1007.52
350326.92587187904,1007.52
350326.95672515105,1007.53
350326.98760894005,1007.53
350327.018492729,1007.53
350327.049376518,1007.53
350327.080260307,1007.53
350327.111144096,1007.53
350327.142027885,1007.53
350327.172911674,1007.53
350327.203795463,1007.53
350327.234679252,1007.53
350327.26556304103,1007.53
350327.29644683003,1007.53
350327.32733061904,1007.53
350327.35818389105,1007.53
350327.38906768,1007.53
350327.419951469,1007.54
350327.450835258,1007.54
350327.481719047,1007.54
350327.512602836,1007.54
350327.543486625,1007.54
350327.574370414,1007.54
350327.605254203,1007.54
350327.636137992,1007.54
350327.66702178103,1007.54
350327.697905571,1007.54
350327.72878936003,1007.54
350327.75964263105,1007.54
350327.79052642,1007.54
350327.821410209,1007.54
350327.852293998,1007.54
350327.883177787,1007.54
350327.914061576,1007.54
350327.944945365,1007.54
350327.975829154,1007.54
350328.006712944,1007.54
350328.037596733,1007.54
350328.068480522,1007.54
350328.099364311,1007.54
350328.13024810003,1007.54
350328.16113188904,1007.54
350328.19198516,1007.54
350328.222868949,1007.54
350328.253752738,1007.54
350328.284636528,1007.54
350328.315520317,1007.55
350328.346404106,1007.55
350328.377287895,1007.55
350328.408171684,1007.55
350328.439055473,1007.55
350328.469939262,1007.55
350328.500823051,1007.55
350328.53170684003,1007.55
350328.56259062904,1007.55
350328.59344390105,1007.55
350328.62432769005,1007.55
350328.655211479,1007.55
350328.686095268,1007.55
350328.716979057,1007.55
350328.747862846,1007.55
350328.778746635,1007.55
350328.809630424,1007.55
350328.840514213,1007.55
350328.871398002,1007.54
350328.90228179103,1007.54
350328.93316558003,1007.54
350328.96404936904,1007.54
350328.99493315804,1007.54
350329.02578643,1007.54
350329.056670219,1007.54
350329.087554008,1007.54
350329.118437797,1007.54
350329.149321586,1007.54
350329.180205375,1007.54
350329.211089164,1007.54
350329.241972953,1007.54
350329.272856742,1007.54
350329.30374053103,1007.54
350329.334624321,1007.54
350329.36550811003,1007.54
350329.39639189903,1007.54
350329.42724517,1007.54
350329.458128959,1007.54
350329.489012748,1007.54
350329.519896537,1007.54
350329.550780326,1007.54
350329.581664115,1007.54
350329.612547904,1007.54
350329.643431694,1007.54
350329.674315483,1007.54
350329.705199272,1007.54
350329.736083061,1007.54
350329.76696685003,1007.54
350329.79785063904,1007.54
350329.82873442804,1007.5
350329.859587699,1007.5
350329.890471488,1007.5
350329.921355278,1007.52
350329.952239067,1007.52
350329.983122856,1007.52
350330.014006645,1007.52
350330.044890434,1007.52
350330.075774223,1007.52
350330.106658012,1007.52
350330.137541801,1007.52
350330.16842559003,1007.52
350330.19930937904,1007.52
350330.23019316804,1007.52
350330.26104644005,1007.52
350330.291930229,1007.52
350330.322814018,1007.52
350330.353697807,1007.52
350330.384581596,1007.52
350330.415465385,1007.52
350330.446349174,1007.52
350330.477232963,1007.52
350330.508116752,1007.52
350330.53900054103,1007.52
350330.56988433003,1007.52
350330.60076811904,1007.52
350330.63165190804,1007.52
350330.66250518,1007.52
350330.693388969,1007.52
350330.724272758,1007.52
350330.755156547,1007.52
350330.786040336,1007.52
350330.816924125,1007.52
350330.847807914,1007.52
350330.878691703,1007.52
350330.909575492,1007.52
350330.94045928103,1007.52
350330.971343071,1007.52
350331.00222686003,1007.52
350331.03311064903,1007.52
350331.06399443804,1007.52
350331.094847709,1007.52
350331.125731498,1007.52
350331.156615287,1007.52
350331.187499076,1007.52
350331.218382865,1007.52
350331.249266654,1007.52
350331.280150444,1007.52
350331.311034233,1007.52
350331.341918022,1007.52
350331.372801811,1007.52
350331.40368560003,1007.52
350331.43456938904,1007.52
350331.46545317804,1007.52
350331.496306449,1007.52
350331.527190238,1007.52
350331.558074028,1007.52
350331.588957817,1007.52
350331.619841606,1007.52
350331.650725395,1007.52
350331.681609184,1007.52
350331.712492973,1007.52
350331.743376762,1007.52
350331.774260551,1007.52
350331.80514434003,1007.52
350331.83602812904,1007.53
350331.86691191804,1007.53
350331.89779570705,1007.53
350331.928648979,1007.53
350331.959532768,1007.53
350331.990416557,1007.53
350332.021300346,1007.53
350332.052184135,1007.53
350332.083067924,1007.53
350332.113951713,1007.53
350332.144835502,1007.53
350332.17571929103,1007.53
350332.20660308003,1007.53
350332.23748686904,1007.53
350332.26837065804,1007.53
350332.29925444705,1007.53
350332.330107719,1007.53
350332.360991508,1007.53
350332.391875297,1007.53
350332.422759086,1007.53
350332.453642875,1007.53
350332.484526664,1007.53
350332.515410453,1007.53
350332.546294242,1007.53
350332.57717803103,1007.53
350332.608061821,1007.53
350332.63894561003,1007.53
350332.66982939903,1007.53
350332.70071318804,1007.53
350332.73159697704,1007.53
350332.762450248,1007.53
350332.793334037,1007.53
350332.824217826,1007.53
350332.855101615,1007.53
350332.885985404,1007.53
350332.916869194,1007.53
350332.947752983,1007.53
350332.978636772,1007.54
350333.009520561,1007.54
350333.04040435003,1007.54
350333.07128813904,1007.54
350333.10217192804,1007.54
350333.13305571704,1007.54
350333.163908988,1007.54
350333.194792778,1007.54
350333.225676567,1007.54
350333.256560356,1007.54
350333.287444145,1007.54
350333.318327934,1007.54
350333.349211723,1007.54
350333.380095512,1007.54
350333.410979301,1007.54
350333.44186309003,1007.54
350333.47274687904,1007.54
350333.50363066804,1007.54
350333.53451445705,1007.54
350333.565367729,1007.54
350333.596251518,1007.54
350333.627135307,1007.54
350333.658019096,1007.5
350333.688902885,1007.5
350333.719786674,1007.5
350333.750670463,1007.5
350333.781554252,1007.5
350333.81243804103,1007.5
350333.84332183003,1007.5
350333.87420561904,1007.5
350333.90508940804,1007.5
350333.93597319705,1007.52
350333.96685698704,1007.52
350333.997710258,1007.52
350334.028594047,1007.52
350334.059477836,1007.52
350334.090361625,1007.52
350334.121245414,1007.52
350334.152129203,1007.52
350334.183012992,1007.52
