0.0,0.0,0.0,0.0
1.0,1.11,0.0,0.0
2.0,2.23,0.0,0.0
3.0,3.34,0.0,0.0
4.0,4.45,0.0,0.0
5.0,5.57,0.0,0.0
6.0,6.68,0.0,0.0
7.0,7.8,0.0,0.0
8.0,8.91,0.0,0.0
9.0,10.02,0.0,0.0
10.0,11.14,0.0,0.0
11.0,12.25,0.0,0.0
12.0,13.36,0.0,0.0
13.0,14.0,0.36,-0.12
14.0,14.0,1.19,-0.4
15.0,14.0,2.02,-0.68
16.0,14.0,2.85,-0.96
17.0,14.0,3.69,-1.25
18.0,14.0,4.52,-1.53
19.0,14.0,5.35,-1.81
20.0,14.0,6.18,-2.09
21.0,14.0,7.02,-2.37
22.0,14.0,7.85,-2.65
23.0,14.0,8.68,-2.93
24.0,14.0,9.51,-3.21
25.0,14.0,10.34,-3.5
26.0,14.0,11.18,-3.78
27.0,14.0,12.01,-4.06
28.0,14.0,12.84,-4.34
29.0,14.0,13.67,-4.62
30.0,13.99,14.5,-4.9
31.0,12.68,14.5,-4.9
32.0,11.37,14.5,-4.9
33.0,11.3,13.31,-4.9
34.0,11.3,12.05,-4.9
35.0,11.3,10.79,-4.9
36.0,11.3,9.53,-4.9
37.0,11.3,8.27,-4.9
38.0,11.3,7.01,-4.9
39.0,11.3,5.75,-4.9
40.0,11.3,4.51,-4.9
41.0,11.3,5.62,-4.9
42.0,11.3,6.73,-4.9
43.0,11.3,7.85,-4.9
44.0,11.3,8.96,-4.9
45.0,11.3,10.07,-4.9
46.0,11.3,11.18,-4.9
47.0,11.3,12.3,-4.9
48.0,11.3,13.41,-4.9
49.0,11.32,14.5,-4.9
50.0,12.51,14.5,-4.9
51.0,13.7,14.5,-4.9
52.0,14.0,13.94,-4.71
53.0,14.0,13.18,-4.45
54.0,14.0,12.42,-4.2
55.0,14.0,11.67,-3.94
56.0,14.0,10.91,-3.69
57.0,14.0,10.16,-3.43
58.0,14.0,9.4,-3.18
59.0,14.0,8.65,-2.92
60.0,14.0,7.89,-2.67
61.0,14.0,7.14,-2.41
62.0,14.0,6.38,-2.16
63.0,14.0,5.63,-1.9
64.0,14.0,4.87,-1.65
65.0,14.0,4.12,-1.39
66.0,14.0,3.36,-1.14
67.0,14.0,2.61,-0.88
68.0,14.0,1.85,-0.63
69.0,14.0,1.1,-0.37
70.0,14.0,0.34,-0.12
71.0,14.63,0.0,0.0
72.0,15.78,0.0,0.0
73.0,16.93,0.0,0.0
74.0,18.08,0.0,0.0
75.0,19.24,0.0,0.0
76.0,20.39,0.0,0.0
77.0,21.54,0.0,0.0
78.0,22.0,-0.79,0.0
79.0,22.0,-2.11,0.0
80.0,22.0,-3.43,0.0
81.0,22.0,-4.75,0.0
82.0,22.0,-6.07,0.0
83.0,22.0,-7.39,0.0
84.0,22.0,-8.71,0.0
85.0,22.0,-10.04,0.0
86.0,22.0,-11.36,0.0
87.0,22.0,-12.68,0.0
88.0,22.0,-14.0,0.0
89.0,22.0,-15.32,0.0
90.0,22.0,-16.64,0.0
91.0,21.54,-17.5,0.0
92.0,20.24,-17.5,0.0
93.0,18.93,-17.5,0.0
94.0,17.62,-17.5,0.0
95.0,16.31,-17.5,0.0
96.0,15.0,-17.5,0.0
97.0,13.69,-17.5,0.0
98.0,12.38,-17.5,0.0
99.0,11.08,-17.5,0.0
100.0,9.77,-17.5,0.0
101.0,8.46,-17.5,0.0
102.0,7.2,-17.45,0.0
103.0,7.2,-16.1,0.0
104.0,7.2,-14.76,0.0
105.0,7.2,-13.42,0.0
106.0,7.2,-12.07,0.0
107.0,7.2,-10.73,0.0
108.0,7.2,-9.38,0.0
109.0,7.2,-8.04,0.0
110.0,7.2,-6.7,0.0
111.0,7.2,-5.35,0.0
112.0,7.2,-4.01,0.0
113.0,7.2,-2.66,0.0
114.0,7.2,-1.32,0.0
115.0,7.18,0.0,0.0
116.0,6.02,0.0,0.0
117.0,4.85,0.0,0.0
118.0,3.69,0.0,0.0
119.0,2.53,0.0,0.0
120.0,1.36,0.0,0.0
121.0,0.2,0.0,0.0
122.0,0.0,0.0,0.0
