/Users/iida/Documents/PDRChallenge/myprogram/processcorrectdata/pdrdata/error/route1/device_id11_user2/error.csv,0.0,0.0,48
/Users/iida/Documents/PDRChallenge/myprogram/processcorrectdata/pdrdata/error/route1/device_id11_user3/error.csv,0.0,0.0,53
/Users/iida/Documents/PDRChallenge/myprogram/processcorrectdata/pdrdata/error/route1/device_id11_user4/error.csv,0.0,0.0,54
/Users/iida/Documents/PDRChallenge/myprogram/processcorrectdata/pdrdata/error/route1/device_id18_user7/error.csv,0.0,0.0,56
/Users/iida/Documents/PDRChallenge/myprogram/processcorrectdata/pdrdata/error/route1/device_id18_user8/error.csv,0.0,0.0,63
/Users/iida/Documents/PDRChallenge/myprogram/processcorrectdata/pdrdata/error/route1/device_id19_user4/error.csv,0.0,0.0,50
/Users/iida/Documents/PDRChallenge/myprogram/processcorrectdata/pdrdata/error/route1/device_id19_user5/error.csv,0.0,0.0,52
/Users/iida/Documents/PDRChallenge/myprogram/processcorrectdata/pdrdata/error/route1/device_id19_user6/error.csv,0.0,0.0,53
/Users/iida/Documents/PDRChallenge/myprogram/processcorrectdata/pdrdata/error/route1/device_id19_user7/error.csv,0.0,0.0,54
/Users/iida/Documents/PDRChallenge/myprogram/processcorrectdata/pdrdata/error/route1/device_id19_user8/error.csv,0.0,0.0,60
/Users/iida/Documents/PDRChallenge/myprogram/processcorrectdata/pdrdata/error/route1/device_id1_user4/error.csv,0.0,0.0,52
/Users/iida/Documents/PDRChallenge/myprogram/processcorrectdata/pdrdata/error/route1/device_id1_user5/error.csv,0.0,0.0,50
/Users/iida/Documents/PDRChallenge/myprogram/processcorrectdata/pdrdata/error/route1/device_id20_user1/error.csv,0.0,0.0,60
/Users/iida/Documents/PDRChallenge/myprogram/processcorrectdata/pdrdata/error/route1/device_id20_user4/error.csv,0.0,0.0,51
/Users/iida/Documents/PDRChallenge/myprogram/processcorrectdata/pdrdata/error/route1/device_id20_user5/error.csv,0.0,0.0,51
/Users/iida/Documents/PDRChallenge/myprogram/processcorrectdata/pdrdata/error/route1/device_id20_user6/error.csv,0.0,0.0,55
/Users/iida/Documents/PDRChallenge/myprogram/processcorrectdata/pdrdata/error/route1/device_id20_user7/error.csv,0.0,0.0,56
/Users/iida/Documents/PDRChallenge/myprogram/processcorrectdata/pdrdata/error/route1/device_id20_user8/error.csv,0.0,0.0,60
/Users/iida/Documents/PDRChallenge/myprogram/processcorrectdata/pdrdata/error/route1/device_id3_user3/error.csv,0.0,0.0,51
/Users/iida/Documents/PDRChallenge/myprogram/processcorrectdata/pdrdata/error/route1/device_id3_user4/error.csv,0.0,0.0,52
/Users/iida/Documents/PDRChallenge/myprogram/processcorrectdata/pdrdata/error/route1/device_id5_user2/error.csv,0.0,0.0,51
/Users/iida/Documents/PDRChallenge/myprogram/processcorrectdata/pdrdata/error/route1/device_id5_user5/error.csv,0.0,0.0,52
/Users/iida/Documents/PDRChallenge/myprogram/processcorrectdata/pdrdata/error/route1/device_id6_user1/error.csv,0.0,0.0,60
/Users/iida/Documents/PDRChallenge/myprogram/processcorrectdata/pdrdata/error/route1/device_id7_user2/error.csv,0.0,0.0,51
/Users/iida/Documents/PDRChallenge/myprogram/processcorrectdata/pdrdata/error/route1/device_id7_user4/error.csv,0.0,0.0,54
/Users/iida/Documents/PDRChallenge/myprogram/processcorrectdata/pdrdata/error/route1/device_id7_user5/error.csv,0.0,0.0,53
/Users/iida/Documents/PDRChallenge/myprogram/processcorrectdata/pdrdata/error/route1/device_id7_user6/error.csv,0.0,0.0,53
/Users/iida/Documents/PDRChallenge/myprogram/processcorrectdata/pdrdata/error/route1/device_id8_user1/error.csv,0.0,0.0,61
/Users/iida/Documents/PDRChallenge/myprogram/processcorrectdata/pdrdata/error/route1/device_id9_user1/error.csv,0.0,0.0,57
/Users/iida/Documents/PDRChallenge/myprogram/processcorrectdata/pdrdata/error/route1/device_id9_user5/error.csv,0.0,0.0,52
/Users/iida/Documents/PDRChallenge/myprogram/processcorrectdata/pdrdata/error/route1/device_id9_user6/error.csv,0.0,0.0,51
/Users/iida/Documents/PDRChallenge/myprogram/processcorrectdata/pdrdata/error/route3/device_id11_user2/error.csv,0.0,0.0,101
/Users/iida/Documents/PDRChallenge/myprogram/processcorrectdata/pdrdata/error/route3/device_id11_user3/error.csv,0.0,0.0,105
/Users/iida/Documents/PDRChallenge/myprogram/processcorrectdata/pdrdata/error/route3/device_id11_user4/error.csv,0.0,0.0,103
/Users/iida/Documents/PDRChallenge/myprogram/processcorrectdata/pdrdata/error/route3/device_id18_user8/error.csv,0.0,0.0,134
/Users/iida/Documents/PDRChallenge/myprogram/processcorrectdata/pdrdata/error/route3/device_id19_user1/error.csv,0.0,0.0,114
/Users/iida/Documents/PDRChallenge/myprogram/processcorrectdata/pdrdata/error/route3/device_id19_user4/error.csv,0.0,0.0,103
/Users/iida/Documents/PDRChallenge/myprogram/processcorrectdata/pdrdata/error/route3/device_id19_user5/error.csv,0.0,0.0,111
/Users/iida/Documents/PDRChallenge/myprogram/processcorrectdata/pdrdata/error/route3/device_id19_user6/error.csv,0.0,0.0,108
/Users/iida/Documents/PDRChallenge/myprogram/processcorrectdata/pdrdata/error/route3/device_id19_user7/error.csv,0.0,0.0,113
/Users/iida/Documents/PDRChallenge/myprogram/processcorrectdata/pdrdata/error/route3/device_id19_user8/error.csv,0.0,0.0,128
/Users/iida/Documents/PDRChallenge/myprogram/processcorrectdata/pdrdata/error/route3/device_id1_user4/error.csv,0.0,0.0,105
/Users/iida/Documents/PDRChallenge/myprogram/processcorrectdata/pdrdata/error/route3/device_id1_user5/error.csv,0.0,0.0,109
/Users/iida/Documents/PDRChallenge/myprogram/processcorrectdata/pdrdata/error/route3/device_id20_user1/error.csv,0.0,0.0,121
/Users/iida/Documents/PDRChallenge/myprogram/processcorrectdata/pdrdata/error/route3/device_id20_user5/error.csv,0.0,0.0,109
/Users/iida/Documents/PDRChallenge/myprogram/processcorrectdata/pdrdata/error/route3/device_id20_user6/error.csv,0.0,0.0,113
/Users/iida/Documents/PDRChallenge/myprogram/processcorrectdata/pdrdata/error/route3/device_id20_user7/error.csv,0.0,0.0,119
/Users/iida/Documents/PDRChallenge/myprogram/processcorrectdata/pdrdata/error/route3/device_id20_user8/error.csv,0.0,0.0,132
/Users/iida/Documents/PDRChallenge/myprogram/processcorrectdata/pdrdata/error/route3/device_id3_user2/error.csv,0.0,0.0,103
/Users/iida/Documents/PDRChallenge/myprogram/processcorrectdata/pdrdata/error/route3/device_id3_user3/error.csv,0.0,0.0,106
/Users/iida/Documents/PDRChallenge/myprogram/processcorrectdata/pdrdata/error/route3/device_id3_user4/error.csv,0.0,0.0,105
/Users/iida/Documents/PDRChallenge/myprogram/processcorrectdata/pdrdata/error/route3/device_id6_user1/error.csv,0.0,0.0,124
/Users/iida/Documents/PDRChallenge/myprogram/processcorrectdata/pdrdata/error/route3/device_id7_user2/error.csv,0.0,0.0,102
/Users/iida/Documents/PDRChallenge/myprogram/processcorrectdata/pdrdata/error/route3/device_id7_user4/error.csv,0.0,0.0,103
/Users/iida/Documents/PDRChallenge/myprogram/processcorrectdata/pdrdata/error/route3/device_id7_user6/error.csv,0.0,0.0,105
/Users/iida/Documents/PDRChallenge/myprogram/processcorrectdata/pdrdata/error/route3/device_id8_user1/error.csv,0.0,0.0,124
/Users/iida/Documents/PDRChallenge/myprogram/processcorrectdata/pdrdata/error/route3/device_id8_user3/error.csv,0.0,0.0,107
/Users/iida/Documents/PDRChallenge/myprogram/processcorrectdata/pdrdata/error/route3/device_id9_user1/error.csv,0.0,0.0,122
/Users/iida/Documents/PDRChallenge/myprogram/processcorrectdata/pdrdata/error/route3/device_id9_user5/error.csv,0.0,0.0,104
/Users/iida/Documents/PDRChallenge/myprogram/processcorrectdata/pdrdata/error/route3/device_id9_user6/error.csv,0.0,0.0,106
/Users/iida/Documents/PDRChallenge/myprogram/processcorrectdata/pdrdata/error/route4/device_id10_user6/error.csv,0.0,0.0,84
/Users/iida/Documents/PDRChallenge/myprogram/processcorrectdata/pdrdata/error/route4/device_id11_user2/error.csv,0.0,0.0,80
/Users/iida/Documents/PDRChallenge/myprogram/processcorrectdata/pdrdata/error/route4/device_id11_user3/error.csv,0.0,0.0,86
/Users/iida/Documents/PDRChallenge/myprogram/processcorrectdata/pdrdata/error/route4/device_id11_user4/error.csv,0.0,0.0,82
/Users/iida/Documents/PDRChallenge/myprogram/processcorrectdata/pdrdata/error/route4/device_id18_user7/error.csv,0.0,0.0,93
/Users/iida/Documents/PDRChallenge/myprogram/processcorrectdata/pdrdata/error/route4/device_id18_user8/error.csv,0.0,0.0,93
/Users/iida/Documents/PDRChallenge/myprogram/processcorrectdata/pdrdata/error/route4/device_id19_user1/error.csv,0.0,0.0,85
/Users/iida/Documents/PDRChallenge/myprogram/processcorrectdata/pdrdata/error/route4/device_id19_user4/error.csv,0.0,0.0,61
/Users/iida/Documents/PDRChallenge/myprogram/processcorrectdata/pdrdata/error/route4/device_id19_user5/error.csv,0.0,0.0,80
/Users/iida/Documents/PDRChallenge/myprogram/processcorrectdata/pdrdata/error/route4/device_id19_user6/error.csv,0.0,0.0,88
/Users/iida/Documents/PDRChallenge/myprogram/processcorrectdata/pdrdata/error/route4/device_id19_user7/error.csv,0.0,0.0,90
/Users/iida/Documents/PDRChallenge/myprogram/processcorrectdata/pdrdata/error/route4/device_id19_user8/error.csv,0.0,0.0,99
/Users/iida/Documents/PDRChallenge/myprogram/processcorrectdata/pdrdata/error/route4/device_id1_user4/error.csv,0.0,0.0,82
/Users/iida/Documents/PDRChallenge/myprogram/processcorrectdata/pdrdata/error/route4/device_id1_user5/error.csv,0.0,0.0,83
/Users/iida/Documents/PDRChallenge/myprogram/processcorrectdata/pdrdata/error/route4/device_id20_user1/error.csv,0.0,0.0,90
/Users/iida/Documents/PDRChallenge/myprogram/processcorrectdata/pdrdata/error/route4/device_id20_user4/error.csv,0.0,0.0,83
/Users/iida/Documents/PDRChallenge/myprogram/processcorrectdata/pdrdata/error/route4/device_id20_user5/error.csv,0.0,0.0,86
/Users/iida/Documents/PDRChallenge/myprogram/processcorrectdata/pdrdata/error/route4/device_id20_user6/error.csv,0.0,0.0,90
/Users/iida/Documents/PDRChallenge/myprogram/processcorrectdata/pdrdata/error/route4/device_id20_user7/error.csv,0.0,0.0,91
/Users/iida/Documents/PDRChallenge/myprogram/processcorrectdata/pdrdata/error/route4/device_id20_user8/error.csv,0.0,0.0,96
/Users/iida/Documents/PDRChallenge/myprogram/processcorrectdata/pdrdata/error/route4/device_id3_user2/error.csv,0.0,0.0,87
/Users/iida/Documents/PDRChallenge/myprogram/processcorrectdata/pdrdata/error/route4/device_id3_user3/error.csv,0.0,0.0,86
/Users/iida/Documents/PDRChallenge/myprogram/processcorrectdata/pdrdata/error/route4/device_id3_user4/error.csv,0.0,0.0,82
/Users/iida/Documents/PDRChallenge/myprogram/processcorrectdata/pdrdata/error/route4/device_id6_user1/error.csv,0.0,0.0,89
/Users/iida/Documents/PDRChallenge/myprogram/processcorrectdata/pdrdata/error/route4/device_id7_user2/error.csv,0.0,0.0,80
/Users/iida/Documents/PDRChallenge/myprogram/processcorrectdata/pdrdata/error/route4/device_id7_user4/error.csv,0.0,0.0,82
/Users/iida/Documents/PDRChallenge/myprogram/processcorrectdata/pdrdata/error/route4/device_id7_user5/error.csv,0.0,0.0,81
/Users/iida/Documents/PDRChallenge/myprogram/processcorrectdata/pdrdata/error/route4/device_id7_user6/error.csv,0.0,0.0,81
/Users/iida/Documents/PDRChallenge/myprogram/processcorrectdata/pdrdata/error/route4/device_id8_user1/error.csv,0.0,0.0,94
/Users/iida/Documents/PDRChallenge/myprogram/processcorrectdata/pdrdata/error/route4/device_id8_user3/error.csv,0.0,0.0,87
/Users/iida/Documents/PDRChallenge/myprogram/processcorrectdata/pdrdata/error/route4/device_id9_user1/error.csv,0.0,0.0,94
/Users/iida/Documents/PDRChallenge/myprogram/processcorrectdata/pdrdata/error/route4/device_id9_user5/error.csv,0.0,0.0,83
/Users/iida/Documents/PDRChallenge/myprogram/processcorrectdata/pdrdata/error/route4/device_id9_user6/error.csv,0.0,0.0,79
/Users/iida/Documents/PDRChallenge/myprogram/processcorrectdata/pdrdata/error/route5/device_id11_user4/error.csv,0.0,0.0,50
/Users/iida/Documents/PDRChallenge/myprogram/processcorrectdata/pdrdata/error/route5/device_id6_user1/error.csv,0.0,0.0,58
/Users/iida/Documents/PDRChallenge/myprogram/processcorrectdata/pdrdata/error/route5/device_id7_user4/error.csv,0.0,0.0,50
/Users/iida/Documents/PDRChallenge/myprogram/processcorrectdata/pdrdata/error/route5/device_id8_user1/error.csv,0.0,0.0,58
/Users/iida/Documents/PDRChallenge/myprogram/processcorrectdata/pdrdata/error/route5/device_id9_user1/error.csv,0.0,0.0,57
/Users/iida/Documents/PDRChallenge/myprogram/processcorrectdata/pdrdata/error/route6/device_id15_user1/error.csv,0.0,0.0,122
/Users/iida/Documents/PDRChallenge/myprogram/processcorrectdata/pdrdata/error/route6/device_id15_user5/error.csv,0.0,0.0,111
/Users/iida/Documents/PDRChallenge/myprogram/processcorrectdata/pdrdata/error/route6/device_id16_user4/error.csv,0.0,0.0,110
/Users/iida/Documents/PDRChallenge/myprogram/processcorrectdata/pdrdata/error/route6/device_id16_user6/error.csv,0.0,0.0,113
/Users/iida/Documents/PDRChallenge/myprogram/processcorrectdata/pdrdata/error/route6/device_id16_user7/error.csv,0.0,0.0,126
/Users/iida/Documents/PDRChallenge/myprogram/processcorrectdata/pdrdata/error/route6/device_id16_user8/error.csv,0.0,0.0,134
/Users/iida/Documents/PDRChallenge/myprogram/processcorrectdata/pdrdata/error/route6/device_id17_user1/error.csv,0.0,0.0,125
/Users/iida/Documents/PDRChallenge/myprogram/processcorrectdata/pdrdata/error/route6/device_id17_user5/error.csv,0.0,0.0,109
/Users/iida/Documents/PDRChallenge/myprogram/processcorrectdata/pdrdata/error/route6/device_id18_user4/error.csv,0.0,0.0,110
/Users/iida/Documents/PDRChallenge/myprogram/processcorrectdata/pdrdata/error/route6/device_id18_user6/error.csv,0.0,0.0,118
/Users/iida/Documents/PDRChallenge/myprogram/processcorrectdata/pdrdata/error/route6/device_id18_user7/error.csv,0.0,0.0,126
/Users/iida/Documents/PDRChallenge/myprogram/processcorrectdata/pdrdata/error/route6/device_id18_user8/error.csv,0.0,0.0,139
/Users/iida/Documents/PDRChallenge/myprogram/processcorrectdata/pdrdata/error/route6/device_id19_user4/error.csv,0.0,0.0,111
/Users/iida/Documents/PDRChallenge/myprogram/processcorrectdata/pdrdata/error/route6/device_id19_user5/error.csv,0.0,0.0,112
/Users/iida/Documents/PDRChallenge/myprogram/processcorrectdata/pdrdata/error/route6/device_id19_user6/error.csv,0.0,0.0,1
/Users/iida/Documents/PDRChallenge/myprogram/processcorrectdata/pdrdata/error/route6/device_id19_user7/error.csv,0.0,0.0,124
/Users/iida/Documents/PDRChallenge/myprogram/processcorrectdata/pdrdata/error/route6/device_id19_user8/error.csv,0.0,0.0,141
/Users/iida/Documents/PDRChallenge/myprogram/processcorrectdata/pdrdata/error/route6/device_id1_user4/error.csv,0.0,0.0,110
/Users/iida/Documents/PDRChallenge/myprogram/processcorrectdata/pdrdata/error/route6/device_id1_user6/error.csv,0.0,0.0,120
/Users/iida/Documents/PDRChallenge/myprogram/processcorrectdata/pdrdata/error/route6/device_id20_user1/error.csv,0.0,0.0,123
/Users/iida/Documents/PDRChallenge/myprogram/processcorrectdata/pdrdata/error/route6/device_id20_user4/error.csv,0.0,0.0,113
/Users/iida/Documents/PDRChallenge/myprogram/processcorrectdata/pdrdata/error/route6/device_id20_user5/error.csv,0.0,0.0,108
/Users/iida/Documents/PDRChallenge/myprogram/processcorrectdata/pdrdata/error/route6/device_id20_user7/error.csv,0.0,0.0,125
/Users/iida/Documents/PDRChallenge/myprogram/processcorrectdata/pdrdata/error/route6/device_id20_user8/error.csv,0.0,0.0,137
/Users/iida/Documents/PDRChallenge/myprogram/processcorrectdata/pdrdata/error/route6/device_id3_user1/error.csv,0.0,0.0,122
/Users/iida/Documents/PDRChallenge/myprogram/processcorrectdata/pdrdata/error/route6/device_id3_user5/error.csv,0.0,0.0,110
/Users/iida/Documents/PDRChallenge/myprogram/processcorrectdata/pdrdata/error/route6/device_id3_user7/error.csv,0.0,0.0,121
/Users/iida/Documents/PDRChallenge/myprogram/processcorrectdata/pdrdata/error/route6/device_id3_user8/error.csv,0.0,0.0,135
