0.0,0.0,0.0,0.0
1.0,1.22,0.0,0.0
2.0,2.44,0.0,0.0
3.0,3.66,0.0,0.0
4.0,4.88,0.0,0.0
5.0,6.1,0.0,0.0
6.0,7.2,0.13,0.0
7.0,7.2,1.41,0.0
8.0,7.2,2.69,0.0
9.0,7.2,3.97,0.0
10.0,7.2,5.25,0.0
11.0,7.2,6.53,0.0
12.0,7.2,7.81,0.0
13.0,7.2,9.09,0.0
14.0,7.2,10.37,0.0
15.0,7.2,11.65,0.0
16.0,7.2,12.93,0.0
17.0,7.2,14.21,0.0
18.0,7.2,15.5,0.0
19.0,7.2,16.78,0.0
20.0,7.71,17.5,0.0
21.0,8.87,17.5,0.0
22.0,10.04,17.5,0.0
23.0,11.21,17.5,0.0
24.0,12.37,17.5,0.0
25.0,13.54,17.5,0.0
26.0,14.0,18.02,-0.17
27.0,14.0,18.87,-0.46
28.0,14.0,19.72,-0.75
29.0,14.0,20.58,-1.04
30.0,14.0,21.43,-1.33
31.0,14.0,22.28,-1.62
32.0,14.0,23.14,-1.9
33.0,14.0,23.99,-2.19
34.0,14.0,24.84,-2.48
35.0,14.0,25.7,-2.77
36.0,14.0,26.55,-3.06
37.0,14.0,27.4,-3.35
38.0,14.0,28.26,-3.64
39.0,14.0,29.11,-3.92
40.0,14.0,29.96,-4.21
41.0,14.0,30.82,-4.5
42.0,14.0,31.67,-4.79
43.0,14.0,31.52,-4.74
44.0,14.0,30.73,-4.47
45.0,14.0,29.94,-4.2
46.0,14.0,29.15,-3.94
47.0,14.0,28.37,-3.67
48.0,14.0,27.58,-3.41
49.0,14.0,26.79,-3.14
50.0,14.0,26.0,-2.87
51.0,14.0,25.22,-2.61
52.0,14.0,24.43,-2.34
53.0,14.0,23.64,-2.07
54.0,14.0,22.85,-1.81
55.0,14.0,22.07,-1.54
56.0,14.0,21.28,-1.28
57.0,14.0,20.49,-1.01
58.0,14.0,19.7,-0.74
59.0,14.0,18.91,-0.48
60.0,14.0,18.13,-0.21
61.0,13.75,17.5,0.0
62.0,12.5,17.5,0.0
63.0,11.25,17.5,0.0
64.0,10.0,17.5,0.0
65.0,8.75,17.5,0.0
66.0,7.5,17.5,0.0
67.0,6.25,17.5,0.0
68.0,5.0,17.5,0.0
69.0,3.76,17.5,0.0
70.0,2.51,17.5,0.0
71.0,1.26,17.5,0.0
72.0,0.01,17.5,0.0
73.0,0.0,16.34,0.0
74.0,0.0,15.18,0.0
75.0,0.0,14.01,0.0
76.0,0.0,12.85,0.0
77.0,0.0,11.68,0.0
78.0,0.0,10.52,0.0
79.0,0.0,9.35,0.0
80.0,0.0,8.19,0.0
81.0,0.0,7.02,0.0
82.0,0.0,5.86,0.0
83.0,0.0,4.69,0.0
84.0,0.0,3.53,0.0
85.0,0.0,2.36,0.0
86.0,0.0,1.2,0.0
87.0,0.0,0.03,0.0
88.0,0.0,0.0,0.0
