0.0,0.0,0.0,0.0
12.177,14.0,0.0,0.0
31.437,14.0,14.5,-4.9
33.308,11.3,14.5,-4.9
42.887,11.3,4.5,-4.9
54.577,11.3,14.5,-4.9
57.337,14.0,14.5,-4.9
78.407,14.0,0.0,0.0
85.777,22.0,0.0,0.0
101.667,22.0,-17.5,0.0
114.838,7.2,-17.5,0.0
130.147,7.2,0.0,0.0
137.918,0.0,0.0,0.0
