0.0,0.0,0.0,0.0
1.0,1.25,0.0,0.0
2.0,2.5,0.0,0.0
3.0,3.75,0.0,0.0
4.0,5.0,0.0,0.0
5.0,6.25,0.0,0.0
6.0,7.5,0.0,0.0
7.0,8.75,0.0,0.0
8.0,10.0,0.0,0.0
9.0,11.25,0.0,0.0
10.0,12.5,0.0,0.0
11.0,13.75,0.0,0.0
12.0,14.0,0.61,-0.21
13.0,14.0,1.37,-0.46
14.0,14.0,2.14,-0.72
15.0,14.0,2.9,-0.98
16.0,14.0,3.66,-1.24
17.0,14.0,4.42,-1.49
18.0,14.0,5.19,-1.75
19.0,14.0,5.95,-2.01
20.0,14.0,6.71,-2.27
21.0,14.0,7.47,-2.53
22.0,14.0,8.24,-2.78
23.0,14.0,9.0,-3.04
24.0,14.0,9.76,-3.3
25.0,14.0,10.53,-3.56
26.0,14.0,11.29,-3.81
27.0,14.0,12.05,-4.07
28.0,14.0,12.81,-4.33
29.0,14.0,13.58,-4.59
30.0,14.0,14.34,-4.85
31.0,13.13,14.5,-4.9
32.0,12.02,14.5,-4.9
33.0,11.3,14.11,-4.9
34.0,11.3,12.99,-4.9
35.0,11.3,11.87,-4.9
36.0,11.3,10.75,-4.9
37.0,11.3,9.64,-4.9
38.0,11.3,8.52,-4.9
39.0,11.3,7.4,-4.9
40.0,11.3,6.28,-4.9
41.0,11.3,5.16,-4.9
42.0,11.3,4.98,-4.9
43.0,11.3,6.16,-4.9
44.0,11.3,7.33,-4.9
45.0,11.3,8.51,-4.9
46.0,11.3,9.68,-4.9
47.0,11.3,10.86,-4.9
48.0,11.3,12.03,-4.9
49.0,11.3,13.21,-4.9
50.0,11.3,14.38,-4.9
51.0,12.32,14.5,-4.9
52.0,13.46,14.5,-4.9
53.0,14.0,14.09,-4.76
54.0,14.0,13.33,-4.5
55.0,14.0,12.56,-4.24
56.0,14.0,11.79,-3.98
57.0,14.0,11.02,-3.73
58.0,14.0,10.26,-3.47
59.0,14.0,9.49,-3.21
60.0,14.0,8.72,-2.95
61.0,14.0,7.95,-2.69
62.0,14.0,7.19,-2.43
63.0,14.0,6.42,-2.17
64.0,14.0,5.65,-1.91
65.0,14.0,4.88,-1.65
66.0,14.0,4.12,-1.39
67.0,14.0,3.35,-1.13
68.0,14.0,2.58,-0.87
69.0,14.0,1.81,-0.61
70.0,14.0,1.04,-0.35
71.0,14.0,0.28,-0.09
72.0,14.86,0.0,0.0
73.0,16.2,0.0,0.0
74.0,17.54,0.0,0.0
75.0,18.88,0.0,0.0
76.0,20.22,0.0,0.0
77.0,21.56,0.0,0.0
78.0,22.0,-0.86,0.0
79.0,22.0,-2.14,0.0
80.0,22.0,-3.42,0.0
81.0,22.0,-4.7,0.0
82.0,22.0,-5.98,0.0
83.0,22.0,-7.26,0.0
84.0,22.0,-8.54,0.0
85.0,22.0,-9.82,0.0
86.0,22.0,-11.1,0.0
87.0,22.0,-12.38,0.0
88.0,22.0,-13.66,0.0
89.0,22.0,-14.94,0.0
90.0,22.0,-16.22,0.0
91.0,22.0,-17.5,0.0
92.0,20.67,-17.5,0.0
93.0,19.33,-17.5,0.0
94.0,18.0,-17.5,0.0
95.0,16.67,-17.5,0.0
96.0,15.33,-17.5,0.0
97.0,14.0,-17.5,0.0
98.0,12.67,-17.5,0.0
99.0,11.33,-17.5,0.0
100.0,10.0,-17.5,0.0
101.0,8.67,-17.5,0.0
102.0,7.33,-17.5,0.0
103.0,7.2,-16.35,0.0
104.0,7.2,-15.06,0.0
105.0,7.2,-13.78,0.0
106.0,7.2,-12.49,0.0
107.0,7.2,-11.21,0.0
108.0,7.2,-9.93,0.0
109.0,7.2,-8.64,0.0
110.0,7.2,-7.36,0.0
111.0,7.2,-6.07,0.0
112.0,7.2,-4.79,0.0
113.0,7.2,-3.51,0.0
114.0,7.2,-2.22,0.0
115.0,7.2,-0.94,0.0
116.0,6.91,0.0,0.0
117.0,5.83,0.0,0.0
118.0,4.75,0.0,0.0
119.0,3.67,0.0,0.0
120.0,2.58,0.0,0.0
121.0,1.5,0.0,0.0
122.0,0.42,0.0,0.0
123.0,0.0,0.0,0.0
