5791.10415567,1007.11
5791.135100494001,1007.11
5791.166045318,1007.11
5791.196990143,1007.1
5791.227934967001,1007.1
5791.258879791,1007.1
5791.289824615001,1007.1
5791.320769440001,1007.1
5791.351714264,1007.1
5791.382659088001,1007.11
5791.413603912,1007.11
5791.444548736001,1007.12
5791.475493561001,1007.12
5791.509703766001,1007.12
5791.533751617,1007.12
5791.557799469,1007.12
5791.581847320001,1007.12
5791.608489166,1007.12
5791.636962066001,1007.12
5791.666319977,1007.12
5791.696532379,1007.12
5791.726927887001,1007.07
5791.758055816001,1007.07
5791.7891532290005,1007.07
5791.820250641001,1007.07
5791.851378570001,1007.07
5791.882475982,1007.07
5791.913573395001,1007.07
5791.944670807,1007.07
5791.975798736001,1007.07
5792.006896148,1007.07
5792.037993561001,1007.07
5792.069152008,1007.07
5792.100493561001,1007.07
5792.131835113,1007.07
5792.163176666,1007.07996
5792.194518219,1007.07996
5792.225829254,1007.07996
5792.257170807,1007.07996
5792.288512359,1007.07996
5792.319853912,1007.07996
5792.351195465,1007.07996
5792.382537018,1007.07996
5792.413878570001,1007.07996
5792.445220123001,1007.07996
5792.4765616760005,1007.07996
5792.5079032290005,1007.07996
5792.539244781,1007.07996
5792.570586334,1007.07996
5792.601927887001,1007.07996
5792.633269440001,1007.07996
5792.664610992,1007.07996
5792.695952545,1007.07996
5792.727294098,1007.07996
5792.7586356500005,1007.07996
5792.7899772030005,1007.07996
5792.821318756,1007.07996
5792.852660309,1007.07996
5792.884001861001,1007.07996
5792.915343414001,1007.07996
5792.946684967001,1007.07996
5792.978026520001,1007.07996
5793.009368072,1007.07996
5793.040709625,1007.07996
5793.07202066,1007.07996
5793.103362213001,1007.07996
5793.134703766001,1007.07996
5793.166045318,1007.07996
5793.197386871,1007.07996
5793.228728424,1007.07996
5793.260069977,1007.07996
5793.2914115290005,1007.07996
5793.322753082,1007.07996
5793.354094635,1007.07996
5793.385436188,1007.07996
5793.416777740001,1007.07996
5793.448119293001,1007.07996
5793.479460846001,1007.07996
5793.510802398,1007.07996
5793.542143951,1007.07996
5793.573485504,1007.07996
5793.604827057,1007.07996
5793.636168609,1007.07996
5793.667510162,1007.08997
5793.698851715,1007.08997
5793.730193268,1007.08997
5793.761534820001,1007.08997
5793.792876373001,1007.08997
5793.8242179260005,1007.07996
5793.8555594790005,1007.07996
5793.886901031,1007.07996
5793.918242584,1007.07996
5793.949553619001,1007.07996
5793.980895172001,1007.07996
5794.012236725001,1007.07996
5794.043578277,1007.07996
5794.07491983,1007.07996
5794.106261383,1007.07996
5794.137602936001,1007.07996
5794.168944488,1007.07996
5794.200286041,1007.08997
5794.231627594,1007.08997
5794.262969147,1007.08997
5794.294310699001,1007.08997
5794.3256522520005,1007.08997
5794.3569938050005,1007.08997
5794.388335357,1007.08997
5794.41967691,1007.08997
5794.451018463001,1007.08997
5794.482360016001,1007.08997
5794.513701568,1007.08997
5794.545043121,1007.08997
5794.576384674,1007.07996
5794.607726227,1007.07996
5794.6390677790005,1007.07996
5794.670409332,1007.07996
5794.701750885,1007.07996
5794.733092438,1007.07996
5794.764433990001,1007.07996
5794.7957450250005,1007.07996
5794.8270865780005,1007.07996
5794.858428131,1007.07996
5794.889769684,1007.07996
5794.921111236001,1007.07996
5794.952452789001,1007.07996
5794.983794342001,1007.07996
5795.015135895001,1007.07996
5795.046477447,1007.07996
5795.077819,1007.07996
5795.109160553,1007.07996
5795.140502106,1007.07996
5795.171843658,1007.07996
5795.203185211,1007.07996
5795.234526764,1007.07996
5795.265868316001,1007.07996
5795.297209869001,1007.07996
5795.328551422001,1007.07996
5795.359892975001,1007.07996
5795.391234527,1007.07996
5795.42257608,1007.07996
5795.453907857001,1007.07996
5795.4852494100005,1007.07
5795.516590962,1007.07
5795.547932515,1007.07
5795.579274068001,1007.07
5795.610615621001,1007.07
5795.641926656001,1007.07
5795.673268208,1007.07
5795.704609761,1007.07
5795.735951314,1007.07
5795.767292867,1007.07
5795.798634419,1007.07
5795.829975972,1007.07
5795.861317525,1007.07
5795.892659078,1007.07
5795.924000630001,1007.07
5795.9553421830005,1007.06
5795.9866837360005,1007.06
5796.018025289,1007.06
5796.049366841,1007.06
5796.080708394001,1007.06
5796.112049947001,1007.06
5796.143391499,1007.06
5796.174733052,1007.06
5796.206074605,1007.06
5796.237416158,1007.06
5796.2687577100005,1007.06
5796.300099263,1007.06
5796.331440816,1007.12
5796.362782369,1007.12
5796.394123921001,1007.12
5796.425465474001,1007.12
5796.456807027001,1007.12
5796.488148580001,1007.12
5796.519459615,1007.11
5796.550801167,1007.11
5796.582142720001,1007.11
5796.613484273001,1007.11
5796.644825826001,1007.11
5796.676167378,1007.11
5796.707508931,1007.11
5796.738850484,1007.11
5796.770192037,1007.1
5796.801533589,1007.1
5796.832875142,1007.1
5796.864216695,1007.1
5796.895558247001,1007.1
5796.926899800001,1007.1
5796.958241353001,1007.1
5796.989582906001,1007.1
5797.020924458,1007.1
5797.052266011,1007.1
5797.083607564,1007.1
5797.114949117,1007.1
5797.146290669,1007.1
5797.177632222,1007.1
5797.208973775,1007.1
5797.240315328,1007.08997
5797.271656880001,1007.08997
5797.3029984330005,1007.08997
5797.3343399860005,1007.08997
5797.365651021,1007.08997
5797.396992574,1007.08997
5797.428334126001,1007.08997
5797.459675679001,1007.08997
5797.491017232001,1007.08997
5797.5223587850005,1007.08997
5797.553700337,1007.08997
5797.58504189,1007.08997
5797.616383443001,1007.11
5797.647724996001,1007.11
5797.679066548,1007.11
5797.710408101,1007.11
5797.741749654,1007.11
5797.773091206001,1007.11
5797.8044327590005,1007.1
5797.8357743120005,1007.1
5797.867115865,1007.1
5797.898457417,1007.1
5797.929798970001,1007.1
5797.961140523001,1007.1
5797.992482076001,1007.1
5798.023823628,1007.1
5798.055165181,1007.1
5798.086506734,1007.08997
5798.117848287,1007.08997
5798.149189839,1007.08997
5798.180531392,1007.08997
5798.211872945,1007.08997
5798.24318398,1007.08997
5798.274525533,1007.08997
5798.3058670850005,1007.08997
5798.337208638,1007.08997
5798.368550191,1007.08997
5798.399891744,1007.08997
5798.431233296001,1007.07996
5798.462574849001,1007.07996
5798.493916402001,1007.07996
5798.525257955001,1007.07996
5798.556599507,1007.07996
5798.58794106,1007.07996
5798.619282613,1007.07996
5798.650624165,1007.07996
5798.681965718,1007.07996
5798.713307271,1007.07996
5798.744648824,1007.07996
5798.775990376001,1007.07996
5798.807331929001,1007.1
5798.838673482001,1007.1
5798.8700150350005,1007.1
5798.901356587,1007.1
5798.93269814,1007.1
5798.964039693001,1007.1
5798.995381246001,1007.08997
5799.026722798,1007.08997
5799.058033833,1007.08997
5799.089222798,1007.08997
5799.120411763,1007.08997
5799.151600728001,1007.08997
5799.182789693001,1007.08997
5799.213978658,1007.08997
5799.245167622001,1007.08997
5799.276356587,1007.07996
5799.307545552,1007.07996
5799.338734517,1007.07996
5799.369923482001,1007.07996
5799.401112447001,1007.07996
5799.432301412,1007.07996
5799.463490376001,1007.07996
5799.494679341,1007.07996
5799.525868306,1007.07996
5799.557057271,1007.07996
5799.5882462360005,1007.07996
5799.619435201001,1007.07996
5799.650624165,1007.07
5799.681813130001,1007.07
5799.713002095001,1007.07
5799.74419106,1007.07
5799.775380025,1007.07
5799.80656899,1007.1
5799.837757955001,1007.1
5799.868946919,1007.1
5799.9001358840005,1007.1
5799.931324849001,1007.08997
5799.962513814,1007.08997
5799.993702779,1007.08997
5800.024891744,1007.08997
5800.056080708,1007.08997
5800.087269673,1007.08997
5800.118458638,1007.08997
5800.149647603001,1007.08997
5800.180836568001,1007.07996
5800.212025533,1007.07996
5800.243214497001,1007.07996
5800.274403462,1007.07996
5800.305592427,1007.07996
5800.336781392,1007.07996
5800.367970357001,1007.07996
5800.399159322001,1007.07996
5800.430348287,1007.07996
5800.461537251001,1007.07996
5800.492726216,1007.07996
5800.523915181,1007.07996
5800.555104146,1007.07996
5800.5862931110005,1007.07996
5800.617482076001,1007.07996
5800.64867104,1007.07
5800.679860005001,1007.07
5800.711048970001,1007.07
5800.742237935,1007.07
5800.7734269,1007.07
5800.804615865,1007.07
5800.835804830001,1007.07
5800.866993794,1007.07
5800.8981827590005,1007.07
5800.929371724001,1007.08997
5800.960560689,1007.08997
5800.991749654,1007.08997
5801.022938619,1007.08997
5801.054127583,1007.08997
5801.085316548,1007.08997
5801.116505513,1007.08997
5801.147694478001,1007.08997
5801.178883443001,1007.08997
5801.210072408,1007.08997
5801.241261372001,1007.08997
5801.272450337,1007.08997
5801.303639302,1007.08997
5801.334828267,1007.08997
5801.366017232001,1007.08997
5801.397206197001,1007.07996
5801.428395162,1007.07996
5801.459584126001,1007.07996
5801.490773091,1007.07996
5801.521962056,1007.07996
5801.553151021,1007.07996
5801.5843399860005,1007.07996
5801.615528951001,1007.07996
5801.646717915,1007.07996
5801.677906880001,1007.07996
5801.709095845001,1007.07996
5801.74028481,1007.07996
5801.771473775,1007.07996
5801.80266274,1007.07996
5801.833851705001,1007.07996
5801.865040669,1007.07996
5801.8962296340005,1007.07996
5801.927418599001,1007.1
5801.958607564,1007.1
5801.989796529,1007.1
5802.020985494,1007.1
5802.052174458,1007.1
5802.083363423,1007.1
5802.114552388,1007.1
5802.145741353001,1007.1
5802.176930318001,1007.1
5802.208119283,1007.08997
5802.239308247001,1007.08997
5802.270497212,1007.08997
5802.301686177,1007.08997
5802.332875142,1007.08997
5802.364064107001,1007.08997
5802.395253072001,1007.08997
5802.426442037,1007.08997
5802.457631001001,1007.08997
5802.488819966,1007.07996
5802.520008931,1007.07996
5802.551197896,1007.07996
5802.5823868610005,1007.07996
5802.613575826001,1007.07996
5802.64476479,1007.07996
5802.675953755001,1007.07996
5802.707142720001,1007.07996
5802.738331685,1007.07996
5802.76952065,1007.07996
5802.800709615,1007.07996
5802.831898580001,1007.07996
5802.863087544,1007.07
5802.8942765090005,1007.07
5802.925465474001,1007.07
5802.956654439,1007.1
5802.987843404,1007.1
5803.019032369,1007.1
5803.050221333,1007.08997
5803.081410298,1007.08997
5803.112599263,1007.08997
5803.143788228001,1007.08997
5803.174977193001,1007.08997
5803.206166158,1007.08997
5803.237355122001,1007.07996
5803.268544087,1007.07996
5803.299733052,1007.07996
5803.330922017,1007.07996
5803.362110982001,1007.07996
5803.393299947001,1007.07996
5803.424488912,1007.07996
5803.455677876001,1007.07996
5803.486866841,1007.07996
5803.518055806,1007.07996
5803.549244771,1007.07996
5803.5804337360005,1007.07
5803.611622701001,1007.07
5803.642811665,1007.07
5803.674000630001,1007.07
5803.705189595001,1007.07
5803.73637856,1007.07
5803.767567525,1007.07
5803.79875649,1007.07
5803.829945455001,1007.07
5803.861134419,1007.06
5803.8923233840005,1007.06
5803.923512349001,1007.06
5803.954701314,1007.08997
5803.985890279,1007.08997
5804.017079244,1007.08997
5804.048268208,1007.08997
5804.079457173,1007.08997
5804.110646138,1007.08997
5804.141835103001,1007.07996
5804.173024068001,1007.07996
5804.204213033,1007.07996
5804.235401997001,1007.07996
5804.266590962,1007.07996
5804.297779927,1007.07996
5804.328968892,1007.07996
5804.360157857001,1007.07996
5804.391346822001,1007.07996
5804.422535787,1007.07996
5804.453724751001,1007.07996
5804.484913716,1007.07996
5804.516102681,1007.07996
5804.547291646,1007.07996
5804.5784806110005,1007.07996
5804.609669576001,1007.07
5804.64085854,1007.07
5804.672047505001,1007.07
5804.703236470001,1007.07
5804.734425435,1007.07
5804.7656144,1007.07
5804.796803365,1007.07
5804.827992330001,1007.07
5804.859181294,1007.07
5804.8903702590005,1007.07
5804.921559224001,1007.07
5804.952748189,1007.07
5804.983937154,1007.07
5805.015126119,1007.07
5805.046315083,1007.07
5805.077504048,1007.06
5805.108693013,1007.06
5805.139881978001,1007.12
5805.171070943001,1007.12
5805.202259908,1007.12
5805.233448872001,1007.12
5805.264637837,1007.12
5805.295826802,1007.12
5805.327015767,1007.12
5805.358204732001,1007.12
5805.389393697001,1007.12
5805.420582662,1007.11
5805.451774563,1007.11
5805.482963528,1007.11
5805.514152493,1007.11
5805.545341458001,1007.11
5805.576530423001,1007.11
5805.607719388,1007.11
5805.638908352001,1007.11
5805.670097317,1007.11
5805.701286282,1007.11
5805.732475247,1007.11
5805.763664212001,1007.11
5805.794853177001,1007.11
5805.826042142,1007.11
5805.857231106001,1007.11
5805.888420071,1007.1
5805.919609036,1007.1
5805.950798001,1007.1
5805.9819869660005,1007.1
5806.013175931001,1007.1
5806.044364895,1007.1
5806.075553860001,1007.1
5806.106742825001,1007.1
5806.13793179,1007.1
5806.169120755,1007.08997
5806.20030972,1007.08997
5806.231498684,1007.08997
5806.262687649,1007.08997
5806.2938766140005,1007.08997
5806.325065579001,1007.08997
5806.356254544,1007.08997
5806.387443509,1007.08997
5806.418632474,1007.08997
5806.449821438,1007.08997
5806.481010403,1007.08997
5806.512199368,1007.11
5806.543388333001,1007.11
5806.574577298001,1007.11
5806.605766263,1007.11
5806.636955227001,1007.11
5806.668144192,1007.11
5806.699333157,1007.11
5806.730522122,1007.11
5806.761711087001,1007.11
5806.792900052001,1007.1
5806.824089017,1007.1
5806.855277981001,1007.1
5806.886466946,1007.1
5806.917655911,1007.1
5806.948844876,1007.1
5806.9800338410005,1007.1
5807.011222806001,1007.08997
5807.04241177,1007.08997
5807.073600735001,1007.08997
5807.104789700001,1007.08997
5807.135978665,1007.08997
5807.16716763,1007.08997
5807.198356595,1007.08997
5807.229545559,1007.08997
5807.260734524,1007.08997
5807.2919234890005,1007.08997
5807.323112454001,1007.08997
5807.354301419,1007.08997
5807.385490384,1007.08997
5807.416679349,1007.08997
5807.447868313,1007.08997
5807.479057278,1007.08997
5807.510246243,1007.08997
5807.541435208001,1007.08997
5807.572624173001,1007.08997
5807.603813138,1007.08997
5807.635002102001,1007.07996
5807.666191067,1007.07996
5807.697380032,1007.07996
5807.728568997,1007.07996
5807.759757962001,1007.07996
5807.790946927001,1007.07996
5807.822135892,1007.07996
5807.853324856001,1007.07996
5807.884513821,1007.07996
5807.915702786,1007.07996
5807.946891751,1007.07996
5807.9780807160005,1007.07996
5808.009269681001,1007.07996
5808.040458645,1007.07996
5808.071647610001,1007.07996
5808.102836575001,1007.07996
5808.13402554,1007.07996
5808.165214505,1007.07996
5808.19640347,1007.07996
5808.227592434,1007.07996
5808.258781399,1007.07996
5808.2899703640005,1007.1
5808.321159329001,1007.1
5808.352348294,1007.1
5808.383537259,1007.1
5808.414726224,1007.1
5808.445915188,1007.1
5808.477104153,1007.1
5808.508293118,1007.1
5808.539482083001,1007.1
5808.570671048001,1007.1
5808.601860013,1007.1
5808.633048977001,1007.1
5808.664237942,1007.1
5808.695426907,1007.1
5808.726615872,1007.1
5808.757804837001,1007.1
5808.788993802001,1007.1
5808.820182767,1007.1
5808.851371731001,1007.1
5808.882560696,1007.1
5808.913749661,1007.1
5808.944938626,1007.1
5808.9761275910005,1007.1
5809.007316556001,1007.1
5809.03850552,1007.1
5809.069694485001,1007.1
5809.100883450001,1007.1
5809.132072415,1007.1
5809.16326138,1007.1
5809.194450345,1007.1
5809.225639309,1007.1
5809.256828274,1007.1
5809.2880172390005,1007.08997
5809.319206204001,1007.08997
5809.350395169,1007.08997
5809.381584134,1007.08997
5809.412773099,1007.08997
5809.443962063,1007.08997
5809.475151028,1007.08997
5809.506339993,1007.08997
5809.537528958001,1007.08997
5809.568717923001,1007.08997
5809.599906888,1007.08997
5809.631095852001,1007.08997
5809.662284817,1007.08997
5809.693473782,1007.08997
5809.724662747,1007.08997
5809.755851712001,1007.08997
5809.787040677001,1007.08997
5809.818229642,1007.08997
5809.849418606001,1007.08997
5809.880607571,1007.08997
5809.911796536,1007.08997
5809.942985501,1007.12
5809.9741744660005,1007.12
5810.005363431001,1007.12
5810.036552395,1007.11
5810.067741360001,1007.11
5810.098930325001,1007.11
5810.13011929,1007.11
5810.161308255,1007.11
5810.19249722,1007.11
5810.223686184,1007.11
5810.254875149,1007.11
5810.2860641140005,1007.11
5810.317253079001,1007.11
5810.348442044,1007.11
5810.379631009,1007.11
5810.410819974,1007.11
5810.442008938,1007.11
5810.473197903,1007.11
5810.504386868,1007.11
5810.535575833001,1007.11
5810.566764798001,1007.11
5810.597953763,1007.11
5810.629142727001,1007.11
5810.660331692,1007.11
5810.691520657,1007.11
5810.722709622,1007.11
5810.753898587001,1007.11
5810.785087552001,1007.11
5810.816276517,1007.11
5810.847465481001,1007.11
5810.878654446,1007.11
5810.909843411,1007.11
5810.941032376,1007.11
5810.9722213410005,1007.11
5811.003410306001,1007.11
5811.03459927,1007.11
5811.065788235001,1007.11
5811.096977200001,1007.11
5811.128166165,1007.11
5811.15935513,1007.11
5811.190544095,1007.11
5811.221733059,1007.1
5811.252922024,1007.1
5811.2841109890005,1007.1
5811.315299954001,1007.1
5811.346488919,1007.1
5811.377677884,1007.1
5811.408866849,1007.1
5811.440055813,1007.1
5811.471244778,1007.1
5811.502433743,1007.1
5811.533622708001,1007.1
5811.564811673001,1007.1
5811.596000638,1007.1
5811.627189602001,1007.1
5811.658378567,1007.1
5811.689567532,1007.1
5811.720756497,1007.1
5811.751945462001,1007.08997
5811.783134427001,1007.08997
5811.814323392,1007.08997
5811.845512356001,1007.08997
5811.876701321,1007.08997
5811.907890286,1007.08997
5811.939079251,1007.08997
5811.9702682160005,1007.08997
5812.001457181001,1007.08997
5812.032646145,1007.08997
5812.063835110001,1007.08997
5812.095024075001,1007.08997
5812.12621304,1007.08997
5812.157402005,1007.08997
5812.18859097,1007.08997
5812.219779934,1007.11
5812.250968899,1007.11
5812.2821578640005,1007.11
5812.313346829001,1007.11
5812.344535794,1007.11
5812.375724759,1007.11
5812.406913724,1007.11
5812.438102688,1007.11
5812.469291653,1007.11
5812.500480618,1007.11
5812.531669583001,1007.11
5812.562858548001,1007.11
5812.594047513,1007.1
5812.625236477001,1007.1
5812.656425442,1007.1
5812.687614407,1007.1
5812.718803372,1007.1
5812.749992337001,1007.1
5812.781181302001,1007.1
5812.812370267,1007.1
5812.843559231001,1007.1
5812.874748196,1007.1
5812.905937161,1007.1
5812.937126126,1007.1
5812.9683150910005,1007.08997
5812.999504056001,1007.08997
5813.03069302,1007.08997
5813.061881985001,1007.08997
5813.093070950001,1007.08997
5813.124259915,1007.08997
5813.15544888,1007.08997
5813.186637845,1007.08997
5813.217826809,1007.08997
5813.249015774,1007.08997
5813.2802047390005,1007.08997
5813.311393704001,1007.08997
5813.342582669,1007.08997
5813.373771634,1007.08997
5813.404960599,1007.07996
5813.436149563,1007.07996
5813.467338528,1007.07996
5813.498527493,1007.07996
5813.529716458001,1007.07996
5813.560905423001,1007.07996
5813.592094388,1007.07996
5813.623283352001,1007.07996
5813.654472317,1007.07996
5813.685661282,1007.07996
5813.716850247,1007.07996
5813.748039212001,1007.07996
5813.779228177001,1007.07996
5813.810417142,1007.07996
5813.841606106001,1007.07996
5813.872795071,1007.07
5813.903984036,1007.07
5813.935173001,1007.07
5813.9663619660005,1007.07
5813.997550931001,1007.07
5814.028739895,1007.07
5814.059928860001,1007.07
5814.091117825001,1007.07
5814.12230679,1007.07
5814.153495755,1007.07
5814.18468472,1007.07
5814.215873684,1007.07
5814.247062649,1007.07
5814.2782516140005,1007.07
5814.309440579001,1007.07
5814.340629544,1007.07
5814.371818509,1007.07
5814.403007474,1007.07
5814.434196438,1007.07
5814.465385403,1007.07
5814.496574368,1007.06
5814.527763333001,1007.06
5814.558952298001,1007.06
5814.590141263,1007.06
5814.621330227001,1007.06
5814.652519192,1007.06
5814.683708157,1007.06
5814.714897122,1007.06
5814.746086087001,1007.06
5814.777275052001,1007.08997
5814.808464017,1007.08997
5814.839652981001,1007.08997
5814.870841946,1007.08997
5814.902030911,1007.08997
5814.933219876,1007.08997
5814.9644088410005,1007.08997
5814.995597806001,1007.07996
5815.02678677,1007.07996
5815.057975735001,1007.07996
5815.089164700001,1007.07996
5815.120353665,1007.07996
5815.15154263,1007.07996
5815.182731595,1007.07996
5815.213920559,1007.07996
5815.245109524,1007.07996
5815.2762984890005,1007.07996
5815.307487454001,1007.07996
5815.338676419,1007.07996
5815.369865384,1007.07996
5815.401054349,1007.07996
5815.432243313,1007.07996
5815.463435497,1007.07996
5815.4946244620005,1007.07996
5815.525813427001,1007.07996
5815.557002392,1007.07996
5815.588191357,1007.07996
5815.619380321001,1007.07996
5815.650569286,1007.07996
5815.681758251,1007.07996
5815.712947216,1007.07996
5815.744136181001,1007.07996
5815.775325146001,1007.07996
5815.806514111,1007.07996
5815.837703075001,1007.07996
5815.86889204,1007.07996
5815.900081005,1007.07996
5815.93126997,1007.07996
5815.9624589350005,1007.07996
5815.993647900001,1007.07996
5816.0248368640005,1007.07996
5816.056025829001,1007.07996
5816.087214794,1007.07996
5816.118403759,1007.07996
5816.149592724,1007.07996
5816.1807816890005,1007.07996
5816.211970653,1007.07996
5816.243159618,1007.07996
5816.274348583001,1007.07996
5816.305537548001,1007.07996
5816.336726513,1007.07996
5816.367915478,1007.07
5816.399104443,1007.07
5816.430293407,1007.07
5816.461482372,1007.07
5816.4926713370005,1007.07
5816.523860302001,1007.07
5816.555049267,1007.07
5816.586238232,1007.07
5816.617427196001,1007.07
5816.648616161,1007.07
5816.679805126,1007.07
5816.710994091,1007.07
5816.742183056001,1007.07
5816.773372021001,1007.07
5816.804560986,1007.07
5816.835749950001,1007.07
5816.866938915,1007.07
5816.89812788,1007.07
5816.929316845,1007.07
5816.9605058100005,1007.07
5816.991694775001,1007.07
5817.0228837390005,1007.07
5817.054072704001,1007.07
5817.085261669,1007.07
5817.116450634,1007.07
5817.147639599,1007.07
5817.1788285640005,1007.07
5817.210017528,1007.07
5817.241206493,1007.07
5817.272395458001,1007.07
5817.303584423001,1007.07
5817.334773388,1007.07
5817.365962353,1007.07
5817.397151318,1007.07
5817.428340282,1007.07
5817.459529247,1007.07
5817.4907182120005,1007.07
5817.521907177001,1007.07
5817.553096142,1007.07
5817.584285107,1007.07
5817.615474071001,1007.07
5817.646663036,1007.06
5817.677852001,1007.06
5817.709040966,1007.06
5817.740229931001,1007.08997
5817.771418896001,1007.08997
5817.802607861,1007.08997
5817.833796825001,1007.08997
5817.86498579,1007.08997
5817.896174755,1007.08997
5817.92736372,1007.08997
5817.9585526850005,1007.08997
5817.989741650001,1007.08997
5818.0209306140005,1007.08997
5818.052119579001,1007.08997
5818.083308544,1007.08997
5818.114497509,1007.08997
5818.145686474,1007.08997
5818.1768754390005,1007.08997
5818.208064403,1007.08997
5818.239253368,1007.08997
5818.270442333001,1007.08997
5818.301631298001,1007.08997
5818.332820263,1007.08997
5818.364009228,1007.08997
5818.395198193,1007.08997
5818.426387157,1007.08997
5818.457576122,1007.07996
5818.4887650870005,1007.07996
5818.519954052001,1007.07996
5818.551143017,1007.07996
5818.582331982,1007.07996
5818.613520946001,1007.07996
5818.644709911,1007.07996
5818.675898876,1007.07996
5818.707087841,1007.07996
5818.738276806001,1007.07996
5818.769465771001,1007.07996
5818.800654736,1007.07996
5818.831843700001,1007.07996
5818.863032665,1007.07996
5818.89422163,1007.07996
5818.925410595,1007.07996
5818.9565995600005,1007.07996
5818.987788525001,1007.07996
5819.0189774890005,1007.07996
5819.050166454001,1007.07996
5819.081355419,1007.07996
5819.112544384,1007.07996
5819.143733349,1007.07996
5819.1749223140005,1007.07996
5819.206111278,1007.07996
5819.237300243,1007.07996
5819.268489208001,1007.07996
5819.299678173001,1007.07996
5819.330867138,1007.07996
5819.362056103,1007.07996
5819.393245068,1007.07996
5819.424434032,1007.07996
5819.455622997,1007.07996
5819.4868119620005,1007.07996
5819.518000927001,1007.07996
5819.549189892,1007.07996
5819.580378857,1007.07996
5819.611567821001,1007.07996
5819.642756786,1007.07996
5819.673945751,1007.07
5819.705134716,1007.07
5819.736323681001,1007.07
5819.767512646001,1007.07
5819.798701611,1007.07
5819.829890575001,1007.07
5819.86107954,1007.07
5819.892268505,1007.07
5819.92345747,1007.07
5819.9546464350005,1007.07
5819.985835400001,1007.07
5820.0170243640005,1007.07
5820.048213329001,1007.07
5820.079402294,1007.07
5820.110591259,1007.07
5820.141780224,1007.07
5820.1729691890005,1007.07
5820.204158153,1007.07
5820.235347118,1007.07
5820.266536083001,1007.07
5820.297725048001,1007.07
5820.328914013,1007.07
5820.360102978,1007.07
5820.391291943,1007.1
5820.422480907,1007.1
5820.453669872,1007.1
5820.4848588370005,1007.1
5820.516047802001,1007.1
5820.547236767,1007.1
5820.578425732,1007.1
5820.609614696001,1007.1
5820.640803661,1007.1
5820.671992626,1007.1
5820.703181591,1007.1
5820.734370556001,1007.1
5820.765559521001,1007.1
5820.796748486,1007.1
5820.827937450001,1007.1
5820.859126415,1007.08997
5820.89031538,1007.08997
5820.921504345,1007.08997
5820.9526933100005,1007.08997
5820.983882275001,1007.08997
5821.0150712390005,1007.08997
5821.046260204001,1007.08997
5821.077449169,1007.08997
5821.108638134,1007.08997
5821.139827099,1007.08997
5821.1710160640005,1007.08997
5821.202205028,1007.08997
5821.233393993,1007.08997
5821.264582958001,1007.08997
5821.295771923001,1007.08997
5821.326960888,1007.08997
5821.358149853,1007.08997
5821.389338818,1007.08997
5821.420527782,1007.08997
5821.451716747,1007.08997
5821.4829057120005,1007.08997
5821.514094677001,1007.08997
5821.545283642,1007.08997
5821.576472607,1007.08997
5821.607661571001,1007.08997
5821.638850536,1007.08997
5821.670039501,1007.08997
5821.701228466,1007.08997
5821.732417431001,1007.08997
5821.763606396001,1007.08997
5821.794795361,1007.08997
5821.825984325001,1007.08997
5821.85717329,1007.07996
5821.888362255,1007.07996
5821.91955122,1007.07996
5821.9507401850005,1007.07996
5821.981929150001,1007.07996
5822.0131181140005,1007.07996
5822.044307079001,1007.07996
5822.075496044,1007.07996
5822.106685009,1007.07996
5822.137873974,1007.07996
5822.1690629390005,1007.07996
5822.200251903,1007.07996
5822.231440868,1007.07996
5822.262629833001,1007.07996
5822.293818798001,1007.07996
5822.325007763,1007.07996
5822.356196728,1007.07996
5822.387385693,1007.07996
5822.418574657,1007.07996
5822.449763622,1007.07996
5822.4809525870005,1007.07996
5822.512141552001,1007.07996
5822.543330517,1007.07996
5822.574519482,1007.07996
5822.605708446001,1007.07996
5822.636897411,1007.07996
5822.668086376,1007.07996
5822.699275341,1007.07996
5822.730464306001,1007.07996
5822.761653271001,1007.07996
5822.792842236,1007.07996
5822.824031200001,1007.07996
5822.855220165,1007.07996
5822.88640913,1007.07996
5822.917598095,1007.07996
5822.9487870600005,1007.07996
5822.979976025001,1007.07
5823.0111649890005,1007.07
5823.042353954001,1007.07
5823.073542919,1007.07
5823.104731884,1007.07
5823.135920849,1007.1
5823.1671098140005,1007.1
5823.198298778,1007.1
5823.229487743,1007.1
5823.260676708001,1007.1
5823.291865673001,1007.1
5823.323054638,1007.1
5823.354243603,1007.1
5823.385432568,1007.1
5823.416621532,1007.1
5823.447810497,1007.1
5823.4789994620005,1007.1
5823.510188427001,1007.1
5823.541377392,1007.1
5823.572566357,1007.1
5823.603755321001,1007.1
5823.634944286,1007.1
5823.666133251,1007.1
5823.697322216,1007.1
5823.728511181001,1007.1
5823.759700146001,1007.1
5823.790889111,1007.08997
5823.822078075001,1007.08997
5823.85326704,1007.08997
5823.884456005,1007.08997
5823.91564497,1007.08997
5823.9468339350005,1007.08997
5823.978022900001,1007.08997
5824.0092118640005,1007.08997
5824.040400829001,1007.08997
5824.071589794,1007.08997
5824.102778759,1007.08997
5824.133967724,1007.08997
5824.1651566890005,1007.07996
5824.196345653,1007.07996
5824.227534618,1007.07996
5824.258723583001,1007.07996
5824.289912548001,1007.07996
5824.321101513,1007.07996
5824.352290478,1007.07996
5824.383479443,1007.07996
5824.414668407,1007.07996
5824.445857372,1007.07996
5824.4770463370005,1007.07996
5824.508235302001,1007.07996
5824.539424267,1007.07996
5824.570613232,1007.07996
5824.601802196001,1007.07996
5824.632991161,1007.07996
5824.664180126,1007.07996
5824.695369091,1007.07996
5824.726558056001,1007.07
5824.757747021001,1007.07
5824.788935986,1007.13
5824.820124950001,1007.13
5824.851313915,1007.13
5824.88250288,1007.13
5824.913691845,1007.13
5824.9448808100005,1007.13
5824.976069775001,1007.13
5825.0072587390005,1007.13
5825.038447704001,1007.13
5825.069636669,1007.12
5825.100825634,1007.12
5825.132014599,1007.12
5825.1632035640005,1007.12
5825.194392528,1007.12
5825.225581493,1007.12
5825.256770458001,1007.12
5825.287959423001,1007.12
5825.319148388,1007.12
5825.350337353,1007.12
5825.381526318,1007.12
5825.412715282,1007.12
5825.443900131,1007.11
5825.475089096,1007.11
5825.506278061001,1007.11
5825.537467026001,1007.11
5825.568655991,1007.11
5825.599844955001,1007.11
5825.63103392,1007.11
5825.662222885,1007.11
5825.69341185,1007.11
5825.7246008150005,1007.11
5825.755789780001,1007.11
5825.786978745,1007.11
5825.818167709001,1007.11
5825.849356674001,1007.11
5825.880545639,1007.11
5825.911734604,1007.1
5825.942923569,1007.1
5825.974112534001,1007.1
5826.005301498,1007.13
5826.0364904630005,1007.13
5826.067679428001,1007.13
5826.098868393,1007.13
5826.130057358,1007.13
5826.161246323,1007.12
5826.192435287,1007.12
5826.223624252,1007.12
5826.254813217,1007.12
5826.286002182001,1007.12
5826.317191147001,1007.12
5826.348380112,1007.12
5826.379569077,1007.11
5826.410758041,1007.11
5826.441947006,1007.11
5826.473135971,1007.11
5826.504324936001,1007.11
5826.535513901001,1007.11
5826.566702866,1007.11
5826.597891830001,1007.11
5826.629080795,1007.11
5826.66026976,1007.11
5826.691458725,1007.11
5826.7226476900005,1007.1
5826.753836655001,1007.1
5826.78502562,1007.1
5826.816214584001,1007.1
5826.847403549001,1007.1
5826.878592514,1007.1
5826.909781479,1007.1
5826.940970444,1007.1
5826.972159409001,1007.1
5827.003348373,1007.1
5827.0345373380005,1007.1
5827.065726303001,1007.1
5827.096915268,1007.12
5827.128104233,1007.12
5827.159293198,1007.12
5827.190482162,1007.12
5827.221671127,1007.12
5827.252860092,1007.12
5827.284049057001,1007.11
5827.315238022001,1007.11
5827.346426987,1007.11
5827.377615952,1007.11
5827.408804916,1007.11
5827.439993881,1007.11
5827.471182846,1007.11
5827.502371811001,1007.11
5827.533560776001,1007.11
5827.564749741,1007.11
5827.595938705001,1007.11
5827.62712767,1007.11
5827.658316635,1007.11
5827.6895056,1007.11
5827.7206945650005,1007.11
5827.751883530001,1007.11
5827.783072495,1007.11
5827.814261459001,1007.1
5827.845450424001,1007.1
5827.876639389,1007.1
5827.907828354,1007.1
5827.939017319,1007.1
5827.970206284001,1007.1
5828.001395248,1007.1
5828.0325842130005,1007.1
5828.063773178001,1007.1
5828.094962143,1007.1
5828.126151108,1007.1
5828.157340073,1007.1
5828.188529037,1007.1
5828.219718002,1007.1
5828.250906967,1007.1
5828.282095932001,1007.1
5828.313284897001,1007.1
5828.344473862,1007.1
5828.375662827,1007.08997
5828.406851791,1007.08997
5828.438040756,1007.08997
5828.469229721,1007.08997
5828.500418686001,1007.08997
5828.531607651001,1007.08997
5828.562796616,1007.08997
5828.593985580001,1007.08997
5828.625174545,1007.08997
5828.65636351,1007.08997
5828.687552475,1007.08997
5828.7187414400005,1007.08997
5828.749930405001,1007.12
5828.78111937,1007.12
5828.812308334001,1007.12
5828.843497299001,1007.11
5828.874686264,1007.11
5828.905875229,1007.11
5828.937064194,1007.11
5828.968253159001,1007.11
5828.999442123,1007.11
5829.0306310880005,1007.11
5829.061820053001,1007.11
5829.093009018,1007.11
5829.124197983,1007.11
5829.155386948,1007.11
5829.186575912,1007.11
5829.217764877,1007.11
5829.248953842,1007.11
5829.280142807001,1007.11
5829.311331772001,1007.11
5829.342520737,1007.11
5829.373709702,1007.11
5829.404898666,1007.11
5829.436087631,1007.11
5829.467276596,1007.1
5829.498465561001,1007.1
5829.529654526001,1007.1
5829.560843491,1007.1
5829.592032455001,1007.1
5829.62322142,1007.1
5829.654410385,1007.1
5829.68559935,1007.11
5829.7167883150005,1007.11
5829.747977280001,1007.1
5829.779166245,1007.1
5829.810355209001,1007.1
5829.841544174001,1007.1
5829.872733139,1007.1
5829.903922104,1007.1
5829.935111069,1007.1
5829.966300034001,1007.1
5829.997488998,1007.1
5830.0286779630005,1007.1
5830.059866928001,1007.1
5830.091055893,1007.1
5830.122244858,1007.1
5830.153433823,1007.1
5830.184622787,1007.1
5830.215811752,1007.1
5830.247000717,1007.1
5830.278189682001,1007.1
5830.309378647001,1007.1
5830.340567612,1007.1
5830.371756577,1007.1
5830.402945541,1007.1
5830.434134506,1007.1
5830.465323471,1007.1
5830.496512436001,1007.1
5830.527701401001,1007.1
5830.558890366,1007.1
5830.590079330001,1007.08997
5830.621268295,1007.08997
5830.65245726,1007.08997
5830.683646225,1007.08997
5830.7148351900005,1007.08997
5830.746024155001,1007.08997
5830.77721312,1007.08997
5830.808402084001,1007.08997
5830.839591049001,1007.08997
5830.870780014,1007.08997
5830.901968979,1007.08997
5830.933157944,1007.08997
5830.964346909001,1007.08997
5830.995535873,1007.08997
5831.0267248380005,1007.08997
5831.057913803001,1007.08997
5831.089102768,1007.08997
5831.120291733,1007.08997
5831.151480698,1007.08997
5831.182669662,1007.08997
5831.213858627,1007.08997
5831.245047592,1007.08997
5831.276236557001,1007.08997
5831.307425522001,1007.08997
5831.338614487,1007.08997
5831.369803452,1007.08997
5831.400992416,1007.08997
5831.432181381,1007.08997
5831.463370346,1007.08997
5831.494559311001,1007.08997
5831.525748276001,1007.08997
5831.556937241,1007.08997
5831.588126205001,1007.08997
5831.61931517,1007.08997
5831.650504135,1007.08997
5831.6816931,1007.08997
5831.7128820650005,1007.12
5831.744071030001,1007.12
5831.775259995,1007.11
5831.806448959001,1007.11
5831.837637924001,1007.11
5831.868826889,1007.11
5831.900015854,1007.11
5831.931204819,1007.11
5831.962393784001,1007.11
5831.993582748,1007.11
5832.0247717130005,1007.11
5832.055960678001,1007.11
5832.087149643,1007.11
5832.118338608,1007.11
5832.149527573,1007.11
5832.180716537,1007.11
5832.211905502,1007.11
5832.243094467,1007.11
5832.274283432001,1007.11
5832.305472397001,1007.11
5832.336661362,1007.11
5832.367850327,1007.11
5832.399039291,1007.11
5832.430228256,1007.11
5832.461417221,1007.11
5832.492606186001,1007.11
5832.523795151001,1007.11
5832.554984116,1007.11
5832.586173080001,1007.11
5832.617362045,1007.11
5832.64855101,1007.11
5832.679739975,1007.11
5832.7109289400005,1007.11
5832.742117905001,1007.11
5832.77330687,1007.11
5832.804495834001,1007.11
5832.835684799001,1007.11
5832.866873764,1007.11
5832.898062729,1007.11
5832.929251694,1007.11
5832.960440659001,1007.11
5832.991629623,1007.11
5833.0228185880005,1007.11
5833.054007553001,1007.11
5833.085196518,1007.11
5833.116385483,1007.11
5833.147574448,1007.1
5833.178763412,1007.1
5833.209952377,1007.1
5833.241141342,1007.1
5833.272330307001,1007.1
5833.303519272001,1007.1
5833.334708237,1007.1
5833.365897202,1007.11
5833.397086166,1007.11
5833.428275131,1007.1
5833.459464096,1007.1
5833.490653061001,1007.1
5833.521842026001,1007.1
5833.553030991,1007.1
5833.584219955001,1007.1
5833.61540892,1007.1
5833.646597885,1007.1
5833.67778685,1007.1
5833.7089758150005,1007.1
5833.740164780001,1007.1
5833.771353745,1007.1
5833.802542709001,1007.1
5833.833731674001,1007.1
5833.864920639,1007.1
5833.896109604,1007.1
5833.927298569,1007.1
5833.958487534001,1007.1
5833.989676498,1007.11
5834.0208654630005,1007.11
5834.052054428001,1007.11
5834.083243393,1007.11
5834.114432358,1007.11
5834.145621323,1007.11
5834.176810287,1007.11
5834.207999252,1007.11
5834.239188217,1007.11
5834.270377182001,1007.1
5834.301566147001,1007.1
5834.332755112,1007.1
5834.363944077,1007.1
5834.395133041,1007.1
5834.426322006,1007.1
5834.457510971,1007.1
5834.488699936001,1007.1
5834.519888901001,1007.1
5834.551077866,1007.1
5834.582266830001,1007.1
5834.613455795,1007.1
5834.64464476,1007.1
5834.675833725,1007.1
5834.7070226900005,1007.1
5834.738211655001,1007.1
5834.76940062,1007.1
5834.800589584001,1007.1
5834.831778549001,1007.1
5834.862967514,1007.1
5834.894156479,1007.1
5834.925345444,1007.1
5834.956534409001,1007.1
5834.987723373,1007.1
5835.0189123380005,1007.1
5835.050101303001,1007.1
5835.081290268,1007.1
5835.112479233,1007.1
5835.143668198,1007.1
5835.174857162,1007.1
5835.206046127,1007.1
5835.237235092,1007.1
5835.268424057001,1007.1
5835.299613022001,1007.1
5835.330801987,1007.1
5835.361990952,1007.1
5835.393179916,1007.1
5835.424368881,1007.1
5835.45555486,1007.1
5835.486743825,1007.1
5835.5179327900005,1007.1
5835.549121755001,1007.1
5835.580310719,1007.1
5835.611499684001,1007.1
5835.642688649001,1007.1
5835.673877614,1007.1
5835.705066579,1007.1
5835.736255544,1007.1
5835.767444509001,1007.1
5835.798633473,1007.1
5835.8298224380005,1007.1
5835.861011403001,1007.1
5835.892200368,1007.1
5835.923389333,1007.1
5835.954578298,1007.1
5835.985767262,1007.1
5836.016956227,1007.1
5836.048145192,1007.1
5836.079334157001,1007.1
5836.110523122001,1007.1
5836.141712087,1007.1
5836.172901051001,1007.1
5836.204090016,1007.1
5836.235278981,1007.1
5836.266467946,1007.1
5836.297656911001,1007.1
5836.328845876001,1007.1
5836.360034841,1007.1
5836.391223805001,1007.1
5836.42241277,1007.1
5836.453601735,1007.1
5836.4847907,1007.1
5836.5159796650005,1007.1
5836.547168630001,1007.1
5836.578357594,1007.1
5836.609546559001,1007.1
5836.640735524001,1007.1
5836.671924489,1007.1
5836.703113454,1007.1
5836.734302419,1007.1
5836.765491384001,1007.1
5836.796680348,1007.1
5836.8278693130005,1007.1
5836.859058278001,1007.1
5836.890247243,1007.1
5836.921436208,1007.11
5836.952625173,1007.11
5836.983814137,1007.11
5837.015003102,1007.1
5837.046192067,1007.1
5837.077381032001,1007.1
5837.108569997001,1007.1
5837.139758962,1007.1
5837.170947926001,1007.1
5837.202136891,1007.1
5837.233325856,1007.1
5837.264514821,1007.1
5837.295703786001,1007.1
5837.326892751001,1007.1
5837.358081716,1007.11
5837.389270680001,1007.11
5837.420459645,1007.11
5837.45164861,1007.11
5837.482837575,1007.11
5837.5140265400005,1007.11
5837.545215505001,1007.11
5837.576404469,1007.1
5837.607593434001,1007.1
5837.638782399001,1007.1
5837.669971364,1007.1
5837.701160329,1007.1
5837.732349294,1007.1
5837.763538259001,1007.1
5837.794727223,1007.1
5837.8259161880005,1007.1
5837.857105153001,1007.1
5837.888294118,1007.1
5837.919483083,1007.1
5837.950672048,1007.1
5837.981861012,1007.1
5838.013049977,1007.1
5838.044238942,1007.1
5838.075427907001,1007.1
5838.106616872001,1007.1
5838.137805837,1007.1
5838.168994801001,1007.1
5838.200183766,1007.1
5838.231372731,1007.1
5838.262561696,1007.1
5838.293750661001,1007.1
5838.324939626001,1007.1
5838.356128591,1007.1
5838.387317555001,1007.1
5838.41850652,1007.1
5838.449695485,1007.1
5838.48088445,1007.1
5838.5120734150005,1007.1
5838.543262380001,1007.1
5838.574451344,1007.08997
5838.605640309001,1007.08997
5838.636829274001,1007.08997
5838.668018239,1007.08997
5838.699207204,1007.08997
5838.730396169,1007.1
5838.761585134001,1007.1
5838.792774098,1007.1
5838.8239630630005,1007.1
5838.855152028001,1007.1
5838.886340993,1007.1
5838.917529958,1007.1
5838.948718923,1007.1
5838.979907887,1007.1
5839.011096852,1007.1
5839.042285817,1007.1
5839.073474782001,1007.1
5839.104663747001,1007.1
5839.135852712,1007.1
5839.167041676001,1007.1
5839.198230641,1007.1
5839.229419606,1007.1
5839.260608571,1007.1
5839.291797536001,1007.1
5839.322986501001,1007.1
5839.354175466,1007.1
5839.385364430001,1007.08997
5839.416553395,1007.08997
5839.44774236,1007.08997
5839.478931325,1007.08997
5839.5101202900005,1007.08997
5839.541309255001,1007.08997
5839.572498219,1007.08997
5839.603687184001,1007.08997
5839.634876149001,1007.08997
5839.666065114,1007.08997
5839.697254079,1007.08997
5839.728443044,1007.08997
5839.759632009001,1007.08997
5839.790820973,1007.08997
5839.8220099380005,1007.08997
5839.853198903001,1007.08997
5839.884387868,1007.08997
5839.915576833,1007.08997
5839.946765798,1007.08997
5839.977954762,1007.08997
5840.009143727,1007.08997
5840.040332692,1007.08997
5840.071521657001,1007.08997
5840.102710622001,1007.08997
5840.133899587,1007.08997
5840.165088551001,1007.08997
5840.196277516,1007.08997
5840.227466481,1007.08997
5840.258655446,1007.08997
5840.289844411001,1007.08997
5840.321033376001,1007.08997
5840.352222341,1007.08997
5840.383411305001,1007.08997
5840.41460027,1007.08997
5840.445789235,1007.08997
5840.4769782,1007.08997
5840.5081671650005,1007.07996
5840.539356130001,1007.07996
5840.570545094,1007.07996
5840.601734059001,1007.07996
5840.632923024001,1007.07996
5840.664111989,1007.07996
5840.695300954,1007.07996
5840.726489919,1007.07996
5840.757678884001,1007.07996
5840.788867848,1007.07996
5840.8200568130005,1007.07996
5840.851245778001,1007.07996
5840.882434743,1007.07996
5840.913623708,1007.07996
5840.944812673,1007.07996
5840.976001637,1007.07996
5841.007190602,1007.07996
5841.038379567,1007.08997
5841.069568532001,1007.08997
5841.100757497001,1007.08997
5841.131946462,1007.07996
5841.163135426001,1007.07996
5841.194324391,1007.07996
5841.225513356,1007.07996
5841.256702321,1007.07996
5841.287891286001,1007.07996
5841.319080251001,1007.07996
5841.350269216,1007.07996
5841.381458180001,1007.07996
5841.412647145,1007.07996
5841.44383611,1007.07996
5841.475025075,1007.07996
5841.5062140400005,1007.07996
5841.537403005001,1007.07996
5841.568591969,1007.07996
5841.599780934001,1007.1
5841.630969899001,1007.1
5841.662158864,1007.1
5841.693347829,1007.1
5841.724536794,1007.1
5841.755725759001,1007.1
5841.786914723,1007.11
5841.8181036880005,1007.11
5841.849292653001,1007.11
5841.880481618,1007.07996
5841.911670583,1007.07996
5841.942859548,1007.07996
5841.974048512,1007.1
5842.005237477,1007.1
5842.036426442,1007.1
5842.067615407001,1007.1
5842.098804372001,1007.1
5842.129993337,1007.1
5842.161182301001,1007.1
5842.192371266,1007.1
5842.223560231,1007.1
5842.254749196,1007.1
5842.285938161001,1007.1
5842.317127126001,1007.1
5842.348316091,1007.1
5842.379505055001,1007.1
5842.41069402,1007.1
5842.441882985,1007.1
5842.47307195,1007.1
5842.5042609150005,1007.1
5842.535449880001,1007.1
5842.566638844,1007.1
5842.597827809001,1007.1
5842.629016774001,1007.1
5842.660205739,1007.1
5842.691394704,1007.1
5842.722583669,1007.1
5842.753772634001,1007.1
5842.784961598,1007.1
5842.8161505630005,1007.1
5842.847339528001,1007.1
5842.878528493,1007.1
5842.909717458,1007.1
5842.940906423,1007.1
5842.972095387,1007.1
5843.003284352,1007.1
5843.034473317,1007.1
5843.065662282001,1007.1
5843.096851247001,1007.1
5843.128040212,1007.1
5843.159229176001,1007.1
5843.190418141,1007.1
5843.221607106,1007.1
5843.252796071,1007.1
5843.283985036001,1007.1
5843.315174001001,1007.1
5843.346362966,1007.1
5843.377551930001,1007.1
5843.408740895,1007.1
5843.43992986,1007.1
5843.471118825,1007.1
5843.5023077900005,1007.1
5843.533496755001,1007.1
5843.564685719,1007.1
5843.595874684001,1007.1
5843.627063649001,1007.1
5843.658252614,1007.1
5843.689441579,1007.11
5843.720630544,1007.11
5843.751819509001,1007.11
5843.783008473,1007.11
5843.8141974380005,1007.11
5843.845386403001,1007.11
5843.876575368,1007.11
5843.907764333,1007.11
5843.938953298,1007.11
5843.970142262,1007.11
5844.001331227,1007.11
5844.032520192,1007.11
5844.063709157001,1007.11
5844.094898122001,1007.11
5844.126087087,1007.11
5844.157276051001,1007.11
5844.188465016,1007.11
5844.219653981,1007.11
5844.250842946,1007.11
5844.282031911001,1007.11
5844.313220876001,1007.11
5844.344409841,1007.1
5844.375598805001,1007.1
5844.40678777,1007.1
5844.437976735,1007.1
5844.4691657,1007.1
5844.5003546650005,1007.1
5844.531543630001,1007.1
5844.562732594,1007.1
5844.593921559001,1007.1
5844.625110524001,1007.1
5844.656299489,1007.1
5844.687488454,1007.1
5844.718677419,1007.1
5844.749866384001,1007.1
5844.781055348,1007.1
5844.8122443130005,1007.1
5844.843433278001,1007.1
5844.874622243,1007.1
5844.905811208,1007.1
5844.937000173,1007.1
5844.968189137,1007.1
5844.999378102,1007.1
5845.030567067,1007.1
5845.061756032001,1007.1
5845.092944997001,1007.1
5845.124133962,1007.1
5845.155322926001,1007.1
5845.186511891,1007.1
5845.217700856,1007.1
5845.248889821,1007.1
5845.280078786001,1007.1
5845.311267751001,1007.1
5845.342456716,1007.1
5845.373645680001,1007.1
5845.404834645,1007.1
5845.43602361,1007.1
5845.467219147,1007.1
5845.498408112,1007.1
5845.529597077,1007.1
5845.560786041,1007.1
5845.591975006,1007.1
5845.623163971,1007.1
5845.654352936001,1007.1
5845.685541901001,1007.1
5845.716730866,1007.1
5845.747919831,1007.1
5845.779108795,1007.1
5845.81029776,1007.1
5845.841486725,1007.1
5845.8726756900005,1007.1
5845.903864655001,1007.1
5845.93505362,1007.1
5845.966242584001,1007.1
5845.997431549001,1007.1
5846.028620514,1007.1
5846.059809479,1007.1
5846.090998444,1007.1
5846.122187409001,1007.1
5846.153376373,1007.1
5846.1845653380005,1007.1
5846.215754303001,1007.1
5846.246943268,1007.1
5846.278132233,1007.1
5846.309321198,1007.1
5846.3405101630005,1007.1
5846.371699127,1007.1
5846.4028880920005,1007.1
5846.434077057001,1007.1
5846.465266022,1007.1
5846.496454987,1007.1
5846.527643952,1007.1
5846.558832916,1007.1
5846.590021881,1007.1
5846.621210846,1007.1
5846.652399811001,1007.1
5846.683588776001,1007.1
5846.714777741,1007.1
5846.745966706,1007.1
5846.77715567,1007.1
5846.808344635,1007.1
5846.8395336,1007.1
5846.8707225650005,1007.1
5846.901911530001,1007.1
5846.933100495,1007.1
5846.964289459001,1007.1
5846.995478424001,1007.1
5847.026667389,1007.1
5847.057856354,1007.1
5847.089045319,1007.1
5847.120234284001,1007.1
5847.151423248,1007.1
5847.1826122130005,1007.1
5847.213801178001,1007.1
5847.244990143,1007.1
5847.276179108,1007.1
5847.307368073,1007.1
5847.3385570380005,1007.1
5847.369746002,1007.08997
5847.4009349670005,1007.08997
5847.432123932001,1007.08997
5847.463312897,1007.08997
5847.494501862,1007.08997
5847.525690827,1007.08997
5847.556879791,1007.08997
5847.588068756,1007.12
5847.619257721,1007.12
5847.650446686001,1007.12
5847.681635651001,1007.12
5847.712824616,1007.12
5847.744013581,1007.12
5847.775202545,1007.12
5847.80639151,1007.12
5847.837580475,1007.12
5847.8687694400005,1007.12
5847.899958405001,1007.12
5847.93114737,1007.12
5847.962336334001,1007.12
5847.993525299001,1007.12
5848.024714264,1007.12
5848.055903229,1007.12
5848.087092194,1007.12
5848.118281159001,1007.12
5848.149470123,1007.12
5848.1806590880005,1007.12
5848.211848053001,1007.12
5848.243037018,1007.12
5848.274225983,1007.12
5848.305414948,1007.12
5848.3366039130005,1007.12
5848.367792877,1007.12
5848.3989818420005,1007.12
5848.430170807001,1007.12
5848.461359772,1007.12
5848.492548737,1007.12
5848.523737702,1007.12
5848.554926666,1007.12
5848.586115631,1007.11
5848.617304596,1007.11
5848.648493561001,1007.11
5848.679682526001,1007.11
5848.710871491,1007.11
5848.742060456,1007.11
5848.77324942,1007.11
5848.804438385,1007.11
5848.83562735,1007.11
5848.8668163150005,1007.11
5848.898005280001,1007.11
5848.929194245,1007.11
5848.960383209001,1007.11
5848.991572174001,1007.11
5849.022761139,1007.11
5849.053950104,1007.11
5849.085139069,1007.11
5849.116328034001,1007.11
5849.147516998,1007.11
5849.1787059630005,1007.11
5849.209894928001,1007.11
5849.241083893,1007.11
5849.272272858,1007.11
5849.303461823,1007.11
5849.3346507880005,1007.11
5849.365839752,1007.11
5849.3970287170005,1007.11
5849.428217682001,1007.11
5849.459406647,1007.11
5849.490595612,1007.1
5849.521784577,1007.1
5849.552973541,1007.1
5849.584162506,1007.1
5849.615351471,1007.1
5849.646540436001,1007.1
5849.677729401001,1007.1
5849.708918366,1007.1
5849.740107331,1007.1
5849.771296295,1007.1
5849.80248526,1007.1
5849.833674225,1007.1
5849.8648631900005,1007.1
5849.896052155001,1007.1
5849.92724112,1007.1
5849.958430084001,1007.1
5849.989619049001,1007.1
5850.020808014,1007.08997
5850.051996979,1007.08997
5850.083185944,1007.08997
5850.114374909001,1007.08997
5850.145563873,1007.08997
5850.1767528380005,1007.08997
5850.207941803001,1007.08997
5850.239130768,1007.08997
5850.270319733,1007.08997
5850.301508698,1007.08997
5850.3326976630005,1007.08997
5850.363886627,1007.08997
5850.3950755920005,1007.08997
5850.426264557001,1007.08997
5850.457453522,1007.08997
5850.488642487,1007.08997
5850.519831452,1007.08997
5850.551020416,1007.08997
5850.582209381,1007.08997
5850.613398346,1007.08997
5850.644587311001,1007.08997
5850.675776276001,1007.07996
5850.706965241,1007.07996
5850.738154206,1007.07996
5850.76934317,1007.07996
5850.800532135,1007.07996
5850.8317211,1007.07996
5850.8629100650005,1007.07996
5850.894099030001,1007.07996
5850.925287995,1007.07996
5850.956476959001,1007.07996
5850.987665924001,1007.07996
5851.018854889,1007.07996
5851.050043854,1007.07996
5851.081232819,1007.07996
5851.112421784001,1007.07996
5851.143610748,1007.07996
5851.1747997130005,1007.07996
5851.205988678001,1007.07996
5851.237177643,1007.07996
5851.268366608,1007.07996
5851.299555573,1007.07996
5851.3307445380005,1007.07996
5851.361933502,1007.07996
5851.3931224670005,1007.07996
5851.424311432001,1007.07996
5851.455500397,1007.07996
5851.486689362,1007.07996
5851.517878327,1007.07996
5851.549067291,1007.07996
5851.580256256,1007.07996
5851.611445221,1007.07996
5851.642634186001,1007.07996
5851.673823151001,1007.07996
5851.705012116,1007.07996
5851.736201081,1007.07996
5851.767390045,1007.07996
5851.79857901,1007.07996
5851.829767975,1007.07996
5851.8609569400005,1007.07996
5851.892145905001,1007.07996
5851.92333487,1007.07996
5851.954523834001,1007.07996
5851.985712799001,1007.07996
5852.016901764,1007.07996
5852.048090729,1007.08997
5852.079279694,1007.08997
5852.110468659001,1007.08997
5852.141657623,1007.08997
5852.1728465880005,1007.08997
5852.204035553001,1007.08997
5852.235224518,1007.08997
5852.266413483,1007.08997
5852.297602448,1007.08997
5852.3287914130005,1007.08997
5852.359980377,1007.08997
5852.3911693420005,1007.08997
5852.422358307001,1007.08997
5852.453547272,1007.08997
5852.484736237,1007.08997
5852.515925202,1007.08997
5852.547114166,1007.08997
5852.578303131,1007.08997
5852.609492096,1007.08997
5852.640681061001,1007.08997
5852.671870026001,1007.08997
5852.703058991,1007.08997
5852.734247956,1007.08997
5852.76543692,1007.08997
5852.796625885,1007.08997
5852.82781485,1007.08997
5852.8590038150005,1007.08997
5852.890192780001,1007.08997
5852.921381745,1007.08997
5852.952570709001,1007.08997
5852.983759674001,1007.08997
5853.014948639,1007.08997
5853.046137604,1007.08997
5853.077326569,1007.07996
5853.108515534001,1007.07996
5853.139704498,1007.07996
5853.1708934630005,1007.07996
5853.202082428001,1007.07996
5853.233271393,1007.07996
5853.264460358,1007.07996
5853.295649323,1007.07996
5853.3268382880005,1007.07996
5853.358027252,1007.07996
5853.3892162170005,1007.07996
5853.420405182001,1007.07996
5853.451594147,1007.07996
5853.482783112,1007.07996
5853.513972077,1007.07996
5853.545161041,1007.07996
5853.576350006,1007.07996
5853.607538971,1007.07996
5853.638727936001,1007.07996
5853.669916901001,1007.07996
5853.701105866,1007.07996
5853.732294831,1007.07996
5853.763483795,1007.07996
5853.79467276,1007.07996
5853.825861725,1007.07996
5853.8570506900005,1007.07996
5853.888239655001,1007.07996
5853.91942862,1007.07996
5853.950617584001,1007.07996
5853.981806549001,1007.07996
5854.012995514,1007.07
5854.044184479,1007.07
