0.0,0.0,0.0,0.0
1.0,1.32,0.0,0.0
2.0,2.64,0.0,0.0
3.0,3.96,0.0,0.0
4.0,5.27,0.0,0.0
5.0,6.59,0.0,0.0
6.0,7.91,0.0,0.0
7.0,9.23,0.0,0.0
8.0,10.55,0.0,0.0
9.0,11.87,0.0,0.0
10.0,13.19,0.0,0.0
11.0,14.0,0.34,-0.11
12.0,14.0,1.21,-0.41
13.0,14.0,2.09,-0.71
14.0,14.0,2.97,-1.0
15.0,14.0,3.85,-1.3
16.0,14.0,4.73,-1.6
17.0,14.0,5.61,-1.89
18.0,14.0,6.48,-2.19
19.0,14.0,7.36,-2.49
20.0,14.0,8.24,-2.78
21.0,14.0,9.12,-3.08
22.0,14.0,10.0,-3.38
23.0,14.0,10.87,-3.67
24.0,14.0,11.75,-3.97
25.0,14.0,12.63,-4.27
26.0,14.0,13.51,-4.57
27.0,14.0,14.39,-4.86
28.0,12.68,14.5,-4.9
29.0,11.3,14.4,-4.9
30.0,11.3,13.16,-4.9
31.0,11.3,11.91,-4.9
32.0,11.3,10.67,-4.9
33.0,11.3,9.43,-4.9
34.0,11.3,8.19,-4.9
35.0,11.3,6.94,-4.9
36.0,11.3,5.7,-4.9
37.0,11.3,4.53,-4.9
38.0,11.3,5.48,-4.9
39.0,11.3,6.43,-4.9
40.0,11.3,7.38,-4.9
41.0,11.3,8.33,-4.9
42.0,11.3,9.28,-4.9
43.0,11.3,10.23,-4.9
44.0,11.3,11.18,-4.9
45.0,11.3,12.14,-4.9
46.0,11.3,13.09,-4.9
47.0,11.3,14.04,-4.9
48.0,12.73,14.5,-4.9
49.0,14.0,14.05,-4.75
50.0,14.0,13.23,-4.47
51.0,14.0,12.41,-4.19
52.0,14.0,11.58,-3.91
53.0,14.0,10.76,-3.64
54.0,14.0,9.93,-3.36
55.0,14.0,9.11,-3.08
56.0,14.0,8.29,-2.8
57.0,14.0,7.46,-2.52
58.0,14.0,6.64,-2.24
59.0,14.0,5.81,-1.96
60.0,14.0,4.99,-1.69
61.0,14.0,4.17,-1.41
62.0,14.0,3.34,-1.13
63.0,14.0,2.52,-0.85
64.0,14.0,1.7,-0.57
65.0,14.0,0.87,-0.29
66.0,14.0,0.05,-0.02
67.0,15.31,0.0,0.0
68.0,16.7,0.0,0.0
69.0,18.09,0.0,0.0
70.0,19.49,0.0,0.0
71.0,20.88,0.0,0.0
72.0,22.0,-0.29,0.0
73.0,22.0,-1.78,0.0
74.0,22.0,-3.28,0.0
75.0,22.0,-4.77,0.0
76.0,22.0,-6.27,0.0
77.0,22.0,-7.76,0.0
78.0,22.0,-9.25,0.0
79.0,22.0,-10.75,0.0
80.0,22.0,-12.24,0.0
81.0,22.0,-13.74,0.0
82.0,22.0,-15.23,0.0
83.0,22.0,-16.73,0.0
84.0,21.3,-17.5,0.0
85.0,19.86,-17.5,0.0
86.0,18.41,-17.5,0.0
87.0,16.97,-17.5,0.0
88.0,15.52,-17.5,0.0
89.0,14.08,-17.5,0.0
90.0,12.63,-17.5,0.0
91.0,11.19,-17.5,0.0
92.0,9.74,-17.5,0.0
93.0,8.3,-17.5,0.0
94.0,7.2,-17.13,0.0
95.0,7.2,-15.6,0.0
96.0,7.2,-14.06,0.0
97.0,7.2,-12.53,0.0
98.0,7.2,-10.99,0.0
99.0,7.2,-9.46,0.0
100.0,7.2,-7.93,0.0
101.0,7.2,-6.39,0.0
102.0,7.2,-4.86,0.0
103.0,7.2,-3.33,0.0
104.0,7.2,-1.79,0.0
105.0,7.2,-0.26,0.0
106.0,6.03,0.0,0.0
107.0,4.63,0.0,0.0
108.0,3.23,0.0,0.0
109.0,1.83,0.0,0.0
110.0,0.43,0.0,0.0
111.0,0.0,0.0,0.0
