85003.006893622,1006.3369
85003.040462958,1006.3369
85003.07403229401,1006.3369
85003.10760163,1006.3369
85003.141170966,1006.3369
85003.17474030101,1006.3369
85003.208309637,1006.3369
85003.241878973,1006.3369
85003.27544830901,1006.3369
85003.309017645,1006.3369
85003.342586981,1006.3369
85003.37615631701,1006.3369
85003.40972565301,1006.3369
85003.443294989,1006.3369
85003.476864325,1006.34204
85003.51043366101,1006.3469
85003.544002997,1006.3469
85003.577572333,1006.3469
85003.61114166901,1006.3469
85003.644711005,1006.3469
85003.678280341,1006.3469
85003.71184967601,1006.3469
85003.745419012,1006.3469
85003.778988348,1006.3469
85003.81255768401,1006.3469
85003.84612702,1006.3469
85003.879696356,1006.3469
85003.91326569201,1006.3469
85003.94683502801,1006.3569
85003.980404364,1006.3569
85004.0139737,1006.3569
85004.04754303601,1006.3523
85004.081112372,1006.3469
85004.114681708,1006.35376
85004.14825104401,1006.3569
85004.18182038,1006.3569
85004.215389716,1006.3569
85004.24895905101,1006.3569
85004.282528387,1006.3569
85004.316097723,1006.3569
85004.34966705901,1006.3569
85004.383236395,1006.3569
85004.416805731,1006.3569
85004.45037506701,1006.3569
85004.48394440301,1006.3569
85004.517513739,1006.3569
85004.551083075,1006.3569
85004.58465241101,1006.3569
85004.618221747,1006.3569
85004.651791083,1006.3569
85004.68536041901,1006.3569
85004.718929755,1006.3644
85004.752499091,1006.3669
85004.78606842601,1006.3669
85004.819637762,1006.3659
85004.853207098,1006.3569
85004.88677643401,1006.3601
85004.92034577,1006.3669
85004.953915106,1006.3669
85004.98748444201,1006.3602
85005.02105377801,1006.3569
85005.054623114,1006.3569
85005.08819245,1006.3569
85005.12176178601,1006.3569
85005.155331122,1006.3569
85005.188900458,1006.3569
85005.22246979401,1006.3569
85005.25603913,1006.3569
85005.289608466,1006.3569
85005.32317780101,1006.3569
85005.356747137,1006.3569
85005.390316473,1006.3569
85005.42388580901,1006.3569
85005.457455145,1006.3569
85005.491024481,1006.3569
85005.52459381701,1006.3569
85005.55816315301,1006.3569
85005.591732489,1006.3569
85005.625301825,1006.3569
85005.65887116101,1006.3569
85005.692440497,1006.3469
85005.726009833,1006.3469
85005.75957916901,1006.3469
85005.793148505,1006.3469
85005.826717841,1006.3469
85005.86028717601,1006.3469
85005.893856512,1006.3469
85005.927425848,1006.3469
85005.96099518401,1006.3469
85005.99456452,1006.3469
85006.028133856,1006.3469
85006.06170319201,1006.3469
85006.09527252801,1006.3469
85006.128841864,1006.3469
85006.1624112,1006.3469
85006.19598053601,1006.3469
85006.229549872,1006.3469
85006.263119208,1006.3469
85006.29668854401,1006.3469
85006.33025788,1006.3469
85006.363827216,1006.3469
85006.39739655101,1006.35175
85006.430965887,1006.3569
85006.464535223,1006.3569
85006.49810455901,1006.3569
85006.531673895,1006.3569
85006.565243231,1006.3469
85006.59881256701,1006.3469
85006.63238190301,1006.3469
85006.665951239,1006.3469
85006.69951908701,1006.3469
85006.733088423,1006.3469
85006.766657759,1006.3469
85006.80022709501,1006.3469
85006.833796431,1006.3469
85006.867365767,1006.3469
85006.90093510301,1006.3469
85006.934504438,1006.3469
85006.968073774,1006.3469
85007.00164311001,1006.3469
85007.035212446,1006.3469
85007.068781782,1006.3547
85007.10235111801,1006.3569
85007.135920454,1006.3469
85007.16948979,1006.3469
85007.20305912601,1006.3469
85007.23662846201,1006.3469
85007.270197798,1006.3469
85007.303767134,1006.3469
85007.33733647001,1006.3469
85007.370905806,1006.3469
85007.404475142,1006.3469
85007.43804447801,1006.3469
85007.471613813,1006.3469
85007.505183149,1006.3469
85007.53875248501,1006.3469
85007.572321821,1006.3469
85007.605891157,1006.3469
85007.63946049301,1006.3469
85007.673029829,1006.33844
85007.706599165,1006.3369
85007.74016850101,1006.3369
85007.77373783701,1006.3369
85007.807307173,1006.3369
85007.840876509,1006.3369
85007.87444584501,1006.3369
85007.908015181,1006.3434
85007.941584517,1006.3469
85007.97515385301,1006.3469
85008.008723188,1006.3469
85008.042292524,1006.3469
85008.07586186001,1006.3469
85008.109431196,1006.3435
85008.143000532,1006.3369
85008.17656986801,1006.3369
85008.210139204,1006.3369
85008.24370854,1006.3369
85008.27727787601,1006.3369
85008.31084721201,1006.3369
85008.344416548,1006.3369
85008.377985884,1006.3369
85008.41155522001,1006.3369
85008.445124556,1006.3369
85008.478693892,1006.3369
85008.51226322801,1006.3369
85008.545832563,1006.3369
85008.579401899,1006.3369
85008.61297123501,1006.3369
85008.646540571,1006.3369
85008.680109907,1006.3369
85008.71367924301,1006.3369
85008.747248579,1006.3369
85008.780817915,1006.3369
85008.81438725101,1006.3369
85008.84795658701,1006.3369
85008.881525923,1006.3369
85008.915095259,1006.3369
85008.94866459501,1006.3369
85008.982233931,1006.3369
85009.015803267,1006.3369
85009.04937260301,1006.3369
85009.082941938,1006.3369
85009.116511274,1006.3369
85009.15008061001,1006.3369
85009.183649946,1006.3369
85009.217219282,1006.3369
85009.25078861801,1006.3369
85009.284357954,1006.3369
85009.31792729,1006.3369
85009.35149662601,1006.3369
85009.38506596201,1006.3369
85009.418635298,1006.3451
85009.452204634,1006.3469
85009.48577397001,1006.3469
85009.519343306,1006.3469
85009.552912642,1006.3469
85009.58648197801,1006.3469
85009.620051313,1006.3418
85009.653620649,1006.3369
85009.68718998501,1006.3369
85009.720759321,1006.3369
85009.754328657,1006.3369
85009.78789799301,1006.3369
85009.821467329,1006.3369
85009.855036665,1006.3369
85009.88860600101,1006.3369
85009.92217533701,1006.3369
85009.955744673,1006.3369
85009.989314009,1006.3369
85010.02288334501,1006.3369
85010.056452681,1006.3369
85010.090022017,1006.3369
85010.12359135301,1006.33923
85010.157160688,1006.3469
85010.190730024,1006.3469
85010.22429936001,1006.3469
85010.257868696,1006.3469
85010.291438032,1006.3469
85010.32500736801,1006.3469
85010.358576704,1006.3469
85010.39214604,1006.3469
85010.42571537601,1006.3469
85010.45928471201,1006.3469
85010.492854048,1006.3469
85010.526423384,1006.3469
85010.55999272001,1006.3469
85010.593562056,1006.33844
85010.627131392,1006.3369
85010.66070072801,1006.3469
85010.694270063,1006.3469
85010.727839399,1006.3469
85010.76140873501,1006.3469
85010.794978071,1006.3469
85010.828547407,1006.3469
85010.86211674301,1006.3469
85010.895686079,1006.3469
85010.929255415,1006.3469
85010.96282475101,1006.3469
85010.99639408701,1006.3469
85011.029963423,1006.3469
85011.063532759,1006.3469
85011.09710209501,1006.3469
85011.130671431,1006.3469
85011.164240767,1006.3469
85011.19781010301,1006.3469
85011.231379438,1006.3469
85011.264948774,1006.3469
85011.29851811001,1006.3469
85011.332087446,1006.3469
85011.365656782,1006.34204
85011.39922611801,1006.3369
85011.432795454,1006.3369
85011.46636479,1006.3369
85011.49993412601,1006.3369
85011.53350346201,1006.3369
85011.567072798,1006.3369
85011.600642134,1006.3369
85011.63421147001,1006.3409
85011.667780806,1006.3469
85011.701350142,1006.3469
85011.73491947801,1006.3469
85011.768488813,1006.3469
85011.802058149,1006.3469
85011.83562748501,1006.3369
85011.869196821,1006.3369
85011.902766157,1006.3401
85011.93633549301,1006.3469
85011.969904829,1006.3469
85012.003474165,1006.3469
85012.03704350101,1006.3469
85012.07061283701,1006.3469
85012.104182173,1006.3469
85012.137751509,1006.3469
85012.17132084501,1006.3469
85012.204890181,1006.3433
85012.238459517,1006.3369
85012.27202885301,1006.3369
85012.305598188,1006.3439
85012.339167524,1006.3469
85012.37273686001,1006.3469
85012.406306196,1006.3469
85012.439875532,1006.3469
85012.47344486801,1006.3469
85012.507014204,1006.3469
85012.54058354,1006.3418
85012.57415287601,1006.3369
85012.60772221201,1006.34424
85012.641291548,1006.3469
85012.674860884,1006.3469
85012.70843022001,1006.3469
85012.741999556,1006.3469
85012.775568892,1006.3469
85012.80913822801,1006.3469
85012.842707563,1006.3469
85012.876276899,1006.3469
85012.90984623501,1006.3469
85012.943415571,1006.3469
85012.976984907,1006.3469
85013.01055424301,1006.3469
85013.044123579,1006.3469
85013.077692915,1006.3469
85013.11126225101,1006.3469
85013.14483158701,1006.3469
85013.178400923,1006.3469
85013.211970259,1006.3469
85013.24553959501,1006.3469
85013.279108931,1006.3469
85013.312678267,1006.3469
85013.34624760301,1006.3469
85013.379816938,1006.3431
85013.413386274,1006.3369
85013.44695561001,1006.3369
85013.480524946,1006.3441
85013.514094282,1006.3469
85013.54766361801,1006.3469
85013.581232954,1006.3469
85013.61480229,1006.3469
85013.64837162601,1006.3469
85013.68194096201,1006.3469
85013.715510298,1006.3469
85013.749079634,1006.3469
85013.78264897001,1006.3469
85013.816218306,1006.3469
85013.849787642,1006.3469
85013.88335697801,1006.3569
85013.916926313,1006.3569
85013.950495649,1006.3569
85013.98406498501,1006.3524
85014.017634321,1006.3469
85014.051203657,1006.35364
85014.08477299301,1006.3569
85014.118342329,1006.3569
85014.151911665,1006.3569
85014.18548100101,1006.3569
85014.21905033701,1006.3569
85014.252619673,1006.3569
85014.286189009,1006.3569
85014.31975834501,1006.3569
85014.353327681,1006.3569
85014.386897017,1006.3569
85014.42046635301,1006.3569
85014.454035688,1006.3569
85014.487605024,1006.3569
85014.52117436001,1006.3569
85014.554743696,1006.3569
85014.588313032,1006.3569
85014.62188236801,1006.3569
