0.0,0.0,0.0,0.0
1.0,1.31,0.0,0.0
2.0,2.62,0.0,0.0
3.0,3.93,0.0,0.0
4.0,5.24,0.0,0.0
5.0,6.55,0.0,0.0
6.0,7.85,0.0,0.0
7.0,9.16,0.0,0.0
8.0,10.47,0.0,0.0
9.0,11.78,0.0,0.0
10.0,13.09,0.0,0.0
11.0,14.4,0.0,0.0
12.0,15.71,0.0,0.0
13.0,17.02,0.0,0.0
14.0,18.0,-0.35,0.0
15.0,18.0,-1.76,0.0
16.0,18.0,-3.17,0.0
17.0,18.0,-4.58,0.0
18.0,18.0,-5.99,0.0
19.0,18.0,-7.4,0.0
20.0,18.0,-8.81,0.0
21.0,18.0,-10.22,0.0
22.0,18.0,-11.62,0.0
23.0,18.0,-13.03,0.0
24.0,18.0,-14.44,0.0
25.0,18.0,-15.85,0.0
26.0,18.0,-17.26,0.0
27.0,16.81,-17.5,0.0
28.0,15.39,-17.5,0.0
29.0,13.96,-17.5,0.0
30.0,12.53,-17.5,0.0
31.0,11.1,-17.5,0.0
32.0,9.67,-17.5,0.0
33.0,8.24,-17.5,0.0
34.0,6.81,-17.5,0.0
35.0,5.39,-17.5,0.0
36.0,3.96,-17.5,0.0
37.0,2.53,-17.5,0.0
38.0,1.1,-17.5,0.0
39.0,0.0,-17.18,0.0
40.0,0.0,-15.8,0.0
41.0,0.0,-14.42,0.0
42.0,0.0,-13.04,0.0
43.0,0.0,-11.66,0.0
44.0,0.0,-10.28,0.0
45.0,0.0,-8.9,0.0
46.0,0.0,-7.51,0.0
47.0,0.0,-6.13,0.0
48.0,0.0,-4.75,0.0
49.0,0.0,-3.37,0.0
50.0,0.0,-1.99,0.0
51.0,0.0,-0.61,0.0
52.0,0.0,0.0,0.0
