77238.497805271,1007.27637
77238.531374607,1007.27637
77238.564943943,1007.27637
77238.59851327901,1007.27637
77238.632082615,1007.27637
77238.665651951,1007.27637
77238.69922128701,1007.27637
77238.732790623,1007.27637
77238.766359959,1007.27637
77238.79992929501,1007.27637
77238.83349863101,1007.27637
77238.867067967,1007.27545
77238.90063730201,1007.26636
77238.934206638,1007.26636
77238.967775974,1007.26636
77239.001361605,1007.26636
77239.03493094101,1007.26636
77239.068500277,1007.26636
77239.102069613,1007.26636
77239.13563894901,1007.26636
77239.169208285,1007.26636
77239.202777621,1007.26636
77239.23634695701,1007.26636
77239.26991629301,1007.2615
77239.303485629,1007.2564
77239.337054965,1007.2637
77239.37062430101,1007.26636
77239.404193637,1007.26636
77239.43776297201,1007.2656
77239.471332308,1007.2564
77239.504901644,1007.2564
77239.53847098,1007.2606
77239.57204031601,1007.26636
77239.605609652,1007.26636
77239.639178988,1007.26636
77239.67274832401,1007.26636
77239.70631766,1007.26636
77239.739886996,1007.26636
77239.77345633201,1007.26636
77239.80702566801,1007.26636
77239.840595004,1007.26636
77239.87416434,1007.26636
77239.90773367601,1007.26636
77239.941303012,1007.26636
77239.97487234701,1007.26636
77240.008441683,1007.26636
77240.042011019,1007.26636
77240.075580355,1007.26636
77240.10914969101,1007.2705
77240.142719027,1007.27637
77240.176288363,1007.2699
77240.20985769901,1007.26636
77240.243427035,1007.26636
77240.276996371,1007.2763
77240.31056570701,1007.27637
77240.34413504301,1007.27637
77240.377704379,1007.27637
77240.411273715,1007.27637
77240.44484305101,1007.2706
77240.478412387,1007.26636
77240.51198172201,1007.26636
77240.545551058,1007.26636
77240.579120394,1007.27637
77240.61268973,1007.27637
77240.64625906601,1007.27637
77240.679828402,1007.27637
77240.713397738,1007.27637
77240.74696707401,1007.27637
77240.78053641,1007.27637
77240.814105746,1007.27637
77240.84767508201,1007.2666
77240.88124441801,1007.26636
77240.914813754,1007.26636
77240.94838309,1007.26636
77240.98195242601,1007.26636
77241.015521762,1007.26636
77241.04909109701,1007.26636
77241.082660433,1007.26636
77241.116229769,1007.2755
77241.149799105,1007.27637
77241.18336844101,1007.27637
77241.216937777,1007.27374
77241.250507113,1007.26636
77241.28407644901,1007.26636
77241.317645785,1007.26636
77241.351215121,1007.26636
77241.38478445701,1007.26636
77241.41835379301,1007.26636
77241.451923129,1007.26636
77241.485492465,1007.26636
77241.51906180101,1007.26636
77241.552631137,1007.26636
77241.58620047201,1007.26636
77241.619769808,1007.26636
77241.653339144,1007.26636
77241.68690848,1007.26636
77241.72047781601,1007.26636
77241.754047152,1007.26636
77241.787616488,1007.26636
77241.82118582401,1007.27
77241.85475516,1007.27637
77241.888324496,1007.27637
77241.92189383201,1007.27637
77241.95546316801,1007.26807
77241.989032504,1007.26636
77242.02260184,1007.27637
77242.05617117601,1007.27637
77242.089740512,1007.27344
77242.12330984701,1007.26636
77242.156879183,1007.27167
77242.190448519,1007.27637
77242.224017855,1007.27637
77242.25758719101,1007.27637
77242.291156527,1007.27637
77242.324725863,1007.27637
77242.35829519901,1007.27637
77242.391864535,1007.27637
77242.425433871,1007.27637
77242.45900320701,1007.27637
77242.49257254301,1007.2833
77242.526141879,1007.2864
77242.559711215,1007.2864
77242.59328055101,1007.2864
77242.626849887,1007.2864
77242.66041922201,1007.2864
77242.693988558,1007.2864
77242.727557894,1007.2864
77242.76112723,1007.2864
77242.79469656601,1007.2864
77242.828265902,1007.2864
77242.861835238,1007.2864
77242.89540457401,1007.2864
77242.92897391,1007.28424
77242.962543246,1007.27637
77242.99611258201,1007.27637
77243.02968191801,1007.27637
77243.063251254,1007.27637
77243.09682059,1007.27637
77243.13038992601,1007.27637
77243.163959262,1007.27637
77243.19752859701,1007.27637
77243.231097933,1007.27637
77243.264667269,1007.27637
77243.298236605,1007.27637
77243.33180594101,1007.27637
77243.365375277,1007.27637
77243.398944613,1007.27637
77243.43251394901,1007.27637
77243.466083285,1007.27637
77243.499652621,1007.27637
77243.53322195701,1007.27637
77243.56679129301,1007.27637
77243.600360629,1007.27637
77243.633929965,1007.27637
77243.66749930101,1007.27637
77243.701068637,1007.27637
77243.73463797201,1007.27637
77243.768207308,1007.27637
77243.801776644,1007.27637
77243.83534598,1007.27637
77243.86891531601,1007.27637
77243.902484652,1007.27637
77243.936053988,1007.27637
77243.96962332401,1007.27637
77244.00319266,1007.27637
77244.036761996,1007.27637
77244.07033133201,1007.27637
77244.10390066801,1007.27637
77244.137470004,1007.27637
77244.17103934,1007.27637
77244.20460867601,1007.27637
77244.238178012,1007.27637
77244.27174734701,1007.27637
77244.305316683,1007.27637
77244.338886019,1007.27637
77244.372455355,1007.27637
77244.40602469101,1007.27637
77244.439594027,1007.27637
77244.473163363,1007.27637
77244.50673269901,1007.27637
77244.540302035,1007.27637
77244.573871371,1007.27637
77244.60744070701,1007.27637
77244.64101004301,1007.27466
77244.674579379,1007.26636
77244.708148715,1007.27045
77244.74171805101,1007.27637
77244.775287387,1007.27637
77244.80885672201,1007.27637
77244.842426058,1007.27637
77244.875995394,1007.27637
77244.90956473,1007.27637
77244.94313406601,1007.27637
77244.976703402,1007.27637
77245.010272738,1007.27637
77245.04384207401,1007.2706
77245.07741141,1007.26636
77245.110980746,1007.26636
77245.14455008201,1007.26636
77245.17811941801,1007.2564
77245.211688754,1007.2564
77245.24525809,1007.2564
77245.27882742601,1007.2564
77245.312396762,1007.2564
77245.34596609701,1007.2564
77245.379535433,1007.2564
77245.413104769,1007.2564
77245.446674105,1007.2564
77245.48024344101,1007.2564
77245.513812777,1007.2564
77245.547382113,1007.2564
77245.58095144901,1007.2564
77245.614520785,1007.2564
77245.648090121,1007.2564
77245.68165945701,1007.2564
77245.71522879301,1007.2564
77245.748798129,1007.2564
77245.782367465,1007.2564
77245.81593680101,1007.259
77245.849506137,1007.26636
77245.88307547201,1007.26636
77245.916644808,1007.26636
77245.950214144,1007.26636
77245.98378348,1007.26636
77246.01735281601,1007.26636
77246.050922152,1007.27637
77246.084491488,1007.27637
77246.11806082401,1007.27637
77246.15163016,1007.27637
77246.185199496,1007.27637
77246.21876883201,1007.27637
77246.25233816801,1007.27637
77246.285907504,1007.27637
77246.31947684,1007.27637
77246.35304617601,1007.27637
77246.386615512,1007.27637
77246.42018484701,1007.27637
77246.453754183,1007.27637
77246.487323519,1007.27637
77246.520892855,1007.27637
77246.55446219101,1007.27637
77246.588031527,1007.27637
77246.621600863,1007.27637
77246.65517019901,1007.27637
77246.688739535,1007.27637
77246.722308871,1007.27637
77246.75587820701,1007.27637
77246.78944754301,1007.27637
77246.823016879,1007.27637
77246.856586215,1007.27637
77246.89015555101,1007.27637
77246.923724887,1007.27637
77246.95729422201,1007.27637
77246.990863558,1007.2729
77247.024432894,1007.26636
77247.05800223,1007.26636
77247.09157156601,1007.26636
77247.125140902,1007.26636
77247.158710238,1007.26636
77247.19227957401,1007.26636
77247.22584891,1007.26636
77247.259418246,1007.26636
77247.29298758201,1007.26636
77247.32655691801,1007.26636
77247.360126254,1007.26636
77247.39369559,1007.26636
77247.42726492601,1007.26636
77247.460834262,1007.26636
77247.49440359701,1007.26636
77247.527972933,1007.26416
77247.561542269,1007.2564
77247.595111605,1007.2564
77247.62868094101,1007.2564
77247.662250277,1007.2564
77247.695819613,1007.2564
77247.72938894901,1007.2564
77247.762958285,1007.2564
77247.796527621,1007.2564
77247.83009695701,1007.2564
77247.86366629301,1007.2564
77247.897235629,1007.2564
77247.930804965,1007.2564
77247.96437430101,1007.2564
77247.997943637,1007.2564
77248.03151297201,1007.2564
77248.065082308,1007.2564
77248.098651644,1007.2564
77248.13222098,1007.2564
77248.16579031601,1007.2564
77248.199359652,1007.2564
77248.232928988,1007.2564
77248.26649832401,1007.2564
77248.30006766,1007.2564
77248.333636996,1007.2564
77248.36720633201,1007.2564
77248.40077566801,1007.2564
77248.434345004,1007.2564
77248.46791434,1007.2564
77248.50148367601,1007.2564
77248.535053012,1007.2564
77248.56862234701,1007.2564
77248.602191683,1007.2564
77248.635761019,1007.2572
77248.669330355,1007.26636
77248.70289969101,1007.26636
77248.736469027,1007.26636
77248.770038363,1007.26086
77248.80360769901,1007.2564
77248.837177035,1007.2564
77248.870746371,1007.2564
77248.90431570701,1007.2564
77248.93788504301,1007.2564
77248.971454379,1007.2564
77249.00502579901,1007.2564
77249.038595135,1007.2515
77249.072164471,1007.2464
77249.105733806,1007.2464
77249.139303142,1007.2464
77249.17287247801,1007.2464
77249.206441814,1007.2464
77249.24001115,1007.2464
77249.273580486,1007.2464
77249.30714982201,1007.2464
77249.340719158,1007.2464
77249.374288494,1007.2464
77249.40785783001,1007.2464
77249.441427166,1007.2553
77249.474996502,1007.2564
77249.508565838,1007.2564
77249.54213517401,1007.2564
77249.57570451,1007.2564
77249.609273846,1007.2564
77249.642843181,1007.2564
77249.676412517,1007.2564
77249.70998185301,1007.2564
77249.743551189,1007.2564
77249.777120525,1007.2564
77249.810689861,1007.2564
77249.84425919701,1007.2564
77249.877828533,1007.2564
77249.911397869,1007.2564
77249.94496720501,1007.2564
77249.978536541,1007.2564
77250.012105877,1007.2564
77250.045675213,1007.2564
77250.07924454901,1007.2564
77250.112813885,1007.2564
77250.146383221,1007.2564
77250.179952556,1007.2564
77250.213521892,1007.2564
77250.24709122801,1007.2564
77250.280660564,1007.2564
77250.3142299,1007.2564
77250.347799236,1007.2564
77250.38136857201,1007.2564
77250.414937908,1007.2564
77250.448507244,1007.2564
77250.48207658001,1007.2564
77250.515645916,1007.2564
77250.549215252,1007.2639
77250.582784588,1007.26636
77250.61635392401,1007.25653
77250.64992326,1007.2574
77250.683492596,1007.26636
77250.717061931,1007.26636
77250.750631267,1007.26636
77250.78420060301,1007.26636
77250.817769939,1007.26636
77250.851339275,1007.26636
77250.884908611,1007.26636
77250.91847794701,1007.26636
77250.952047283,1007.26636
77250.985616619,1007.26636
77251.01918595501,1007.26636
77251.052755291,1007.26636
77251.086324627,1007.26636
77251.119893963,1007.26636
77251.15346329901,1007.2578
77251.187032635,1007.2564
77251.220601971,1007.26636
77251.254171306,1007.26636
77251.287740642,1007.26636
77251.32130997801,1007.26636
77251.354879314,1007.26636
77251.38844865,1007.2597
77251.422017986,1007.2564
77251.45558732201,1007.2564
77251.489156658,1007.26636
77251.522725994,1007.265
77251.55629533001,1007.2564
77251.589864666,1007.2564
77251.623434002,1007.2564
77251.657003338,1007.26245
77251.69057267401,1007.26636
77251.72414201,1007.26636
77251.757711346,1007.26636
77251.791280681,1007.26636
77251.824850017,1007.26636
77251.85841935301,1007.26636
77251.891988689,1007.26636
77251.925558025,1007.26636
77251.959127361,1007.26636
77251.99269669701,1007.26636
77252.026266033,1007.26636
77252.059835369,1007.26636
77252.09340470501,1007.26636
77252.126974041,1007.26636
77252.160543377,1007.26636
77252.194112713,1007.26636
77252.22768204901,1007.26636
77252.261251385,1007.26636
77252.294820721,1007.26636
77252.328390056,1007.2758
77252.361959392,1007.27637
77252.39552872801,1007.27637
77252.429098064,1007.27344
77252.4626674,1007.26636
77252.496236736,1007.26636
77252.52980607201,1007.26636
77252.563375408,1007.26636
77252.596944744,1007.26636
77252.63051408001,1007.26636
77252.664083416,1007.26636
77252.697652752,1007.26874
77252.731222088,1007.27637
77252.76479142401,1007.27637
77252.79836076,1007.27637
77252.831930096,1007.27637
77252.865499431,1007.27637
77252.899068767,1007.27637
77252.93263810301,1007.26636
77252.966207439,1007.26807
77252.999776775,1007.27637
77253.033346111,1007.27637
77253.06691544701,1007.27637
77253.100484783,1007.27637
77253.134054119,1007.27637
77253.16762345501,1007.27637
77253.201192791,1007.27637
77253.234762127,1007.27637
77253.268331463,1007.27637
77253.30190079901,1007.2798
77253.335470135,1007.2864
77253.369039471,1007.28064
77253.402608806,1007.27637
77253.436178142,1007.27637
77253.46974747801,1007.27637
77253.503316814,1007.27637
77253.53688615,1007.27637
77253.570455486,1007.27637
77253.60402482201,1007.27637
77253.637594158,1007.2713
77253.671163494,1007.26636
77253.70473283001,1007.26636
77253.738302166,1007.26636
77253.771871502,1007.26636
77253.805440838,1007.26636
77253.83901017401,1007.26636
77253.87257951,1007.26636
77253.906148846,1007.26636
77253.939718181,1007.26636
77253.973287517,1007.25964
77254.00685685301,1007.2564
77254.040426189,1007.2564
77254.073995525,1007.2564
77254.107564861,1007.2564
77254.14113419701,1007.2564
77254.174703533,1007.2564
77254.208272869,1007.26135
77254.24184220501,1007.26636
77254.275411541,1007.2591
77254.308980877,1007.2564
77254.342550213,1007.2564
77254.37611954901,1007.26636
77254.409688885,1007.2644
77254.443258221,1007.2564
77254.476827556,1007.2564
77254.510396892,1007.2564
77254.54396622801,1007.2564
77254.577535564,1007.2564
77254.6111049,1007.2564
77254.644674236,1007.2564
77254.67824357201,1007.2564
77254.711812908,1007.2564
77254.745382244,1007.2564
77254.77895158001,1007.2564
77254.812520916,1007.2564
77254.846090252,1007.2564
77254.879659588,1007.24805
77254.91322892401,1007.2464
77254.94679826,1007.2464
77254.980367596,1007.2445
77255.013936931,1007.2364
77255.047506267,1007.2364
77255.08107560301,1007.2364
77255.114644939,1007.2364
77255.148214275,1007.24414
77255.181783611,1007.2464
77255.21535294701,1007.2464
77255.248922283,1007.2464
77255.282491619,1007.2464
77255.31606095501,1007.2464
77255.349630291,1007.2464
77255.383199627,1007.2464
77255.416768963,1007.2464
77255.45033829901,1007.2464
77255.483907635,1007.2464
77255.517476971,1007.2464
77255.551046306,1007.2464
77255.584615642,1007.2464
77255.61818497801,1007.2464
77255.651754314,1007.2411
77255.68532365,1007.2364
77255.718892986,1007.244
77255.75246232201,1007.2464
77255.786031658,1007.2464
77255.819600994,1007.2464
77255.85317033001,1007.2441
77255.886739666,1007.2364
77255.920309002,1007.2364
77255.953878338,1007.2364
77255.98744767401,1007.2364
77256.02101701,1007.2364
77256.054586346,1007.2364
77256.088155681,1007.2364
77256.121725017,1007.2364
77256.15529435301,1007.2364
77256.188863689,1007.2324
77256.222433025,1007.22644
77256.256002361,1007.2327
77256.28957169701,1007.2364
77256.323141033,1007.2364
77256.356710369,1007.2364
77256.39027970501,1007.2364
77256.423849041,1007.2364
77256.457418377,1007.2364
77256.490987713,1007.2364
77256.52455704901,1007.2364
77256.558126385,1007.2364
77256.591695721,1007.2364
77256.625265056,1007.2364
77256.658834392,1007.22644
77256.69240372801,1007.22644
77256.725973064,1007.22644
77256.7595424,1007.2303
77256.793111736,1007.2364
77256.82668107201,1007.2364
77256.860250408,1007.229
77256.893819744,1007.22644
77256.92738908001,1007.2361
77256.960958416,1007.2364
77256.994527752,1007.2364
77257.028097088,1007.2364
77257.06166642401,1007.2364
77257.09523576,1007.2364
77257.128805096,1007.2364
77257.162374431,1007.2364
77257.195943767,1007.2364
77257.22951310301,1007.2364
77257.263082439,1007.2364
77257.296651775,1007.2364
77257.330221111,1007.2364
77257.36379044701,1007.2364
77257.397359783,1007.2364
77257.430929119,1007.2364
77257.46449845501,1007.2364
77257.498067791,1007.2364
77257.531637127,1007.2364
77257.565206463,1007.2364
77257.59877579901,1007.2364
77257.632345135,1007.24066
77257.665914471,1007.2464
77257.699483806,1007.2398
77257.733053142,1007.2364
77257.76662247801,1007.2364
77257.800191814,1007.2364
77257.83376115,1007.2364
77257.867330486,1007.2364
77257.90089982201,1007.2364
77257.934469158,1007.2364
77257.968038494,1007.2364
77258.00160783001,1007.2364
77258.035177166,1007.2364
77258.068746502,1007.2364
77258.102315838,1007.2364
77258.13588517401,1007.2364
77258.16945451,1007.2364
77258.203023846,1007.2364
77258.236593181,1007.2364
77258.270162517,1007.2364
77258.30373185301,1007.2364
77258.337301189,1007.2364
77258.370870525,1007.2364
77258.404439861,1007.2364
77258.43800919701,1007.2364
77258.471578533,1007.2364
77258.505147869,1007.2364
77258.53871720501,1007.2364
77258.572286541,1007.2364
77258.605855877,1007.2364
77258.639425213,1007.2364
77258.67299454901,1007.2364
77258.706563885,1007.2364
77258.740133221,1007.2364
77258.773702556,1007.2364
77258.807271892,1007.2364
77258.84084122801,1007.2364
77258.874410564,1007.2364
77258.9079799,1007.2364
77258.941549236,1007.2364
77258.97512815101,1007.2364
77259.008697487,1007.2386
77259.042266823,1007.2464
77259.075836159,1007.2464
77259.10940549501,1007.2464
77259.142974831,1007.2464
77259.176544167,1007.2464
77259.21011350301,1007.2372
77259.243682839,1007.2364
77259.277252175,1007.2364
77259.31082151001,1007.2364
77259.344390846,1007.2364
77259.377960182,1007.2364
77259.41152951801,1007.2364
77259.445098854,1007.2364
77259.47866819,1007.2364
77259.51223752601,1007.2364
77259.545806862,1007.2364
77259.579376198,1007.2364
77259.612945534,1007.2364
77259.64651487001,1007.2364
77259.680084206,1007.2364
77259.713653542,1007.2364
77259.74722287801,1007.2364
77259.780792214,1007.2364
77259.81436155,1007.2364
77259.84793088501,1007.2364
77259.881500221,1007.2364
77259.915069557,1007.2364
77259.94863889301,1007.2364
77259.982208229,1007.2364
77260.015777565,1007.2364
77260.04934690101,1007.2364
77260.082916237,1007.2364
77260.116485573,1007.2364
77260.150054909,1007.2364
77260.18362424501,1007.2364
77260.217193581,1007.2364
77260.250762917,1007.2364
77260.28433225301,1007.2364
77260.317901589,1007.2364
77260.351470925,1007.2364
77260.38504026001,1007.2464
77260.418609596,1007.2464
77260.452178932,1007.2439
77260.48574826801,1007.2364
77260.519317604,1007.2412
77260.55288694,1007.2464
77260.58645627601,1007.23926
77260.620025612,1007.2364
77260.653594948,1007.2459
77260.687164284,1007.2464
77260.72073362001,1007.2464
77260.754302956,1007.2464
77260.787872292,1007.2422
77260.82144162801,1007.2364
77260.855010964,1007.2364
77260.8885803,1007.2364
77260.92214963501,1007.2364
77260.955718971,1007.2364
77260.989288307,1007.2364
77261.02285764301,1007.2364
77261.056426979,1007.2364
77261.089996315,1007.2364
77261.12356565101,1007.2364
77261.157134987,1007.2364
77261.190704323,1007.2364
77261.224273659,1007.2364
77261.25784299501,1007.2364
77261.291412331,1007.2364
77261.324981667,1007.2364
77261.35855100301,1007.2364
77261.392120339,1007.2364
77261.425689675,1007.2364
77261.45925901001,1007.2364
77261.492828346,1007.2364
77261.526397682,1007.2364
77261.55996701801,1007.2364
77261.593536354,1007.2364
77261.62710569,1007.2364
77261.66067502601,1007.2364
77261.694244362,1007.2364
77261.727813698,1007.2364
77261.761383034,1007.2445
77261.79495237001,1007.2464
77261.828521706,1007.2464
77261.862091042,1007.2464
77261.89566037801,1007.2464
77261.929229714,1007.2464
77261.96279905,1007.2464
77261.99636838501,1007.2464
77262.029937721,1007.2464
77262.063507057,1007.2464
77262.09707639301,1007.25616
77262.130645729,1007.25543
77262.164215065,1007.2464
77262.19778440101,1007.2464
77262.231353737,1007.2464
77262.264923073,1007.2464
77262.298492409,1007.2464
77262.33206174501,1007.2464
77262.365631081,1007.2464
77262.399200417,1007.2464
77262.43276975301,1007.2464
77262.466339089,1007.2464
77262.499908425,1007.2464
77262.53347776001,1007.2464
77262.567047096,1007.2464
77262.600616432,1007.2464
77262.63418576801,1007.2379
77262.667755104,1007.2364
77262.70132444,1007.2464
77262.73489377601,1007.2464
77262.768463112,1007.2464
77262.802032448,1007.24207
77262.835601784,1007.2364
77262.86917112001,1007.2364
77262.902740456,1007.2364
77262.936309792,1007.2364
77262.96987912801,1007.2464
77263.003448464,1007.2464
77263.0370178,1007.2464
77263.07058713501,1007.2464
77263.104156471,1007.2464
77263.137725807,1007.2464
77263.17129514301,1007.2464
77263.204864479,1007.2464
77263.238433815,1007.2464
77263.27200315101,1007.2464
77263.305572487,1007.2464
77263.339141823,1007.2464
77263.372711159,1007.2464
77263.40628049501,1007.2464
77263.439849831,1007.2464
77263.473419167,1007.2464
77263.50698850301,1007.2464
77263.540557839,1007.2564
77263.574127175,1007.2552
77263.60769651001,1007.2464
77263.641265846,1007.2464
77263.674835182,1007.2511
77263.70840451801,1007.2564
77263.741973854,1007.2493
77263.77554319,1007.2464
77263.80911252601,1007.2464
77263.842681862,1007.24695
77263.876251198,1007.2564
77263.909820534,1007.2535
77263.94338987001,1007.2464
77263.976959206,1007.2464
77264.010528542,1007.2464
77264.04409787801,1007.2464
77264.077667214,1007.2464
77264.11123655,1007.2464
77264.14480588501,1007.2464
77264.178375221,1007.2464
77264.211944557,1007.2464
77264.24551389301,1007.2464
77264.279083229,1007.2464
77264.312652565,1007.2464
77264.34622190101,1007.2464
77264.379791237,1007.2464
77264.413360573,1007.2464
77264.446929909,1007.2464
77264.48049924501,1007.2464
77264.514068581,1007.2464
77264.547637917,1007.2464
77264.58120725301,1007.2464
77264.614776589,1007.2464
77264.648345925,1007.255
77264.68191526001,1007.2564
77264.715484596,1007.25543
77264.749053932,1007.2464
77264.78262326801,1007.2497
77264.816192604,1007.2564
77264.84976194,1007.25073
77264.88333127601,1007.2464
77264.916900612,1007.2464
77264.950469948,1007.2464
77264.984039284,1007.2464
77265.01760862001,1007.2449
77265.051177956,1007.2364
77265.084747292,1007.2364
77265.11831662801,1007.2414
77265.151885964,1007.2464
77265.1854553,1007.239
77265.21902463501,1007.2364
77265.252593971,1007.2364
77265.286163307,1007.2364
77265.31973264301,1007.2364
77265.353301979,1007.2364
77265.386871315,1007.2364
77265.42044065101,1007.2364
77265.454009987,1007.2364
77265.487579323,1007.2364
77265.521148659,1007.2364
77265.55471799501,1007.2364
77265.588287331,1007.2364
77265.621856667,1007.2364
77265.65542600301,1007.2364
77265.688995339,1007.2413
77265.722564675,1007.2464
77265.75613401001,1007.2392
77265.789703346,1007.2364
77265.823272682,1007.2364
77265.85684201801,1007.2464
77265.890411354,1007.2464
77265.92398069,1007.2464
77265.95755002601,1007.2464
77265.991119362,1007.2464
77266.024688698,1007.2398
77266.058258034,1007.2364
77266.09182737001,1007.2453
77266.125396706,1007.2464
77266.158966042,1007.2464
77266.19253537801,1007.2464
77266.226104714,1007.2464
77266.25967405,1007.2464
77266.29324338501,1007.2464
77266.326812721,1007.2464
77266.360382057,1007.2464
77266.39395139301,1007.2464
77266.427520729,1007.2464
77266.461090065,1007.24817
77266.49465940101,1007.2564
77266.528228737,1007.2564
77266.561798073,1007.2511
77266.595367409,1007.2464
77266.62893674501,1007.2464
77266.662506081,1007.2464
77266.696075417,1007.2464
77266.72964475301,1007.2464
77266.763214089,1007.2464
77266.796783425,1007.2464
77266.83035276001,1007.2464
77266.863922096,1007.2464
77266.897491432,1007.2464
77266.93106076801,1007.2464
77266.964630104,1007.2464
77266.99819944,1007.2464
77267.03176877601,1007.2464
77267.065338112,1007.24927
77267.098907448,1007.2564
77267.132476784,1007.2564
77267.16604612001,1007.2564
77267.199615456,1007.24884
77267.233184792,1007.2464
77267.26675412801,1007.2464
77267.300323464,1007.2464
77267.3338928,1007.2464
77267.36746213501,1007.2464
77267.401031471,1007.2464
77267.434600807,1007.2464
77267.46817014301,1007.2464
77267.501739479,1007.2464
77267.535308815,1007.2464
77267.56887815101,1007.2464
77267.602447487,1007.2464
77267.636016823,1007.2464
77267.669586159,1007.2464
77267.70315549501,1007.2464
77267.736724831,1007.2464
77267.770294167,1007.2464
77267.80386350301,1007.2464
77267.837432839,1007.2464
77267.871002175,1007.2464
77267.90457151001,1007.2464
77267.938140846,1007.2431
77267.971710182,1007.2364
77268.00527951801,1007.2364
77268.038848854,1007.2364
77268.07241819,1007.22845
77268.10598752601,1007.22644
77268.139556862,1007.2364
77268.173126198,1007.2364
77268.206695534,1007.2364
77268.24026487001,1007.2364
77268.273834206,1007.2364
77268.307403542,1007.2364
77268.34097287801,1007.2437
77268.374542214,1007.2464
77268.40811155,1007.23676
77268.44168088501,1007.2372
77268.475250221,1007.2464
77268.508819557,1007.2432
77268.54238889301,1007.2364
77268.575958229,1007.2364
77268.609527565,1007.2364
77268.64309690101,1007.2364
77268.676666237,1007.2364
77268.710235573,1007.2362
77268.743804909,1007.22644
77268.77737424501,1007.22894
77268.810943581,1007.2364
77268.844512917,1007.2364
77268.87808225301,1007.2364
77268.911651589,1007.2364
77268.945220925,1007.2364
77268.97879026001,1007.2364
77269.012341044,1007.2364
77269.04591038001,1007.2364
77269.079479716,1007.2364
77269.113049052,1007.2322
77269.14661838801,1007.22644
77269.180187724,1007.22644
77269.21375706,1007.22644
77269.247326396,1007.22644
77269.28089573201,1007.22644
77269.314465068,1007.22644
77269.348034404,1007.22644
77269.38160374001,1007.22644
77269.415173076,1007.22644
77269.448742412,1007.2323
77269.48231174801,1007.2364
77269.515881083,1007.2364
77269.549450419,1007.2364
77269.58301975501,1007.2364
77269.616589091,1007.2364
77269.650158427,1007.2364
77269.68372776301,1007.2364
77269.717297099,1007.2364
77269.750866435,1007.2364
77269.784435771,1007.2364
77269.81800510701,1007.2364
77269.851574443,1007.2364
77269.885143779,1007.2364
77269.91871311501,1007.2364
77269.952282451,1007.23987
77269.985851787,1007.2464
77270.01942112301,1007.2464
77270.052990458,1007.2464
77270.086559794,1007.2464
77270.12012913001,1007.2464
77270.153698466,1007.2464
77270.187267802,1007.2464
77270.22083713801,1007.2464
77270.254406474,1007.2464
77270.28797581,1007.2464
77270.321545146,1007.2464
77270.35511448201,1007.2464
77270.388683818,1007.2464
77270.422253154,1007.2464
77270.45582249001,1007.2464
77270.489391826,1007.2464
77270.522961162,1007.2464
77270.55653049801,1007.2464
77270.590099833,1007.2464
77270.623669169,1007.2464
77270.65723850501,1007.2464
77270.690807841,1007.2464
77270.724377177,1007.2464
77270.75794651301,1007.2464
77270.791515849,1007.2464
77270.825085185,1007.2425
77270.858654521,1007.2364
77270.89222385701,1007.2364
77270.925793193,1007.2364
77270.959362529,1007.2364
77270.99293186501,1007.2364
77271.026501201,1007.2364
77271.060070537,1007.2364
77271.09363987301,1007.2364
77271.127209208,1007.2364
77271.160778544,1007.2364
77271.19434788001,1007.2364
77271.227917216,1007.2364
77271.261486552,1007.2364
77271.29505588801,1007.2364
77271.328625224,1007.2364
77271.36219456,1007.2364
77271.395763896,1007.2326
77271.42933323201,1007.22644
77271.462902568,1007.22644
77271.496471904,1007.22644
77271.53004124001,1007.22644
77271.563610576,1007.22644
77271.597179912,1007.22644
77271.63074924801,1007.22644
77271.664318583,1007.22955
77271.697887919,1007.2364
77271.73145725501,1007.2364
77271.765026591,1007.2364
77271.798595927,1007.2286
77271.83216526301,1007.22644
77271.865734599,1007.22644
77271.899303935,1007.22644
77271.932873271,1007.22644
77271.96644260701,1007.22644
77272.000011943,1007.22644
77272.033581279,1007.22644
77272.06715061501,1007.22644
77272.100719951,1007.22644
77272.134289287,1007.22644
77272.16785862301,1007.22644
77272.201427958,1007.22644
77272.234997294,1007.22644
77272.26856663001,1007.22644
77272.302135966,1007.22644
77272.335705302,1007.22644
77272.36927463801,1007.22644
77272.402843974,1007.22644
77272.43641331,1007.22644
77272.469982646,1007.22644
77272.50355198201,1007.22644
77272.537121318,1007.22644
77272.570690654,1007.22644
77272.60425999001,1007.22644
77272.637829326,1007.22644
77272.671398662,1007.22644
77272.70496799801,1007.22644
77272.738537333,1007.21643
77272.772106669,1007.21643
77272.80567600501,1007.21643
77272.839245341,1007.21643
77272.872814677,1007.21643
77272.90638401301,1007.22284
77272.939953349,1007.22644
77272.973522685,1007.22644
77273.007092021,1007.21643
77273.04066135701,1007.21643
77273.074230693,1007.21643
77273.107800029,1007.21643
77273.14136936501,1007.21643
77273.174938701,1007.21643
77273.208508037,1007.21643
77273.24207737301,1007.21643
77273.275646708,1007.21643
77273.309216044,1007.21643
77273.34278538001,1007.21643
77273.376354716,1007.21643
77273.409924052,1007.21643
77273.44349338801,1007.21643
77273.477062724,1007.21643
77273.51063206,1007.21643
77273.544201396,1007.21643
77273.57777073201,1007.21643
77273.611340068,1007.2174
77273.644909404,1007.22644
77273.67847874001,1007.22644
77273.712048076,1007.22644
77273.745617412,1007.22644
77273.77918674801,1007.22644
77273.812756083,1007.22644
77273.846325419,1007.22644
77273.87989475501,1007.22644
77273.913464091,1007.22644
77273.947033427,1007.22644
77273.98060276301,1007.22644
77274.014172099,1007.22644
77274.047741435,1007.22644
77274.081310771,1007.22644
77274.11488010701,1007.2349
77274.148449443,1007.2364
77274.182018779,1007.2464
77274.21558811501,1007.2464
77274.249157451,1007.2464
77274.282726787,1007.2464
77274.31629612301,1007.2464
77274.349865458,1007.2396
77274.383434794,1007.2364
77274.41700413001,1007.2364
77274.450573466,1007.2464
77274.484142802,1007.245
77274.51771213801,1007.2364
77274.551281474,1007.2364
77274.58485081,1007.2364
77274.618420146,1007.2364
77274.65198948201,1007.2364
77274.685558818,1007.2364
77274.719128154,1007.2364
77274.75269749001,1007.2364
77274.786266826,1007.2364
77274.819836162,1007.23956
77274.85340549801,1007.2464
77274.886974833,1007.2464
77274.920544169,1007.2464
77274.95411350501,1007.2464
77274.987682841,1007.2464
77275.021252177,1007.2364
77275.05482151301,1007.2364
77275.088390849,1007.2364
77275.121960185,1007.2364
77275.155529521,1007.2364
77275.18909885701,1007.2364
77275.222668193,1007.2436
77275.256237529,1007.2464
77275.28980686501,1007.2464
77275.323376201,1007.2464
77275.356945537,1007.2464
77275.39051487301,1007.2433
77275.424084208,1007.2364
77275.457653544,1007.2364
77275.49122288001,1007.2364
77275.524792216,1007.2364
77275.558361552,1007.2453
77275.59193088801,1007.24634
77275.625500224,1007.2364
77275.65906956,1007.2364
77275.692638896,1007.2364
77275.72620823201,1007.2364
77275.759777568,1007.2364
77275.793346904,1007.2364
77275.82691624001,1007.2447
77275.860485576,1007.2464
77275.894054912,1007.2464
77275.92762424801,1007.2464
77275.961193583,1007.2464
77275.994762919,1007.24225
77276.02833225501,1007.2364
77276.061901591,1007.24286
77276.095470927,1007.2464
77276.12904026301,1007.2464
77276.162609599,1007.2464
77276.196178935,1007.24524
77276.229748271,1007.2364
77276.26331760701,1007.2364
77276.296886943,1007.2364
77276.330456279,1007.2364
77276.36402561501,1007.2364
77276.397594951,1007.2282
77276.431164287,1007.22644
77276.46473362301,1007.2364
77276.498302958,1007.2364
77276.531872294,1007.2364
77276.56544163001,1007.2364
77276.599010966,1007.2364
77276.632580302,1007.2364
77276.66614963801,1007.2364
77276.699718974,1007.2364
77276.73328831,1007.2364
77276.766857646,1007.2364
77276.80042698201,1007.2364
77276.833996318,1007.2364
77276.867565654,1007.2364
77276.90113499001,1007.2364
77276.934704326,1007.24335
77276.968273662,1007.2464
77277.00184299801,1007.2464
77277.035412333,1007.2464
77277.068981669,1007.2464
77277.10255100501,1007.2464
77277.136120341,1007.2464
77277.169689677,1007.2464
77277.20325901301,1007.2464
77277.236828349,1007.2464
77277.270397685,1007.2464
77277.303967021,1007.2464
77277.33753635701,1007.2464
77277.371105693,1007.2464
77277.404675029,1007.2464
77277.43824436501,1007.2464
77277.471813701,1007.2464
77277.505383037,1007.2464
77277.53895237301,1007.2464
77277.572521708,1007.2464
77277.606091044,1007.2464
77277.63966038001,1007.2449
77277.673229716,1007.2364
77277.706799052,1007.2364
77277.74036838801,1007.2364
77277.773937724,1007.2364
77277.80750706,1007.2364
77277.841076396,1007.2364
77277.87464573201,1007.2364
77277.908215068,1007.2364
77277.941784404,1007.2364
77277.97535374001,1007.2364
77278.008923076,1007.2364
77278.042492412,1007.2364
77278.07606174801,1007.2364
77278.109631083,1007.2364
77278.143200419,1007.2364
77278.17676975501,1007.2364
77278.210339091,1007.2364
77278.243908427,1007.2364
77278.27747776301,1007.2364
77278.311047099,1007.2364
77278.344616435,1007.2364
77278.378185771,1007.22906
77278.41175510701,1007.22644
77278.445324443,1007.22644
77278.478893779,1007.22644
77278.51246311501,1007.22644
77278.546032451,1007.22644
77278.579601787,1007.22644
77278.61317112301,1007.22644
77278.646740458,1007.22644
77278.680309794,1007.22644
77278.71387913001,1007.22644
77278.747448466,1007.2262
77278.781017802,1007.21643
77278.81458713801,1007.21643
77278.848156474,1007.21643
77278.88172581,1007.21643
77278.915295146,1007.21643
77278.94886448201,1007.21643
77278.982433818,1007.21643
77279.016003202,1007.22595
77279.049572538,1007.22644
77279.083141874,1007.2245
77279.11671121001,1007.21643
77279.150280546,1007.21643
77279.18384988101,1007.21643
77279.217419217,1007.21643
77279.250988553,1007.21643
77279.28455788901,1007.21643
77279.31812722501,1007.21643
77279.351696561,1007.21643
77279.385265897,1007.21643
77279.41883523301,1007.21643
77279.452404569,1007.21643
77279.485973905,1007.21643
77279.51954324101,1007.21643
77279.553112577,1007.2081
77279.586681913,1007.2064
77279.620251249,1007.2064
77279.65382058501,1007.2064
77279.687389921,1007.2064
77279.72095925601,1007.2106
77279.754528592,1007.21643
77279.788097928,1007.21643
77279.82166726401,1007.21643
77279.85523660001,1007.21643
77279.888805936,1007.21643
77279.922375272,1007.21643
77279.95594460801,1007.21643
77279.989513944,1007.21643
77280.02308328,1007.21643
77280.05665261601,1007.21643
77280.090221952,1007.21643
77280.123791288,1007.21643
77280.157360624,1007.21643
77280.19092996001,1007.21643
77280.224499296,1007.21643
77280.25806863101,1007.21643
77280.291637967,1007.21643
77280.325207303,1007.2112
77280.35877663901,1007.2064
77280.39234597501,1007.2064
77280.425915311,1007.2064
77280.459484647,1007.2064
77280.49305398301,1007.2064
77280.526623319,1007.2064
77280.560192655,1007.2064
77280.59376199101,1007.2064
77280.627331327,1007.2064
77280.660900663,1007.2064
77280.694469999,1007.2064
77280.72803933501,1007.2064
77280.761608671,1007.2064
77280.79517800601,1007.2064
77280.828747342,1007.2064
77280.862316678,1007.2064
77280.89588601401,1007.2064
77280.92945535001,1007.2064
77280.963024686,1007.2064
77280.996594022,1007.2064
77281.03016335801,1007.2064
77281.063732694,1007.2064
77281.09730203,1007.2064
77281.13087136601,1007.2064
77281.164440702,1007.2064
77281.198010038,1007.2064
77281.231579374,1007.2064
77281.26514871001,1007.2064
77281.298718046,1007.2064
77281.33228738101,1007.2064
77281.365856717,1007.2064
77281.399426053,1007.2064
77281.43299538901,1007.2103
77281.46656472501,1007.21643
77281.500134061,1007.2102
77281.533703397,1007.2064
77281.56727273301,1007.2064
77281.600842069,1007.2064
77281.634411405,1007.2064
77281.66798074101,1007.2064
77281.701550077,1007.2064
77281.735119413,1007.2064
77281.768688749,1007.21204
77281.80225808501,1007.21643
77281.835827421,1007.21643
77281.86939675601,1007.21643
77281.902966092,1007.21643
77281.936535428,1007.21643
77281.97010476401,1007.21375
77282.00367410001,1007.2064
77282.037243436,1007.2064
77282.070812772,1007.2064
77282.10438210801,1007.2064
77282.137951444,1007.2064
77282.17152078,1007.2064
77282.20509011601,1007.2064
77282.238659452,1007.2064
77282.272228788,1007.2064
77282.305798124,1007.2064
77282.33936746001,1007.2064
77282.372936796,1007.2064
77282.40650613101,1007.2064
77282.440075467,1007.2064
77282.473644803,1007.2064
77282.50721413901,1007.2064
77282.54078347501,1007.2064
77282.574352811,1007.2064
77282.607922147,1007.2064
77282.64149148301,1007.2064
77282.675060819,1007.2064
77282.708630155,1007.2064
77282.74219949101,1007.2064
77282.775768827,1007.21643
77282.809338163,1007.21643
77282.842907499,1007.21643
77282.87647683501,1007.21643
77282.910046171,1007.21643
77282.94361550601,1007.21643
77282.977184842,1007.21643
77283.010754178,1007.21643
77283.04432351401,1007.21643
77283.07789285001,1007.21643
77283.111462186,1007.21643
77283.145031522,1007.21643
77283.17860085801,1007.21643
77283.212170194,1007.21643
77283.24573953,1007.21643
77283.27930886601,1007.21643
77283.312878202,1007.21643
77283.346447538,1007.21643
77283.380016874,1007.21643
77283.41358621001,1007.21643
77283.447155546,1007.21643
77283.48072488101,1007.2218
77283.514294217,1007.22644
77283.547863553,1007.22644
77283.58143288901,1007.22644
77283.61500222501,1007.22644
77283.648571561,1007.2252
77283.682140897,1007.21643
77283.71571023301,1007.21643
77283.749279569,1007.21643
77283.782848905,1007.21643
77283.81641824101,1007.21643
77283.849987577,1007.21643
77283.883556913,1007.21643
77283.917126249,1007.21643
77283.95069558501,1007.21643
77283.984264921,1007.21643
77284.01783425601,1007.21643
77284.051403592,1007.21643
77284.084972928,1007.21643
77284.11854226401,1007.21643
77284.15211160001,1007.21643
77284.185680936,1007.21643
77284.219250272,1007.21643
77284.25281960801,1007.21643
77284.286388944,1007.21643
77284.31995828,1007.2118
77284.35352761601,1007.2064
77284.387096952,1007.2064
77284.420666288,1007.2064
77284.454235624,1007.2064
77284.48780496001,1007.2064
77284.521374296,1007.2064
77284.55494363101,1007.2064
77284.588512967,1007.2064
77284.622082303,1007.2064
77284.65565163901,1007.2064
77284.68922097501,1007.2064
77284.722790311,1007.2064
77284.756359647,1007.2064
77284.78992898301,1007.2064
77284.823498319,1007.2064
77284.857067655,1007.2064
77284.89063699101,1007.2064
77284.924206327,1007.2064
77284.957775663,1007.2064
77284.991344999,1007.2064
77285.02491433501,1007.2064
77285.058483671,1007.2064
77285.09205300601,1007.2064
77285.125622342,1007.2064
77285.159191678,1007.2064
77285.19276101401,1007.2064
77285.22633035001,1007.2064
77285.259899686,1007.2064
77285.293469022,1007.2064
77285.32703835801,1007.2064
77285.360607694,1007.2064
77285.39417703,1007.2064
77285.42774636601,1007.2064
77285.461315702,1007.2064
77285.494885038,1007.2064
77285.528454374,1007.21326
77285.56202371001,1007.21643
77285.595593046,1007.21643
77285.62916238101,1007.21643
77285.662731717,1007.21643
77285.696301053,1007.2191
77285.72987038901,1007.22644
77285.76343972501,1007.22644
77285.797009061,1007.22644
77285.830578397,1007.22644
77285.86414773301,1007.2179
77285.897717069,1007.21643
77285.931286405,1007.21643
77285.96485574101,1007.21643
77285.998425077,1007.21643
77286.031994413,1007.21643
77286.065563749,1007.21643
77286.09913308501,1007.21643
77286.132702421,1007.21643
77286.16627175601,1007.21643
77286.199841092,1007.21643
77286.233410428,1007.21643
77286.26697976401,1007.21643
77286.30054910001,1007.22015
77286.334118436,1007.22644
77286.367687772,1007.22644
77286.40125710801,1007.22644
77286.434826444,1007.22644
77286.46839578,1007.22644
77286.50196511601,1007.22644
77286.535534452,1007.22644
77286.569103788,1007.22644
77286.602673124,1007.22644
77286.63624246001,1007.22644
77286.669811796,1007.22644
77286.70338113101,1007.22644
77286.736950467,1007.22644
77286.770519803,1007.22644
77286.80408913901,1007.22644
77286.83765847501,1007.22644
77286.871227811,1007.2227
77286.904797147,1007.21643
77286.93836648301,1007.21643
77286.971935819,1007.2236
77287.005505155,1007.22644
77287.03907449101,1007.22644
77287.072643827,1007.22644
77287.106213163,1007.22644
77287.139782499,1007.22644
77287.17335183501,1007.22644
77287.206921171,1007.221
77287.24049050601,1007.21643
77287.274059842,1007.21643
77287.307629178,1007.22534
77287.34119851401,1007.22644
77287.37476785001,1007.22644
77287.408337186,1007.22644
77287.441906522,1007.22644
77287.47547585801,1007.22644
77287.509045194,1007.22644
77287.54261453,1007.22644
77287.57618386601,1007.22644
77287.609753202,1007.22644
77287.643322538,1007.22644
77287.676891874,1007.22644
77287.71046121001,1007.22644
77287.744030546,1007.22644
77287.77759988101,1007.22644
77287.811169217,1007.22644
77287.844738553,1007.22644
77287.87830788901,1007.22644
77287.91187722501,1007.22644
77287.945446561,1007.22644
77287.979015897,1007.22644
77288.01258523301,1007.22644
77288.046154569,1007.22644
77288.079723905,1007.22644
77288.11329324101,1007.22644
77288.146862577,1007.22644
77288.180431913,1007.22644
77288.214001249,1007.22644
77288.24757058501,1007.22644
77288.281139921,1007.22644
77288.31470925601,1007.22644
77288.348278592,1007.23157
77288.381847928,1007.2364
77288.41541726401,1007.2364
77288.44898660001,1007.2364
77288.482555936,1007.2364
77288.516125272,1007.23535
77288.54969460801,1007.22644
77288.583263944,1007.22644
77288.61683328,1007.22644
77288.65040261601,1007.22644
77288.683971952,1007.22644
77288.717541288,1007.22644
77288.751110624,1007.22644
77288.78467996001,1007.22644
77288.818249296,1007.22644
77288.85181863101,1007.22644
77288.885387967,1007.22644
77288.918957303,1007.22644
77288.95252663901,1007.22644
77288.98609597501,1007.22644
77289.01967005001,1007.22644
77289.053239386,1007.22644
77289.086808722,1007.22644
77289.12037805801,1007.22644
77289.153947394,1007.22644
77289.18751673,1007.22644
77289.221086066,1007.22644
77289.25465540201,1007.22644
77289.288224738,1007.22644
77289.321794074,1007.22644
77289.35536341001,1007.22644
77289.388932745,1007.22644
77289.42250208101,1007.22644
77289.45607141701,1007.22644
77289.489640753,1007.22644
77289.523210089,1007.2202
77289.55677942501,1007.21643
77289.590348761,1007.21643
77289.623918097,1007.21643
77289.65748743301,1007.21643
77289.691056769,1007.21643
77289.724626105,1007.21643
77289.758195441,1007.21643
77289.79176477701,1007.21643
77289.825334113,1007.21643
77289.858903449,1007.21643
77289.89247278501,1007.21643
77289.92604212,1007.21643
77289.95961145601,1007.21643
77289.99318079201,1007.21643
77290.026750128,1007.21265
77290.060319464,1007.2064
77290.09388880001,1007.2125
77290.127458136,1007.21643
77290.161027472,1007.21643
77290.19459680801,1007.21643
77290.228166144,1007.21643
77290.26173548,1007.21643
77290.295304816,1007.21643
77290.32887415201,1007.21643
77290.362443488,1007.21643
77290.396012824,1007.21643
77290.42958216001,1007.21643
77290.463151495,1007.21643
77290.49672083101,1007.21643
77290.53029016701,1007.21643
77290.563859503,1007.21643
77290.597428839,1007.21643
77290.63099817501,1007.21643
77290.664567511,1007.21643
77290.698136847,1007.21643
77290.73170618301,1007.21643
77290.765275519,1007.22595
77290.798844855,1007.22644
77290.832414191,1007.22644
77290.86598352701,1007.22644
77290.899552863,1007.22644
77290.933122199,1007.22644
77290.96669153501,1007.22644
77291.00026087,1007.22644
77291.03383020601,1007.22644
77291.06739954201,1007.22644
77291.100968878,1007.22644
77291.134538214,1007.22644
77291.16810755001,1007.22644
77291.201676886,1007.22644
77291.235246222,1007.22644
77291.26881555801,1007.22644
77291.302384894,1007.22644
77291.33595423,1007.22644
77291.369523566,1007.22644
77291.40309290201,1007.22644
77291.436662238,1007.22644
77291.470231574,1007.22644
77291.50380091001,1007.22644
77291.537370245,1007.22644
77291.57093958101,1007.22644
77291.60450891701,1007.22644
77291.638078253,1007.22644
77291.671647589,1007.22754
77291.70521692501,1007.2364
77291.738786261,1007.2329
77291.772355597,1007.22644
77291.80592493301,1007.22644
77291.839494269,1007.22644
77291.873063605,1007.22644
77291.906632941,1007.22644
77291.94020227701,1007.22644
77291.973771613,1007.22644
77292.007340949,1007.22644
77292.04091028501,1007.22644
77292.07447962,1007.22644
77292.10804895601,1007.22644
77292.14161829201,1007.22644
77292.175187628,1007.22644
77292.208756964,1007.22644
77292.24232630001,1007.22644
77292.275895636,1007.22644
77292.309464972,1007.22644
77292.34303430801,1007.2218
77292.376603644,1007.21643
77292.41017298,1007.2233
77292.443742316,1007.22644
77292.47731165201,1007.22644
77292.510880988,1007.22644
77292.544450324,1007.22644
77292.57801966001,1007.22644
77292.611588995,1007.22644
77292.64515833101,1007.22644
77292.67872766701,1007.22644
77292.712297003,1007.22644
77292.745866339,1007.22644
77292.77943567501,1007.22644
77292.813005011,1007.22644
77292.846574347,1007.22644
77292.88014368301,1007.22644
77292.913713019,1007.22644
77292.947282355,1007.22644
77292.980851691,1007.22644
77293.01442102701,1007.22644
77293.047990363,1007.22644
77293.081559699,1007.22644
77293.11512903501,1007.22644
77293.14869837,1007.22644
77293.18226770601,1007.22644
77293.21583704201,1007.22644
77293.249406378,1007.2326
77293.282975714,1007.2364
77293.31654505001,1007.2364
77293.350114386,1007.2364
77293.383683722,1007.2373
77293.41725305801,1007.2464
77293.450822394,1007.2464
77293.48439173,1007.2464
77293.517961066,1007.2464
77293.55153040201,1007.2464
77293.585099738,1007.2543
77293.618669074,1007.2564
77293.65223841001,1007.2464
77293.685807745,1007.2464
77293.71937708101,1007.24896
77293.75294641701,1007.2564
77293.786515753,1007.2564
77293.820085089,1007.2564
77293.85365442501,1007.24915
77293.887223761,1007.2464
77293.920793097,1007.256
77293.95436243301,1007.2564
77293.987931769,1007.2564
77294.021501105,1007.2564
77294.055070441,1007.2564
77294.08863977701,1007.2564
77294.122209113,1007.2564
77294.155778449,1007.2564
77294.18934778501,1007.2564
77294.22291712,1007.2564
77294.25648645601,1007.2564
77294.29005579201,1007.2564
77294.323625128,1007.2564
77294.357194464,1007.2564
77294.39076380001,1007.2564
77294.424333136,1007.2564
77294.457902472,1007.2564
77294.49147180801,1007.2564
77294.525041144,1007.26636
77294.55861048,1007.26636
77294.592179816,1007.26636
77294.62574915201,1007.26636
77294.659318488,1007.26636
77294.692887824,1007.26636
77294.72645716001,1007.26636
77294.760026495,1007.26636
77294.79359583101,1007.26636
77294.82716516701,1007.26636
77294.860734503,1007.26636
77294.894303839,1007.26636
77294.92787317501,1007.26636
77294.961442511,1007.26636
77294.995011847,1007.26636
77295.02858118301,1007.26636
77295.062150519,1007.26636
77295.095719855,1007.26636
77295.129289191,1007.26636
77295.16285852701,1007.26636
77295.196427863,1007.26636
77295.229997199,1007.26105
77295.26356653501,1007.2564
77295.29713587,1007.2564
77295.33070520601,1007.2564
77295.36427454201,1007.2564
77295.397843878,1007.2552
77295.431413214,1007.2464
77295.46498255001,1007.2499
77295.498551886,1007.2564
77295.532121222,1007.2564
77295.56569055801,1007.2564
77295.599259894,1007.2564
77295.63282923,1007.2564
77295.666398566,1007.2564
77295.69996790201,1007.2564
77295.733537238,1007.2564
77295.767106574,1007.2564
77295.80067591001,1007.2564
77295.834245245,1007.2564
77295.86781458101,1007.2564
77295.90138391701,1007.2564
77295.934953253,1007.2564
77295.968522589,1007.2564
77296.00209192501,1007.25867
77296.035661261,1007.26636
77296.069230597,1007.2618
77296.10279993301,1007.2564
77296.136369269,1007.2633
77296.169938605,1007.26636
77296.203507941,1007.26636
77296.23707727701,1007.26636
77296.270646613,1007.2648
77296.304215949,1007.2564
77296.33778528501,1007.2564
77296.37135462,1007.2564
77296.40492395601,1007.2564
77296.43849329201,1007.2564
77296.472062628,1007.24774
77296.505631964,1007.2464
77296.53920130001,1007.2464
77296.572770636,1007.2464
77296.606339972,1007.2464
77296.63990930801,1007.2464
77296.673478644,1007.2464
77296.70704798,1007.2464
77296.740617316,1007.2464
77296.77418665201,1007.2464
77296.807755988,1007.2464
77296.841325324,1007.2464
77296.87489466001,1007.2464
77296.908463995,1007.2464
77296.94203333101,1007.2464
77296.97560266701,1007.2464
77297.009172003,1007.2464
77297.042741339,1007.2464
77297.07631067501,1007.2464
77297.109880011,1007.2464
77297.143449347,1007.2464
77297.17701868301,1007.2464
77297.210588019,1007.2464
77297.244157355,1007.2464
77297.277726691,1007.2464
77297.31129602701,1007.2464
77297.344865363,1007.2464
77297.378434699,1007.2464
77297.41200403501,1007.2464
77297.44557337,1007.2464
77297.47914270601,1007.2464
77297.51271204201,1007.24146
77297.546281378,1007.2364
77297.579850714,1007.24365
77297.61342005001,1007.2464
77297.646989386,1007.2464
77297.680558722,1007.2464
77297.71412805801,1007.2464
77297.747697394,1007.2464
77297.78126673,1007.2464
77297.814836066,1007.2464
77297.84840540201,1007.2464
77297.881974738,1007.2464
77297.915544074,1007.2464
77297.94911341001,1007.2464
77297.982682745,1007.2464
77298.01625208101,1007.2464
77298.04982141701,1007.2464
77298.083390753,1007.2464
77298.116960089,1007.2464
77298.15052942501,1007.2464
77298.184098761,1007.2464
77298.217668097,1007.2464
77298.25123743301,1007.2464
77298.284806769,1007.2464
77298.318376105,1007.2464
77298.351945441,1007.2464
77298.38551477701,1007.2464
77298.419084113,1007.2464
77298.452653449,1007.2464
77298.48622278501,1007.2464
77298.51979212,1007.2464
77298.55336145601,1007.2464
77298.58693079201,1007.2464
77298.620500128,1007.2428
77298.654069464,1007.2364
77298.68763880001,1007.2424
77298.721208136,1007.2464
77298.754777472,1007.2464
77298.78834680801,1007.23694
77298.821916144,1007.2364
77298.85548548,1007.2364
77298.889054816,1007.2394
77298.92262415201,1007.2464
77298.956193488,1007.2464
77298.989762824,1007.2464
77299.023316977,1007.2464
77299.056886312,1007.2464
77299.09045564801,1007.2464
77299.124024984,1007.2464
77299.15759432,1007.2464
77299.19116365601,1007.2464
77299.224732992,1007.2464
77299.258302328,1007.2464
77299.291871664,1007.2464
77299.32544100001,1007.2464
77299.359010336,1007.2464
77299.392579672,1007.2464
77299.42614900801,1007.2464
77299.459718344,1007.2464
77299.49328768,1007.2423
77299.52685701601,1007.2364
77299.560426352,1007.2364
77299.593995687,1007.2364
77299.62756502301,1007.2364
77299.661134359,1007.2364
77299.694703695,1007.2364
77299.72827303101,1007.2364
77299.761842367,1007.2364
77299.795411703,1007.2364
77299.828981039,1007.2364
77299.86255037501,1007.2364
77299.896119711,1007.2364
77299.929689047,1007.2364
77299.96325838301,1007.2364
77299.996827719,1007.23474
77300.030397055,1007.22644
77300.06396639101,1007.22644
77300.097535727,1007.22644
77300.131105062,1007.22644
77300.16467439801,1007.22644
77300.198243734,1007.22644
77300.23181307,1007.22644
77300.26538240601,1007.22644
77300.298951742,1007.22644
77300.332521078,1007.22644
77300.366090414,1007.22644
77300.39965975001,1007.22644
77300.433229086,1007.22644
77300.466798422,1007.23444
77300.50036775801,1007.2364
77300.533937094,1007.2364
77300.56750643,1007.2364
77300.60107576601,1007.2364
77300.634645102,1007.2364
77300.668214437,1007.2364
77300.70178377301,1007.2364
77300.735353109,1007.2364
77300.768922445,1007.2364
77300.80249178101,1007.2364
77300.836061117,1007.2364
77300.869630453,1007.2364
77300.903199789,1007.2364
77300.93676912501,1007.23193
77300.970338461,1007.22644
77301.003907797,1007.23315
77301.03747713301,1007.2364
77301.071046469,1007.2364
77301.104615805,1007.2364
77301.13818514101,1007.2364
77301.171754477,1007.2364
77301.205323812,1007.2364
77301.23889314801,1007.2364
77301.272462484,1007.24255
77301.30603182,1007.2464
77301.33960115601,1007.2464
77301.373170492,1007.2464
77301.406739828,1007.2464
77301.440309164,1007.2464
77301.47387850001,1007.2464
77301.507447836,1007.2464
77301.541017172,1007.2464
77301.57458650801,1007.2464
77301.608155844,1007.2464
77301.64172518,1007.2464
77301.67529451601,1007.2464
77301.708863852,1007.2464
77301.742433187,1007.2464
77301.77600252301,1007.2464
77301.809571859,1007.2464
77301.843141195,1007.2464
77301.87671053101,1007.2464
77301.910279867,1007.2464
77301.943849203,1007.2464
77301.977418539,1007.24567
77302.01098787501,1007.2364
77302.044557211,1007.2364
77302.078126547,1007.2364
77302.11169588301,1007.2364
77302.145265219,1007.2364
77302.178834555,1007.2364
77302.21240389101,1007.2364
77302.245973227,1007.2364
77302.279542562,1007.2364
77302.31311189801,1007.2364
77302.346681234,1007.2364
77302.38025057,1007.2364
77302.41381990601,1007.2364
77302.447389242,1007.2364
77302.480958578,1007.2364
77302.514527914,1007.2364
77302.54809725001,1007.2364
77302.581666586,1007.2364
77302.615235922,1007.2364
77302.64880525801,1007.2364
77302.682374594,1007.2364
77302.71594393,1007.2364
77302.74951326601,1007.2364
77302.783082602,1007.2364
77302.816651937,1007.2364
77302.85022127301,1007.2364
77302.883790609,1007.2364
77302.917359945,1007.2364
77302.95092928101,1007.2364
77302.984498617,1007.2364
77303.018067953,1007.2364
77303.051637289,1007.2364
77303.08520662501,1007.2364
77303.118775961,1007.2364
77303.152345297,1007.2364
77303.18591463301,1007.2364
77303.219483969,1007.2364
77303.253053305,1007.2364
77303.28662264101,1007.2364
77303.320191977,1007.2364
77303.353761312,1007.2364
77303.38733064801,1007.2364
77303.420899984,1007.2364
77303.45446932,1007.2364
77303.48803865601,1007.23303
77303.521607992,1007.22644
77303.555177328,1007.22644
77303.588746664,1007.22644
77303.62231600001,1007.22644
77303.655885336,1007.22644
77303.689454672,1007.2364
77303.72302400801,1007.2364
77303.756593344,1007.2364
77303.79016268,1007.2364
77303.82373201601,1007.2364
77303.857301352,1007.2364
77303.890870687,1007.2364
77303.92444002301,1007.2364
77303.958009359,1007.2364
77303.991578695,1007.2364
77304.02514803101,1007.2364
77304.058717367,1007.2364
77304.092286703,1007.2364
77304.125856039,1007.2364
77304.15942537501,1007.2364
77304.192994711,1007.2364
77304.226564047,1007.2455
77304.26013338301,1007.2464
77304.293702719,1007.2464
77304.327272055,1007.2438
77304.36084139101,1007.2364
77304.394410727,1007.2364
77304.427980062,1007.2364
77304.46154939801,1007.2364
77304.495118734,1007.2364
77304.52868807,1007.2364
77304.56225740601,1007.2464
77304.595826742,1007.2464
77304.629396078,1007.2464
77304.662965414,1007.2464
77304.69653475001,1007.2464
77304.730104086,1007.2464
77304.763673422,1007.2464
77304.79724275801,1007.2464
77304.830812094,1007.2464
77304.86438143,1007.2464
77304.89795076601,1007.2464
77304.931520102,1007.2427
77304.965089437,1007.2364
77304.99865877301,1007.24243
77305.032228109,1007.2464
77305.065797445,1007.2464
77305.09936678101,1007.2464
77305.132936117,1007.2464
77305.166505453,1007.2464
77305.200074789,1007.24335
77305.23364412501,1007.2364
77305.267213461,1007.2364
77305.300782797,1007.2364
77305.33435213301,1007.2364
77305.367921469,1007.2364
77305.401490805,1007.2364
77305.43506014101,1007.2364
77305.468629477,1007.2364
77305.502198812,1007.2364
77305.53576814801,1007.2364
77305.569337484,1007.2364
77305.60290682,1007.2364
77305.63647615601,1007.2364
77305.670045492,1007.227
77305.703614828,1007.22644
77305.737184164,1007.22644
77305.77075350001,1007.22644
77305.804322836,1007.22644
77305.837892172,1007.22644
77305.87146150801,1007.22644
77305.905030844,1007.22644
77305.93860018,1007.22644
77305.97216951601,1007.22644
77306.005738852,1007.22644
77306.039308187,1007.22644
77306.07287752301,1007.22644
77306.106446859,1007.231
77306.140016195,1007.2364
77306.17358553101,1007.2364
77306.207154867,1007.2364
77306.240724203,1007.2364
77306.274293539,1007.2364
77306.30786287501,1007.2364
77306.341432211,1007.2364
77306.375001547,1007.2364
77306.40857088301,1007.2364
77306.442140219,1007.2364
77306.475709555,1007.2364
77306.50927889101,1007.2364
77306.542848227,1007.2364
77306.576417562,1007.2364
77306.60998689801,1007.2364
77306.643556234,1007.2364
77306.67712557,1007.2364
77306.71069490601,1007.24207
77306.744264242,1007.2464
77306.777833578,1007.2464
77306.811402914,1007.2464
77306.84497225001,1007.2364
77306.878541586,1007.2364
77306.912110922,1007.2364
77306.94568025801,1007.2364
77306.979249594,1007.2364
77307.01281893,1007.2364
77307.04638826601,1007.229
77307.079957602,1007.22644
77307.113526937,1007.22644
77307.14709627301,1007.22644
77307.180665609,1007.22644
77307.214234945,1007.22644
77307.24780428101,1007.22644
77307.281373617,1007.232
77307.314942953,1007.2364
77307.348512289,1007.2364
77307.38208162501,1007.2273
77307.415650961,1007.22644
77307.449220297,1007.22644
77307.48278963301,1007.22644
77307.516358969,1007.22644
77307.549928305,1007.22644
77307.58349764101,1007.22644
77307.617066977,1007.22644
77307.650636312,1007.22644
77307.68420564801,1007.22644
77307.717774984,1007.22644
77307.75134432,1007.22644
77307.78491365601,1007.22644
77307.818482992,1007.22644
77307.852052328,1007.22644
77307.885621664,1007.22644
77307.91919100001,1007.22644
77307.952760336,1007.22644
77307.986329672,1007.22644
77308.01989900801,1007.22644
77308.053468344,1007.22644
77308.08703768,1007.22644
77308.12060701601,1007.22644
77308.154176352,1007.22644
77308.187745687,1007.22644
77308.22131502301,1007.22644
77308.254884359,1007.22644
77308.288453695,1007.22644
77308.32202303101,1007.22644
77308.355592367,1007.22644
77308.389161703,1007.22644
77308.422731039,1007.22644
77308.45630037501,1007.22644
77308.489869711,1007.22644
77308.523439047,1007.22644
77308.55700838301,1007.22644
77308.590577719,1007.2252
77308.624147055,1007.21643
77308.65771639101,1007.21643
77308.691285727,1007.21643
77308.724855062,1007.21643
77308.75842439801,1007.21643
77308.791993734,1007.21643
77308.82556307,1007.21643
77308.85913240601,1007.21643
77308.892701742,1007.21643
77308.926271078,1007.2193
77308.959840414,1007.22644
77308.993434271,1007.22644
77309.027003607,1007.22644
77309.06057294301,1007.22644
77309.094142279,1007.22644
77309.127711615,1007.22644
77309.16128095101,1007.21643
77309.19485028701,1007.21643
77309.228419623,1007.21643
77309.26198895801,1007.21643
77309.295558294,1007.21643
77309.32912763,1007.21643
77309.36269696601,1007.21643
77309.396266302,1007.21643
77309.429835638,1007.21643
77309.463404974,1007.21643
77309.49697431001,1007.21643
77309.530543646,1007.21643
77309.564112982,1007.21643
77309.59768231801,1007.21643
77309.631251654,1007.21643
77309.66482099,1007.21643
77309.69839032601,1007.21643
77309.73195966201,1007.21643
77309.765528998,1007.21857
77309.79909833301,1007.22644
77309.832667669,1007.22644
77309.866237005,1007.22644
77309.89980634101,1007.22644
77309.933375677,1007.22644
77309.966945013,1007.22644
77310.000514349,1007.21643
77310.03408368501,1007.2179
77310.067653021,1007.22644
77310.101222357,1007.22253
77310.13479169301,1007.21643
77310.168361029,1007.2226
77310.201930365,1007.22644
77310.23549970101,1007.22644
77310.26906903701,1007.2167
77310.302638373,1007.2173
77310.33620770801,1007.22644
77310.369777044,1007.22644
77310.40334638,1007.22644
77310.43691571601,1007.22644
77310.470485052,1007.22644
77310.504054388,1007.22644
77310.537623724,1007.22644
77310.57119306001,1007.22644
77310.604762396,1007.22644
77310.638331732,1007.2239
77310.67190106801,1007.21643
77310.705470404,1007.21643
77310.73903974,1007.21643
77310.77260907601,1007.21643
77310.80617841201,1007.21643
77310.839747748,1007.21643
77310.87331708301,1007.21643
77310.906886419,1007.21643
77310.940455755,1007.21643
77310.97402509101,1007.21216
77311.007594427,1007.2064
77311.041163763,1007.213
77311.074733099,1007.21643
77311.10830243501,1007.21643
77311.141871771,1007.21643
77311.175441107,1007.21643
77311.20901044301,1007.214
77311.242579779,1007.2064
77311.276149115,1007.2064
77311.30971845101,1007.2064
77311.34328778701,1007.2064
77311.376857123,1007.2064
77311.41042645801,1007.2064
77311.443995794,1007.2064
77311.47756513,1007.2082
77311.51113446601,1007.21643
77311.544703802,1007.21643
77311.578273138,1007.21643
77311.611842474,1007.20996
77311.64541181001,1007.2064
77311.678981146,1007.2064
77311.712550482,1007.2064
77311.74611981801,1007.2064
77311.779689154,1007.2064
77311.81325849,1007.2029
77311.84682782601,1007.1964
77311.88039716201,1007.1964
77311.913966498,1007.1964
77311.94753583301,1007.1964
77311.981105169,1007.1964
77312.014674505,1007.1964
77312.04824384101,1007.1964
77312.081813177,1007.1964
77312.115382513,1007.1964
77312.148951849,1007.1964
77312.18252118501,1007.1964
77312.216090521,1007.1964
77312.249659857,1007.1964
77312.28322919301,1007.20636
77312.316798529,1007.2064
77312.350367865,1007.2064
77312.38393720101,1007.2064
77312.41750653701,1007.2018
77312.451075873,1007.1964
77312.48464520801,1007.20337
77312.518214544,1007.2064
77312.55178388,1007.2064
77312.58535321601,1007.2064
77312.618922552,1007.2064
77312.652491888,1007.2064
77312.686061224,1007.2064
77312.71963056001,1007.2064
77312.753199896,1007.2064
77312.786769232,1007.2064
77312.82033856801,1007.2064
77312.853907904,1007.2064
77312.88747724,1007.2064
77312.92104657601,1007.2064
77312.95461591201,1007.2064
77312.988185248,1007.211
77313.02175458301,1007.21643
77313.055323919,1007.21643
77313.088893255,1007.21643
77313.12246259101,1007.21643
77313.156031927,1007.21643
77313.189601263,1007.21643
77313.223170599,1007.21643
77313.25673993501,1007.21643
77313.290309271,1007.21643
77313.323878607,1007.21643
77313.35744794301,1007.21643
77313.391017279,1007.21643
77313.424586615,1007.21643
77313.45815595101,1007.21643
77313.49172528701,1007.21643
77313.525294623,1007.21643
77313.55886395801,1007.21643
77313.592433294,1007.21643
77313.62600263,1007.21643
77313.65957196601,1007.21643
77313.693141302,1007.21643
77313.726710638,1007.21643
77313.760279974,1007.21643
77313.79384931001,1007.21643
77313.827418646,1007.21643
77313.860987982,1007.21643
77313.89455731801,1007.21643
77313.928126654,1007.209
77313.96169599,1007.2064
77313.99526532601,1007.2064
77314.02883466201,1007.2064
77314.062403998,1007.2064
77314.09597333301,1007.2097
77314.129542669,1007.21643
77314.163112005,1007.21643
77314.19668134101,1007.21643
77314.230250677,1007.21643
77314.263820013,1007.21643
77314.297389349,1007.21643
77314.33095868501,1007.21643
77314.364528021,1007.21643
77314.398097357,1007.21643
77314.43166669301,1007.21643
77314.465236029,1007.21643
77314.498805365,1007.21643
77314.53237470101,1007.21643
77314.56594403701,1007.21643
77314.599513373,1007.21643
77314.63308270801,1007.21643
77314.666652044,1007.21643
77314.70022138,1007.21643
77314.73379071601,1007.21643
77314.767360052,1007.21643
77314.800929388,1007.21643
77314.834498724,1007.21643
77314.86806806001,1007.21643
77314.901637396,1007.21643
77314.935206732,1007.21643
77314.96877606801,1007.21643
77315.002345404,1007.21643
77315.03591474,1007.2226
77315.06948407601,1007.22644
77315.10305341201,1007.22644
77315.136622748,1007.22644
77315.17019208301,1007.22644
77315.203761419,1007.22644
77315.237330755,1007.22644
77315.27090009101,1007.22644
77315.304469427,1007.22644
77315.338038763,1007.22644
77315.371608099,1007.22644
77315.40517743501,1007.22644
77315.438746771,1007.22644
77315.472316107,1007.22644
77315.50588544301,1007.22644
77315.539454779,1007.2301
77315.573024115,1007.2364
77315.60659345101,1007.2364
77315.64016278701,1007.2364
77315.673732123,1007.2364
77315.70730145801,1007.246
77315.740870794,1007.2464
77315.77444013,1007.2464
77315.80800946601,1007.2433
77315.841578802,1007.2364
77315.875148138,1007.2418
77315.908717474,1007.2464
77315.94228681001,1007.2464
77315.975856146,1007.2374
77316.009425482,1007.2364
77316.04299481801,1007.2364
77316.076564154,1007.2364
77316.11013349,1007.2364
77316.14370282601,1007.2364
77316.17727216201,1007.2364
77316.210841498,1007.2364
77316.24441083301,1007.2364
77316.277980169,1007.2364
77316.311549505,1007.2364
77316.34511884101,1007.2364
77316.378688177,1007.2364
77316.412257513,1007.2364
77316.445826849,1007.2364
77316.47939618501,1007.2364
77316.512965521,1007.2364
77316.546534857,1007.2364
77316.58010419301,1007.2364
77316.613673529,1007.2364
77316.647242865,1007.2364
77316.68081220101,1007.2364
77316.71438153701,1007.2364
77316.747950873,1007.2306
77316.78152020801,1007.22644
77316.815089544,1007.22644
77316.84865888,1007.22644
77316.88222821601,1007.22644
77316.915797552,1007.22644
77316.949366888,1007.22644
77316.982936224,1007.22644
77317.01650556001,1007.2212
77317.050074896,1007.21643
77317.083644232,1007.21643
77317.11721356801,1007.21643
77317.150782904,1007.21643
77317.18435224,1007.21643
77317.21792157601,1007.21643
77317.25149091201,1007.21643
77317.285060248,1007.21643
77317.31862958301,1007.21643
77317.352198919,1007.21643
77317.385768255,1007.21643
77317.41933759101,1007.2256
77317.452906927,1007.22644
77317.486476263,1007.22644
77317.520045599,1007.22644
77317.55361493501,1007.22644
77317.587184271,1007.22644
77317.620753607,1007.22644
77317.65432294301,1007.22644
77317.687892279,1007.22644
77317.721461615,1007.22644
77317.75503095101,1007.22644
77317.78860028701,1007.22644
77317.822169623,1007.22644
77317.85573895801,1007.22644
77317.889308294,1007.22644
77317.92287763,1007.22644
77317.95644696601,1007.22644
77317.990016302,1007.22644
77318.023585638,1007.22644
77318.057154974,1007.22644
77318.09072431001,1007.22644
77318.124293646,1007.22644
77318.157862982,1007.22644
77318.19143231801,1007.22644
77318.225001654,1007.22644
77318.25857099,1007.22644
77318.29214032601,1007.22644
77318.32570966201,1007.22644
77318.359278998,1007.22644
77318.39284833301,1007.22644
77318.426417669,1007.22644
77318.459987005,1007.22644
77318.49355634101,1007.22644
77318.527125677,1007.22644
77318.560695013,1007.22644
77318.594264349,1007.22644
77318.62783368501,1007.22644
77318.661403021,1007.22644
77318.694972357,1007.22644
77318.72854169301,1007.22644
77318.762111029,1007.2324
77318.795680365,1007.2364
77318.82924970101,1007.2364
77318.86281903701,1007.2364
77318.896388373,1007.2364
77318.92995770801,1007.2364
77318.963527044,1007.2364
77318.99707877201,1007.2364
77319.030648108,1007.2364
77319.064217444,1007.2364
77319.09778678001,1007.2364
77319.131356116,1007.2364
77319.164925452,1007.2364
77319.19849478801,1007.2364
77319.23206412401,1007.2364
77319.26563346,1007.2364
77319.299202796,1007.2317
77319.33277213201,1007.22644
77319.366341468,1007.22644
77319.399910804,1007.22644
77319.43348014001,1007.22644
77319.467049475,1007.22644
77319.500618811,1007.22644
77319.53418814701,1007.22644
77319.567757483,1007.23047
77319.601326819,1007.2364
77319.63489615501,1007.23
77319.668465491,1007.22644
77319.702034827,1007.22644
77319.73560416301,1007.22644
77319.76917349901,1007.22644
77319.802742835,1007.22644
77319.836312171,1007.22644
77319.86988150701,1007.22644
77319.903450843,1007.2322
77319.937020179,1007.2364
77319.97058951501,1007.2283
77320.00415885,1007.22644
77320.037728186,1007.22644
77320.07129752201,1007.22644
77320.104866858,1007.22644
77320.138436194,1007.22644
77320.17200553001,1007.22644
77320.205574866,1007.22644
77320.239144202,1007.22644
77320.27271353801,1007.22644
77320.30628287401,1007.22644
77320.33985221,1007.22644
77320.373421546,1007.22644
77320.40699088201,1007.22644
77320.440560218,1007.22644
77320.474129554,1007.22076
77320.50769889001,1007.21643
77320.541268225,1007.21643
77320.574837561,1007.21643
77320.60840689701,1007.21643
77320.641976233,1007.21643
77320.675545569,1007.21643
77320.70911490501,1007.21643
77320.742684241,1007.21643
77320.776253577,1007.21643
77320.80982291301,1007.22375
77320.84339224901,1007.22644
77320.876961585,1007.22644
77320.910530921,1007.22644
77320.94410025701,1007.22644
77320.977669593,1007.22644
77321.011238929,1007.22644
77321.04480826501,1007.22644
77321.0783776,1007.22644
77321.111946936,1007.22644
77321.14551627201,1007.22644
77321.179085608,1007.22644
77321.212654944,1007.22644
77321.24622428001,1007.22644
77321.279793616,1007.22644
77321.313362952,1007.22644
77321.34693228801,1007.22644
77321.38050162401,1007.22644
77321.41407096,1007.22644
77321.447640296,1007.22644
77321.48120963201,1007.22644
77321.514778968,1007.22644
77321.548348304,1007.22644
77321.58191764001,1007.22644
77321.615486975,1007.22644
77321.649056311,1007.22644
77321.68262564701,1007.22644
77321.716194983,1007.22644
77321.749764319,1007.22644
77321.78333365501,1007.22644
77321.816902991,1007.22644
77321.850472327,1007.2228
77321.88404166301,1007.21643
77321.91761099901,1007.21643
77321.951180335,1007.21643
77321.984749671,1007.21643
77322.01831900701,1007.21643
77322.051888343,1007.21643
77322.085457679,1007.21643
77322.11902701501,1007.21643
77322.15259635,1007.21643
77322.186165686,1007.21643
77322.21973502201,1007.21643
77322.253304358,1007.21643
77322.286873694,1007.21643
77322.32044303001,1007.21643
77322.354012366,1007.21643
77322.387581702,1007.21643
77322.42115103801,1007.21643
77322.45472037401,1007.21643
77322.48828971,1007.21643
77322.521859046,1007.21643
77322.55542838201,1007.21643
77322.588997718,1007.22577
77322.622567054,1007.2259
77322.65613639001,1007.21643
77322.689705725,1007.21643
77322.723275061,1007.21643
77322.75684439701,1007.21643
77322.790413733,1007.21643
77322.823983069,1007.21643
77322.85755240501,1007.2251
77322.891121741,1007.22644
77322.924691077,1007.22644
77322.95826041301,1007.22864
77322.99182974901,1007.2364
77323.025399085,1007.2364
77323.058968421,1007.2364
77323.09253775701,1007.2364
77323.126107093,1007.2364
77323.159676429,1007.2364
77323.19324576501,1007.2364
77323.2268151,1007.2348
77323.260384436,1007.22644
77323.29395377201,1007.22644
77323.327523108,1007.22644
77323.361092444,1007.23267
77323.39466178001,1007.2364
77323.428231116,1007.2278
77323.461800452,1007.22644
77323.49536978801,1007.22644
77323.52893912401,1007.22644
77323.56250846,1007.22974
77323.596077796,1007.2364
77323.62964713201,1007.2308
77323.663216468,1007.22644
77323.696785804,1007.2344
77323.73035514001,1007.2364
77323.763924475,1007.2364
77323.797493811,1007.2364
77323.83106314701,1007.2364
77323.864632483,1007.2364
77323.898201819,1007.2364
77323.93177115501,1007.2364
77323.965340491,1007.22906
77323.998909827,1007.22644
77324.03247916301,1007.22644
77324.06604849901,1007.22644
77324.099617835,1007.22644
77324.133187171,1007.22644
77324.16675650701,1007.22644
77324.200325843,1007.22644
77324.233895179,1007.2331
77324.26746451501,1007.2364
77324.30103385,1007.2364
77324.334603186,1007.2362
77324.36817252201,1007.22644
77324.401741858,1007.22644
77324.435311194,1007.22644
77324.46888053001,1007.22644
77324.502449866,1007.22644
77324.536019202,1007.22644
77324.56958853801,1007.22644
77324.60315787401,1007.22644
77324.63672721,1007.22644
77324.670296546,1007.22644
77324.70386588201,1007.22644
77324.737435218,1007.22644
77324.771004554,1007.22644
77324.80457389001,1007.22644
77324.838143225,1007.22644
77324.871712561,1007.22644
77324.90528189701,1007.22644
77324.938851233,1007.22766
77324.972420569,1007.2364
77325.00598990501,1007.23285
77325.039559241,1007.22644
77325.073128577,1007.2323
77325.10669791301,1007.2364
77325.14026724901,1007.2364
77325.173836585,1007.2364
77325.207405921,1007.2364
77325.24097525701,1007.2364
77325.274544593,1007.2364
77325.308113929,1007.2364
77325.34168326501,1007.2364
77325.3752526,1007.2364
77325.408821936,1007.2364
77325.44239127201,1007.2364
77325.475960608,1007.2364
77325.509529944,1007.2364
77325.54309928001,1007.2364
77325.576668616,1007.2364
77325.610237952,1007.2364
77325.64380728801,1007.2364
77325.67737662401,1007.2364
77325.71094596,1007.2364
77325.744515296,1007.2364
77325.77808463201,1007.2364
77325.811653968,1007.2364
77325.845223304,1007.2336
77325.87879264001,1007.22644
77325.912361975,1007.23157
77325.945931311,1007.2364
77325.97950064701,1007.2364
77326.013069983,1007.2277
77326.046639319,1007.22644
77326.08020865501,1007.2364
77326.113777991,1007.23425
77326.147347327,1007.22644
77326.18091666301,1007.22644
77326.21448599901,1007.22644
77326.248055335,1007.22644
77326.281624671,1007.22644
77326.31519400701,1007.22644
77326.348763343,1007.22644
77326.382332679,1007.2279
77326.41590201501,1007.2364
77326.44947135,1007.23254
77326.483040686,1007.22644
77326.51661002201,1007.22644
77326.550179358,1007.22644
77326.583748694,1007.22644
77326.61731803001,1007.22644
77326.650887366,1007.22644
77326.684456702,1007.22644
77326.71802603801,1007.22644
77326.75159537401,1007.22644
77326.78516471,1007.22644
77326.818734046,1007.22644
77326.85230338201,1007.2185
77326.885872718,1007.21643
77326.919442054,1007.21643
77326.95301139001,1007.21643
77326.986580725,1007.21643
77327.020150061,1007.21643
77327.05371939701,1007.21643
77327.087288733,1007.21643
77327.120858069,1007.21643
77327.15442740501,1007.21643
77327.187996741,1007.21643
77327.221566077,1007.21643
77327.25513541301,1007.21643
77327.28870474901,1007.21643
77327.322274085,1007.21643
77327.355843421,1007.21643
77327.38941275701,1007.21643
77327.422982093,1007.21643
77327.456551429,1007.21643
77327.49012076501,1007.21643
77327.5236901,1007.21643
77327.557259436,1007.21643
77327.59082877201,1007.21643
77327.624398108,1007.21643
77327.657967444,1007.21643
77327.69153678001,1007.21643
77327.725106116,1007.21643
77327.758675452,1007.21643
77327.79224478801,1007.21643
77327.82581412401,1007.21643
77327.85938346,1007.21643
77327.892952796,1007.21643
77327.92652213201,1007.21643
77327.960091468,1007.223
77327.993660804,1007.22644
77328.02723014001,1007.2174
77328.060799475,1007.21643
77328.094368811,1007.21643
77328.12793814701,1007.21643
77328.161507483,1007.21643
77328.195076819,1007.21643
77328.22864615501,1007.21643
77328.262215491,1007.21643
77328.295784827,1007.21643
77328.32935416301,1007.21643
77328.36292349901,1007.21643
77328.396492835,1007.21643
77328.430062171,1007.21643
77328.46363150701,1007.21643
77328.497200843,1007.21643
77328.530770179,1007.21643
77328.56433951501,1007.21643
77328.59790885,1007.21643
77328.631478186,1007.21643
77328.66504752201,1007.21643
77328.698616858,1007.21643
77328.732186194,1007.21643
77328.76575553001,1007.21643
77328.799324866,1007.21643
77328.832894202,1007.21643
77328.86646353801,1007.21643
77328.90003287401,1007.21643
77328.93360221,1007.21643
77328.967171546,1007.21643
77329.00074350601,1007.21643
77329.034312842,1007.21643
77329.067882178,1007.21643
77329.101451514,1007.21643
77329.135020849,1007.21643
77329.168590185,1007.21643
77329.20215952101,1007.21643
77329.235728857,1007.21643
77329.269298193,1007.2189
77329.30286752901,1007.22644
77329.336436865,1007.22156
77329.370006201,1007.21643
77329.403575537,1007.21643
77329.43714487301,1007.21643
77329.470714209,1007.21643
77329.504283545,1007.21643
77329.53785288101,1007.21643
77329.571422217,1007.21643
77329.604991553,1007.21643
77329.638560889,1007.21643
77329.672130224,1007.21643
77329.70569956,1007.21643
77329.73926889601,1007.21643
77329.772838232,1007.21643
77329.806407568,1007.21643
77329.83997690401,1007.21643
77329.87354624,1007.21643
77329.907115576,1007.21643
77329.940684912,1007.21643
77329.97425424801,1007.21643
77330.007823584,1007.21643
77330.04139292,1007.21643
77330.07496225601,1007.21643
77330.108531592,1007.21454
77330.142100928,1007.2064
77330.175670264,1007.2107
77330.209239599,1007.21643
77330.242808935,1007.21643
77330.27637827101,1007.21643
77330.309947607,1007.21643
77330.343516943,1007.21643
77330.37708627901,1007.21643
77330.410655615,1007.21643
77330.444224951,1007.21643
77330.477794287,1007.21643
77330.51136362301,1007.21643
77330.544932959,1007.21643
77330.578502295,1007.21643
77330.61207163101,1007.21643
77330.645640967,1007.21643
77330.679210303,1007.21643
77330.712779639,1007.21643
77330.746348974,1007.21643
77330.77991831,1007.21643
77330.81348764601,1007.21643
77330.847056982,1007.21643
77330.880626318,1007.21643
77330.91419565401,1007.21643
77330.94776499,1007.21643
77330.981334326,1007.21643
77331.014903662,1007.21643
77331.04847299801,1007.21643
77331.082042334,1007.21643
77331.11561167,1007.21643
77331.14918100601,1007.21643
77331.182750342,1007.21643
77331.216319678,1007.21643
77331.249889014,1007.21643
77331.283458349,1007.21643
77331.317027685,1007.21643
77331.35059702101,1007.21643
77331.384166357,1007.21643
77331.417735693,1007.21643
77331.45130502901,1007.21643
77331.484874365,1007.21643
77331.518443701,1007.21643
77331.552013037,1007.21643
77331.58558237301,1007.21643
77331.619151709,1007.21643
77331.652721045,1007.21643
77331.68629038101,1007.21643
77331.719859717,1007.21643
77331.753429053,1007.21643
77331.786998389,1007.21643
77331.820567724,1007.21643
77331.85413706,1007.21643
77331.88770639601,1007.21643
77331.921275732,1007.21643
77331.954845068,1007.21643
77331.98841440401,1007.21643
77332.02198374,1007.22534
77332.055553076,1007.22644
77332.089122412,1007.22644
77332.12269174801,1007.22644
77332.156261084,1007.22644
77332.18983042,1007.22644
77332.22339975601,1007.22644
77332.256969092,1007.22644
77332.290538428,1007.22644
77332.324107764,1007.22644
77332.357677099,1007.22644
77332.391246435,1007.22644
77332.42481577101,1007.22644
77332.458385107,1007.22644
77332.491954443,1007.22644
77332.52552377901,1007.22644
77332.559093115,1007.22644
77332.592662451,1007.22644
77332.626231787,1007.22644
77332.65980112301,1007.22644
77332.693370459,1007.22644
77332.726939795,1007.22644
77332.76050913101,1007.22644
77332.794078467,1007.22644
77332.827647803,1007.22644
77332.861217139,1007.22644
77332.894786474,1007.22644
77332.92835581,1007.22644
77332.96192514601,1007.22644
77332.995494482,1007.22644
77333.029063818,1007.22644
77333.06263315401,1007.22644
77333.09620249,1007.22644
77333.129771826,1007.22644
77333.163341162,1007.22644
77333.19691049801,1007.22644
77333.230479834,1007.22644
77333.26404917,1007.22644
77333.29761850601,1007.22644
77333.331187842,1007.23126
77333.364757178,1007.2364
77333.398326514,1007.2364
77333.431895849,1007.2364
77333.465465185,1007.2364
77333.49903452101,1007.2364
77333.532603857,1007.2345
77333.566173193,1007.22644
77333.59974252901,1007.22644
77333.633311865,1007.22644
77333.666881201,1007.22644
77333.700450537,1007.22644
77333.73401987301,1007.22644
77333.767589209,1007.22644
77333.801158545,1007.22644
77333.83472788101,1007.22644
77333.868297217,1007.22644
77333.901866553,1007.22644
77333.935435889,1007.22644
77333.969005224,1007.22644
77334.00257456,1007.2348
77334.03614389601,1007.2364
77334.069713232,1007.2364
77334.103282568,1007.23444
77334.13685190401,1007.22644
77334.17042124,1007.22644
77334.203990576,1007.22644
77334.237559912,1007.22644
77334.27112924801,1007.23425
77334.304698584,1007.2364
77334.33826792,1007.2364
77334.37183725601,1007.2364
77334.405406592,1007.2364
77334.438975928,1007.23267
77334.472545264,1007.22644
77334.506114599,1007.2324
77334.539683935,1007.2364
77334.57325327101,1007.2364
77334.606822607,1007.2268
77334.640391943,1007.22644
77334.67396127901,1007.22644
77334.707530615,1007.22644
77334.741099951,1007.22644
77334.774669287,1007.22644
77334.80823862301,1007.22644
77334.841807959,1007.22644
77334.875377295,1007.22644
77334.90894663101,1007.22644
77334.942515967,1007.22644
77334.976085303,1007.22644
77335.009654639,1007.22644
77335.043223974,1007.22644
77335.07679331,1007.22644
77335.11036264601,1007.22644
77335.143931982,1007.22644
77335.177501318,1007.22644
77335.21107065401,1007.2257
77335.24463999,1007.21643
77335.278209326,1007.21643
77335.311778662,1007.21643
77335.34534799801,1007.21643
77335.378917334,1007.21643
77335.41248667,1007.21643
77335.44605600601,1007.21643
77335.479625342,1007.21643
77335.513194678,1007.21643
77335.546764014,1007.2189
77335.580333349,1007.22644
77335.613902685,1007.22644
77335.64747202101,1007.22644
77335.681041357,1007.22644
77335.714610693,1007.22644
77335.74818002901,1007.22644
77335.781749365,1007.22644
77335.815318701,1007.22833
77335.848888037,1007.2364
77335.88245737301,1007.2322
77335.916026709,1007.22644
77335.949596045,1007.22644
77335.98316538101,1007.22644
77336.016734717,1007.22644
77336.050304053,1007.22644
77336.083873389,1007.22644
77336.117442724,1007.22644
77336.15101206,1007.22644
77336.18458139601,1007.22644
77336.218150732,1007.22644
77336.251720068,1007.22644
77336.28528940401,1007.22644
77336.31885874,1007.22644
77336.352428076,1007.22644
77336.385997412,1007.22644
77336.41956674801,1007.2233
77336.453136084,1007.21643
77336.48670542,1007.21643
77336.52027475601,1007.21643
77336.553844092,1007.22424
77336.587413428,1007.22644
77336.620982764,1007.22644
77336.654552099,1007.22644
77336.688121435,1007.22644
77336.72169077101,1007.22644
77336.755260107,1007.23126
77336.788829443,1007.2364
77336.82239877901,1007.2364
77336.855968115,1007.2364
77336.889537451,1007.2364
77336.923106787,1007.23566
77336.95667612301,1007.22644
77336.990245459,1007.22644
77337.023814795,1007.22644
77337.05738413101,1007.22644
77337.090953467,1007.23303
77337.124522803,1007.2364
77337.158092139,1007.2364
77337.191661474,1007.2364
77337.22523081,1007.2364
77337.25880014601,1007.2364
77337.292369482,1007.2364
77337.325938818,1007.2364
77337.35950815401,1007.2364
77337.39307749,1007.2364
77337.426646826,1007.2364
77337.460216162,1007.2364
77337.49378549801,1007.2364
77337.527354834,1007.2383
77337.56092417,1007.2464
77337.59449350601,1007.2421
77337.628062842,1007.2364
77337.661632178,1007.2364
77337.695201514,1007.2364
77337.728770849,1007.2364
77337.762340185,1007.2364
77337.79590952101,1007.2364
77337.829478857,1007.2364
77337.863048193,1007.2327
77337.89661752901,1007.22644
77337.930186865,1007.22644
77337.963756201,1007.22644
77337.997325537,1007.22644
77338.03089487301,1007.22644
77338.064464209,1007.22644
77338.098033545,1007.22644
77338.13160288101,1007.22644
77338.165172217,1007.22644
77338.198741553,1007.2318
77338.232310889,1007.2364
77338.265880224,1007.2364
77338.29944956,1007.2364
77338.33301889601,1007.22644
77338.366588232,1007.22644
77338.400157568,1007.22644
77338.43372690401,1007.23004
77338.46729624,1007.2364
77338.500865576,1007.2364
77338.534434912,1007.2364
77338.56800424801,1007.2364
77338.601573584,1007.2364
77338.63514292,1007.2371
77338.66871225601,1007.2464
77338.702281592,1007.2464
77338.735850928,1007.2464
77338.769420264,1007.2464
77338.802989599,1007.2464
77338.836558935,1007.2464
77338.87012827101,1007.2464
77338.903697607,1007.2464
77338.937266943,1007.2464
77338.97083627901,1007.2464
77339.00439413401,1007.2464
77339.03796347001,1007.2464
77339.071532806,1007.2464
77339.105102142,1007.23926
77339.13867147801,1007.2364
77339.172240814,1007.2364
77339.20581015,1007.2364
77339.23937948601,1007.2364
77339.272948822,1007.2364
77339.306518158,1007.2406
77339.34008749301,1007.2464
77339.373656829,1007.2464
77339.407226165,1007.2464
77339.44079550101,1007.2464
77339.474364837,1007.2464
77339.507934173,1007.2464
77339.54150350901,1007.2464
77339.57507284501,1007.24994
77339.608642181,1007.2564
77339.642211517,1007.2564
