0.0,0.0,0.0,0.0
1.0,1.17,0.0,0.0
2.0,2.34,0.0,0.0
3.0,3.51,0.0,0.0
4.0,4.68,0.0,0.0
5.0,5.85,0.0,0.0
6.0,7.01,0.0,0.0
7.0,8.18,0.0,0.0
8.0,9.35,0.0,0.0
9.0,10.52,0.0,0.0
10.0,11.69,0.0,0.0
11.0,12.86,0.0,0.0
12.0,14.03,0.0,0.0
13.0,15.2,0.0,0.0
14.0,16.37,0.0,0.0
15.0,17.54,0.0,0.0
16.0,18.0,-0.7,0.0
17.0,18.0,-1.86,0.0
18.0,18.0,-3.03,0.0
19.0,18.0,-4.19,0.0
20.0,18.0,-5.35,0.0
21.0,18.0,-6.52,0.0
22.0,18.0,-7.68,0.0
23.0,18.0,-8.84,0.0
24.0,18.0,-10.0,0.0
25.0,18.0,-11.17,0.0
26.0,18.0,-12.33,0.0
27.0,18.0,-13.49,0.0
28.0,18.0,-14.66,0.0
29.0,18.0,-15.82,0.0
30.0,18.0,-16.98,0.0
31.0,18.64,-17.5,0.0
32.0,19.81,-17.5,0.0
33.0,20.97,-17.5,0.0
34.0,22.13,-17.5,0.0
35.0,23.29,-17.5,0.0
36.0,24.45,-17.5,0.0
37.0,25.61,-17.5,0.0
38.0,26.77,-17.5,0.0
39.0,27.94,-17.5,0.0
40.0,29.1,-17.5,0.0
41.0,30.26,-17.5,0.0
42.0,31.42,-17.5,0.0
43.0,32.58,-17.5,0.0
44.0,32.8,-16.6,0.0
45.0,32.8,-15.48,0.0
46.0,32.8,-14.37,0.0
47.0,32.8,-13.26,0.0
48.0,32.8,-12.15,0.0
49.0,32.8,-11.03,0.0
50.0,32.8,-9.92,0.0
51.0,32.8,-8.81,0.0
52.0,32.8,-7.69,0.0
53.0,32.8,-6.58,0.0
54.0,32.8,-5.47,0.0
55.0,32.8,-4.36,0.0
56.0,32.8,-3.24,0.0
57.0,32.8,-2.13,0.0
58.0,32.8,-1.02,0.0
59.0,32.9,0.0,0.0
60.0,34.05,0.0,0.0
61.0,35.2,0.0,0.0
62.0,36.36,0.0,0.0
63.0,37.51,0.0,0.0
64.0,38.67,0.0,0.0
65.0,39.82,0.0,0.0
66.0,40.0,-0.92,0.0
67.0,40.0,-2.0,0.0
68.0,40.0,-3.09,0.0
69.0,40.0,-4.18,0.0
70.0,40.0,-5.26,0.0
71.0,40.0,-6.35,0.0
72.0,40.0,-7.44,0.0
73.0,40.0,-8.53,0.0
74.0,40.0,-9.61,0.0
75.0,40.0,-10.7,0.0
76.0,40.0,-11.79,0.0
77.0,40.0,-12.87,0.0
78.0,40.0,-13.96,0.0
79.0,40.0,-15.05,0.0
80.0,40.0,-16.13,0.0
81.0,40.0,-17.22,0.0
82.0,39.15,-17.5,0.0
83.0,38.02,-17.5,0.0
84.0,36.88,-17.5,0.0
85.0,35.74,-17.5,0.0
86.0,34.61,-17.5,0.0
87.0,33.47,-17.5,0.0
88.0,32.33,-17.5,0.0
89.0,31.19,-17.5,0.0
90.0,30.06,-17.5,0.0
91.0,28.92,-17.5,0.0
92.0,27.78,-17.5,0.0
93.0,26.64,-17.5,0.0
94.0,25.51,-17.5,0.0
95.0,24.37,-17.5,0.0
96.0,23.23,-17.5,0.0
97.0,22.09,-17.5,0.0
98.0,20.96,-17.5,0.0
99.0,19.82,-17.5,0.0
100.0,18.68,-17.5,0.0
101.0,17.55,-17.5,0.0
102.0,16.41,-17.5,0.0
103.0,15.27,-17.5,0.0
104.0,14.13,-17.5,0.0
105.0,13.0,-17.5,0.0
106.0,11.86,-17.5,0.0
107.0,10.72,-17.5,0.0
108.0,9.58,-17.5,0.0
109.0,8.45,-17.5,0.0
110.0,7.31,-17.5,0.0
111.0,6.17,-17.5,0.0
112.0,5.03,-17.5,0.0
113.0,3.9,-17.5,0.0
114.0,2.76,-17.5,0.0
115.0,1.62,-17.5,0.0
116.0,0.49,-17.5,0.0
117.0,0.0,-16.87,0.0
118.0,0.0,-15.76,0.0
119.0,0.0,-14.65,0.0
120.0,0.0,-13.54,0.0
121.0,0.0,-12.43,0.0
122.0,0.0,-11.33,0.0
123.0,0.0,-10.22,0.0
124.0,0.0,-9.11,0.0
125.0,0.0,-8.0,0.0
126.0,0.0,-6.9,0.0
127.0,0.0,-5.79,0.0
128.0,0.0,-4.68,0.0
129.0,0.0,-3.57,0.0
130.0,0.0,-2.47,0.0
131.0,0.0,-1.36,0.0
132.0,0.0,-0.25,0.0
133.0,0.0,0.0,0.0
