0.0,0.0,0.0,0.0
1.0,1.26,0.0,0.0
2.0,2.52,0.0,0.0
3.0,3.78,0.0,0.0
4.0,5.04,0.0,0.0
5.0,6.3,0.0,0.0
6.0,7.55,0.0,0.0
7.0,8.81,0.0,0.0
8.0,10.07,0.0,0.0
9.0,11.33,0.0,0.0
10.0,12.59,0.0,0.0
11.0,13.85,0.0,0.0
12.0,14.0,0.67,-0.22
13.0,14.0,1.42,-0.48
14.0,14.0,2.18,-0.74
15.0,14.0,2.93,-0.99
16.0,14.0,3.69,-1.25
17.0,14.0,4.44,-1.5
18.0,14.0,5.2,-1.76
19.0,14.0,5.96,-2.01
20.0,14.0,6.71,-2.27
21.0,14.0,7.47,-2.52
22.0,14.0,8.22,-2.78
23.0,14.0,8.98,-3.03
24.0,14.0,9.73,-3.29
25.0,14.0,10.49,-3.54
26.0,14.0,11.24,-3.8
27.0,14.0,12.0,-4.06
28.0,14.0,12.76,-4.31
29.0,14.0,13.51,-4.57
30.0,14.0,14.27,-4.82
31.0,12.91,14.5,-4.9
32.0,11.33,14.5,-4.9
33.0,11.3,13.3,-4.9
34.0,11.3,12.09,-4.9
35.0,11.3,10.87,-4.9
36.0,11.3,9.65,-4.9
37.0,11.3,8.43,-4.9
38.0,11.3,7.21,-4.9
39.0,11.3,6.0,-4.9
40.0,11.3,4.78,-4.9
41.0,11.3,5.38,-4.9
42.0,11.3,6.51,-4.9
43.0,11.3,7.65,-4.9
44.0,11.3,8.78,-4.9
45.0,11.3,9.92,-4.9
46.0,11.3,11.05,-4.9
47.0,11.3,12.19,-4.9
48.0,11.3,13.32,-4.9
49.0,11.3,14.46,-4.9
50.0,12.48,14.5,-4.9
51.0,13.7,14.5,-4.9
52.0,14.0,13.92,-4.7
53.0,14.0,13.14,-4.44
54.0,14.0,12.36,-4.18
55.0,14.0,11.58,-3.91
56.0,14.0,10.8,-3.65
57.0,14.0,10.03,-3.39
58.0,14.0,9.25,-3.13
59.0,14.0,8.47,-2.86
60.0,14.0,7.69,-2.6
61.0,14.0,6.91,-2.34
62.0,14.0,6.14,-2.07
63.0,14.0,5.36,-1.81
64.0,14.0,4.58,-1.55
65.0,14.0,3.8,-1.28
66.0,14.0,3.02,-1.02
67.0,14.0,2.25,-0.76
68.0,14.0,1.47,-0.5
69.0,14.0,0.69,-0.23
70.0,14.14,0.0,0.0
71.0,15.38,0.0,0.0
72.0,16.62,0.0,0.0
73.0,17.85,0.0,0.0
74.0,19.09,0.0,0.0
75.0,20.33,0.0,0.0
76.0,21.57,0.0,0.0
77.0,22.0,-0.87,0.0
78.0,22.0,-2.19,0.0
79.0,22.0,-3.52,0.0
80.0,22.0,-4.85,0.0
81.0,22.0,-6.18,0.0
82.0,22.0,-7.5,0.0
83.0,22.0,-8.83,0.0
84.0,22.0,-10.16,0.0
85.0,22.0,-11.49,0.0
86.0,22.0,-12.82,0.0
87.0,22.0,-14.14,0.0
88.0,22.0,-15.47,0.0
89.0,22.0,-16.8,0.0
90.0,21.41,-17.5,0.0
91.0,20.15,-17.5,0.0
92.0,18.9,-17.5,0.0
93.0,17.65,-17.5,0.0
94.0,16.39,-17.5,0.0
95.0,15.14,-17.5,0.0
96.0,13.88,-17.5,0.0
97.0,12.63,-17.5,0.0
98.0,11.38,-17.5,0.0
99.0,10.12,-17.5,0.0
100.0,8.87,-17.5,0.0
101.0,7.61,-17.5,0.0
102.0,7.2,-16.7,0.0
103.0,7.2,-15.5,0.0
104.0,7.2,-14.3,0.0
105.0,7.2,-13.1,0.0
106.0,7.2,-11.9,0.0
107.0,7.2,-10.7,0.0
108.0,7.2,-9.5,0.0
109.0,7.2,-8.3,0.0
110.0,7.2,-7.11,0.0
111.0,7.2,-5.91,0.0
112.0,7.2,-4.71,0.0
113.0,7.2,-3.51,0.0
114.0,7.2,-2.31,0.0
115.0,7.2,-1.11,0.0
116.0,7.13,0.0,0.0
117.0,6.14,0.0,0.0
118.0,5.16,0.0,0.0
119.0,4.17,0.0,0.0
120.0,3.18,0.0,0.0
121.0,2.2,0.0,0.0
122.0,1.21,0.0,0.0
123.0,0.23,0.0,0.0
124.0,0.0,0.0,0.0
