0.0,0.0,0.0,0.0
1.0,1.09,0.0,0.0
2.0,2.18,0.0,0.0
3.0,3.27,0.0,0.0
4.0,4.37,0.0,0.0
5.0,5.46,0.0,0.0
6.0,6.55,0.0,0.0
7.0,7.2,0.65,0.0
8.0,7.2,2.27,0.0
9.0,7.2,3.89,0.0
10.0,7.2,5.51,0.0
11.0,7.2,7.13,0.0
12.0,7.2,8.75,0.0
13.0,7.2,10.37,0.0
14.0,7.2,11.99,0.0
15.0,7.2,13.6,0.0
16.0,7.2,15.22,0.0
17.0,7.2,16.84,0.0
18.0,8.13,17.5,0.0
19.0,9.69,17.5,0.0
20.0,11.25,17.5,0.0
21.0,12.82,17.5,0.0
22.0,14.0,17.7,-0.07
23.0,14.0,18.52,-0.35
24.0,14.0,19.35,-0.62
25.0,14.0,20.17,-0.9
26.0,14.0,20.99,-1.18
27.0,14.0,21.82,-1.46
28.0,14.0,22.64,-1.74
29.0,14.0,23.46,-2.01
30.0,14.0,24.28,-2.29
31.0,14.0,25.11,-2.57
32.0,14.0,25.93,-2.85
33.0,14.0,26.75,-3.13
34.0,14.0,27.58,-3.4
35.0,14.0,28.4,-3.68
36.0,14.0,29.22,-3.96
37.0,14.0,30.04,-4.24
38.0,14.0,30.87,-4.52
39.0,14.0,31.69,-4.8
40.0,14.0,31.51,-4.73
41.0,14.0,30.71,-4.46
42.0,14.0,29.92,-4.2
43.0,14.0,29.13,-3.93
44.0,14.0,28.33,-3.66
45.0,14.0,27.54,-3.39
46.0,14.0,26.75,-3.13
47.0,14.0,25.96,-2.86
48.0,14.0,25.16,-2.59
49.0,14.0,24.37,-2.32
50.0,14.0,23.58,-2.05
51.0,14.0,22.79,-1.79
52.0,14.0,21.99,-1.52
53.0,14.0,21.2,-1.25
54.0,14.0,20.41,-0.98
55.0,14.0,19.61,-0.71
56.0,14.0,18.82,-0.45
57.0,14.0,18.03,-0.18
58.0,13.49,17.5,0.0
59.0,11.94,17.5,0.0
60.0,10.4,17.5,0.0
61.0,8.86,17.5,0.0
62.0,7.32,17.5,0.0
63.0,5.78,17.5,0.0
64.0,4.24,17.5,0.0
65.0,2.69,17.5,0.0
66.0,1.15,17.5,0.0
67.0,0.0,17.16,0.0
68.0,0.0,15.81,0.0
69.0,0.0,14.46,0.0
70.0,0.0,13.11,0.0
71.0,0.0,11.76,0.0
72.0,0.0,10.41,0.0
73.0,0.0,9.06,0.0
74.0,0.0,7.71,0.0
75.0,0.0,6.36,0.0
76.0,0.0,5.0,0.0
77.0,0.0,3.65,0.0
78.0,0.0,2.3,0.0
79.0,0.0,0.95,0.0
80.0,0.0,0.0,0.0
