0.0,0.0,0.0,0.0
1.0,1.01,0.0,0.0
2.0,2.03,0.0,0.0
3.0,3.04,0.0,0.0
4.0,4.05,0.0,0.0
5.0,5.07,0.0,0.0
6.0,6.08,0.0,0.0
7.0,7.09,0.0,0.0
8.0,7.2,1.4,0.0
9.0,7.2,2.97,0.0
10.0,7.2,4.54,0.0
11.0,7.2,6.1,0.0
12.0,7.2,7.67,0.0
13.0,7.2,9.24,0.0
14.0,7.2,10.8,0.0
15.0,7.2,12.37,0.0
16.0,7.2,13.94,0.0
17.0,7.2,15.5,0.0
18.0,7.2,17.07,0.0
19.0,8.31,17.5,0.0
20.0,9.84,17.5,0.0
21.0,11.37,17.5,0.0
22.0,12.91,17.5,0.0
23.0,14.0,17.77,-0.09
24.0,14.0,18.72,-0.41
25.0,14.0,19.67,-0.73
26.0,14.0,20.61,-1.05
27.0,14.0,21.56,-1.37
28.0,14.0,22.51,-1.69
29.0,14.0,23.46,-2.01
30.0,14.0,24.41,-2.33
31.0,14.0,25.35,-2.65
32.0,14.0,26.3,-2.97
33.0,14.0,27.25,-3.29
34.0,14.0,28.2,-3.61
35.0,14.0,29.14,-3.93
36.0,14.0,30.09,-4.25
37.0,14.0,31.04,-4.58
38.0,14.0,31.99,-4.9
39.0,14.0,31.3,-4.66
40.0,14.0,30.6,-4.43
41.0,14.0,29.89,-4.19
42.0,14.0,29.19,-3.95
43.0,14.0,28.48,-3.71
44.0,14.0,27.77,-3.47
45.0,14.0,27.07,-3.23
46.0,14.0,26.36,-2.99
47.0,14.0,25.66,-2.76
48.0,14.0,24.95,-2.52
49.0,14.0,24.24,-2.28
50.0,14.0,23.54,-2.04
51.0,14.0,22.83,-1.8
52.0,14.0,22.13,-1.56
53.0,14.0,21.42,-1.32
54.0,14.0,20.71,-1.09
55.0,14.0,20.01,-0.85
56.0,14.0,19.3,-0.61
57.0,14.0,18.6,-0.37
58.0,14.0,17.89,-0.13
59.0,13.37,17.5,0.0
60.0,11.96,17.5,0.0
61.0,10.55,17.5,0.0
62.0,9.14,17.5,0.0
63.0,7.73,17.5,0.0
64.0,6.32,17.5,0.0
65.0,4.91,17.5,0.0
66.0,3.5,17.5,0.0
67.0,2.09,17.5,0.0
68.0,0.68,17.5,0.0
69.0,0.0,16.81,0.0
70.0,0.0,15.48,0.0
71.0,0.0,14.15,0.0
72.0,0.0,12.81,0.0
73.0,0.0,11.48,0.0
74.0,0.0,10.15,0.0
75.0,0.0,8.82,0.0
76.0,0.0,7.48,0.0
77.0,0.0,6.15,0.0
78.0,0.0,4.82,0.0
79.0,0.0,3.48,0.0
80.0,0.0,2.15,0.0
81.0,0.0,0.82,0.0
82.0,0.0,0.0,0.0
