0.0,0.0,0.0,0.0
1.0,1.23,0.0,0.0
2.0,2.46,0.0,0.0
3.0,3.69,0.0,0.0
4.0,4.92,0.0,0.0
5.0,6.15,0.0,0.0
6.0,7.39,0.0,0.0
7.0,8.62,0.0,0.0
8.0,9.85,0.0,0.0
9.0,11.08,0.0,0.0
10.0,12.31,0.0,0.0
11.0,13.54,0.0,0.0
12.0,14.77,0.0,0.0
13.0,16.0,0.0,0.0
14.0,17.23,0.0,0.0
15.0,18.0,-0.58,0.0
16.0,18.0,-2.13,0.0
17.0,18.0,-3.68,0.0
18.0,18.0,-5.23,0.0
19.0,18.0,-6.77,0.0
20.0,18.0,-8.32,0.0
21.0,18.0,-9.87,0.0
22.0,18.0,-11.41,0.0
23.0,18.0,-12.96,0.0
24.0,18.0,-14.51,0.0
25.0,18.0,-16.06,0.0
26.0,17.89,-17.5,0.0
27.0,16.32,-17.5,0.0
28.0,14.74,-17.5,0.0
29.0,13.17,-17.5,0.0
30.0,11.6,-17.5,0.0
31.0,10.02,-17.5,0.0
32.0,8.45,-17.5,0.0
33.0,6.87,-17.5,0.0
34.0,5.3,-17.5,0.0
35.0,3.72,-17.5,0.0
36.0,2.15,-17.5,0.0
37.0,0.57,-17.5,0.0
38.0,0.0,-16.58,0.0
39.0,0.0,-15.13,0.0
40.0,0.0,-13.68,0.0
41.0,0.0,-12.23,0.0
42.0,0.0,-10.78,0.0
43.0,0.0,-9.33,0.0
44.0,0.0,-7.88,0.0
45.0,0.0,-6.43,0.0
46.0,0.0,-4.98,0.0
47.0,0.0,-3.53,0.0
48.0,0.0,-2.08,0.0
49.0,0.0,-0.63,0.0
50.0,0.0,0.0,0.0
