1.4384125244518301E9,1004.8677
1.438412524485033E9,1004.8677
1.4384125245173209E9,1004.9277
1.4384125245525687E9,1004.9277
1.438412524585741E9,1004.8677
1.4384125246180289E9,1004.82776
1.4384125246532764E9,1004.8977
1.4384125246856863E9,1004.82776
1.4384125247210078E9,1004.8677
1.4384125247562556E9,1004.9277
1.4384125247915034E9,1004.82776
1.4384125248217158E9,1004.8677
1.4384125248569636E9,1004.8977
1.4384125248922112E9,1004.7977
1.4384125249224238E9,1004.82776
1.4384125249576714E9,1004.95764
1.4384125249929194E9,1004.8677
1.4384125250231318E9,1004.7977
1.4384125250583797E9,1004.7977
1.4384125250936275E9,1004.9277
1.4384125251238399E9,1004.82776
1.4384125251590877E9,1004.8977
1.4384125251943352E9,1004.9976
1.4384125252245479E9,1004.8677
1.4384125252597954E9,1004.82776
1.4384125252950435E9,1004.8977
1.4384125253252559E9,1004.9277
1.4384125253605037E9,1004.9277
1.4384125253957515E9,1004.8677
1.4384125254259639E9,1004.82776
1.4384125254612117E9,1004.82776
1.4384125254964592E9,1004.8977
1.438412525526672E9,1004.82776
1.4384125255619197E9,1004.8977
1.4384125255971675E9,1004.7977
1.43841252562738E9,1004.8977
1.4384125256626222E9,1004.82776
1.4384125256978703E9,1004.8677
1.4384125257280824E9,1004.82776
1.4384125257633305E9,1004.7977
1.438412525798578E9,1004.8677
1.4384125258287907E9,1004.76776
1.4384125258640382E9,1004.9277
1.438412525899286E9,1004.82776
1.4384125259294984E9,1004.8977
1.438412525964716E9,1004.8977
1.4384125259999635E9,1004.82776
1.4384125260301454E9,1004.82776
1.4384125260653932E9,1004.8677
1.4384125261006715E9,1004.8677
1.438412526130884E9,1004.82776
1.4384125261661317E9,1004.8677
1.4384125262013798E9,1004.7977
1.438412526231592E9,1004.82776
1.4384125262668703E9,1004.8677
1.4384125263021486E9,1004.7977
1.4384125263323307E9,1004.82776
1.438412526367609E9,1004.8977
1.4384125264028566E9,1004.82776
1.4384125264330692E9,1004.9277
1.4384125264683168E9,1004.82776
1.438412526503534E9,1004.8677
1.438412526533716E9,1004.8677
1.438412526568964E9,1004.8677
1.4384125266042116E9,1004.82776
1.4384125266344242E9,1004.8977
1.4384125266696718E9,1004.8677
1.4384125267049806E9,1004.9277
1.4384125267351933E9,1004.8677
1.4384125267704103E9,1004.7378
1.4384125268056886E9,1004.8677
1.4384125268358705E9,1004.8677
1.4384125268711488E9,1004.8977
1.4384125269063969E9,1004.7977
1.4384125269363954E9,1004.8977
1.438412526971857E9,1004.8977
1.438412527007074E9,1004.8977
1.4384125270373173E9,1004.8677
1.4384125270725343E9,1004.7378
1.4384125271077821E9,1004.7977
1.438412527137964E9,1004.7977
1.438412527173212E9,1004.8677
1.4384125272084596E9,1004.7977
1.438412527238672E9,1004.8677
1.4384125272739198E9,1004.8677
1.4384125273091676E9,1004.82776
1.4384125273393495E9,1004.82776
1.4384125273746278E9,1004.76776
1.4384125274098759E9,1004.8677
1.4384125274400578E9,1004.82776
1.438412527475336E9,1004.8977
1.4384125275106142E9,1004.82776
1.4384125275410903E9,1004.9277
1.4384125275763075E9,1004.7977
1.438412527611555E9,1004.8977
1.4384125276417065E9,1004.95764
1.4384125276769545E9,1004.9277
1.4384125277122023E9,1004.95764
1.4384125277424452E9,1004.8677
1.438412527777693E9,1004.8677
1.4384125278129406E9,1004.95764
1.4384125278431532E9,1004.9277
1.4384125278784008E9,1004.8677
1.4384125279136488E9,1004.95764
1.438412527943861E9,1004.95764
1.438412527979109E9,1004.8977
1.4384125280143569E9,1004.82776
1.4384125280445693E9,1004.8677
1.438412528079817E9,1004.8977
1.4384125281150646E9,1004.7977
1.4384125281452773E9,1004.8977
1.4384125281805556E9,1004.9277
1.4384125282155285E9,1004.95764
1.438412528245985E9,1004.8977
1.438412528281233E9,1004.8977
1.4384125283164809E9,1004.82776
1.4384125283466933E9,1004.8977
1.4384125283819103E9,1004.82776
1.4384125284171886E9,1004.9277
1.4384125284474318E9,1004.8977
1.4384125284826744E9,1004.8677
1.438412528517922E9,1004.8677
1.4384125285481346E9,1004.8677
1.4384125285833821E9,1004.7977
1.43841252861863E9,1004.7977
1.4384125286488423E9,1004.9277
1.4384125286840596E9,1004.82776
1.4384125287193382E9,1004.8677
1.4384125287494893E9,1004.9277
1.438412528784737E9,1004.82776
1.4384125288200154E9,1004.8677
1.4384125288502278E9,1004.8977
1.438412528885445E9,1004.7977
1.4384125289207234E9,1004.8977
1.4384125289509358E9,1004.8677
1.4384125289861531E9,1004.8677
1.4384125290214314E9,1004.9277
1.4384125290516744E9,1004.8977
1.4384125290869224E9,1004.8677
1.4384125291222007E9,1004.7378
1.4384125291524131E9,1004.8977
1.4384125291876607E9,1004.8977
1.4384125292229085E9,1004.9277
1.4384125292530904E9,1004.8677
1.4384125292888877E9,1004.8677
1.4384125293235555E9,1004.9277
1.438412529353768E9,1004.8677
1.4384125293890157E9,1004.8677
1.4384125294242635E9,1004.8977
1.4384125294544454E9,1004.7977
1.4384125294895408E9,1004.76776
1.4384125295250325E9,1004.95764
1.438412529555245E9,1004.8677
1.4384125295904927E9,1004.95764
1.4384125296257405E9,1004.8677
1.438412529655953E9,1004.7977
1.438412529691201E9,1004.9277
1.438412529726418E9,1004.9277
1.4384125297566612E9,1004.9277
1.4384125297918477E9,1004.8977
1.438412529827065E9,1004.8977
1.438412529857308E9,1004.76776
1.4384125298925862E9,1004.9277
1.4384125299278343E9,1004.8677
1.438412529958077E9,1004.8977
1.4384125299932942E9,1004.8977
1.438412530028542E9,1004.8977
1.4384125300587852E9,1004.8977
1.4384125300940022E9,1004.8977
1.43841253012925E9,1004.8677
1.4384125301601033E9,1004.82776
1.4384125301953206E9,1004.82776
1.4384125302305074E9,1004.8977
1.4384125302607808E9,1004.7977
1.4384125302960591E9,1004.8677
1.438412530331246E9,1004.95764
1.43841253036163E9,1004.9277
1.4384125303963897E9,1004.95764
1.4384125304316373E9,1004.95764
1.4384125304617279E9,1004.8677
1.4384125304969754E9,1004.8677
1.4384125305322232E9,1004.95764
1.4384125305624664E9,1004.7977
1.438412530597714E9,1004.8677
1.438412530632962E9,1004.82776
1.4384125306631742E9,1004.8677
1.4384125306984222E9,1004.7977
1.43841253073367E9,1004.8677
1.438412530763638E9,1004.7977
1.4384125307991607E9,1004.8977
1.438412530834927E9,1004.8677
1.4384125308652008E9,1004.7977
1.438412530899838E9,1004.82776
1.4384125309350555E9,1004.7977
1.438412530965268E9,1004.8677
1.4384125310005462E9,1004.82776
1.438412531035794E9,1004.82776
1.4384125310660064E9,1004.7977
1.4384125311012542E9,1004.8977
1.4384125311370816E9,1004.7977
1.4384125311673248E9,1004.7977
1.4384125312025418E9,1004.8977
1.4384125312377286E9,1004.82776
1.438412531268002E9,1004.8677
1.4384125313034277E9,1004.82776
1.4384125313386755E9,1004.8677
1.438412531368888E9,1004.82776
1.4384125314041357E9,1004.8977
1.4384125314387732E9,1004.8677
1.4384125314689853E9,1004.8677
1.4384125315042639E9,1004.8377
1.4384125315394812E9,1004.7977
1.4384125315696936E9,1004.8377
1.4384125316049414E9,1004.8377
1.4384125316402197E9,1004.8377
1.438412531670432E9,1004.7977
1.43841253170568E9,1004.8977
1.4384125317409277E9,1004.7977
1.4384125317711527E9,1004.8677
1.438412531807011E9,1004.7977
1.43841253184174E9,1004.7977
1.4384125318730814E9,1004.7977
1.4384125319072306E9,1004.95764
1.438412531942448E9,1004.8977
1.4384125319726298E9,1004.8977
1.438412532007847E9,1004.76776
1.4384125320428202E9,1004.8377
1.4384125320733073E9,1004.9277
1.4384125321085246E9,1004.8677
1.438412532143803E9,1004.8677
1.4384125321740153E9,1004.8377
1.438412532209263E9,1004.95764
1.438412532244511E9,1004.8377
1.438412532274723E9,1004.8677
1.4384125323100016E9,1004.8677
1.438412532345219E9,1004.8677
1.4384125323754313E9,1004.8377
1.4384125324106486E9,1004.8977
1.4384125324465373E9,1004.8977
1.4384125324767802E9,1004.95764
1.438412532512028E9,1004.8977
1.438412532546635E9,1004.8977
1.438412532576847E9,1004.9277
1.4384125326120646E9,1004.9976
1.4384125326472816E9,1004.8977
1.4384125326776469E9,1004.8977
1.4384125327127979E9,1004.8677
1.4384125327480457E9,1004.95764
1.4384125327782884E9,1004.8977
1.438412532813506E9,1004.8677
1.4384125328487535E9,1004.8677
1.4384125328789659E9,1004.8677
1.4384125329142137E9,1004.8977
1.4384125329494617E9,1004.8977
1.4384125329795825E9,1004.8677
1.438412533015532E9,1004.8977
1.4384125330501697E9,1004.8677
1.4384125330803516E9,1004.8977
1.4384125331156604E9,1004.8377
1.4384125331508775E9,1004.8977
1.4384125331810594E9,1004.8677
1.4384125332164295E9,1004.7977
1.4384125332516773E9,1004.8677
1.4384125332824082E9,1004.8377
1.4384125333181138E9,1004.8677
1.438412533352904E9,1004.8377
1.4384125333831165E9,1004.8677
1.4384125334183335E9,1004.8377
1.43841253345349E9,1004.8677
1.4384125334838245E9,1004.8677
1.4384125335191028E9,1004.8977
1.4384125335542283E9,1004.9277
1.4384125335845017E9,1004.8377
1.4384125336197498E9,1004.8377
1.4384125336544178E9,1004.9277
1.4384125336846302E9,1004.8977
1.4384125337198777E9,1004.8677
1.4384125337550952E9,1004.9277
1.438412533785338E9,1004.9277
1.4384125338205857E9,1004.8677
1.4384125338558338E9,1004.8677
1.4384125338865955E9,1004.7977
1.4384125339218738E9,1004.7977
1.4384125339570603E9,1004.8677
1.4384125339873645E9,1004.8377
1.4384125340225816E9,1004.8677
1.438412534057799E9,1004.9277
1.4384125340880418E9,1004.8377
1.4384125341232896E9,1004.8677
1.4384125341579273E9,1004.7977
1.4384125341881397E9,1004.8677
1.4384125342233875E9,1004.8677
1.4384125342586656E9,1004.8977
1.4384125342888782E9,1004.8677
1.438412534324431E9,1004.8977
1.4384125343593736E9,1004.8977
1.438412534389586E9,1004.9277
1.4384125344247422E9,1004.76776
1.4384125344607224E9,1004.9277
1.438412534490874E9,1004.96765
1.4384125345261219E9,1004.8377
1.4384125345614307E9,1004.9277
1.438412534591815E9,1004.8677
1.4384125346271238E9,1004.76776
1.4384125346667662E9,1004.8677
1.438412534692523E9,1004.8677
1.438412534727771E9,1004.8377
1.4384125347624388E9,1004.8977
1.4384125347926207E9,1004.8977
1.438412534827899E9,1004.8677
1.4384125348631468E9,1004.8977
1.4384125348932981E9,1004.8677
1.438412534928607E9,1004.8377
1.438412534963855E9,1004.8377
1.4384125349940672E9,1004.96765
1.4384125350292845E9,1004.9976
1.4384125350645628E9,1004.8677
1.4384125350953858E9,1004.8677
1.438412535130725E9,1004.8977
1.4384125351659117E9,1004.9277
1.4384125351961243E9,1004.9277
1.4384125352313108E9,1004.9976
1.438412535265979E9,1004.9277
1.438412535296161E9,1004.9277
1.4384125353314393E9,1004.8977
1.4384125353666563E9,1004.8977
1.4384125353968687E9,1004.7977
1.438412535432147E9,1004.8677
1.4384125354673948E9,1004.8977
1.4384125354975767E9,1004.7977
1.4384125355328498E9,1004.8377
1.4384125355680974E9,1004.8677
1.4384125355982792E9,1004.8977
1.4384125356335576E9,1004.8677
1.4384125356688054E9,1004.8677
1.4384125356990178E9,1004.8977
1.438412535734296E9,1004.8377
1.4384125357696967E9,1004.7977
1.4384125358003974E9,1004.8677
1.4384125358354316E9,1004.8677
1.4384125358701909E9,1004.7977
1.4384125359004033E9,1004.8977
1.4384125359356816E9,1004.8377
1.4384125359709294E9,1004.8677
1.4384125360011418E9,1004.8977
1.4384125360363898E9,1004.8677
1.4384125360716376E9,1004.9277
1.4384125361023686E9,1004.8977
1.4384125361376777E9,1004.7977
1.4384125361728644E9,1004.7977
1.4384125362031379E9,1004.8377
1.438412536238416E9,1004.7378
1.4384125362735724E9,1004.8377
1.4384125363039374E9,1004.8977
1.4384125363390632E9,1004.8677
1.4384125363742802E9,1004.96765
1.438412536403974E9,1004.8677
1.438412536439191E9,1004.8377
1.4384125364744694E9,1004.8977
1.438412536504682E9,1004.8977
1.438412536539899E9,1004.8977
1.4384125365751777E9,1004.8677
1.4384125366053898E9,1004.8677
1.4384125366406379E9,1004.8977
1.4384125366758857E9,1004.8377
1.438412536706098E9,1004.8377
1.438412536741346E9,1004.8977
1.4384125367765934E9,1004.8377
1.4384125368076603E9,1004.8977
1.438412536843366E9,1004.8977
1.4384125368778205E9,1004.8377
1.4384125369086735E9,1004.8377
1.4384125369433417E9,1004.8977
1.4384125369785588E9,1004.8377
1.438412537008588E9,1004.8377
1.43841253704347E9,1004.8377
1.4384125370787175E9,1004.8677
1.4384125371089299E9,1004.9277
1.4384125371441777E9,1004.8977
1.4384125371793952E9,1004.9277
1.4384125372096379E9,1004.8677
1.4384125372448554E9,1004.8677
1.4384125372801642E9,1004.7977
1.4384125373103156E9,1004.8677
1.4384125373466923E9,1004.9277
1.4384125373861518E9,1004.8977
1.4384125374159565E9,1004.8977
1.4384125374473898E9,1004.7977
1.438412537486849E9,1004.8677
1.438412537512972E9,1004.9277
1.4384125375479145E9,1004.7977
1.438412537582949E9,1004.8977
1.4384125376126728E9,1004.9277
1.4384125376479511E9,1004.8977
1.4384125376831992E9,1004.8677
1.4384125377134113E9,1004.7977
1.4384125377486289E9,1004.8977
1.4384125377839072E9,1004.8977
1.43841253781415E9,1004.8977
1.438412537849398E9,1004.8377
1.438412537884615E9,1004.8977
1.438412537914858E9,1004.9277
1.4384125379507468E9,1004.8377
1.4384125379859638E9,1004.8977
1.4384125380162375E9,1004.9277
1.4384125380514548E9,1004.9277
1.43841253808597E9,1005.0276
1.4384125381162436E9,1005.0276
1.4384125381514606E9,1004.8377
1.4384125381867087E9,1004.9277
1.4384125382169516E9,1004.76776
1.4384125382521992E9,1004.8677
1.4384125382874472E9,1004.8977
1.4384125383176594E9,1004.96765
1.4384125383530545E9,1004.8377
1.4384125383883023E9,1004.8977
1.4384125384185147E9,1004.96765
1.4384125384534879E9,1004.8977
1.4384125384890106E9,1004.96765
1.438412538519223E9,1004.76776
1.4384125385544708E9,1004.8977
1.4384125385897796E9,1004.8977
1.4384125386199615E9,1004.8977
1.438412538655209E9,1004.96765
1.4384125386903653E9,1004.9277
1.4384125387206388E9,1004.9277
1.4384125387558868E9,1004.8977
1.4384125387911346E9,1004.9277
1.438412538821347E9,1004.8977
1.4384125388565767E9,1004.8977
1.4384125388918245E9,1004.8977
1.438412538922037E9,1004.9976
1.4384125389572847E9,1005.0276
1.4384125389925325E9,1004.8977
1.438412539022745E9,1004.9277
1.4384125390585723E9,1004.9277
1.4384125390937593E9,1004.9976
1.4384125391240325E9,1004.9277
1.438412539159311E9,1004.8977
1.438412539193918E9,1004.9277
1.438412539224161E9,1004.8977
1.4384125392594087E9,1004.9277
1.4384125392951143E9,1004.8977
1.4384125393249602E9,1004.9976
1.4384125393600862E9,1004.8677
1.4384125393953645E9,1004.8977
1.4384125394255464E9,1004.8977
1.4384125394608247E9,1004.9277
1.438412539496042E9,1004.8977
1.4384125395262544E9,1004.96765
1.4384125395621126E9,1004.8377
1.438412539597391E9,1004.8677
1.438412539627542E9,1004.8677
1.43841253966279E9,1004.96765
1.43841253969816E9,1004.8977
1.4384125397279756E9,1004.9277
1.4384125397630348E9,1004.9277
1.4384125397982826E9,1004.8377
1.438412539828495E9,1004.96765
1.4384125398637428E9,1004.9277
1.4384125398989906E9,1004.8977
1.438412539929203E9,1004.8977
1.4384125399644508E9,1004.8977
1.4384125400003395E9,1004.96765
1.4384125400304604E9,1004.96765
1.4384125400657387E9,1004.8677
1.438412540101078E9,1004.8377
1.4384125401312292E9,1004.8677
1.4384125401664467E9,1004.8377
1.4384125402018163E9,1004.8977
1.438412540231907E9,1004.8677
1.4384125402671852E9,1004.96765
1.4384125403018227E9,1004.8677
1.4384125403320348E9,1004.9277
1.4384125403672829E9,1004.8977
1.4384125404025307E9,1004.80774
1.438412540432743E9,1004.8677
1.4384125404679604E9,1004.8377
1.4384125405032387E9,1004.8677
1.438412540533451E9,1004.8377
1.4384125405686986E9,1004.80774
1.4384125406039467E9,1004.80774
1.4384125406341588E9,1004.8677
1.4384125406693764E9,1004.76776
1.4384125407046547E9,1004.80774
1.4384125407348366E9,1004.76776
1.438412540770115E9,1004.80774
1.4384125408053625E9,1004.96765
1.4384125408356361E9,1004.9377
1.438412540870884E9,1004.8377
1.4384125409060707E9,1004.8377
1.4384125409362526E9,1004.96765
1.438412540971531E9,1004.96765
1.4384125410065346E9,1004.96765
1.4384125410369911E9,1004.8977
1.438412541072239E9,1004.96765
1.4384125411074865E9,1004.9377
1.4384125411376991E9,1004.9377
1.4384125411729467E9,1004.8977
1.4384125412088048E9,1004.9377
1.4384125412390172E9,1004.80774
1.4384125412742653E9,1004.9377
1.438412541309452E9,1004.9377
1.4384125413397255E9,1004.9377
1.4384125413749428E9,1004.8977
1.4384125414101903E9,1004.80774
1.4384125414398232E9,1004.9377
1.4384125414750707E9,1004.9377
1.4384125415103188E9,1004.9377
1.438412541540531E9,1004.8677
1.438412541575779E9,1004.8977
1.4384125416110268E9,1004.8377
1.4384125416415026E9,1004.8677
1.4384125416767504E9,1004.8377
1.4384125417119982E9,1004.8677
1.43841254174276E9,1004.8377
1.4384125417780688E9,1004.8677
1.438412541813225E9,1004.9377
1.438412541843529E9,1004.8677
1.438412541878777E9,1004.8977
1.4384125419139636E9,1004.9377
1.4384125419435961E9,1004.8977
1.4384125419788744E9,1004.8977
1.438412542014092E9,1004.8977
1.4384125420443347E9,1004.8977
1.4384125420795825E9,1004.8677
1.4384125421148303E9,1004.9377
1.438412542145043E9,1004.8377
1.43841254218026E9,1004.96765
1.4384125422155383E9,1004.8677
1.4384125422463305E9,1004.8377
1.4384125422813952E9,1005.0276
1.4384125423168566E9,1004.9976
1.4384125423470385E9,1004.9377
1.4384125423822863E9,1004.8377
1.4384125424175649E9,1004.8977
1.4384125424477468E9,1004.8677
1.4384125424827504E9,1004.8977
1.4384125425176623E9,1004.8677
1.4384125425478442E9,1004.8977
1.4384125425832088E9,1004.9377
1.4384125426184564E9,1004.8377
1.438412542648669E9,1004.80774
1.4384125426839166E9,1004.8677
1.438412542719195E9,1004.9377
1.4384125427493768E9,1004.8677
1.4384125427846248E9,1004.8677
1.4384125428198726E9,1004.8977
1.4384125428501153E9,1004.7378
1.4384125428859737E9,1004.8677
1.4384125429214962E9,1004.8377
1.4384125429514034E9,1004.80774
1.4384125429866817E9,1004.8677
1.43841254302196E9,1004.8977
1.43841254305144E9,1004.9377
1.4384125430867183E9,1004.9377
1.4384125431219966E9,1004.9377
1.4384125431521785E9,1004.9377
1.4384125431874568E9,1004.8677
1.4384125432227044E9,1004.8977
1.438412543252917E9,1004.9377
1.4384125432881954E9,1004.8377
1.4384125433234127E9,1004.8977
1.4384125433536553E9,1004.9377
1.4384125433888729E9,1004.8677
1.4384125434241207E9,1004.80774
1.4384125434550045E9,1004.9377
1.4384125434902217E9,1004.8677
1.438412543525439E9,1004.8677
1.438412543555682E9,1004.80774
1.4384125435902886E9,1004.80774
1.4384125436255367E9,1004.9377
1.43841254365581E9,1004.8677
1.438412543690997E9,1004.8677
1.4384125437262447E9,1004.8377
1.4384125437564266E9,1004.76776
1.438412543791705E9,1004.80774
1.4384125438269525E9,1004.8677
1.4384125438571343E9,1004.80774
1.4384125438924127E9,1004.8677
1.4384125439276607E9,1004.8977
1.4384125439578729E9,1004.80774
1.438412543993121E9,1004.8677
1.4384125440284297E9,1004.8377
1.4384125440591915E9,1004.7378
1.4384125440944393E9,1004.76776
1.4384125441295955E9,1004.80774
1.4384125441592891E9,1004.8677
1.4384125441945367E9,1004.8977
1.4384125442297847E9,1004.8377
1.4384125442599971E9,1004.80774
1.438412544295245E9,1004.8677
1.4384125443308284E9,1004.8377
1.4384125443607051E9,1004.8677
1.438412544395953E9,1004.8677
1.4384125444316278E9,1004.8677
1.4384125444621038E9,1004.8677
1.4384125444973822E9,1004.76776
1.438412544532508E9,1004.9377
1.438412544562812E9,1004.80774
1.4384125445980904E9,1004.8677
1.438412544633277E9,1004.8677
1.4384125446635199E9,1004.8377
1.4384125446981573E9,1004.8677
1.4384125447334054E9,1004.9377
1.4384125447636786E9,1004.9377
1.438412544798896E9,1004.80774
1.4384125448341439E9,1004.8977
1.4384125448643258E9,1004.80774
1.4384125448995733E9,1004.80774
1.4384125449348516E9,1004.8377
1.438412544965064E9,1004.80774
1.4384125450002813E9,1004.80774
1.4384125450355902E9,1004.9377
1.4384125450658026E9,1004.8677
1.4384125451016E9,1004.80774
1.4384125451368477E9,1004.9377
1.4384125451670296E9,1004.8677
1.4384125452023077E9,1004.96765
1.4384125452369149E9,1004.8977
1.438412545267188E9,1004.9377
1.4384125453024054E9,1004.8977
1.438412545337684E9,1004.9377
1.438412545367896E9,1004.9377
1.43841254540323E9,1004.96765
1.438412545438478E9,1004.8677
1.4384125454686902E9,1005.0276
1.4384125455039382E9,1004.8977
1.4384125455392165E9,1004.8677
1.438412545569429E9,1004.8977
1.4384125456052566E9,1004.9377
1.4384125456406567E9,1004.8677
1.4384125456711133E9,1004.8677
1.438412545705995E9,1004.8977
1.438412545741304E9,1004.8977
1.4384125457714245E9,1004.8977
1.4384125458060317E9,1004.9377
1.43841254584131E9,1004.8977
1.4384125458715224E9,1004.96765
1.43841254590677E9,1004.9377
1.4384125459420178E9,1004.8977
1.4384125459722302E9,1004.96765
1.4384125460075085E9,1004.8977
1.438412546042726E9,1004.8977
1.4384125460729384E9,1004.9377
1.4384125461081862E9,1004.9976
1.438412546144075E9,1004.8977
1.4384125461743484E9,1004.9377
1.438412546209596E9,1004.8977
1.4384125462447522E9,1004.8977
1.4384125462750866E9,1004.80774
1.4384125463095717E9,1004.9377
1.4384125463448806E9,1004.9976
1.438412546375032E9,1004.8977
1.4384125464102798E9,1004.8377
1.4384125464455578E9,1004.9377
1.4384125464757705E9,1004.8677
1.438412546511018E9,1004.96765
1.4384125465462658E9,1004.8677
1.4384125465764782E9,1004.8377
1.4384125466117263E9,1004.8677
1.438412546646974E9,1004.8977
1.4384125466771865E9,1004.8377
1.4384125467124343E9,1004.8377
1.4384125467476819E9,1004.8377
1.438412546777925E9,1004.8377
1.4384125468137527E9,1004.8977
1.4384125468490002E9,1004.9377
1.438412546879182E9,1004.8977
1.4384125469138503E9,1004.8377
1.438412546949098E9,1004.76776
1.4384125469793105E9,1004.8377
1.4384125470145583E9,1004.8377
1.4384125470498059E9,1004.8377
1.4384125470800185E9,1004.9377
1.438412547115266E9,1004.8377
1.4384125471505444E9,1004.8677
1.4384125471813366E9,1004.8977
1.4384125472165542E9,1004.8377
1.4384125472517407E9,1004.8677
1.4384125472820446E9,1004.8977
1.4384125473177094E9,1004.76776
1.4384125473536284E9,1004.8977
1.4384125473829255E9,1004.8377
1.4384125474178681E9,1004.8377
1.43841254745278E9,1004.8677
1.4384125474829924E9,1004.8677
1.4384125475182707E9,1004.80774
1.4384125475534883E9,1004.8677
1.438412547583731E9,1004.8377
1.438412547618979E9,1004.8977
1.4384125476542268E9,1004.8677
1.4384125476844392E9,1004.9377
1.4384125477196562E9,1004.8677
1.4384125477549345E9,1004.8377
1.4384125477850862E9,1004.8377
1.4384125478209746E9,1004.80774
1.438412547856253E9,1004.80774
1.4384125478864348E9,1004.9377
1.4384125479224458E9,1004.8977
1.4384125479569E9,1004.8677
1.438412547987143E9,1004.8977
1.4384125480223906E9,1004.8977
1.4384125480570586E9,1004.96765
1.438412548087271E9,1004.9976
1.4384125481225188E9,1004.8977
1.4384125481577668E9,1004.8977
1.438412548187979E9,1004.9377
1.438412548223227E9,1004.76776
1.438412548258561E9,1004.8677
1.4384125482887733E9,1004.9377
1.438412548324021E9,1004.8677
1.4384125483592994E9,1004.9377
1.438412548389939E9,1004.8677
1.4384125484254613E9,1004.8977
1.4384125484650733E9,1004.80774
1.4384125484907994E9,1004.8677
1.4384125485260777E9,1004.8677
1.4384125485614173E9,1004.76776
1.438412548591538E9,1004.8677
1.438412548626786E9,1004.8377
1.4384125486613927E9,1004.8377
1.4384125486913612E9,1004.8977
1.438412548726853E9,1004.8977
1.438412548762101E9,1004.8677
1.4384125487923436E9,1004.8677
1.4384125488275914E9,1004.8977
1.4384125488628697E9,1004.9377
1.4384125488930821E9,1004.8377
1.4384125489283302E9,1004.8677
1.438412548963578E9,1004.8977
1.438412548994431E9,1004.8677
1.438412549029618E9,1004.8377
1.438412549064835E9,1004.8677
1.4384125490951393E9,1004.8377
1.4384125491303258E9,1004.9976
1.4384125491655433E9,1004.96765
1.4384125491959386E9,1004.9377
1.4384125492310035E9,1004.80774
1.438412549266953E9,1004.8977
1.4384125492962804E9,1004.8977
1.438412549331101E9,1004.8377
1.4384125493664098E9,1004.8977
1.4384125493965611E9,1004.76776
1.4384125494318092E9,1004.8377
1.438412549467057E9,1004.8977
1.4384125494972694E9,1004.8977
1.438412549532517E9,1004.76776
1.4384125495677648E9,1004.8377
1.4384125495979772E9,1004.9377
1.4384125496337745E9,1004.80774
1.4384125496690528E9,1004.8677
1.4384125496992955E9,1004.8677
1.438412549734513E9,1004.7778
1.4384125497696693E9,1004.9377
1.4384125497999732E9,1004.8677
1.4384125498352208E9,1004.8677
1.438412549870377E9,1004.8677
1.4384125499001012E9,1004.8677
1.4384125499353187E9,1004.8677
1.4384125499703526E9,1004.8677
1.4384125500008092E9,1004.8977
1.4384125500360267E9,1004.8377
1.4384125500713048E9,1004.8677
1.4384125501015174E9,1004.9377
1.438412550136937E9,1004.8977
1.4384125501721847E9,1004.96765
1.438412550202397E9,1004.80774
1.438412550237645E9,1004.80774
1.4384125502728925E9,1004.8677
1.438412550303685E9,1004.8677
1.4384125503389325E9,1004.8677
1.4384125503741806E9,1004.8677
1.4384125504043624E9,1004.8977
1.438412550439E9,1004.9377
1.4384125504743087E9,1004.8977
1.4384125505045211E9,1004.8977
1.438412550539769E9,1004.96765
1.4384125505750165E9,1004.8677
1.4384125506052291E9,1004.8677
1.4384125506404767E9,1004.8377
1.4384125506757247E9,1004.8377
1.4384125507059066E9,1004.8377
1.4384125507411237E9,1004.7378
1.4384125507764328E9,1004.8677
1.4384125508081708E9,1004.8677
1.4384125508428085E9,1004.9976
1.4384125508771405E9,1004.8677
1.4384125509082074E9,1004.80774
1.4384125509431806E9,1004.8377
1.4384125509785507E9,1004.9377
1.4384125510080307E9,1004.8677
1.4384125510433035E9,1004.8677
1.438412551078551E9,1004.9377
1.438412551108733E9,1004.8677
1.4384125511440113E9,1004.8377
1.4384125511792896E9,1004.8677
1.4384125512094715E9,1004.8377
1.4384125512444751E9,1004.80774
1.4384125512799978E9,1004.8677
1.4384125513101797E9,1004.8677
1.438412551345458E9,1004.8977
1.438412551380675E9,1004.8977
1.438412551411498E9,1004.8377
1.4384125514468374E9,1004.8677
1.4384125514820547E9,1004.9377
1.4384125515122366E9,1004.9377
1.438412551546813E9,1004.8677
1.4384125515820913E9,1004.80774
1.4384125516123037E9,1004.8977
1.4384125516475515E9,1004.96765
1.438412551682799E9,1004.8977
1.438412551712981E9,1004.9976
1.4384125517482593E9,1004.8977
1.4384125517835073E9,1004.8677
1.4384125518137197E9,1004.8677
1.438412551848937E9,1004.9077
1.4384125518847952E9,1004.8677
1.438412551915099E9,1004.8977
1.438412551950286E9,1004.8977
1.438412551985503E9,1004.8377
1.4384125520159597E9,1004.9377
1.4384125520509937E9,1004.8977
1.4384125520862112E9,1004.8377
1.438412552116454E9,1004.8377
1.4384125521510916E9,1004.8377
1.4384125521863394E9,1004.8677
1.4384125522165213E9,1004.9377
1.4384125522517996E9,1004.8977
1.4384125522870471E9,1004.7778
1.4384125523172596E9,1004.8677
1.4384125523525076E9,1004.9077
1.4384125523877554E9,1004.9377
1.4384125524179678E9,1004.9077
1.438412552453826E9,1004.8377
1.4384125524890125E9,1004.80774
1.4384125525192556E9,1004.9077
1.4384125525545032E9,1004.8677
1.4384125525899954E9,1004.8677
1.4384125526199634E9,1004.9377
1.4384125526552114E9,1004.8677
1.4384125526898181E9,1004.8677
1.4384125527200613E9,1004.9077
1.438412552755309E9,1004.9077
1.4384125527905874E9,1004.8677
1.4384125528207998E9,1004.8677
1.4384125528560474E9,1004.8677
1.4384125528912954E9,1004.9077
1.4384125529217405E9,1004.9377
1.4384125529569886E9,1004.8677
1.4384125529922364E9,1004.9976
1.4384125530224488E9,1004.9077
1.4384125530582764E9,1004.8377
1.4384125530934937E9,1004.8377
1.4384125531237059E9,1004.8677
1.438412553158954E9,1004.8677
1.4384125531942625E9,1004.9377
1.4384125532244444E9,1004.96765
1.438412553259082E9,1004.9377
1.43841255329433E9,1004.8677
1.4384125533245423E9,1004.96765
1.4384125533598206E9,1004.9077
1.4384125533950682E9,1004.96765
1.43841255342525E9,1004.9077
1.4384125534605284E9,1004.9377
1.4384125534957764E9,1004.9077
1.4384125535259583E9,1004.96765
1.438412553561206E9,1004.8677
1.4384125535970948E9,1004.80774
1.4384125536272767E9,1004.96765
1.4384125536625245E9,1004.9377
1.4384125536978028E9,1004.9377
1.4384125537280457E9,1004.9077
1.4384125537632322E9,1004.8677
1.4384125537979004E9,1004.9377
1.4384125538280823E9,1004.8677
1.4384125538635077E9,1004.8677
1.438412553898786E9,1004.8677
1.438412553928968E9,1004.9377
1.4384125539642463E9,1004.8677
1.4384125539994943E9,1004.8377
1.4384125540297065E9,1004.8677
1.438412554064985E9,1004.9077
1.4384125541008432E9,1004.8377
1.438412554131025E9,1004.9077
1.4384125541663337E9,1004.8677
1.4384125542059762E9,1004.9077
1.4384125542317328E9,1004.9377
1.4384125542670112E9,1004.80774
1.4384125543015876E9,1004.8377
1.4384125543319955E9,1004.8677
1.4384125543670604E9,1004.9077
1.438412554402369E9,1004.80774
1.4384125544325206E9,1004.8677
1.4384125544677684E9,1004.8677
1.438412554503016E9,1004.8677
1.4384125545332592E9,1004.9377
1.4384125545684762E9,1004.9077
1.438412554603724E9,1004.8377
1.438412554634608E9,1004.9077
1.438412554669825E9,1004.8377
1.438412554705012E9,1004.8677
1.4384125547353158E9,1004.8377
1.4384125547705333E9,1004.8377
1.4384125548057199E9,1004.80774
1.438412554835444E9,1004.80774
1.4384125548706002E9,1004.8377
1.4384125549058483E9,1004.9077
1.4384125549360604E9,1004.7778
1.438412554971278E9,1004.80774
1.4384125550065255E9,1004.80774
1.4384125550367382E9,1004.9077
1.4384125550720165E9,1004.9077
1.4384125551072335E9,1004.9077
1.4384125551374764E9,1004.96765
1.4384125551727242E9,1004.96765
1.4384125552079723E9,1004.80774
1.4384125552387035E9,1004.9077
1.438412555274068E9,1004.9077
1.4384125553092244E9,1004.9377
1.438412555339528E9,1004.8377
1.4384125553747454E9,1004.9377
1.4384125554094744E9,1004.8377
1.4384125554396563E9,1004.8377
1.438412555474904E9,1004.9077
1.438412555510152E9,1004.8377
1.438412555540334E9,1004.7778
1.4384125555756123E9,1004.8677
1.4384125556108294E9,1004.96765
1.4384125556410723E9,1004.9077
1.43841255567632E9,1004.80774
1.4384125557127886E9,1004.8377
1.4384125557427266E9,1004.9377
1.438412555777669E9,1004.9077
1.438412555812856E9,1004.80774
1.4384125558434343E9,1004.8377
1.438412555878316E9,1004.8377
1.4384125559134724E9,1004.7778
1.438412555943227E9,1004.8377
1.4384125559784136E9,1004.9077
1.4384125560137224E9,1004.8677
1.4384125560439043E9,1004.9077
1.438412556079152E9,1004.9377
1.4384125561144001E9,1004.9377
1.4384125561446126E9,1004.9077
1.43841255617986E9,1004.9077
1.438412556215108E9,1004.80774
1.4384125562453203E9,1004.8677
1.4384125562805376E9,1004.8677
1.4384125563169146E9,1004.8377
1.438412556347585E9,1004.8677
1.438412556381215E9,1004.8377
1.4384125564165242E9,1004.9377
1.4384125564467669E9,1004.96765
1.438412556482015E9,1004.9077
1.438412556517232E9,1004.8677
1.4384125565474138E9,1004.8677
1.4384125565826921E9,1004.9077
1.43841255661794E9,1004.96765
1.4384125566481524E9,1004.8377
1.4384125566834307E9,1004.9377
1.438412556718709E9,1004.9077
1.4384125567489214E9,1004.80774
1.4384125567841692E9,1004.9077
1.4384125568194172E9,1004.9377
1.4384125568502095E9,1004.9077
1.4384125568854878E9,1004.9976
1.4384125569207048E9,1004.9377
1.4384125569509172E9,1004.9377
1.4384125569855852E9,1004.9077
1.438412557020772E9,1004.9077
1.4384125570509846E9,1004.9077
1.4384125570862322E9,1004.9077
1.43841255712148E9,1004.8677
1.4384125571519558E9,1004.8677
1.4384125571871731E9,1004.8377
1.438412557222421E9,1004.8677
1.438412557252725E9,1004.96765
1.4384125572884917E9,1004.8377
1.4384125573237088E9,1004.8677
1.4384125573540432E9,1004.8677
1.4384125573891995E9,1004.8377
1.4384125574244168E9,1004.9377
1.4384125574546902E9,1004.9377
1.4384125574899075E9,1004.8377
1.4384125575250943E9,1004.9077
1.4384125575547574E9,1004.9377
1.4384125575900052E9,1004.8677
1.4384125576252224E9,1004.8677
1.4384125576552212E9,1004.9077
1.4384125576907132E9,1004.8677
1.438412557725961E9,1004.9077
1.4384125577561734E9,1004.9377
1.4384125577914212E9,1004.9377
1.438412557826669E9,1004.96765
1.4384125578568814E9,1004.9077
1.4384125578921292E9,1004.8677
1.4384125579279568E9,1004.9377
1.4384125579581997E9,1004.9377
1.4384125579933865E9,1004.96765
1.4384125580286038E9,1004.9377
1.4384125580589077E9,1005.0376
1.4384125580940888E9,1004.9077
1.4384125581293366E9,1004.96765
1.4384125581589692E9,1004.96765
1.438412558194217E9,1005.0676
1.4384125582294953E9,1004.9077
1.4384125582597077E9,1004.96765
1.4384125582949555E9,1004.9377
1.4384125583302035E9,1004.9077
1.438412558360416E9,1004.9377
1.4384125583956637E9,1004.8677
1.4384125584309113E9,1004.9077
1.4384125584617343E9,1004.9077
1.4384125584969513E9,1004.9077
1.4384125585321076E9,1004.9077
1.4384125585624115E9,1004.96765
1.438412558597629E9,1004.9377
1.4384125586326327E9,1004.9077
1.43841255866254E9,1004.9077
1.438412558697757E9,1004.96765
1.4384125587330048E9,1004.9377
1.4384125587632172E9,1004.9077
1.4384125587984955E9,1004.8677
1.4384125588337433E9,1004.9377
1.4384125588639557E9,1004.9077
1.4384125588992038E9,1004.96765
1.4384125589342074E9,1004.9077
1.4384125589646335E9,1004.9077
1.438412559000095E9,1004.96765
1.4384125590357697E9,1004.8677
1.4384125590659516E9,1004.9077
1.43841255910123E9,1004.9976
1.4384125591365082E9,1004.8677
1.4384125591669648E9,1004.8677
1.438412559201938E9,1004.9377
1.4384125592372468E9,1004.9377
1.4384125592673678E9,1004.9077
1.4384125593020356E9,1004.8377
1.4384125593372834E9,1004.9077
1.438412559368137E9,1004.9077
1.4384125594030793E9,1004.9377
1.4384125594379916E9,1004.9077
1.4384125594682038E9,1004.9377
1.438412559503482E9,1004.9077
1.4384125595387301E9,1004.9377
1.438412559568912E9,1004.9377
1.4384125596041903E9,1004.9377
1.4384125596394074E9,1004.9077
1.438412559670261E9,1004.9377
1.4384125597055697E9,1004.96765
1.4384125597407258E9,1004.9377
1.4384125597709687E9,1004.9377
1.4384125598062778E9,1004.8377
1.438412559840793E9,1004.9377
1.4384125598710053E9,1004.9077
1.4384125599062836E9,1004.9377
1.4384125599415314E9,1004.9377
1.4384125599719768E9,1004.9077
1.438412560007194E9,1004.9377
1.4384125600424724E9,1004.9377
1.4384125600726542E9,1004.96765
1.438412560107902E9,1004.9077
1.4384125601437602E9,1004.9377
1.4384125601740947E9,1004.8377
1.4384125602089152E9,1004.9377
1.4384125602444682E9,1004.9377
1.4384125602747416E9,1004.9377
1.4384125603099287E9,1004.8377
1.4384125603451762E9,1004.9377
1.4384125603754191E9,1005.0376
1.438412560410026E9,1004.9377
1.4384125604452739E9,1004.9377
1.4384125604755168E9,1004.9976
1.4384125605107646E9,1004.9077
1.4384125605460124E9,1004.8677
1.4384125605762248E9,1004.9077
1.4384125606114728E9,1004.9077
1.4384125606467204E9,1004.96765
1.4384125606769328E9,1004.9377
1.438412560712791E9,1004.9976
1.4384125607479167E9,1005.0376
1.4384125607782512E9,1004.80774
1.438412560813499E9,1004.9377
1.4384125608487163E9,1004.8377
1.4384125608789592E9,1004.9377
1.4384125609142015E9,1004.9976
1.4384125609488084E9,1004.8677
1.4384125609790514E9,1004.8677
1.4384125610142689E9,1004.9377
1.4384125610495164E9,1004.9077
1.4384125610797594E9,1004.9377
1.4384125611150072E9,1004.9377
1.438412561150255E9,1004.8377
1.4384125611804674E9,1004.96765
1.4384125612157152E9,1004.9377
1.438412561250963E9,1004.9377
1.4384125612811754E9,1004.8677
1.438412561317003E9,1004.8377
1.4384125613521898E9,1004.9377
1.4384125613824632E9,1004.9976
1.438412561417711E9,1004.96765
1.4384125614529588E9,1004.8677
1.4384125614828966E9,1004.9377
1.4384125615178087E9,1004.96765
1.438412561553148E9,1004.96765
1.4384125615832386E9,1004.8677
1.4384125616185167E9,1005.0376
1.438412561653795E9,1004.9377
1.4384125616840074E9,1004.9976
1.4384125617192247E9,1004.8677
1.438412561754503E9,1004.8677
1.4384125617847154E9,1004.96765
1.4384125618199632E9,1004.9077
1.438412561855974E9,1004.8377
1.4384125618857896E9,1004.80774
1.4384125619253404E9,1004.8677
1.438412561955919E9,1004.8677
1.4384125619861314E9,1004.9377
1.4384125620213487E9,1004.8677
1.438412562056688E9,1004.9077
1.438412562086809E9,1004.9976
1.4384125621226976E9,1004.9077
1.4384125621573656E9,1004.9377
1.438412562187517E9,1004.96765
1.4384125622227952E9,1004.9077
1.4384125622580738E9,1004.9077
1.4384125622882557E9,1004.96765
1.4384125623235033E9,1004.8677
1.4384125623587816E9,1004.9377
1.438412562388994E9,1004.9377
1.4384125624242418E9,1004.9976
1.438412562460161E9,1004.96765
1.4384125624903429E9,1004.9377
1.4384125625256212E9,1004.96765
1.4384125625607777E9,1004.9077
1.43841256259041E9,1004.8677
1.4384125626255968E9,1004.9077
1.438412562660875E9,1004.96765
1.4384125626910875E9,1004.9077
1.4384125627263353E9,1004.9077
1.438412562761461E9,1004.9976
1.4384125627920282E9,1004.9976
1.4384125628272455E9,1004.9077
1.4384125628624933E9,1004.9077
1.438412562893377E9,1004.8677
1.4384125629285333E9,1004.9077
1.4384125629632013E9,1004.8377
1.4384125629933832E9,1004.96765
1.4384125630286615E9,1004.9077
1.43841256306394E9,1004.8677
1.4384125630941827E9,1004.9077
1.4384125631294305E9,1004.8677
1.4384125631646173E9,1004.96765
1.4384125631947992E9,1004.9077
1.4384125632300775E9,1004.96765
1.4384125632653253E9,1004.9077
1.438412563295965E9,1004.9077
1.4384125633313653E9,1004.8377
1.438412563366644E9,1004.9377
1.438412563396856E9,1004.9077
1.438412563432287E9,1004.9077
1.4384125634672906E9,1004.9077
1.438412563497564E9,1004.9077
1.4384125635335443E9,1004.8677
1.4384125635679986E9,1004.8677
1.438412563598211E9,1004.9077
1.4384125636334896E9,1004.8377
1.4384125636681573E9,1004.9377
1.4384125636983392E9,1004.7778
1.4384125637337341E9,1004.9077
1.4384125637690125E9,1004.9077
1.4384125637992249E9,1004.8377
1.438412563834473E9,1004.8677
1.4384125638697207E9,1004.9077
1.438412563899933E9,1004.9377
1.438412563935181E9,1004.8677
1.4384125639704287E9,1004.9377
1.438412564000641E9,1004.8377
1.438412564035889E9,1004.9077
1.438412564075806E9,1004.8677
1.4384125641013489E9,1004.8377
1.438412564136597E9,1004.9377
1.4384125641718447E9,1004.9976
1.4384125642021E9,1004.8677
1.4384125642373478E9,1004.96765
1.4384125642726262E9,1004.9077
1.4384125643028386E9,1004.8677
1.4384125643380866E9,1004.9976
1.4384125643733342E9,1004.8677
1.4384125644036686E9,1004.96765
1.4384125644387944E9,1004.8677
1.4384125644740422E9,1004.9077
1.4384125645042546E9,1004.96765
1.4384125645394719E9,1004.8677
1.4384125645747502E9,1004.8377
1.4384125646049626E9,1004.8677
1.438412564640241E9,1004.96765
1.438412564676099E9,1004.96765
1.438412564706281E9,1004.9377
1.4384125647408879E9,1004.8377
1.4384125647761662E9,1004.96765
1.4384125648063786E9,1004.96765
1.438412564841596E9,1004.96765
1.4384125648768437E9,1004.9377
1.4384125649070866E9,1004.9077
1.4384125649423347E9,1004.96765
1.4384125649775822E9,1004.9377
1.438412565007764E9,1004.9077
1.4384125650436835E9,1004.80774
1.4384125650789921E9,1004.8377
1.4384125651090825E9,1004.9077
1.4384125651444166E9,1004.9077
1.4384125651796339E9,1004.96765
1.4384125652098157E9,1004.96765
1.4384125652451243E9,1004.9377
1.4384125652803113E9,1004.8677
1.4384125653099134E9,1004.9377
1.4384125653451915E9,1004.96765
1.438412565380409E9,1004.8377
1.438412565410591E9,1004.9377
1.4384125654458692E9,1004.8377
1.438412565481117E9,1004.8677
1.438412565511299E9,1004.9377
1.4384125655465465E9,1004.9077
1.4384125655818248E9,1004.8377
1.4384125656120372E9,1004.96765
1.438412565647285E9,1004.9077
1.4384125656825025E9,1004.8377
1.4384125657134473E9,1004.9077
1.4384125657486339E9,1004.8677
1.4384125657838514E9,1004.9377
1.4384125658140638E9,1004.8677
1.4384125658486705E9,1004.8677
1.4384125658839185E9,1004.80774
1.4384125659141612E9,1004.96765
1.4384125659493787E9,1004.8377
1.4384125659846265E9,1004.8377
1.4384125660148695E9,1004.96765
1.4384125660501173E9,1004.8677
1.4384125660853956E9,1004.8377
1.4384125661156383E9,1004.9377
1.4384125661508558E9,1004.8677
1.438412566186134E9,1004.80774
1.4384125662163465E9,1004.8677
1.4384125662521434E9,1004.96765
1.4384125662873304E9,1004.96765
1.438412566318214E9,1004.96765
1.4384125663528516E9,1004.96765
1.4384125663874583E9,1004.96765
1.4384125664177015E9,1004.9077
1.438412566452949E9,1004.96765
1.4384125664881666E9,1004.9077
1.4384125665184093E9,1004.9377
1.4384125665536573E9,1004.9077
1.438412566588905E9,1004.80774
1.4384125666187513E9,1004.8377
1.4384125666543653E9,1004.9077
1.438412566689613E9,1004.8677
1.4384125667198255E9,1004.9077
1.438412566755653E9,1004.9077
1.4384125667909312E9,1004.80774
1.438412566821113E9,1004.8677
1.4384125668563612E9,1004.9077
1.438412566891609E9,1004.9077
1.4384125669218516E9,1004.9077
1.4384125669570386E9,1004.9077
1.4384125669917064E9,1004.8677
1.4384125670221517E9,1004.9077
1.4384125670573692E9,1004.9077
1.438412567092678E9,1004.9077
1.43841256712286E9,1004.9077
1.4384125671581383E9,1004.9077
1.438412567193386E9,1004.9077
1.4384125672235985E9,1004.7778
1.4384125672588463E9,1004.8677
1.4384125672940938E9,1004.8677
1.4384125673243062E9,1004.8677
1.4384125673602257E9,1004.8677
1.4384125673954427E9,1004.96765
1.438412567425594E9,1004.9377
1.438412567460903E9,1004.9077
1.43841256749551E9,1004.9077
1.4384125675257225E9,1004.8677
1.43841256756097E9,1004.9077
1.4384125675962791E9,1004.9077
1.4384125676264303E9,1004.9077
1.438412567661678E9,1004.9077
1.4384125676969564E9,1004.9077
1.43841256772723E9,1004.96765
1.4384125677630575E9,1004.9377
1.4384125677983665E9,1004.8677
1.4384125678284569E9,1004.9077
1.4384125678638265E9,1004.9377
1.4384125678987083E9,1004.9077
1.4384125679291954E9,1004.9077
1.4384125679644985E9,1004.8677
1.438412567999899E9,1004.8677
1.4384125680299282E9,1004.8677
1.4384125680651455E9,1004.8677
1.4384125680997524E9,1004.8677
1.4384125681299343E9,1004.80774
1.438412568165182E9,1004.9377
1.4384125682004604E9,1004.8677
1.4384125682307034E9,1004.8677
1.4384125682659206E9,1004.8677
1.4384125683011684E9,1004.9077
1.4384125683319607E9,1004.9377
1.4384125683672695E9,1004.8377
1.4384125684018767E9,1004.9377
1.4384125684320889E9,1004.9077
1.4384125684673977E9,1004.9077
1.4384125685031948E9,1004.9077
1.4384125685334377E9,1004.8677
1.438412568568655E9,1004.9377
1.4384125686038723E9,1004.9377
1.4384125686336575E9,1004.9377
1.4384125686687527E9,1004.9377
1.4384125687045193E9,1004.9377
1.4384125687342129E9,1004.8377
1.438412568769461E9,1004.8377
1.4384125688047085E9,1004.9077
1.438412568834921E9,1004.9377
1.4384125688701687E9,1004.9077
1.438412568905447E9,1004.9077
1.4384125689362392E9,1004.8377
1.4384125689714565E9,1004.8677
1.4384125690066433E9,1004.96765
1.4384125690369473E9,1004.8677
1.4384125690721645E9,1004.8777
1.4384125691073513E9,1004.80774
1.4384125691376247E9,1004.8377
1.4384125691725674E9,1004.9077
1.4384125692081203E9,1004.8377
1.438412569237753E9,1004.8677
1.4384125692729704E9,1004.8677
1.438412569308279E9,1004.8377
1.4384125693384306E9,1004.9077
1.4384125693737087E9,1004.8377
1.4384125694089565E9,1004.8677
1.438412569439169E9,1004.80774
1.4384125694744167E9,1004.9077
1.4384125695096645E9,1004.8377
1.438412569539877E9,1004.96765
1.4384125695750945E9,1004.8377
1.438412569610983E9,1004.9077
1.4384125696411953E9,1004.9077
1.4384125696766567E9,1004.8677
1.4384125697162075E9,1004.80774
1.4384125697418728E9,1004.8777
1.4384125697772732E9,1004.8377
1.4384125698117583E9,1004.8377
1.4384125698422031E9,1004.80774
1.4384125698774512E9,1004.8677
1.4384125699127295E9,1004.8377
1.438412569942942E9,1004.80774
1.4384125699782505E9,1004.9077
1.4384125700134373E9,1004.8677
1.4384125700436192E9,1004.8377
1.4384125700788975E9,1004.9077
1.4384125701141453E9,1004.8777
1.4384125701447241E9,1004.8677
1.4384125701802158E9,1004.8377
1.4384125702155247E9,1004.8377
1.4384125702456458E9,1004.8377
1.438412570280924E9,1004.80774
1.4384125703162632E9,1004.9077
1.438412570346323E9,1004.8677
1.4384125703816626E9,1004.8377
1.4384125704170322E9,1004.9077
1.4384125704463596E9,1004.8677
1.4384125704816992E9,1004.9377
1.4384125705169775E9,1004.8777
1.43841257054719E9,1004.8677
1.4384125705824378E9,1004.8377
1.4384125706176853E9,1004.80774
1.4384125706478977E9,1004.9077
1.438412570683115E9,1004.8777
1.4384125707183933E9,1004.9077
1.4384125707486057E9,1004.8777
1.4384125707839704E9,1004.9077
1.438412570819859E9,1004.9077
1.438412570850163E9,1004.8777
1.4384125708853498E9,1004.80774
1.4384125709205365E9,1004.8377
1.4384125709508712E9,1004.9377
1.438412570985478E9,1004.9077
1.4384125710206647E9,1004.8377
1.438412571050877E9,1004.80774
1.4384125710861554E9,1004.8777
1.4384125711213422E9,1004.8377
1.438412571151585E9,1004.9377
1.438412571186833E9,1004.80774
1.4384125712220807E9,1004.9077
1.438412571252916E9,1004.8777
1.4384125712881026E9,1004.8777
1.4384125713233812E9,1004.9077
1.4384125713535933E9,1004.8377
1.4384125713888414E9,1004.8377
1.438412571424089E9,1004.80774
1.4384125714543016E9,1004.9377
1.4384125714895492E9,1004.8377
1.4384125715294054E9,1004.8777
1.438412571555162E9,1004.9077
1.438412571590227E9,1004.8377
1.4384125716254747E9,1004.9077
1.4384125716551073E9,1004.8377
1.438412571690355E9,1004.9077
1.4384125717253587E9,1004.96765
1.4384125717557845E9,1004.8377
1.4384125717910628E9,1004.8777
1.4384125718263106E9,1004.8377
1.438412571856523E9,1004.8377
1.438412571891771E9,1004.8377
1.438412571927019E9,1004.7778
1.4384125719572313E9,1004.8377
1.4384125719924788E9,1004.8377
1.4384125720278184E9,1004.8777
1.4384125720585496E9,1004.9377
1.4384125720937972E9,1004.7478
1.4384125721289842E9,1004.96765
1.4384125721592574E9,1004.8377
1.4384125721939507E9,1004.8377
1.438412572229229E9,1004.8377
1.4384125722594109E9,1004.9377
1.4384125722946892E9,1004.8377
1.4384125723299062E9,1004.7778
1.4384125723601494E9,1004.8377
1.438412572395397E9,1004.8377
1.4384125724306448E9,1004.8777
1.4384125724608572E9,1004.80774
1.438412572496105E9,1004.7778
1.438412572531353E9,1004.8677
1.438412572561535E9,1004.80774
1.4384125725968132E9,1004.8377
1.4384125726326406E9,1004.8777
1.4384125726628838E9,1004.8777
1.4384125726981008E9,1004.8377
1.4384125727334096E9,1004.8377
1.438412572763561E9,1004.8377
1.4384125727982595E9,1004.9077
1.438412572833477E9,1004.8777
1.438412572863659E9,1004.8377
1.4384125728989372E9,1004.8377
1.4384125729342155E9,1004.8377
1.4384125729643667E9,1004.7778
1.4384125729995842E9,1004.9077
1.4384125730349233E9,1004.8377
1.4384125730651052E9,1004.8777
1.438412573100353E9,1004.8377
1.4384125731356316E9,1004.8377
1.438412573165783E9,1004.8777
1.438412573201763E9,1004.9077
1.4384125732370107E9,1004.8377
1.438412573267101E9,1004.8377
1.438412573301769E9,1004.9377
1.4384125733370168E9,1004.8377
1.4384125733672292E9,1004.8777
1.4384125734024773E9,1004.8377
1.438412573437725E9,1004.8777
1.4384125734679375E9,1004.8377
1.4384125735031853E9,1004.9077
1.4384125735384328E9,1004.8377
1.4384125735686147E9,1004.8377
1.4384125736038625E9,1004.7778
1.4384125736391106E9,1004.8377
1.4384125736693532E9,1004.7778
1.4384125737049062E9,1004.8377
1.4384125737398183E9,1004.8377
1.43841257377528E9,1004.8777
1.4384125738052785E9,1004.9077
1.4384125738405874E9,1004.9077
1.4384125738708305E9,1004.9377
1.438412573906017E9,1004.7778
1.4384125739412346E9,1004.9377
1.438412573971447E9,1004.9077
1.4384125740067253E9,1004.8377
1.438412574041973E9,1004.9077
1.4384125740724185E9,1004.8377
1.4384125741077273E9,1004.8377
1.4384125741435244E9,1004.9077
1.4384125741737368E9,1004.9377
1.4384125742089844E9,1004.8377
1.4384125742442322E9,1004.8377
1.4384125742743838E9,1004.9377
1.4384125743096926E9,1004.8777
1.4384125743449404E9,1004.8377
1.4384125743751223E9,1004.7778
1.4384125744104006E9,1004.8377
1.4384125744450076E9,1004.9077
1.4384125744752505E9,1004.8377
1.438412574510498E9,1004.96765
1.438412574545746E9,1004.9077
1.4384125745759583E9,1004.7778
1.4384125746112063E9,1004.8777
1.438412574646454E9,1004.7778
1.4384125746766665E9,1004.8377
1.4384125747119143E9,1004.8377
1.4384125747476196E9,1004.8377
1.4384125747775576E9,1004.80774
1.438412574812622E9,1004.9077
1.43841257484787E9,1004.9077
1.4384125748786318E9,1004.9077
1.4384125749133303E9,1004.7478
1.4384125749485781E9,1004.8377
1.4384125749787292E9,1004.9377
1.4384125750140634E9,1004.8377
1.4384125750492806E9,1004.9077
1.4384125750795236E9,1004.9077
1.4384125751147408E9,1004.8377
1.4384125751500192E9,1004.8777
1.4384125751802318E9,1004.9077
1.4384125752154794E9,1005.0076
1.4384125752507577E9,1004.9077
1.4384125752813973E9,1004.9976
1.4384125753167672E9,1004.8377
1.4384125753520458E9,1004.9077
1.4384125753827157E9,1004.9377
1.4384125754177194E9,1004.9077
1.438412575452723E9,1004.8777
1.4384125754833934E9,1004.96765
1.4384125755184274E9,1004.9377
1.438412575553492E9,1004.9077
1.4384125755834908E9,1004.8777
1.4384125756182811E9,1004.8777
1.4384125756535594E9,1004.9077
1.4384125756837718E9,1004.9377
1.4384125757190197E9,1004.96765
1.4384125757542672E9,1004.9377
1.438412575784449E9,1004.9077
1.438412575819697E9,1005.0376
1.4384125758549752E9,1004.9976
1.438412575885157E9,1004.9077
1.438412575920863E9,1004.96765
1.4384125759563851E9,1004.96765
1.4384125759858959E9,1004.9077
1.4384125760211434E9,1004.8777
1.4384125760563912E9,1004.8377
1.4384125760865731E9,1004.9377
1.438412576121882E9,1004.9077
1.4384125761570992E9,1004.8377
1.4384125761872811E9,1004.9377
1.4384125762225292E9,1004.8377
1.4384125762578075E9,1004.9377
1.4384125762879894E9,1004.9077
1.4384125763232675E9,1004.9077
1.4384125763586984E9,1004.80774
1.4384125763887277E9,1004.9077
1.4384125764239755E9,1004.96765
1.4384125764592233E9,1004.8377
1.4384125764894052E9,1004.8377
1.4384125765246837E9,1004.8377
1.4384125765599315E9,1004.8777
1.4384125765901132E9,1004.9077
1.4384125766253915E9,1004.8777
1.4384125766611886E9,1004.9377
1.4384125766914623E9,1004.7778
1.4384125767267098E9,1004.8777
1.4384125767626598E9,1004.9377
1.4384125767921395E9,1004.9377
1.4384125768273876E9,1004.9377
1.4384125768619027E9,1004.8777
1.438412576892409E9,1004.9377
1.4384125769276571E9,1004.96765
1.438412576962905E9,1004.9077
1.4384125769931479E9,1004.9377
1.4384125770283957E9,1004.9377
1.4384125770636435E9,1004.80774
1.4384125770938559E9,1004.9077
1.4384125771291034E9,1004.9377
1.4384125771643512E9,1004.8777
1.4384125771945636E9,1004.9377
1.4384125772301166E9,1004.8777
1.438412577265578E9,1004.9377
1.4384125772958517E9,1004.9077
1.43841257733113E9,1004.9377
1.4384125773662863E9,1004.9377
1.4384125773965597E9,1004.96765
1.438412577431716E9,1004.9377
1.4384125774664752E9,1004.9377
1.4384125774966877E9,1004.9077
1.4384125775319965E9,1005.0376
1.438412577567153E9,1004.9077
1.438412577597396E9,1004.8777
1.4384125776326437E9,1004.8777
1.4384125776678913E9,1004.8377
1.438412577698104E9,1004.8777
1.4384125777333515E9,1004.8377
1.4384125777685993E9,1004.80774
1.4384125777988117E9,1004.8777
1.4384125778342376E9,1004.9377
1.438412577870065E9,1004.80774
1.4384125779002163E9,1004.9077
1.4384125779354947E9,1004.9377
1.4384125779707427E9,1004.9077
1.4384125780003448E9,1004.9377
1.4384125780355923E9,1004.9077
1.4384125780708401E9,1004.9377
1.4384125781011138E9,1004.9077
1.438412578136087E9,1004.8777
1.4384125781715786E9,1004.8777
1.4384125782017605E9,1004.8777
1.4384125782370389E9,1004.8777
1.438412578272287E9,1004.8777
1.438412578302512E9,1004.8777
1.4384125783377295E9,1004.8377
1.438412578373679E9,1004.8777
1.4384125784038E9,1004.96765
1.4384125784390478E9,1004.9377
1.438412578474387E9,1004.9377
1.4384125785045078E9,1004.8777
1.4384125785391757E9,1005.0076
1.4384125785744236E9,1004.80774
1.438412578604636E9,1004.8777
1.4384125786398838E9,1004.80774
1.4384125786751318E9,1004.9077
1.4384125787053442E9,1004.9377
1.4384125787406225E9,1004.8777
1.4384125787758396E9,1004.8777
1.4384125788060827E9,1004.9077
1.4384125788413303E9,1004.9077
1.4384125788765476E9,1004.9377
1.4384125789067905E9,1004.80774
1.4384125789426792E9,1004.9377
1.4384125789778662E9,1004.8777
1.4384125790084445E9,1004.96765
1.4384125790433567E9,1004.9377
1.4384125790785434E9,1004.9077
1.438412579108176E9,1004.9077
1.4384125791434238E9,1004.9077
1.4384125791786716E9,1004.9377
1.438412579208884E9,1004.9377
1.4384125792441876E9,1004.8777
1.4384125792794354E9,1004.9077
1.438412579309678E9,1004.9077
1.4384125793448956E9,1004.9077
1.4384125793801434E9,1004.8777
1.4384125794100811E9,1004.9377
1.4384125794456036E9,1005.0076
1.4384125794808512E9,1004.9377
1.4384125795117047E9,1004.9077
1.4384125795469217E9,1004.96765
1.438412579586778E9,1004.96765
1.438412579612382E9,1004.9077
1.4384125796475995E9,1004.9377
1.4384125796826336E9,1004.80774
1.4384125797124493E9,1004.80774
1.4384125797476969E9,1004.8377
1.438412579782945E9,1005.0076
1.4384125798131876E9,1004.96765
1.4384125798484051E9,1004.9077
1.4384125798837442E9,1004.80774
1.4384125799138958E9,1004.9077
1.4384125799491436E9,1004.8377
1.4384125799843915E9,1004.9377
1.4384125800146039E9,1004.9077
1.4384125800498822E9,1004.9077
1.4384125800851297E9,1004.9077
1.438412580115373E9,1004.9077
1.438412580151109E9,1004.9077
1.438412580185777E9,1004.9077
1.4384125802160199E9,1004.96765
1.4384125802512677E9,1004.9077
1.438412580286546E9,1004.9077
1.4384125803167279E9,1004.9377
1.4384125803519754E9,1004.8777
1.4384125803872235E9,1004.9377
1.4384125804174356E9,1005.0076
1.438412580453233E9,1004.9377
1.4384125804884198E9,1004.8777
1.4384125805186932E9,1004.9377
1.438412580553941E9,1004.9377
1.4384125805891888E9,1004.8777
1.4384125806194317E9,1004.8777
1.4384125806546793E9,1004.9377
1.4384125806896527E9,1004.8777
1.4384125807201395E9,1004.8777
1.4384125807553875E9,1004.8777
1.438412580790025E9,1005.0076
1.4384125808202069E9,1004.8777
1.438412580855485E9,1004.8777
1.438412580890794E9,1004.9077
1.4384125809209452E9,1004.8377
1.4384125809562235E9,1004.8777
1.4384125809914715E9,1004.9377
1.438412581021623E9,1004.9077
1.4384125810569317E9,1004.8777
1.4384125810921795E9,1004.9377
1.4384125811225944E9,1004.8777
1.4384125811578727E9,1005.0076
1.438412581193151E9,1004.8777
1.4384125812233634E9,1004.96765
1.4384125812592828E9,1004.96765
1.438412581294561E9,1005.0076
1.4384125813246818E9,1004.96765
1.4384125813593194E9,1004.8777
1.438412581394567E9,1004.96765
1.4384125814247794E9,1004.9077
1.4384125814599967E9,1004.9077
1.438412581495275E9,1004.8777
1.4384125815254874E9,1004.8777
1.4384125815614066E9,1004.9377
1.438412581596624E9,1004.9377
1.4384125816268363E9,1004.9077
1.438412581662176E9,1004.9377
1.4384125816973014E9,1004.8777
1.4384125817275748E9,1004.9077
1.438412581763494E9,1004.96765
1.43841258179804E9,1004.9377
1.4384125818283744E9,1004.8777
1.4384125818628592E9,1004.9377
1.4384125818981073E9,1004.96765
1.4384125819283197E9,1004.9377
1.4384125819634757E9,1004.9377
1.438412581998815E9,1004.96765
1.4384125820290582E9,1004.8777
1.43841258206427E9,1004.96765
1.4384125820995178E9,1005.0376
1.4384125821297302E9,1004.96765
1.438412582164978E9,1004.9377
1.438412582200775E9,1004.9377
1.438412582231079E9,1004.96765
1.4384125822666626E9,1004.9077
1.438412582301544E9,1005.0376
1.438412582331787E9,1004.8377
1.4384125823670042E9,1004.9077
1.4384125824016418E9,1004.9377
1.4384125824318542E9,1004.8777
1.438412582467102E9,1004.9377
1.4384125825023496E9,1004.9377
1.4384125825325623E9,1004.96765
1.4384125825678098E9,1004.9077
1.4384125826030579E9,1004.8777
1.43841258263327E9,1004.9077
1.438412582668518E9,1005.0376
1.4384125827037659E9,1004.96765
1.4384125827339783E9,1005.0076
1.4384125827691956E9,1005.0076
1.4384125828050842E9,1004.9077
1.4384125828347473E9,1004.9077
1.438412582871246E9,1004.9377
1.4384125829051514E9,1004.96765
1.438412582935394E9,1004.9077
1.438412582970642E9,1004.9077
1.4384125830059204E9,1004.8777
1.4384125830364683E9,1004.9377
1.43841258307135E9,1004.9377
1.4384125831065977E9,1005.0076
1.4384125831368103E9,1004.9077
1.4384125831720276E9,1004.96765
1.438412583207306E9,1005.0076
1.4384125832375793E9,1004.96765
1.4384125832727964E9,1004.9377
1.4384125833085325E9,1004.96765
1.4384125833388367E9,1005.0076
1.438412583374054E9,1004.9377
1.4384125834093323E9,1004.96765
1.4384125834395142E9,1004.9077
1.4384125834747617E9,1004.9077
1.4384125835099487E9,1004.9377
1.438412583539856E9,1004.9077
1.438412583574829E9,1004.96765
1.438412583610138E9,1004.8777
1.438412583640289E9,1004.96765
1.4384125836755981E9,1004.96765
1.4384125837108457E9,1004.9077
1.4384125837410583E9,1004.9377
1.4384125837762756E9,1004.9377
1.4384125838115842E9,1004.9077
1.4384125838417358E9,1004.9077
1.4384125838770142E9,1004.9377
1.4384125839122925E9,1004.9077
1.4384125839426768E9,1004.9077
1.4384125839779246E9,1004.96765
1.4384125840132031E9,1004.96765
1.4384125840434458E9,1004.96765
1.4384125840787241E9,1004.9077
1.438412584113911E9,1004.9077
1.4384125841441233E9,1004.9377
1.438412584179371E9,1004.9377
1.4384125842146494E9,1004.9377
1.4384125842448313E9,1004.96765
1.4384125842801096E9,1004.9377
1.4384125843153272E9,1004.9077
1.4384125843455698E9,1004.9377
1.4384125843808177E9,1004.96765
1.4384125844166453E9,1005.0076
1.4384125844469187E9,1004.9377
1.438412584482197E9,1004.9077
1.4384125845173228E9,1004.9377
1.4384125845476878E9,1004.96765
1.438412584582844E9,1004.96765
1.4384125846174204E9,1004.9377
1.4384125846476634E9,1005.0676
1.4384125846828806E9,1005.0076
1.438412584718159E9,1004.96765
1.4384125847483714E9,1004.9377
1.4384125847836192E9,1004.9377
1.438412584818867E9,1004.9377
1.4384125848491404E9,1004.9077
1.4384125848845966E9,1004.9077
1.4384125849195697E9,1004.96765
1.4384125849497821E9,1004.9377
1.43841258498503E9,1004.96765
1.4384125850202472E9,1004.9377
1.4384125850505207E9,1004.96765
1.438412585085799E9,1005.0076
1.4384125851210163E9,1004.9077
1.4384125851518083E9,1004.9377
1.438412585186446E9,1004.9377
1.438412585221663E9,1004.96765
1.4384125852519062E9,1004.8377
1.438412585287154E9,1004.9377
1.4384125853224015E9,1004.9377
1.4384125853526142E9,1004.9377
1.438412585387862E9,1004.9377
1.4384125854231098E9,1004.9077
1.4384125854539323E9,1004.96765
1.4384125854891498E9,1004.9377
1.4384125855243976E9,1004.9077
1.43841258555461E9,1004.8777
1.438412585589827E9,1005.0076
1.438412585625014E9,1004.9377
1.4384125856553178E9,1004.9077
1.4384125856905658E9,1004.8777
1.438412585725783E9,1004.8377
1.4384125857554157E9,1004.9377
1.4384125857906635E9,1004.9377
1.4384125858258808E9,1004.9377
1.4384125858561237E9,1004.8777
1.438412585891402E9,1004.96765
1.4384125859266496E9,1004.8777
1.438412585956862E9,1004.80774
1.43841258599211E9,1004.8777
1.438412586027541E9,1004.9077
1.43841258605815E9,1004.9077
1.438412586093459E9,1004.8777
1.4384125861286457E9,1004.9377
1.438412586158858E9,1004.8777
1.438412586194075E9,1004.9377
1.4384125862293537E9,1004.9377
1.4384125862595658E9,1004.9377
1.4384125862947834E9,1004.80774
1.4384125863300617E9,1004.96765
1.4384125863596942E9,1004.9377
1.4384125863948808E9,1004.8377
1.4384125864301898E9,1004.8777
1.4384125864604023E9,1004.8777
1.4384125864956195E9,1004.8777
1.4384125865308979E9,1004.9077
1.43841258656111E9,1004.9377
1.438412586596358E9,1004.80774
1.4384125866321857E9,1004.9077
1.438412586662398E9,1004.96765
1.438412586697646E9,1004.9077
1.4384125867329853E9,1004.9377
1.4384125867632782E9,1004.9077
1.4384125867985566E9,1004.96765
1.4384125868338654E9,1004.9377
1.4384125868633757E9,1005.0376
1.438412586898654E9,1005.0076
1.438412586933902E9,1004.9077
1.4384125869641447E9,1004.9377
1.4384125869993925E9,1004.9377
1.4384125870346406E9,1005.0076
1.4384125870648224E9,1004.80774
1.4384125870998564E9,1004.9077
1.4384125871353178E9,1004.8377
1.438412587165561E9,1004.9077
1.438412587200778E9,1004.9377
1.4384125872366362E9,1004.96765
1.4384125872669098E9,1004.9377
1.4384125873021574E9,1004.9377
1.4384125873417692E9,1004.8777
1.4384125873679535E9,1004.9377
1.4384125874028351E9,1004.9377
1.4384125874381135E9,1004.9377
1.4384125874683561E9,1004.9377
1.4384125875028718E9,1004.96765
1.43841258753815E9,1004.9077
1.4384125875683622E9,1004.96765
1.4384125876036103E9,1004.9077
1.438412587638858E9,1004.8777
1.4384125876690705E9,1004.80774
1.4384125877044652E9,1004.9077
1.4384125877397132E9,1004.9077
1.438412587769895E9,1004.9077
1.4384125878051734E9,1004.8777
1.4384125878404212E9,1004.8777
1.4384125878706336E9,1004.9377
1.4384125879065526E9,1004.9077
1.4384125879410987E9,1004.8777
1.4384125879713414E9,1004.9377
1.4384125880065892E9,1004.9077
1.4384125880418372E9,1004.96765
1.4384125880720494E9,1004.96765
1.4384125881072974E9,1004.9077
1.438412588142545E9,1004.80774
1.4384125881728616E9,1004.9077
1.4384125882081091E9,1004.9077
1.4384125882434182E9,1004.9077
1.4384125882736E9,1004.8777
1.438412588309397E9,1004.8777
1.4384125883445837E9,1004.9077
1.4384125883745825E9,1004.9377
1.4384125884101577E9,1004.9077
1.4384125884453444E9,1004.8777
1.438412588475618E9,1004.96765
1.438412588510255E9,1004.9377
1.4384125885455031E9,1004.96765
1.438412588575685E9,1004.9377
1.4384125886109328E9,1004.96765
1.438412588646211E9,1004.9377
1.4384125886764235E9,1004.96765
1.438412588711671E9,1004.9377
1.438412588746919E9,1004.9077
1.4384125887771008E9,1004.8777
1.4384125888123488E9,1004.9377
1.4384125888476272E9,1004.9377
1.4384125888778214E9,1004.96765
1.4384125889130692E9,1004.9377
1.438412588948317E9,1005.0376
1.43841258897856E9,1004.96765
1.4384125890137773E9,1004.9377
1.438412589049025E9,1004.96765
1.4384125890792375E9,1005.0376
1.4384125891144853E9,1004.9077
1.4384125891497025E9,1004.8777
1.4384125891802812E9,1004.8377
1.4384125892160478E9,1004.9077
1.4384125892510822E9,1004.9077
1.4384125892812333E9,1004.9077
1.4384125893166032E9,1004.9077
1.438412589351729E9,1004.8777
1.4384125893819413E9,1004.9377
1.4384125894172196E9,1004.9077
1.438412589452376E9,1004.9377
1.4384125894820695E9,1004.8777
1.4384125895173478E9,1004.9077
1.4384125895526264E9,1004.9077
1.4384125895827775E9,1004.9077
1.4384125896180253E9,1004.9377
1.4384125896530595E9,1004.8777
1.4384125896834855E9,1004.9077
1.4384125897187333E9,1004.8777
1.4384125897540116E9,1004.96765
1.4384125897841935E9,1004.9077
1.4384125898202293E9,1004.9077
1.438412589855782E9,1004.9077
1.4384125898857503E9,1004.8777
1.4384125899209065E9,1004.9377
1.4384125899560933E9,1004.9377
1.4384125899863362E9,1004.9377
1.438412590021645E9,1004.9077
1.438412590056191E9,1004.8777
1.4384125900863729E9,1004.96765
1.4384125901216512E9,1004.8777
1.4384125901569297E9,1004.96765
1.4384125901871116E9,1004.8377
1.4384125902223287E9,1004.9077
1.438412590257607E9,1004.8377
1.4384125902878194E9,1004.9077
1.4384125903230672E9,1004.9377
1.438412590358315E9,1004.9377
1.4384125903885274E9,1004.9077
1.4384125904237754E9,1004.96765
1.4384125904596028E9,1004.9077
1.4384125904898763E9,1004.8777
1.438412590525063E9,1004.9077
1.4384125905603414E9,1004.96765
1.4384125905899434E9,1004.9077
1.4384125906251607E9,1004.96765
1.438412590660439E9,1004.9077
1.4384125906906514E9,1004.9077
1.4384125907258687E9,1004.8377
1.438412590761147E9,1004.9077
1.4384125907913597E9,1004.9377
1.4384125908266072E9,1004.9377
1.438412590861855E9,1004.96765
1.4384125908926473E9,1004.8377
1.43841259092759E9,1004.9077
1.4384125909630818E9,1004.8777
1.4384125909933553E9,1004.9077
1.4384125910286336E9,1004.9077
1.4384125910638204E9,1004.9077
1.4384125910941548E9,1004.96765
1.438412591129311E9,1004.8377
1.4384125911644673E9,1004.9077
1.438412591194161E9,1004.9077
1.4384125912294087E9,1004.80774
1.4384125912646565E9,1005.0076
1.4384125912948692E9,1004.8377
1.4384125913301475E9,1004.8377
1.438412591365395E9,1004.8377
1.4384125913956077E9,1004.8377
1.4384125914308858E9,1004.8777
1.438412591466164E9,1004.8377
1.438412591496346E9,1004.9377
1.4384125915315938E9,1005.0376
1.4384125915673604E9,1004.80774
1.4384125915976338E9,1004.96765
1.4384125916328514E9,1004.9377
1.4384125916681294E9,1004.9377
1.4384125916984527E9,1004.8777
1.4384125917333038E9,1004.8777
1.438412591768338E9,1004.8377
1.4384125917985811E9,1004.8377
1.438412591833829E9,1004.9077
1.4384125918690765E9,1004.8377
1.4384125918992584E9,1004.9077
1.4384125919345064E9,1004.8777
1.4384125919697847E9,1004.9077
1.4384125919999666E9,1004.8377
1.438412592035245E9,1004.96765
1.4384125920705233E9,1004.8777
1.4384125921007051E9,1004.9377
1.438412592135953E9,1004.9077
1.4384125921719027E9,1004.9077
1.438412592202939E9,1004.96765
1.4384125922373323E9,1004.96765
1.4384125922726107E9,1004.9377
1.4384125923027313E9,1004.9077
1.438412592337369E9,1004.96765
1.4384125923726168E9,1004.9077
1.438412592402768E9,1004.8777
1.4384125924381075E9,1004.8777
1.4384125924733245E9,1004.8777
1.438412592503537E9,1004.9077
1.4384125925388153E9,1004.9377
1.4384125925740328E9,1004.8377
1.4384125926042147E9,1004.9077
1.438412592639579E9,1004.96765
1.4384125926754372E9,1004.8377
1.4384125927057412E9,1004.9377
1.4384125927417214E9,1004.9077
1.4384125927761145E9,1004.9077
1.4384125928064184E9,1004.9077
1.4384125928409646E9,1004.96765
1.4384125928762429E9,1004.9077
1.438412592906455E9,1004.9077
1.438412592941703E9,1004.8377
1.4384125929769204E9,1004.9077
1.4384125930071633E9,1004.9077
1.438412593042411E9,1004.9077
1.4384125930776587E9,1004.96765
1.4384125931078713E9,1004.96765
1.4384125931431189E9,1004.96765
1.438412593178367E9,1004.96765
1.438412593213279E9,1004.9077
1.4384125932444985E9,1004.96765
1.4384125932797768E9,1004.96765
1.4384125933100502E9,1004.9377
1.4384125933497534E9,1004.9377
1.4384125933803933E9,1004.8377
1.4384125934106057E9,1004.8377
1.4384125934452126E9,1004.9077
1.438412593480491E9,1004.9077
1.4384125935106728E9,1004.9377
1.4384125935459511E9,1004.96765
1.438412593581199E9,1004.9377
1.4384125936114113E9,1004.9077
1.4384125936466591E9,1004.9077
1.4384125936819067E9,1004.8777
1.4384125937121193E9,1004.9077
1.438412593747367E9,1004.9077
1.4384125937831643E9,1004.9077
1.4384125938134072E9,1004.9377
1.438412593848655E9,1004.8377
1.4384125938838112E9,1004.8377
1.4384125939141152E9,1004.96765
1.438412593949363E9,1004.9377
1.438412593984092E9,1004.9377
1.4384125940142434E9,1004.9077
1.4384125940494606E9,1004.8777
1.438412594084739E9,1004.8377
1.4384125941149209E9,1004.9077
1.4384125941501992E9,1004.9077
1.438412594185447E9,1004.9377
1.4384125942156594E9,1004.8777
1.4384125942508764E9,1004.96765
1.4384125942861547E9,1004.9077
1.4384125943163671E9,1004.9077
1.4384125943521035E9,1004.9077
1.4384125943874733E9,1004.9077
1.4384125944176247E9,1004.8377
1.4384125944529335E9,1004.9377
1.4384125944881814E9,1004.9077
1.4384125945185654E9,1004.9077
1.4384125945532334E9,1004.8377
1.438412594588512E9,1004.8377
1.438412594618663E9,1004.9377
1.4384125946539414E9,1004.8377
1.4384125946892502E9,1004.8377
1.438412594719432E9,1004.9377
1.43841259475468E9,1004.80774
1.4384125947898667E9,1004.8777
1.4384125948201401E9,1004.9077
1.438412594855632E9,1004.8377
1.4384125948907273E9,1004.9077
1.4384125949208179E9,1004.8377
1.438412594956096E9,1004.9077
1.4384125949913437E9,1004.8777
1.438412595021495E9,1004.9077
1.4384125950568652E9,1004.8377
1.4384125950920517E9,1004.8777
1.4384125951222641E9,1004.8777
1.438412595157512E9,1004.9077
1.4384125951927903E9,1004.9077
1.4384125952230027E9,1004.8777
1.43841259525822E9,1004.8377
1.4384125952934678E9,1004.9077
1.438412595323711E9,1004.8377
1.4384125953589585E9,1004.9077
1.4384125953941758E9,1004.96765
1.438412595425029E9,1004.8377
1.4384125954604545E9,1004.8777
1.4384125954960074E9,1004.9077
1.4384125955254874E9,1004.8377
1.438412595560827E9,1004.8377
1.4384125955957086E9,1004.9077
1.4384125956259208E9,1004.9377
1.4384125956611383E9,1004.80774
1.4384125956964471E9,1004.80774
1.4384125957266898E9,1004.9077
1.4384125957618768E9,1004.8377
1.4384125957971244E9,1004.9077
1.4384125958273063E9,1004.8777
1.4384125958625846E9,1004.9377
1.4384125958978326E9,1004.9077
1.438412595928027E9,1004.8777
1.4384125959633052E9,1004.96765
1.4384125959985533E9,1004.9077
1.4384125960287654E9,1004.9077
1.4384125960640743E9,1004.9077
1.438412596099841E9,1004.8377
1.438412596130084E9,1004.8377
1.4384125961652706E9,1004.8377
1.438412596200549E9,1004.9377
1.4384125962307613E9,1004.8377
1.438412596265399E9,1004.9377
1.4384125963006468E9,1004.9377
1.4384125963309507E9,1004.96765
1.4384125963661375E9,1004.8377
1.4384125964013853E9,1004.8377
1.4384125964315977E9,1004.96765
1.4384125964668455E9,1004.8777
1.4384125965025816E9,1004.8377
1.4384125965328548E9,1004.8777
1.4384125965681028E9,1004.7478
1.4384125966033812E9,1004.80774
1.438412596633563E9,1004.7778
1.4384125966688108E9,1004.96765
1.4384125967044249E9,1004.80774
1.4384125967343016E9,1004.9077
1.4384125967695491E9,1004.9077
1.4384125968041868E9,1004.8777
1.438412596834399E9,1004.8377
1.4384125968696415E9,1004.9077
1.4384125969049199E9,1004.8377
1.4384125969351017E9,1004.9377
1.43841259697038E9,1004.9077
1.4384125970056276E9,1004.9077
1.4384125970358403E9,1004.9377
1.438412597071088E9,1004.9377
1.4384125971063359E9,1004.8377
1.4384125971365483E9,1004.9377
1.438412597172315E9,1004.9077
1.4384125972076542E9,1004.8377
1.4384125972378361E9,1004.8777
1.4384125972731144E9,1004.80774
1.4384125973083317E9,1004.8377
1.4384125973377202E9,1004.8777
1.438412597373151E9,1004.8777
1.43841259740846E9,1004.8377
1.4384125974387333E9,1004.9077
1.43841259747392E9,1004.9077
1.438412597509168E9,1004.9077
1.4384125975393498E9,1004.9377
1.438412597574628E9,1004.8777
1.4384125976099064E9,1004.80774
1.4384125976400883E9,1004.80774
1.4384125976753361E9,1004.80774
1.4384125977106144E9,1004.7778
1.4384125977408266E9,1004.8777
1.4384125977771122E9,1004.9077
1.4384125978112612E9,1004.80774
1.4384125978419926E9,1004.8777
1.4384125978774538E9,1004.8777
1.4384125979127324E9,1004.8377
1.4384125979427006E9,1004.9077
1.4384125979774601E9,1004.7778
1.438412598012708E9,1004.8777
1.4384125980429204E9,1004.8377
1.4384125980781376E9,1004.8777
1.438412598113416E9,1004.80774
1.4384125981436284E9,1004.9077
1.4384125981788456E9,1004.8777
1.438412598214124E9,1004.9077
1.4384125982443058E9,1004.9377
1.4384125982795842E9,1004.8377
1.4384125983154728E9,1004.8377
1.4384125983457463E9,1004.8377
1.438412598380933E9,1004.9377
1.4384125984161198E9,1004.9077
1.4384125984464848E9,1004.96765
1.4384125984815495E9,1004.9077
1.438412598516248E9,1004.8377
1.4384125985464602E9,1004.9077
1.4384125985816777E9,1004.8777
1.4384125986167119E9,1004.8377
1.4384125986471379E9,1004.8377
1.4384125986824162E9,1004.8377
1.438412598717664E9,1004.7778
1.4384125987480485E9,1004.9377
1.438412598783235E9,1004.8377
1.438412598818544E9,1004.80774
1.4384125988488176E9,1004.8377
1.4384125988846145E9,1004.8377
1.4384125989198623E9,1004.96765
1.4384125989500747E9,1004.8377
1.4384125989852922E9,1004.9077
1.4384125990204787E9,1004.9377
1.4384125990507524E9,1004.9077
1.4384125990854506E9,1004.8377
1.438412599120668E9,1005.0076
1.4384125991508803E9,1004.80774
1.4384125991860979E9,1004.96765
1.4384125992213454E9,1004.80774
1.4384125992515883E9,1004.8377
1.4384125992868364E9,1004.8777
1.438412599322084E9,1004.9377
1.4384125993522966E9,1004.9077
1.4384125993875442E9,1004.96765
1.438412599422792E9,1004.9077
1.4384125994530044E9,1004.80774
1.4384125994882827E9,1004.9077
1.4384125995245073E9,1004.7778
1.4384125995543227E9,1004.8377
1.4384125995895402E9,1004.8777
1.4384125996247268E9,1004.7778
1.4384125996544204E9,1004.96765
1.438412599689785E9,1004.8777
1.4384125997250633E9,1004.9377
1.4384125997553062E9,1004.9377
1.438412599790493E9,1004.9077
1.4384125998257713E9,1004.7778
1.4384125998559837E9,1004.8777
1.4384125998909874E9,1004.8377
1.438412599926479E9,1004.8377
1.4384125999566917E9,1004.8777
1.438412599991909E9,1004.8377
1.438412600027279E9,1004.9077
1.4384126000633507E9,1004.8777
1.4384126000934408E9,1004.8377
1.4384126001284752E9,1004.8377
1.438412600158761E9,1004.9077
1.4384126001933987E9,1004.9077
1.4384126002286463E9,1004.8377
1.4384126002588892E9,1004.8777
1.4384126002941065E9,1004.9077
1.4384126003294156E9,1004.7778
1.4384126003595974E9,1004.8377
1.438412600394845E9,1004.80774
1.4384126004301233E9,1004.9377
1.4384126004603052E9,1004.80774
1.4384126004960413E9,1004.9077
1.4384126005314722E9,1004.8777
1.4384126005616236E9,1004.8777
1.438412600597085E9,1004.8377
1.4384126006330957E9,1004.8777
1.438412600662362E9,1004.9077
1.4384126006976404E9,1004.8777
1.4384126007328885E9,1004.9377
1.4384126007630396E9,1004.8377
1.438412600797677E9,1004.8377
1.438412600832925E9,1004.8777
1.4384126008631375E9,1004.9077
1.4384126008983853E9,1004.8377
1.4384126009336329E9,1004.9077
1.4384126009638453E9,1004.96765
1.438412600999093E9,1004.9077
1.4384126010343409E9,1004.9077
1.4384126010645227E9,1004.8777
1.4384126010998263E9,1004.8377
1.438412601135074E9,1004.9077
1.438412601165683E9,1004.8777
1.4384126012011447E9,1004.9077
1.438412601236972E9,1004.80774
1.4384126012667267E9,1004.9377
1.438412601301822E9,1004.9077
1.4384126013363984E9,1004.8377
1.438412601366672E9,1004.8377
1.4384126014019198E9,1004.8377
1.4384126014372287E9,1004.9377
1.4384126014674106E9,1004.96765
1.4384126015026581E9,1004.9377
1.438412601537906E9,1004.9377
1.4384126015681183E9,1004.9377
1.4384126016033967E9,1004.9077
1.4384126016386445E9,1004.9377
1.4384126016688569E9,1004.7778
1.438412601704105E9,1004.9077
1.4384126017393527E9,1004.7778
1.4384126017702057E9,1004.9077
1.438412601805362E9,1004.8777
1.4384126018405182E9,1004.9077
1.4384126018708222E9,1004.9377
1.4384126019054902E9,1004.8777
1.4384126019407382E9,1004.9077
1.4384126019709506E9,1004.80774
1.4384126020061677E9,1004.9077
1.438412602041446E9,1004.9377
1.4384126020716586E9,1004.9077
1.4384126021069062E9,1004.9077
1.438412602142154E9,1004.8777
1.4384126021729462E9,1004.9377
1.4384126022082245E9,1004.8377
1.4384126022433503E9,1004.80774
1.4384126022736847E9,1004.9377
1.4384126023089023E9,1004.9377
1.4384126023441498E9,1004.8377
1.438412602374393E9,1004.8777
1.4384126024095795E9,1004.8377
1.4384126024448276E9,1004.7778
1.4384126024750702E9,1004.7778
1.4384126025096774E9,1004.9077
1.4384126025449862E9,1004.8777
1.4384126025751987E9,1004.9077
1.4384126026104465E9,1004.9077
1.438412602645694E9,1004.8777
1.4384126026759067E9,1004.9077
1.4384126027111542E9,1004.8377
1.438412602746402E9,1004.9077
1.4384126027766144E9,1004.8377
1.4384126028118625E9,1004.80774
1.4384126028477206E9,1004.8777
1.4384126028779025E9,1004.80774
1.4384126029131808E9,1004.7778
1.4384126029483979E9,1004.9077
1.4384126029788435E9,1004.9077
1.4384126030140913E9,1004.9377
1.4384126030487287E9,1004.9077
1.4384126030789413E9,1004.9377
1.4384126031141584E9,1004.9077
1.4384126031494367E9,1004.7778
1.438412603179588E9,1004.8777
1.438412603214897E9,1004.9077
1.4384126032501752E9,1004.8777
1.4384126032803571E9,1004.8377
1.4384126033156052E9,1004.9077
1.4384126033508527E9,1004.8777
1.4384126033815534E9,1004.9077
1.4384126034169843E9,1004.8777
1.4384126034522626E9,1004.9077
1.4384126034823835E9,1004.8777
1.4384126035177534E9,1004.8377
1.4384126035529401E9,1004.8777
1.4384126035827863E9,1004.8377
1.4384126036177292E9,1004.8777
1.4384126036529157E9,1004.8777
1.4384126036831894E9,1004.8377
1.438412603718437E9,1004.8777
1.4384126037536848E9,1004.9077
1.4384126037838972E9,1004.7478
1.4384126038191147E9,1004.8377
1.438412603854393E9,1004.9077
1.4384126038846357E9,1004.9077
1.438412603920458E9,1004.9377
1.4384126039556751E9,1004.8377
1.4384126039860096E9,1004.80774
1.4384126040211966E9,1004.96765
1.438412604056414E9,1004.8777
1.4384126040867178E9,1004.80774
1.438412604121874E9,1004.9077
1.438412604157122E9,1004.8777
1.438412604186724E9,1004.96765
1.438412604221941E9,1004.9377
1.438412604257189E9,1004.9377
1.438412604287493E9,1004.8777
1.4384126043226798E9,1004.70776
1.4384126043579276E9,1004.8777
1.43841260438814E9,1004.8777
1.4384126044233878E9,1004.9077
1.4384126044586356E9,1004.8777
1.438412604488848E9,1004.9077
1.4384126045240958E9,1004.8777
1.4384126045593433E9,1004.8377
1.4384126045895557E9,1004.8777
1.438412604624834E9,1004.9077
1.4384126046605396E9,1004.96765
1.4384126046908438E9,1004.9377
1.4384126047261221E9,1004.8777
1.4384126047607596E9,1004.8777
1.438412604790972E9,1004.8377
1.4384126048261588E9,1004.80774
1.438412604861437E9,1004.96765
1.4384126048916495E9,1004.8777
1.4384126049269278E9,1004.8777
1.4384126049621756E9,1004.9077
1.438412604992388E9,1004.9077
1.4384126050276358E9,1004.9377
1.4384126050628836E9,1004.8777
1.438412605093096E9,1004.8377
1.438412605128527E9,1004.9377
1.4384126051642017E9,1004.8377
1.4384126051943533E9,1004.96765
1.4384126052296011E9,1004.9077
1.43841260526491E9,1004.9077
1.4384126052944815E9,1004.96765
1.4384126053297293E9,1004.9077
1.4384126053650076E9,1004.8377
1.4384126053951893E9,1005.0376
1.4384126054304373E9,1004.9377
1.4384126054657156E9,1004.8777
1.4384126054958975E9,1004.8777
1.4384126055311453E9,1004.8377
1.4384126055664237E9,1005.0076
1.438412605596636E9,1004.8777
1.4384126056324942E9,1004.80774
1.438412605667803E9,1004.9077
1.4384126056972828E9,1004.80774
1.4384126057389395E9,1004.8777
1.4384126057678397E9,1004.8777
1.4384126057982545E9,1004.8377
1.4384126058335023E9,1004.80774
1.4384126058687806E9,1004.80774
1.4384126058989625E9,1004.7778
1.4384126059342406E9,1005.0076
1.4384126059694884E9,1004.7778
1.4384126059996703E9,1004.7778
1.4384126060350099E9,1004.96765
1.4384126060702574E9,1004.8377
1.4384126061009889E9,1004.9077
1.4384126061363587E9,1004.9077
1.438412606171515E9,1004.9377
1.4384126062017577E9,1004.8377
1.4384126062371583E9,1004.7778
1.4384126062729247E9,1004.9077
1.4384126063021913E9,1004.8377
1.4384126063377442E9,1004.9077
1.4384126063729613E9,1004.9377
1.4384126064025025E9,1004.96765
1.4384126064377503E9,1004.9377
1.4384126064730284E9,1004.8377
1.4384126065032103E9,1004.9077
1.4384126065384886E9,1004.80774
1.4384126065737364E9,1004.9377
1.4384126066039488E9,1004.8777
1.4384126066391969E9,1004.80774
1.4384126066744447E9,1004.9077
1.438412606704657E9,1004.9077
1.4384126067400825E9,1004.8777
1.4384126067759101E9,1004.8777
1.4384126068061836E9,1005.0376
1.4384126068414009E9,1004.8777
1.438412606876649E9,1004.8777
1.4384126069068916E9,1005.0076
1.4384126069414985E9,1004.8777
1.4384126069767463E9,1004.96765
1.4384126070069587E9,1004.9377
1.4384126070422065E9,1005.0376
1.4384126070774543E9,1004.9077
1.4384126071076667E9,1004.96765
1.4384126071429145E9,1004.9077
1.4384126071781626E9,1004.9377
1.4384126072083569E9,1004.96765
1.438412607243605E9,1004.8777
1.4384126072788527E9,1004.9077
1.438412607309065E9,1004.8377
1.438412607344313E9,1004.9077
1.4384126073796217E9,1004.9077
1.4384126074099257E9,1004.9077
1.4384126074455702E9,1004.8777
1.438412607480757E9,1004.9077
1.4384126075104506E9,1004.8377
1.438412607545729E9,1004.8777
1.438412607580702E9,1004.96765
1.4384126076111586E9,1004.9077
1.438412607646437E9,1004.96765
1.4384126076816847E9,1004.9377
1.4384126077118971E9,1004.9077
1.4384126077471447E9,1004.9077
1.4384126077823927E9,1004.9377
1.438412607812605E9,1004.9377
1.4384126078478224E9,1004.9377
1.4384126078831007E9,1004.80774
1.4384126079133132E9,1004.9077
1.4384126079485E9,1004.9077
1.438412607984297E9,1004.9377
1.438412608014601E9,1004.9077
1.4384126080492687E9,1004.8777
1.4384126080845168E9,1004.9377
1.4384126081147292E9,1004.96765
1.4384126081500022E9,1004.96765
1.4384126081852806E9,1005.0076
1.438412608215493E9,1004.9077
1.4384126082507405E9,1004.8377
1.4384126082859883E9,1004.9077
1.4384126083162007E9,1005.0076
1.4384126083514488E9,1004.9077
1.4384126083866966E9,1004.9077
1.438412608416909E9,1004.9377
1.4384126084521568E9,1004.8377
1.438412608488015E9,1004.8377
1.4384126085181968E9,1004.8777
1.4384126085534444E9,1004.9077
1.438412608588082E9,1004.9077
1.4384126086182945E9,1004.9377
1.4384126086535728E9,1004.9077
1.4384126086888206E9,1004.8777
1.4384126087190025E9,1004.7778
1.4384126087542808E9,1004.9077
1.4384126087895591E9,1004.9377
1.438412608819741E9,1004.8377
1.4384126088547752E9,1004.9077
1.438412608890267E9,1004.9077
1.4384126089204795E9,1004.9077
1.4384126089563682E9,1004.9377
1.4384126089916158E9,1004.8377
1.4384126090217977E9,1004.9077
1.438412609057076E9,1004.9377
1.438412609092263E9,1004.96765
1.438412609122506E9,1004.9377
1.4384126091577842E9,1004.96765
1.4384126091923301E9,1004.9077
1.4384126092225728E9,1004.8777
1.4384126092580342E9,1004.9377
1.4384126092930686E9,1004.9377
1.438412609323281E9,1004.9077
1.4384126093585289E9,1004.9077
1.4384126093937764E9,1004.9377
1.4384126094240196E9,1004.8377
1.4384126094592366E9,1005.0376
1.438412609494515E9,1004.9077
1.438412609525338E9,1004.9377
1.438412609560555E9,1004.8377
1.438412609595803E9,1004.8777
1.4384126096260457E9,1004.9077
1.4384126096612632E9,1004.9077
1.4384126096964803E9,1004.9077
1.438412609726693E9,1004.9077
1.4384126097613304E9,1004.9377
1.4384126097966087E9,1004.9077
1.4384126098268209E9,1004.9077
1.4384126098620992E9,1004.8777
1.4384126098973777E9,1004.9377
1.43841260992759E9,1004.96765
1.4384126099628074E9,1004.8777
1.438412609998574E9,1004.8777
1.4384126100290804E9,1004.8777
1.438412610064298E9,1004.8377
1.4384126101003087E9,1004.9377
1.4384126101294835E9,1004.8777
1.438412610165067E9,1004.9377
1.438412610200284E9,1004.9077
1.4384126102304964E9,1004.9077
1.4384126102657442E9,1004.9077
1.4384126103004122E9,1004.8777
1.4384126103306246E9,1004.9077
1.4384126103658724E9,1004.8777
1.4384126104011204E9,1004.80774
1.438412610431363E9,1004.8777
1.4384126104665804E9,1004.8777
1.4384126105018282E9,1004.80774
1.4384126105320406E9,1004.8777
1.4384126105672884E9,1004.8777
1.4384126106025362E9,1004.80774
1.4384126106327486E9,1004.8377
1.4384126106679964E9,1004.8777
1.4384126107032444E9,1004.8377
1.4384126107334566E9,1004.9377
1.4384126107692537E9,1004.9377
1.438412610804532E9,1004.9377
1.4384126108342867E9,1004.8377
1.438412610869382E9,1004.9077
1.4384126109046602E9,1004.8377
1.4384126109348726E9,1004.8777
1.438412610970176E9,1004.9077
1.438412611005424E9,1004.8777
1.4384126110356364E9,1004.80774
1.438412611070884E9,1004.8777
1.4384126111061318E9,1004.8377
1.4384126111363442E9,1004.8377
1.4384126111715615E9,1004.9077
1.4384126112068398E9,1004.80774
1.4384126112376015E9,1004.80774
1.4384126112729104E9,1004.8777
1.4384126113082192E9,1004.9077
1.4384126113383095E9,1004.8777
1.4384126113736186E9,1004.8777
1.438412611408012E9,1004.80774
1.4384126114384377E9,1004.8777
1.438412611473716E9,1004.8377
1.4384126115089638E9,1004.8777
1.4384126115391762E9,1004.8777
1.4384126115744243E9,1004.8377
1.4384126116096718E9,1004.80774
1.4384126116398845E9,1004.80774
1.4384126116751015E9,1004.8377
1.4384126117103798E9,1004.8377
1.4384126117405617E9,1004.8777
1.4384126117765117E9,1004.80774
1.4384126118117287E9,1004.7778
1.438412611841941E9,1004.8377
1.438412611877189E9,1004.9077
1.4384126119117959E9,1004.80774
1.4384126119420085E9,1004.9377
1.4384126119772255E9,1004.9077
1.4384126120124733E9,1004.9377
1.4384126120427163E9,1004.9377
1.438412612077964E9,1004.8777
1.438412612113212E9,1004.9077
1.4384126121434548E9,1004.8777
1.4384126121786723E9,1004.80774
1.4384126122139199E9,1004.80774
1.4384126122441325E9,1004.8377
1.43841261227938E9,1004.8777
1.4384126123152382E9,1004.8777
1.4384126123454506E9,1004.80774
1.4384126123809426E9,1004.8377
1.438412612416221E9,1004.80774
1.4384126124462807E9,1004.7778
1.4384126124814065E9,1004.8777
1.4384126125165932E9,1004.9077
1.4384126125462565E9,1004.8377
1.4384126125814736E9,1004.8777
1.438412612616752E9,1004.8777
1.4384126126469643E9,1004.8377
1.4384126126821818E9,1004.80774
1.4384126127174602E9,1004.8777
1.4384126127476723E9,1004.8777
1.4384126127829204E9,1004.8377
1.438412612818168E9,1004.80774
1.438412612848583E9,1004.7778
1.4384126128838305E9,1004.8377
1.4384126129190786E9,1004.9077
1.4384126129492908E9,1004.8377
1.4384126129845388E9,1004.9377
1.4384126130197866E9,1004.8377
1.4384126130499685E9,1004.8777
1.438412613085216E9,1004.8777
1.4384126131204638E9,1004.8377
1.438412613150707E9,1004.8377
1.4384126131859546E9,1004.9077
1.4384126132212026E9,1004.80774
1.4384126132514453E9,1004.80774
1.438412613286693E9,1004.9077
1.4384126133219411E9,1004.9377
1.4384126133521838E9,1004.8377
1.4384126133879507E9,1004.80774
1.438412613423229E9,1004.8777
1.4384126134534414E9,1004.8777
1.4384126134886584E9,1004.80774
1.4384126135239367E9,1004.9077
1.4384126135541186E9,1004.8377
1.4384126135893972E9,1004.8377
1.4384126136291616E9,1004.80774
1.4384126136548269E9,1004.9077
1.4384126136901357E9,1004.8777
1.4384126137247121E9,1004.8777
1.4384126137549243E9,1004.8377
1.4384126137902584E9,1004.80774
1.4384126138255064E9,1004.9377
1.4384126138556883E9,1004.9077
1.438412613890936E9,1004.9077
1.4384126139262447E9,1004.8777
1.4384126139564266E9,1004.80774
1.4384126139916744E9,1004.8377
1.4384126140269222E9,1004.8377
1.4384126140571346E9,1004.80774
1.4384126140923827E9,1004.8377
1.438412614127661E9,1004.8777
1.438412614157812E9,1004.8377
1.4384126141931515E9,1004.80774
1.4384126142290401E9,1004.8777
1.4384126142591305E9,1004.8777
1.4384126142937984E9,1004.8777
1.4384126143290462E9,1004.80774
1.4384126143592281E9,1004.8777
1.4384126143945067E9,1004.8377
1.4384126144297543E9,1004.9377
1.4384126144599972E9,1004.9377
1.4384126144952452E9,1004.96765
1.4384126145304623E9,1004.9077
1.4384126145607054E9,1004.8377
1.438412614595953E9,1004.9077
1.4384126146311705E9,1004.9077
1.4384126146614132E9,1004.8377
1.4384126146974545E9,1004.9077
1.438412614731909E9,1004.9377
1.4384126147667904E9,1004.8777
1.438412614797949E9,1004.9077
1.4384126148331966E9,1004.96765
1.438412614863531E9,1004.8777
1.4384126148980465E9,1004.9377
1.438412614933264E9,1004.9077
1.4384126149635067E9,1004.8777
1.438412614998724E9,1004.9077
1.4384126150339718E9,1004.8777
1.4384126150641842E9,1005.0376
1.438412615099554E9,1004.80774
1.4384126151347103E9,1004.8377
1.4384126151649227E9,1004.80774
1.4384126152001705E9,1004.8777
1.4384126152354186E9,1004.8377
1.4384126152660885E9,1004.8377
1.4384126153014586E9,1004.9377
1.4384126153366148E9,1004.9077
1.4384126153669493E9,1004.8377
1.438412615402197E9,1004.8377
1.4384126154373837E9,1004.80774
1.438412615467657E9,1004.9077
1.4384126155022945E9,1004.8777
1.4384126155375118E9,1004.9377
1.4384126155677547E9,1004.96765
1.4384126156030028E9,1004.9077
1.4384126156382504E9,1004.8777
1.4384126156685739E9,1004.96765
1.4384126157038217E9,1004.9077
1.4384126157390692E9,1004.8377
1.4384126157692816E9,1004.8777
1.4384126158045294E9,1004.8377
1.4384126158398077E9,1004.80774
1.4384126158706E9,1004.9377
1.4384126159059088E9,1004.9377
1.4384126159409738E9,1004.9077
1.438412615971369E9,1004.9377
1.438412616007105E9,1004.9377
1.4384126160417426E9,1004.9077
1.4384126160719855E9,1004.80774
1.4384126161065927E9,1004.9077
1.438412616141871E9,1004.8777
1.4384126161720834E9,1004.9077
1.4384126162073312E9,1004.8377
1.4384126162426095E9,1004.8377
1.438412616272822E9,1004.8777
1.438412616308039E9,1004.9077
1.4384126163433173E9,1004.9077
1.4384126163735297E9,1004.9077
1.4384126164087775E9,1004.9377
1.438412616443995E9,1004.9077
1.4384126164742074E9,1004.9077
1.4384126165094857E9,1005.0076
1.4384126165445197E9,1004.9377
1.4384126165749154E9,1004.9077
1.438412616610249E9,1004.9377
1.4384126166455271E9,1004.8777
1.438412616675709E9,1004.8777
1.4384126167109873E9,1004.8777
1.4384126167462351E9,1004.9077
1.438412616776417E9,1004.96765
1.438412616811665E9,1004.96765
1.4384126168469434E9,1004.96765
1.4384126168771253E9,1004.9077
1.4384126169124036E9,1004.9077
1.438412616947682E9,1005.0376
1.438412616977833E9,1004.9077
1.4384126170131114E9,1004.9077
1.4384126170483592E9,1004.8377
1.4384126170785716E9,1004.80774
1.4384126171138196E9,1004.8377
1.4384126171497386E9,1004.8777
1.4384126171799204E9,1004.80774
1.4384126172152293E9,1004.8377
1.4384126172504163E9,1004.80774
1.4384126172806287E9,1004.8777
1.4384126173159373E9,1004.9077
1.4384126173510935E9,1004.8777
1.438412617381306E9,1004.80774
1.4384126174159436E9,1004.8377
1.4384126174511607E9,1004.9377
1.4384126174813733E9,1004.96765
1.4384126175166516E9,1004.8777
1.4384126175518992E9,1004.8777
1.438412617582081E9,1004.9077
1.4384126176173594E9,1004.8777
1.4384126176526072E9,1004.8777
1.4384126176828196E9,1004.8377
1.4384126177180676E9,1004.9377
1.4384126177533154E9,1004.9077
1.4384126177835279E9,1004.9377
1.4384126178185315E9,1004.8777
1.438412617854603E9,1004.8377
1.4384126178843577E9,1004.8377
1.438412617919453E9,1004.8377
1.4384126179547315E9,1004.8777
1.4384126179849436E9,1004.9077
1.4384126180201917E9,1004.8777
1.4384126180554395E9,1004.9077
1.4384126180856519E9,1004.8377
1.4384126181208997E9,1004.9077
1.4384126181561472E9,1004.8777
1.4384126181869702E9,1004.8777
1.4384126182222178E9,1004.8377
1.4384126182574353E9,1004.9377
1.4384126182876172E9,1004.9077
1.4384126183229563E9,1004.9377
1.438412618358845E9,1004.96765
1.4384126183890269E9,1004.96765
1.4384126184236035E9,1004.8377
1.438412618458851E9,1004.9377
1.438412618488686E9,1004.8377
1.438412618523934E9,1004.8777
1.4384126185591512E9,1004.8777
1.4384126185893636E9,1004.9377
1.4384126186247334E9,1004.9077
1.4384126186598897E9,1004.9077
1.438412618690102E9,1004.9377
1.43841261872535E9,1004.8777
1.438412618760598E9,1004.9077
1.43841261879081E9,1004.9077
1.438412618826058E9,1004.8377
1.4384126188613057E9,1004.9077
1.438412618891518E9,1004.96765
1.4384126189273152E9,1004.8377
1.4384126189625633E9,1004.8777
1.4384126189921956E9,1004.8377
1.4384126190274436E9,1004.9377
1.4384126190627217E9,1004.8377
1.43841261909269E9,1004.8377
1.4384126191281514E9,1004.8377
1.4384126191634297E9,1004.8377
1.4384126191936421E9,1004.9077
1.43841261922889E9,1004.8377
1.4384126192641377E9,1005.0076
1.4384126192943501E9,1004.8777
1.438412619329598E9,1004.8377
1.4384126193648458E9,1004.80774
1.4384126193960655E9,1004.8377
1.4384126194307275E9,1004.8377
1.4384126194662502E9,1004.8377
1.4384126194964623E9,1004.8777
1.4384126195316186E9,1004.9077
1.4384126195669887E9,1004.96765
1.438412619596499E9,1004.9377
1.438412619631747E9,1004.8377
1.4384126196669946E9,1004.9077
1.4384126196979089E9,1004.8377
1.4384126197324548E9,1004.8777
1.438412619767733E9,1004.8777
1.438412619797915E9,1004.8377
1.4384126198331628E9,1004.9077
1.4384126198684108E9,1004.8777
1.438412619898623E9,1004.80774
1.4384126199339013E9,1004.9077
1.4384126199691186E9,1004.8777
1.4384126199993312E9,1004.9077
1.4384126200352807E9,1004.80774
1.438412620070437E9,1004.8377
1.4384126201006494E9,1004.96765
1.4384126201352868E9,1004.8777
1.4384126201705348E9,1004.9077
1.438412620200747E9,1004.80774
1.438412620235995E9,1004.9377
1.438412620271212E9,1004.9377
1.4384126203014855E9,1004.8377
1.4384126203367028E9,1004.9077
1.4384126203717065E9,1004.8777
1.438412620402163E9,1004.8377
1.4384126204380517E9,1004.8777
1.438412620473269E9,1004.8377
1.438412620503512E9,1004.9077
1.4384126205387292E9,1004.80774
1.4384126205739772E9,1004.9077
1.4384126206041896E9,1004.8777
1.4384126206394067E9,1004.8777
1.438412620674685E9,1004.96765
1.4384126207042565E9,1004.8777
1.4384126207395349E9,1004.9077
1.438412620774783E9,1004.96765
1.438412620804995E9,1004.8377
1.4384126208402123E9,1004.7778
1.4384126208754907E9,1004.8377
1.438412620905703E9,1004.9077
1.4384126209409509E9,1004.9077
1.4384126209761987E9,1004.9077
1.438412621006411E9,1004.7478
1.4384126210416589E9,1004.8377
1.438412621076907E9,1004.9077
1.438412621107119E9,1004.9377
1.4384126211423671E9,1004.9077
1.438412621178164E9,1004.80774
1.4384126212084377E9,1004.9077
1.4384126212430444E9,1004.8377
1.4384126212783227E9,1004.9377
1.4384126213087072E9,1004.9077
1.4384126213439243E9,1004.9377
1.4384126213792026E9,1004.9077
1.4384126214094458E9,1004.8377
1.4384126214446628E9,1004.9377
1.4384126214799411E9,1004.8777
1.4384126215101535E9,1004.80774
1.438412621545371E9,1004.9377
1.4384126215806494E9,1004.7778
1.4384126216108615E9,1004.7778
1.4384126216464148E9,1004.8777
1.438412621681876E9,1004.9077
1.4384126217126682E9,1004.9077
1.438412621747428E9,1004.96765
1.4384126217826147E9,1004.8377
1.4384126218128269E9,1004.9077
1.4384126218474646E9,1004.9077
1.438412621882743E9,1004.9077
1.4384126219129553E9,1004.9077
1.4384126219481723E9,1004.9077
1.4384126219834812E9,1004.8777
1.4384126220136938E9,1004.8377
1.4384126220489414E9,1004.9077
1.4384126220841892E9,1004.9077
1.4384126221143408E9,1004.9377
1.4384126221496494E9,1004.9077
1.438412622185538E9,1004.8777
1.4384126222156591E9,1004.80774
1.4384126222511148E9,1004.9077
1.4384126222863932E9,1004.9077
1.4384126223165443E9,1004.9077
1.4384126223512123E9,1004.9377
1.4384126223864603E9,1004.8377
1.4384126224166422E9,1004.8377
1.4384126224519205E9,1004.8377
1.438412622487168E9,1004.9077
1.43841262251735E9,1004.8377
1.4384126225525978E9,1004.9377
1.438412622587876E9,1004.9077
1.438412622618058E9,1004.9077
1.4384126226533365E9,1004.8377
1.4384126226885843E9,1004.9077
1.4384126227188094E9,1004.9077
1.4384126227540877E9,1004.8777
1.438412622789305E9,1004.8377
1.4384126228194258E9,1004.8377
1.4384126228554366E9,1004.8777
1.4384126228905928E9,1004.96765
1.4384126229209578E9,1004.8377
1.4384126229554427E9,1004.9077
1.4384126229907212E9,1004.9077
1.4384126230209334E9,1004.8377
1.4384126230561507E9,1004.8777
1.43841262309149E9,1004.8377
1.4384126231216414E9,1004.9077
1.4384126231568892E9,1004.9077
1.438412623192137E9,1004.9377
1.4384126232223494E9,1004.9377
1.438412623258177E9,1004.8777
1.4384126232934554E9,1004.9077
1.4384126233236678E9,1004.9077
1.4384126233589156E9,1004.9077
1.4384126233941634E9,1004.8377
1.438412623424376E9,1004.7778
1.438412623459593E9,1004.80774
1.438412623494261E9,1004.8777
1.4384126235244734E9,1004.8377
1.4384126235597212E9,1004.8777
1.4384126235949385E9,1004.8377
1.4384126236251814E9,1004.7778
1.4384126236605458E9,1004.8377
1.4384126236957939E9,1004.8777
1.438412623726006E9,1004.8377
1.438412623761254E9,1004.8377
1.4384126237965019E9,1004.9077
1.4384126238267143E9,1004.8777
1.4384126238625724E9,1004.8377
1.4384126238977287E9,1004.8777
1.4384126239280019E9,1004.9077
1.438412623963982E9,1004.8377
1.4384126239984365E9,1004.8777
1.43841262402871E9,1004.9077
1.438412624063958E9,1004.8377
1.438412624098626E9,1004.9077
1.4384126241288207E9,1004.8777
1.4384126241640685E9,1004.9077
1.438412624199316E9,1004.8377
1.4384126242295287E9,1004.8377
1.4384126242647762E9,1004.8777
1.4384126243000243E9,1004.7778
1.4384126243302364E9,1004.9077
1.4384126243654845E9,1004.8777
1.4384126244007323E9,1004.8777
1.4384126244314024E9,1004.8377
1.4384126244667723E9,1004.8377
1.4384126245027523E9,1004.8377
1.4384126245329647E9,1004.8377
1.4384126245675106E9,1004.8377
1.4384126246027584E9,1004.9377
1.438412624632727E9,1004.7778
1.438412624667578E9,1004.8377
1.4384126247028563E9,1004.8377
1.4384126247330687E9,1004.80774
1.4384126247682858E9,1004.8377
1.438412624803564E9,1004.8377
1.4384126248337765E9,1004.8377
1.438412624868994E9,1004.70776
1.4384126249042723E9,1004.7778
1.4384126249344542E9,1004.7778
1.4384126249697325E9,1004.80774
1.4384126250056212E9,1004.8377
1.438412625035803E9,1004.9077
1.438412625071137E9,1004.8377
1.438412625112061E9,1004.8777
1.4384126251359868E9,1004.8377
1.4384126251712346E9,1004.80774
1.4384126252064822E9,1004.7778
1.438412625236664E9,1004.8777
1.4384126252719424E9,1004.8377
1.4384126253071904E9,1004.8377
1.4384126253374028E9,1004.8777
1.4384126253726506E9,1004.7778
1.4384126254078984E9,1004.8777
1.4384126254380803E9,1004.8377
1.4384126254733891E9,1004.8777
1.4384126255086367E9,1004.8377
1.4384126255394902E9,1004.9077
1.4384126255747685E9,1004.8777
1.438412625609955E9,1004.80774
1.4384126256402287E9,1004.8377
1.4384126256754766E9,1004.9077
1.4384126257100224E9,1004.9077
1.438412625740204E9,1004.9077
1.438412625775452E9,1004.80774
1.4384126258107302E9,1004.7778
1.4384126258409734E9,1004.7778
1.4384126258761907E9,1004.80774
1.4384126259114385E9,1004.80774
1.4384126259416509E9,1004.9077
1.4384126259768987E9,1004.8377
1.4384126260121462E9,1004.8377
1.4384126260423589E9,1004.7778
1.4384126260776064E9,1004.8377
1.4384126261128545E9,1004.8777
1.4384126261430666E9,1004.8777
1.4384126261789248E9,1004.80774
1.4384126262141728E9,1004.8377
1.438412626244385E9,1004.8377
1.4384126262795718E9,1004.80774
1.4384126263142703E9,1004.7778
1.438412626344483E9,1004.8777
1.4384126263797305E9,1004.8377
1.4384126264149785E9,1004.8777
1.4384126264451907E9,1004.9077
1.4384126264804387E9,1004.9077
1.4384126265156865E9,1004.8377
1.438412626545899E9,1004.80774
1.4384126265811467E9,1004.8777
1.4384126266163943E9,1004.7778
1.438412626646607E9,1004.7778
1.438412626683045E9,1004.8377
1.4384126267174993E9,1004.7778
1.4384126267477725E9,1004.9377
1.4384126267823184E9,1004.80774
1.43841262681778E9,1004.7778
1.4384126268480535E9,1004.8777
1.4384126268832707E9,1004.7778
1.4384126269184878E9,1004.8377
1.4384126269489334E9,1004.7778
1.4384126269841814E9,1004.8377
1.438412627019429E9,1004.7778
1.4384126270496109E9,1004.7778
1.4384126270848281E9,1004.8377
1.438412627120137E9,1004.8377
1.4384126271503494E9,1004.7778
1.4384126271861467E9,1004.80774
1.4384126272214553E9,1004.8777
1.438412627252095E9,1004.7778
1.4384126272869158E9,1004.7778
1.4384126273221328E9,1004.8777
1.4384126273523147E9,1004.8777
1.438412627387593E9,1004.7778
1.4384126274228714E9,1004.80774
1.438412627452443E9,1004.80774
1.438412627487691E9,1004.7778
1.4384126275229692E9,1004.7778
1.4384126275531816E9,1004.80774
1.4384126275884295E9,1004.9077
1.438412627623677E9,1004.80774
1.438412627653859E9,1004.80774
1.4384126276891067E9,1004.8377
1.438412627724385E9,1004.8777
1.4384126277545974E9,1004.7778
1.4384126277904556E9,1004.80774
1.438412627825856E9,1004.7478
1.4384126278560076E9,1004.7778
1.4384126278912191E9,1004.7778
1.4384126279264975E9,1004.7778
1.4384126279565876E9,1004.7478
1.4384126279912252E9,1004.7478
1.4384126280265036E9,1004.8777
1.4384126280564716E9,1004.80774
1.438412628091933E9,1004.8777
1.4384126281272113E9,1004.7778
1.438412628157424E9,1004.8777
1.4384126281927023E9,1004.80774
1.4384126282279193E9,1004.8377
1.4384126282581317E9,1004.8377
1.43841262829341E9,1004.8777
1.4384126283286276E9,1004.80774
1.43841262835884E9,1004.8777
1.4384126283940878E9,1004.8777
1.4384126284298847E9,1004.7778
1.4384126284602191E9,1004.80774
1.4384126284955893E9,1004.7778
1.4384126285315695E9,1004.7478
1.4384126285609577E9,1004.80774
1.4384126285961444E9,1004.9077
1.4384126286313007E9,1004.8377
1.438412628660964E9,1004.7778
1.4384126286963031E9,1004.8777
1.4384126287314289E9,1004.8777
1.438412628761672E9,1004.8377
1.4384126287969196E9,1004.7778
1.4384126288321676E9,1004.8377
1.4384126288623798E9,1004.80774
1.4384126288976278E9,1004.80774
1.4384126289328756E9,1004.7778
1.438412628963088E9,1004.8377
1.4384126289983358E9,1004.7478
1.4384126290336142E9,1004.80774
1.4384126290638266E9,1004.7778
1.438412629099654E9,1004.7478
1.4384126291349018E9,1004.7778
1.4384126291651142E9,1004.9077
1.4384126291997213E9,1004.8777
1.4384126292349997E9,1004.8377
1.438412629265212E9,1004.7778
1.4384126293004599E9,1004.8377
1.4384126293354635E9,1004.7778
1.4384126293659198E9,1004.80774
1.4384126294011676E9,1004.7478
1.4384126294364157E9,1004.8777
1.4384126294666278E9,1004.80774
1.4384126295018759E9,1004.8377
1.4384126295372455E9,1004.80774
1.438412629567336E9,1004.7778
1.438412629602584E9,1004.7778
