359993.23745649,1007.17
359993.268340279,1007.17
359993.299224068,1007.17
359993.330077339,1007.12
359993.360961128,1007.12
359993.39184491703,1007.12
359993.42269818904,1007.08997
359993.45358197804,1007.08997
359993.48446576705,1007.08997
359993.515319039,1007.08997
359993.546202828,1007.03
359993.577086617,1007.03
359993.607939888,1007.01
359993.638823677,1007.01
359993.66970746603,1007.01
359993.70056073804,1006.95996
359993.73144452705,1006.95996
359993.76232831605,1006.95996
359993.793181587,1006.95996
359993.824065376,1006.93
359993.854949166,1006.93
359993.885802437,1006.93
359993.91668622603,1006.92
359993.94757001504,1006.92
359993.97845380404,1006.92
359994.00930707605,1006.88
359994.040190865,1006.88
359994.071074654,1006.88
359994.101927925,1006.86
359994.132811714,1006.86
359994.163695503,1006.86
359994.19454877503,1006.83997
359994.22543256404,1006.83997
359994.25631635304,1006.83997
359994.28716962505,1006.82
359994.318053414,1006.82
359994.348937203,1006.82
359994.379790474,1006.79
359994.410674263,1006.79
359994.441558052,1006.79
359994.47241132404,1006.78
359994.50329511304,1006.78
359994.53417890205,1006.78
359994.565032173,1006.75
359994.595915962,1006.75
359994.626769234,1006.75
359994.65762250504,1006.74
359994.68847577705,1006.74
359994.719329048,1006.74
359994.75018232,1006.74
359994.78103559103,1006.73
359994.81188886304,1006.73
359994.842742134,1006.73
359994.873595406,1006.70996
359994.904448677,1006.70996
359994.93530194904,1006.72
359994.96615522,1006.72
359994.997008492,1006.72
359995.027861763,1006.72
359995.05871503503,1006.67
359995.089568306,1006.67
359995.120421578,1006.67
359995.151274849,1006.68
359995.182128121,1006.68
359995.21298139205,1006.68
359995.243834664,1006.65
359995.274687935,1006.65
359995.305541207,1006.65
359995.336424996,1006.65
359995.36727826705,1006.65
359995.398131539,1006.65
359995.42898481,1006.65
359995.459838082,1006.65
359995.49069135304,1006.65
359995.52154462505,1006.65
359995.552397896,1006.65
359995.58325116703,1006.65
359995.61410443904,1006.61
359995.64495771,1006.61
359995.675810982,1006.61
359995.706664253,1006.61
359995.73751752503,1006.61
359995.768370796,1006.61
359995.799224068,1006.61
359995.830077339,1006.6
359995.86093061103,1006.6
359995.89178388205,1006.58997
359995.922637154,1006.58997
359995.953490425,1006.58997
359995.984343697,1006.58997
359996.01519696804,1006.57996
359996.04605024,1006.57996
359996.076934029,1006.57996
359996.1077873,1006.57
359996.138640572,1006.57
359996.16949384304,1006.57
359996.200347115,1006.57996
359996.231200386,1006.57996
359996.262053658,1006.57996
359996.29290692904,1006.57
359996.32376020105,1006.57
359996.354613472,1006.57
359996.385466744,1006.56
359996.41632001504,1006.56
359996.44717328704,1006.56
359996.478026558,1006.56
359996.50887983,1006.57
359996.53973310103,1006.57
359996.57058637304,1006.52
359996.601439644,1006.52
359996.632292916,1006.52
359996.663146187,1006.53
359996.69399945904,1006.53
359996.72485273,1006.53
359996.755706001,1006.53
359996.786559273,1006.54
359996.817443062,1006.54
359996.84829633404,1006.54
359996.879149605,1006.53
359996.910002876,1006.53
359996.940856148,1006.53
359996.97170941904,1006.53
359997.00256269105,1006.53
359997.033415962,1006.53
359997.064269234,1006.51
359997.09512250504,1006.51
359997.12597577705,1006.51
359997.156829048,1006.52
359997.18768232,1006.52
359997.21853559103,1006.52
359997.24938886304,1006.53
359997.280242134,1006.53
359997.311095406,1006.53
359997.341948677,1006.5
359997.37280194904,1006.5
359997.40365522,1006.5
359997.434508492,1006.51
359997.465361763,1006.51
359997.49621503503,1006.51
359997.527068306,1006.51
359997.557952095,1006.51
359997.588805367,1006.51
359997.619658638,1006.52
359997.65051191003,1006.52
359997.681365181,1006.52
359997.712218453,1006.52
359997.743071724,1006.52
359997.773924996,1006.52
359997.80477826705,1006.52
359997.835631539,1006.5
359997.86648481,1006.5
359997.897338082,1006.5
359997.92819135304,1006.5
359997.95904462505,1006.5
359997.989897896,1006.5
359998.02075116703,1006.5
359998.05160443904,1006.5
359998.08245771,1006.5
359998.113310982,1006.51
359998.144164253,1006.51
359998.17501752503,1006.51
359998.205870796,1006.51
359998.236724068,1006.51
359998.267577339,1006.51
359998.298461128,1006.51
359998.32931440003,1006.51
359998.360167671,1006.51
359998.391020943,1006.51
359998.421874214,1006.51
359998.45272748603,1006.51
359998.48358075705,1006.51
359998.514434029,1006.51
359998.5452873,1006.51
359998.576140572,1006.52
359998.60699384304,1006.52
359998.637847115,1006.52
359998.668700386,1006.49
359998.699553658,1006.49
359998.73040692904,1006.49
359998.76126020105,1006.49
359998.792113472,1006.49
359998.822966744,1006.49
359998.85382001504,1006.49
359998.88467328704,1006.49
359998.915526558,1006.49
359998.94637983,1006.49
359998.97723310103,1006.49
359999.00807689,1006.49
359999.038960679,1006.49
359999.06981395005,1006.49
359999.100667222,1006.49
359999.131520493,1006.49
359999.162373765,1006.49
359999.19322703604,1006.49
359999.22408030805,1006.49
359999.254933579,1006.49
359999.285786851,1006.49
359999.31664012204,1006.49
359999.347493393,1006.49
359999.378346665,1006.49
359999.409199936,1006.49
359999.44005320803,1006.49
359999.47090647905,1006.49
359999.501759751,1006.49
359999.532613022,1006.49
359999.563466294,1006.49
359999.59431956505,1006.49
359999.625172837,1006.49
359999.656026108,1006.49
359999.68687938,1006.49
359999.71773265104,1006.49
359999.74858592305,1006.49
359999.779469712,1006.49
359999.810322983,1006.49
359999.841176255,1006.49
359999.87202952604,1006.49
359999.90288279805,1006.49
359999.933736069,1006.49
359999.964589341,1006.49
359999.99544261204,1006.49
360000.02629588405,1006.49
360000.057149155,1006.49
360000.088002427,1006.49
360000.11885569803,1006.49
360000.14970897004,1006.49
360000.180562241,1006.51
360000.211415513,1006.51
360000.24226878403,1006.51
360000.27312205604,1006.51
360000.303975327,1006.51
360000.334828599,1006.51
360000.36568187,1006.51
360000.39653514203,1006.51
360000.427388413,1006.51
360000.458241684,1006.51
360000.489094956,1006.5
360000.519978745,1006.5
360000.55083201703,1006.5
360000.581685288,1006.5
360000.612538559,1006.5
360000.643391831,1006.5
360000.67424510204,1006.5
360000.70509837405,1006.5
360000.735951645,1006.5
360000.766804917,1006.5
360000.79765818804,1006.5
360000.82851146004,1006.5
360000.859364731,1006.5
360000.890218003,1006.5
360000.92107127403,1006.5
360000.95192454604,1006.5
360000.982777817,1006.5
360001.013631089,1006.5
360001.04448436,1006.5
360001.07533763204,1006.49
360001.106190903,1006.49
360001.137044175,1006.49
360001.167897446,1006.49
360001.19875071803,1006.49
360001.22963450704,1006.49
360001.260487778,1006.49
360001.29134105,1006.49
360001.322194321,1006.49
360001.35304759303,1006.49
360001.38390086405,1006.49
360001.414754136,1006.49
360001.445607407,1006.48
360001.476460679,1006.48
360001.50731395005,1006.48
360001.538167222,1006.48
360001.569020493,1006.48
360001.599873765,1006.48
360001.63072703604,1006.48
360001.66158030805,1006.48
360001.692433579,1006.48
360001.723286851,1006.48
360001.75414012204,1006.47
360001.784993393,1006.47
360001.815846665,1006.47
360001.846699936,1006.47
360001.87755320803,1006.47
360001.90840647905,1006.47
360001.939259751,1006.47
360001.97014354,1006.47
360002.000996811,1006.47
360002.03185008303,1006.49
360002.06270335405,1006.49
360002.093556626,1006.49
360002.124409897,1006.49
360002.155263169,1006.49
360002.18611644005,1006.49
360002.216969712,1006.49
360002.247822983,1006.49
360002.278676255,1006.49
360002.30952952604,1006.48
360002.34038279805,1006.48
360002.371236069,1006.48
360002.402089341,1006.48
360002.43294261204,1006.48
360002.46379588405,1006.48
360002.494649155,1006.48
360002.525502427,1006.48
360002.55635569803,1006.48
360002.58720897004,1006.48
360002.618062241,1006.48
360002.648915513,1006.48
360002.67976878403,1006.47
360002.71065257303,1006.47
360002.74150584504,1006.47
360002.772359116,1006.47
360002.803212388,1006.47
360002.83406565903,1006.47
360002.86491893104,1006.47
360002.895772202,1006.47
360002.926625474,1006.47
360002.957478745,1006.47
360002.98833201703,1006.45996
360003.019185288,1006.45996
360003.050038559,1006.45996
360003.080891831,1006.45996
360003.11174510204,1006.45996
360003.14259837405,1006.45
360003.173451645,1006.45
360003.204304917,1006.45
360003.23515818804,1006.45
360003.26601146004,1006.48
360003.296864731,1006.48
360003.327718003,1006.48
360003.35857127403,1006.47
360003.38942454604,1006.47
360003.420277817,1006.47
360003.451161606,1006.47
360003.482014878,1006.47
360003.51286814903,1006.47
360003.54372142104,1006.47
360003.574574692,1006.47
360003.605427964,1006.47
360003.636281235,1006.45996
360003.66713450704,1006.45996
360003.697987778,1006.45996
360003.72884105,1006.45996
360003.759694321,1006.45996
360003.79054759303,1006.45996
360003.82140086405,1006.45996
360003.852254136,1006.45996
360003.883107407,1006.45996
360003.913960679,1006.45
360003.94481395005,1006.45
360003.975667222,1006.45
360004.006520493,1006.45
360004.037373765,1006.45
360004.06822703604,1006.45
360004.09908030805,1006.44
360004.129933579,1006.44
360004.160786851,1006.44
360004.19167064,1006.47
360004.22252391104,1006.47
360004.25337718305,1006.47
360004.284230454,1006.47
360004.315083726,1006.47
360004.34593699704,1006.47
360004.376790268,1006.47
360004.40764354,1006.45996
360004.438496811,1006.45996
360004.46935008303,1006.45996
360004.50020335405,1006.45996
360004.531056626,1006.45996
360004.561909897,1006.45996
360004.592763169,1006.45996
360004.62361644005,1006.45996
360004.654469712,1006.45996
360004.685322983,1006.45
360004.716176255,1006.45
360004.74702952604,1006.45
360004.77788279805,1006.45
360004.808736069,1006.45
360004.839589341,1006.45
360004.87044261204,1006.45
360004.90129588405,1006.45
360004.93217967305,1006.45
360004.963032944,1006.45
360004.993886216,1006.45
360005.02473948704,1006.45
360005.05559275905,1006.45
360005.08644603,1006.45
360005.117299302,1006.45
