0.0,0.0,0.0,0.0
12.592,14.0,0.0,0.0
30.425,14.0,14.5,-4.9
31.923,11.3,14.5,-4.9
40.553,11.3,4.5,-4.9
49.582,11.3,14.5,-4.9
52.122,14.0,14.5,-4.9
71.323,14.0,0.0,0.0
78.082,22.0,0.0,0.0
92.642,22.0,-17.5,0.0
104.362,7.2,-17.5,0.0
117.392,7.2,0.0,0.0
123.882,0.0,0.0,0.0
