0.0,0.0,0.0,0.0
1.0,1.06,0.0,0.0
2.0,2.11,0.0,0.0
3.0,3.17,0.0,0.0
4.0,4.23,0.0,0.0
5.0,5.28,0.0,0.0
6.0,6.34,0.0,0.0
7.0,7.2,0.24,0.0
8.0,7.2,1.54,0.0
9.0,7.2,2.84,0.0
10.0,7.2,4.14,0.0
11.0,7.2,5.45,0.0
12.0,7.2,6.75,0.0
13.0,7.2,8.05,0.0
14.0,7.2,9.35,0.0
15.0,7.2,10.65,0.0
16.0,7.2,11.95,0.0
17.0,7.2,13.25,0.0
18.0,7.2,14.55,0.0
19.0,7.2,15.85,0.0
20.0,7.2,17.15,0.0
21.0,8.04,17.5,0.0
22.0,9.2,17.5,0.0
23.0,10.35,17.5,0.0
24.0,11.5,17.5,0.0
25.0,12.66,17.5,0.0
26.0,13.81,17.5,0.0
27.0,14.0,18.18,-0.23
28.0,14.0,18.99,-0.5
29.0,14.0,19.81,-0.78
30.0,14.0,20.62,-1.05
31.0,14.0,21.43,-1.33
32.0,14.0,22.24,-1.6
33.0,14.0,23.06,-1.88
34.0,14.0,23.87,-2.15
35.0,14.0,24.68,-2.43
36.0,14.0,25.49,-2.7
37.0,14.0,26.3,-2.98
38.0,14.0,27.12,-3.25
39.0,14.0,27.93,-3.52
40.0,14.0,28.74,-3.8
41.0,14.0,29.55,-4.07
42.0,14.0,30.37,-4.35
43.0,14.0,31.18,-4.62
44.0,14.0,31.99,-4.9
45.0,14.0,31.24,-4.64
46.0,14.0,30.48,-4.38
47.0,14.0,29.71,-4.13
48.0,14.0,28.94,-3.87
49.0,14.0,28.18,-3.61
50.0,14.0,27.41,-3.35
51.0,14.0,26.64,-3.09
52.0,14.0,25.87,-2.83
53.0,14.0,25.11,-2.57
54.0,14.0,24.34,-2.31
55.0,14.0,23.57,-2.05
56.0,14.0,22.81,-1.79
57.0,14.0,22.04,-1.53
58.0,14.0,21.27,-1.28
59.0,14.0,20.51,-1.02
60.0,14.0,19.74,-0.76
61.0,14.0,18.97,-0.5
62.0,14.0,18.21,-0.24
63.0,13.91,17.5,0.0
64.0,12.79,17.5,0.0
65.0,11.67,17.5,0.0
66.0,10.55,17.5,0.0
67.0,9.44,17.5,0.0
68.0,8.32,17.5,0.0
69.0,7.2,17.5,0.0
70.0,6.08,17.5,0.0
71.0,4.96,17.5,0.0
72.0,3.84,17.5,0.0
73.0,2.72,17.5,0.0
74.0,1.6,17.5,0.0
75.0,0.48,17.5,0.0
76.0,0.0,16.91,0.0
77.0,0.0,15.89,0.0
78.0,0.0,14.86,0.0
79.0,0.0,13.83,0.0
80.0,0.0,12.8,0.0
81.0,0.0,11.77,0.0
82.0,0.0,10.75,0.0
83.0,0.0,9.72,0.0
84.0,0.0,8.69,0.0
85.0,0.0,7.66,0.0
86.0,0.0,6.63,0.0
87.0,0.0,5.61,0.0
88.0,0.0,4.58,0.0
89.0,0.0,3.55,0.0
90.0,0.0,2.52,0.0
91.0,0.0,1.49,0.0
92.0,0.0,0.46,0.0
93.0,0.0,0.0,0.0
