11176.084126571,1006.8866
11176.117695907,1006.8866
11176.151265243001,1006.8866
11176.184834578,1006.8866
11176.218403914001,1006.8866
11176.25197325,1006.8866
11176.285542586,1006.8866
11176.319111922001,1006.8866
11176.352681258,1006.8866
11176.386250594001,1006.8866
11176.41981993,1006.8866
11176.453389266,1006.8866
11176.486958602001,1006.8866
11176.520527938,1006.88245
11176.554097274,1006.8766
11176.587666610001,1006.8832
11176.621235946,1006.8866
11176.654805282,1006.8866
11176.688374618001,1006.88635
11176.721943953,1006.8766
11176.755513289001,1006.8793
11176.789082625,1006.8866
11176.822651961,1006.8866
11176.856221297001,1006.8866
11176.889790633,1006.8866
11176.923359969001,1006.8866
11176.956929305,1006.8866
11176.990498641,1006.8866
11177.024067977001,1006.8866
11177.057637313,1006.8866
11177.091206649,1006.8866
11177.124775985001,1006.8866
11177.158345321,1006.8866
11177.191914657,1006.8866
11177.225483993001,1006.8866
11177.259053328,1006.8766
11177.292622664001,1006.87885
11177.326192,1006.8866
11177.359761336,1006.8866
11177.393330672001,1006.8866
11177.426900008,1006.8866
11177.460469344001,1006.8866
11177.49403868,1006.8866
11177.527608016,1006.8866
11177.561177352001,1006.8866
11177.594746688,1006.8866
11177.628316024,1006.8866
11177.661885360001,1006.8866
11177.695454696,1006.8866
11177.729024032,1006.8866
11177.762593368001,1006.8866
11177.796162703,1006.8866
11177.829732039001,1006.8866
11177.863301375,1006.8866
11177.896870711,1006.8866
11177.930440047001,1006.8866
11177.964009383,1006.8866
11177.997578719001,1006.8866
11178.031148055,1006.8866
11178.064717391,1006.8862
11178.098286727001,1006.8766
11178.131856063,1006.8766
11178.165425399,1006.8766
11178.198994735001,1006.8766
11178.232564071,1006.8766
11178.266133407,1006.8766
11178.299702743001,1006.8766
11178.333272078,1006.8766
11178.366841414001,1006.8766
11178.40041075,1006.874
11178.433980086,1006.8666
11178.467549422001,1006.8666
11178.501118758,1006.8666
11178.534688094001,1006.8666
11178.56825743,1006.8753
11178.601826766,1006.8766
11178.635396102001,1006.8766
11178.668965438,1006.8742
11178.702534774,1006.8666
11178.736104110001,1006.8666
11178.769673446,1006.8666
11178.803242782,1006.8666
11178.836812118001,1006.8666
11178.870381453,1006.8666
11178.903950789001,1006.8666
11178.937520125,1006.8666
11178.971089461,1006.8666
11179.004658797001,1006.8666
11179.038228133,1006.8666
11179.071797469001,1006.8666
11179.105366805,1006.8666
11179.138936141,1006.8666
11179.172505477001,1006.86584
11179.206074813,1006.8566
11179.239644149,1006.8566
11179.273213485001,1006.8566
11179.306782821,1006.8566
11179.340352157,1006.8566
11179.373921493001,1006.8566
11179.407490828,1006.8566
11179.441060164001,1006.8566
11179.4746295,1006.8566
11179.508198836,1006.85364
11179.541768172001,1006.8466
11179.575337508,1006.8466
11179.608906844001,1006.8466
11179.64247618,1006.8466
11179.676045516,1006.8466
11179.709614852001,1006.8466
11179.743184188,1006.8466
11179.776753524,1006.8466
11179.810322860001,1006.8466
11179.843892196,1006.8466
11179.877461532,1006.8466
11179.911030868001,1006.8466
11179.944600203,1006.8377
11179.978169539001,1006.8366
11180.011738875,1006.8366
11180.045308211,1006.8392
11180.078877547001,1006.8466
11180.112446883,1006.8466
11180.146016219001,1006.8466
11180.179585555,1006.8391
11180.213154891,1006.8366
11180.246724227001,1006.8366
11180.280293563,1006.8366
11180.313862899,1006.8366
11180.347432235001,1006.8366
11180.381001571,1006.8366
11180.414570907,1006.8366
11180.448140243001,1006.8366
11180.481709578,1006.8366
11180.515278914001,1006.8366
11180.54884825,1006.8366
11180.582417586,1006.8366
11180.615986922001,1006.8366
11180.649556258,1006.83203
11180.683125594001,1006.82666
11180.71669493,1006.82666
11180.750264266,1006.82666
11180.783833602001,1006.82666
11180.817402938,1006.8259
11180.850972274,1006.81665
11180.884541610001,1006.81665
11180.918110946,1006.81665
11180.951680282,1006.81665
11180.985249618001,1006.8098
11181.018818953,1006.80664
11181.052388289001,1006.80664
11181.085957625,1006.80615
11181.119526961,1006.79663
11181.153096297001,1006.79663
11181.186665633,1006.79663
11181.220234969001,1006.79126
11181.253804305,1006.7866
11181.287373641,1006.7866
11181.320942977001,1006.7866
11181.354512313,1006.7866
11181.388081649,1006.7866
11181.421650985001,1006.78394
11181.455220321,1006.7767
11181.488789657,1006.7767
11181.522358993001,1006.7767
11181.555928328,1006.7767
11181.589497664001,1006.7767
11181.623067,1006.7767
11181.656636336,1006.7767
11181.690205672001,1006.7767
11181.723775008,1006.7767
11181.757344344001,1006.7767
11181.79091368,1006.7767
11181.824483016,1006.7767
11181.858052352001,1006.7767
11181.891621688,1006.7767
11181.925191024,1006.7767
11181.958760360001,1006.7743
11181.992329696,1006.76666
11182.025899032,1006.76666
11182.059468368001,1006.76666
11182.093037703,1006.76666
11182.126607039001,1006.76666
11182.160176375,1006.76666
11182.193745711,1006.76666
11182.227315047001,1006.76666
11182.260884383,1006.76666
11182.294453719001,1006.76666
11182.328023055,1006.76666
11182.361592391,1006.76666
11182.395161727001,1006.76666
11182.428731063,1006.7572
11182.462300399,1006.7574
11182.495869735001,1006.76666
11182.529439071,1006.76666
11182.563008407,1006.76666
11182.596577743001,1006.76666
11182.630147078,1006.7598
11182.663716414001,1006.75665
11182.69728575,1006.7659
11182.730855086,1006.76666
11182.764424422001,1006.76666
11182.797993758,1006.76666
11182.831563094001,1006.76666
11182.86513243,1006.76666
11182.898701766,1006.76666
11182.932271102001,1006.76666
11182.965840438,1006.76666
11182.999409774,1006.76666
11183.032979110001,1006.76666
11183.066548446,1006.76666
11183.100117782,1006.76666
11183.133687118001,1006.77185
11183.167256453,1006.7767
11183.200825789001,1006.7767
11183.234395125,1006.7767
11183.267964461,1006.7767
11183.301533797001,1006.7767
11183.335103133,1006.7767
11183.368672469001,1006.7767
11183.402241805,1006.7767
11183.435811141,1006.7767
11183.469380477001,1006.7841
11183.502949813,1006.7866
11183.536519149,1006.7866
11183.570088485001,1006.7866
11183.603657821,1006.7866
11183.637227157,1006.7866
11183.670796493001,1006.7866
11183.704390609,1006.7866
11183.737959945001,1006.7939
11183.771529281,1006.79663
11183.805098617,1006.79663
11183.838667953001,1006.79663
11183.872237289,1006.79663
11183.905806625,1006.80005
11183.939375961001,1006.80664
11183.972945297,1006.80664
11184.006514633,1006.80664
11184.040083969001,1006.80664
11184.073653305,1006.80664
11184.107222641001,1006.80664
11184.140791977,1006.80664
11184.174361313,1006.80664
11184.207930649001,1006.80664
11184.241499984,1006.80664
11184.275069320001,1006.80664
11184.308638656,1006.80664
11184.342207992,1006.80664
11184.375777328001,1006.80664
11184.409346664,1006.80664
11184.442916,1006.80664
11184.476485336001,1006.80664
11184.510054672,1006.80664
11184.543624008,1006.80664
11184.577193344001,1006.80664
11184.61076268,1006.80664
11184.644332016001,1006.80664
11184.677901352,1006.80664
11184.711470688,1006.80664
11184.745040024001,1006.80664
11184.778609359,1006.8119
11184.812178695001,1006.81665
11184.845748031,1006.81665
11184.879317367,1006.81665
11184.912886703001,1006.81665
11184.946456039,1006.81665
11184.980025375,1006.81665
11185.013594711001,1006.81665
11185.047164047,1006.81665
11185.080733383,1006.81665
11185.114302719001,1006.81665
11185.147872055,1006.81665
11185.181441391001,1006.81665
11185.215010727,1006.81537
11185.248580063,1006.80664
11185.282149399001,1006.8103
11185.315718734,1006.81665
11185.349288070001,1006.81665
11185.382857406,1006.81665
11185.416426742,1006.81665
11185.449996078001,1006.81665
11185.483565414,1006.81665
11185.51713475,1006.81665
11185.550704086001,1006.81665
11185.584273422,1006.81665
11185.617842758,1006.81665
11185.651412094001,1006.81665
11185.68498143,1006.81665
11185.718550766001,1006.81665
11185.752120102,1006.81665
11185.785689438,1006.81665
11185.819258774001,1006.81665
11185.852828109,1006.81665
11185.886397445001,1006.81665
11185.919966781,1006.81665
11185.953536117,1006.8248
11185.987105453001,1006.82666
11186.020674789,1006.82666
11186.054244125,1006.82666
11186.087813461001,1006.82666
11186.121382797,1006.82666
11186.154952133,1006.82666
11186.188521469001,1006.82666
11186.222090805,1006.83466
11186.255660141001,1006.8366
11186.289229477,1006.8366
11186.322798813,1006.8366
11186.356368149001,1006.8337
11186.389937484,1006.82666
11186.423506820001,1006.82666
11186.457076156,1006.82666
11186.490645492,1006.82666
11186.524214828001,1006.82666
11186.557784164,1006.8366
11186.5913535,1006.8366
11186.624922836001,1006.8366
11186.658492172,1006.8366
11186.692061508,1006.8366
11186.725630844001,1006.8366
11186.75920018,1006.8366
11186.792769516001,1006.8366
11186.826338852,1006.8366
11186.859908188,1006.8366
11186.893477524001,1006.8366
11186.927046859,1006.8366
11186.960616195001,1006.8366
11186.994185531,1006.8366
11187.027754867,1006.8366
11187.061324203001,1006.8366
11187.094893539,1006.8366
11187.128462875,1006.8366
11187.162032211001,1006.8366
11187.195601547,1006.8366
11187.229170883,1006.8366
11187.262740219001,1006.83057
11187.296309555,1006.82666
11187.329878891001,1006.82666
11187.363448227,1006.82666
11187.397017563,1006.82666
11187.430586899001,1006.82666
11187.464156234,1006.82666
11187.497725570001,1006.82666
11187.531294906,1006.83246
11187.564864242,1006.8366
11187.598433578001,1006.8366
11187.632002914,1006.8366
11187.66557225,1006.8366
11187.699141586001,1006.8366
11187.732710922,1006.8366
11187.766280258,1006.8366
11187.799849594001,1006.8366
11187.83341893,1006.8366
11187.866988266001,1006.8447
11187.900557602,1006.8466
11187.934126938,1006.8366
11187.967696274001,1006.8366
11188.001265609,1006.8366
11188.034834945001,1006.8366
11188.068404281,1006.8366
11188.101973617,1006.8366
11188.135542953001,1006.8366
11188.169112289,1006.8366
11188.202681625,1006.8366
11188.236250961001,1006.8366
11188.269820297,1006.8366
11188.303389633,1006.8366
11188.336958969001,1006.8366
11188.370528305,1006.8366
11188.404097641001,1006.8366
11188.437666977,1006.8366
11188.471236313,1006.8366
11188.504805649001,1006.8366
11188.538374984,1006.8366
11188.571944320001,1006.8366
11188.605513656,1006.8366
11188.639082992,1006.8366
11188.672652328001,1006.8366
11188.706221664,1006.8366
11188.739791,1006.8366
11188.773360336001,1006.8366
11188.806929672,1006.8366
11188.840499008,1006.8366
11188.874068344001,1006.8366
11188.90763768,1006.8366
11188.941207016001,1006.8366
11188.974776352,1006.8366
11189.008345688,1006.8366
11189.041915024001,1006.8366
11189.075484359,1006.8366
11189.109053695001,1006.8401
11189.142623031,1006.8466
11189.176192367,1006.8466
11189.209761703001,1006.8466
11189.243331039,1006.8466
11189.276900375,1006.8466
11189.310469711001,1006.8466
11189.344039047,1006.8466
11189.377608383,1006.8466
11189.411177719001,1006.8466
11189.444747055,1006.8466
11189.478316391001,1006.8466
11189.511885727,1006.8466
11189.545455063,1006.8466
11189.579024399001,1006.8466
11189.612593734,1006.8466
11189.646163070001,1006.8466
11189.679732406,1006.8466
11189.713301742,1006.8466
11189.746871078001,1006.8466
11189.780440414,1006.83856
11189.81400975,1006.8366
11189.847579086001,1006.8366
11189.881148422,1006.8366
11189.914717758,1006.8366
11189.948287094001,1006.8366
11189.98185643,1006.8366
11190.015425766001,1006.8366
11190.048995102,1006.8366
11190.082564438,1006.8366
11190.116133774001,1006.8366
11190.149703109,1006.8366
11190.183272445001,1006.8366
11190.216841781,1006.8366
11190.250411117,1006.8366
11190.283980453001,1006.8366
11190.317549789,1006.8366
11190.351119125,1006.8366
11190.384688461001,1006.8366
11190.418257797,1006.83527
11190.451827133,1006.82666
11190.485396469001,1006.82666
11190.518965805,1006.82666
11190.552535141001,1006.82666
11190.586104477,1006.82666
11190.619673813,1006.82666
11190.653243149001,1006.82666
11190.686812484,1006.82666
11190.720381820001,1006.82666
11190.753951156,1006.82666
11190.787520492,1006.82666
11190.821089828001,1006.82666
11190.854659164,1006.82666
11190.8882285,1006.82666
11190.921797836001,1006.82666
11190.955367172,1006.82666
11190.988936508,1006.82666
11191.022505844001,1006.82666
11191.05607518,1006.82666
11191.089644516001,1006.82666
11191.123213852,1006.82666
11191.156783188,1006.82666
11191.190352524001,1006.82666
11191.223921859,1006.82666
11191.257491195001,1006.82666
11191.291060531,1006.82666
11191.324629867,1006.82666
11191.358199203001,1006.82666
11191.391768539,1006.82666
11191.425337875,1006.82666
11191.458907211001,1006.82666
11191.492476547,1006.82666
11191.526045883,1006.82666
11191.559615219001,1006.82666
11191.593184555,1006.82666
11191.626753891001,1006.82666
11191.660323227,1006.82666
11191.693892563,1006.82666
11191.727461899001,1006.82666
11191.761031234,1006.82666
11191.794600570001,1006.82666
11191.828169906,1006.82666
11191.861739242,1006.82666
11191.895308578001,1006.82666
11191.928877914,1006.82666
11191.96244725,1006.82666
11191.996016586001,1006.82666
11192.029585922,1006.82666
11192.063155258,1006.82666
11192.096724594001,1006.82666
11192.13029393,1006.82263
11192.163863266001,1006.81665
11192.197432602,1006.81665
11192.231001938,1006.81665
11192.264571274001,1006.81665
11192.298140609,1006.81665
11192.331709945001,1006.81665
11192.365279281,1006.81665
11192.398848617,1006.81665
11192.432417953001,1006.81665
11192.465987289,1006.81665
11192.499556625,1006.81665
11192.533125961001,1006.81665
11192.566695297,1006.81665
11192.600264633,1006.81665
11192.633833969001,1006.81665
11192.667403305,1006.81665
11192.700972641001,1006.81665
11192.734541977,1006.81665
11192.768111313,1006.81665
11192.801680649001,1006.81665
11192.835249984,1006.81665
11192.868819320001,1006.81665
11192.902388656,1006.81665
11192.935957992,1006.81665
11192.969527328001,1006.81665
11193.003096664,1006.81665
11193.036666,1006.8237
11193.070235336001,1006.82666
11193.103804672,1006.82666
11193.137374008,1006.82666
11193.170943344001,1006.8246
11193.20451268,1006.81665
11193.238082016001,1006.81665
11193.271651352,1006.81665
11193.305220688,1006.81665
11193.338790024001,1006.81665
11193.372359359,1006.81665
11193.405928695001,1006.81665
11193.439498031,1006.81665
11193.473067367,1006.81665
11193.506636703001,1006.8123
11193.540206039,1006.80664
11193.573775375,1006.80664
11193.607344711001,1006.80664
11193.640914047,1006.80664
11193.674483383,1006.80664
11193.708052719001,1006.80664
11193.74163185,1006.80664
11193.775201186001,1006.80664
11193.808770522,1006.80664
11193.842339858,1006.80664
11193.875909194001,1006.80664
11193.909478529,1006.80664
11193.943047865001,1006.80664
11193.976617201,1006.80664
11194.010186537002,1006.80664
11194.043755873001,1006.80664
11194.077325209,1006.80664
11194.110894545001,1006.80664
11194.144463881,1006.80664
11194.178033217,1006.80664
11194.211602553001,1006.80664
11194.245171889,1006.80664
11194.278741225,1006.80664
11194.312310561001,1006.80664
11194.345879897,1006.80664
11194.379449233,1006.80664
11194.413018569001,1006.80664
11194.446587904,1006.80664
11194.480157240001,1006.80664
11194.513726576,1006.80664
11194.547295912002,1006.80896
11194.580865248001,1006.81665
11194.614434584,1006.81665
11194.648003920001,1006.81665
11194.681573256,1006.81665
11194.715142592,1006.81665
11194.748711928001,1006.82635
11194.782281264,1006.82666
11194.8158506,1006.82666
11194.849419936001,1006.82666
11194.882989272,1006.82666
11194.916558608,1006.82666
11194.950127944001,1006.82666
11194.983697279,1006.82666
11195.017266615001,1006.82666
11195.050835951,1006.82666
11195.084405287002,1006.82666
11195.117974623001,1006.82666
11195.151543959,1006.82666
11195.185113295001,1006.82666
11195.218682631,1006.83356
11195.252251967,1006.8366
11195.285821303001,1006.8366
11195.319390639,1006.8366
11195.352959975,1006.8366
11195.386529311001,1006.8366
11195.420098647,1006.8366
11195.453667983,1006.8366
11195.487237319001,1006.8366
11195.520806654,1006.8366
11195.554375990001,1006.8366
11195.587945326,1006.8366
11195.621514662002,1006.8366
11195.655083998001,1006.8366
11195.688653334,1006.8366
11195.722222670001,1006.842
11195.755792006,1006.8466
11195.789361342,1006.8466
11195.822930678001,1006.8466
11195.856500014,1006.84686
11195.89006935,1006.8566
11195.923638686001,1006.8566
11195.957208022,1006.8566
11195.990777358,1006.8566
11196.024346694001,1006.8566
11196.057916029,1006.86426
11196.091485365001,1006.8666
11196.125054701,1006.8665
11196.158624037002,1006.8566
11196.192193373001,1006.8566
11196.225762709,1006.8566
11196.259332045001,1006.8566
11196.292901381,1006.8566
11196.326470717,1006.8566
11196.360040053001,1006.8566
11196.393609389,1006.8566
11196.427178725,1006.8566
11196.460748061001,1006.8566
11196.494317397,1006.8566
11196.527886733,1006.8566
11196.561456069001,1006.8566
11196.595025404,1006.8566
11196.628594740001,1006.8566
11196.662164076,1006.86633
11196.695733412002,1006.8666
11196.729302748001,1006.8666
11196.762872084,1006.8666
11196.796441420001,1006.8666
11196.830010756,1006.8666
11196.863580092,1006.8666
11196.897149428001,1006.8666
11196.930718764,1006.8666
11196.9642881,1006.8666
11196.997857436001,1006.8666
11197.031426772,1006.8666
11197.064996108,1006.8666
11197.098565444001,1006.8666
11197.132134779,1006.8666
11197.165704115001,1006.8666
11197.199273451,1006.8666
11197.232842787002,1006.8666
11197.266412123001,1006.8666
11197.299981459,1006.8666
11197.333550795001,1006.8666
11197.367120131,1006.8666
11197.400689467,1006.8666
11197.434258803001,1006.8666
11197.467828139,1006.8666
11197.501397475,1006.8666
11197.534966811001,1006.8666
11197.568536147,1006.8666
11197.602105483,1006.8666
11197.635674819001,1006.8666
11197.669244154,1006.8666
11197.702813490001,1006.8666
11197.736382826,1006.8666
11197.769952162002,1006.8666
11197.803521498001,1006.8666
11197.837090834,1006.8639
11197.870660170001,1006.8566
11197.904229506,1006.8566
11197.937798842,1006.8566
11197.971368178001,1006.86426
11198.004937514,1006.8666
11198.03850685,1006.8666
11198.072076186001,1006.8666
11198.105645522,1006.8666
11198.139214858,1006.8666
11198.172784194001,1006.8666
11198.206353529,1006.8666
11198.239922865001,1006.8666
11198.273492201,1006.8666
11198.307061537002,1006.8666
11198.340630873001,1006.8666
11198.374200209,1006.8666
11198.407769545001,1006.8666
11198.441338881,1006.8666
11198.474908217,1006.8666
11198.508477553001,1006.8666
11198.542046889,1006.8666
11198.575616225,1006.8666
11198.609185561001,1006.8666
11198.642754897,1006.8666
11198.676324233,1006.8666
11198.709893569001,1006.8666
11198.743462904,1006.8666
11198.777032240001,1006.8666
11198.810601576,1006.8666
11198.844170912002,1006.8666
11198.877740248001,1006.8666
11198.911309584,1006.8666
11198.944878920001,1006.8666
11198.978448256,1006.8666
11199.012017592,1006.8666
11199.045586928001,1006.8666
11199.079156264,1006.8666
11199.1127256,1006.8666
11199.146294936001,1006.8666
11199.179864272,1006.8666
11199.213433608,1006.8666
11199.247002944001,1006.8666
11199.280572279,1006.8666
11199.314141615001,1006.8666
11199.347710951,1006.8666
11199.381280287002,1006.8666
11199.414849623001,1006.8666
11199.448418959,1006.8649
11199.481988295001,1006.8566
11199.515557631,1006.8566
11199.549126967,1006.8566
11199.582696303001,1006.8566
11199.616265639,1006.8566
11199.649834975,1006.8566
11199.683404311001,1006.8566
11199.716973647,1006.8566
11199.750542983,1006.8566
11199.784112319001,1006.8566
11199.817681654,1006.8566
11199.851250990001,1006.8566
11199.884820326,1006.8566
11199.918389662002,1006.8566
11199.951958998001,1006.8566
11199.985528334,1006.8566
11200.019097670001,1006.8566
11200.052667006,1006.8566
11200.086236342,1006.8566
11200.119805678001,1006.8566
11200.153375014,1006.8566
11200.18694435,1006.8566
11200.220513686001,1006.8566
11200.254083022,1006.8566
11200.287652358,1006.8566
11200.321221694001,1006.8566
11200.354791029,1006.8566
11200.388360365001,1006.8506
11200.421929701,1006.8466
11200.455499037002,1006.8466
11200.489068373001,1006.8466
11200.522637709,1006.84564
11200.556207045001,1006.8366
11200.589776381,1006.8366
11200.623345717,1006.8366
11200.656915053001,1006.8366
11200.690484389,1006.8366
11200.724053725,1006.8366
11200.757623061001,1006.8366
11200.791192397,1006.8366
11200.824761733,1006.8366
11200.858331069001,1006.8366
11200.891900404,1006.8366
11200.925469740001,1006.8366
11200.959039076,1006.8366
11200.992608412002,1006.8366
11201.026177748001,1006.8366
11201.059747084,1006.82666
11201.093316420001,1006.82666
11201.126885756,1006.82666
11201.160455092,1006.82666
11201.194024428001,1006.82666
11201.227593764,1006.82666
11201.2611631,1006.82666
11201.294732436001,1006.82666
11201.328301772,1006.82666
11201.361871108,1006.82666
11201.395440444001,1006.82666
11201.429009779,1006.82666
11201.462579115001,1006.82666
11201.496148451,1006.82007
11201.529717787002,1006.81665
11201.563287123001,1006.81665
11201.596856459,1006.81665
11201.630425795001,1006.81665
11201.663995131,1006.81665
11201.697564467,1006.81665
11201.731133803001,1006.81665
11201.764703139,1006.81665
11201.798272475,1006.81665
11201.831841811001,1006.81665
11201.865411147,1006.81665
11201.898980483,1006.818
11201.932549819001,1006.82666
11201.966119154,1006.8228
11201.999688490001,1006.81665
11202.033257826,1006.81665
11202.066827162002,1006.81665
11202.100396498001,1006.81665
11202.133965834,1006.81665
11202.167535170001,1006.81665
11202.201104506,1006.81665
11202.234673842,1006.81665
11202.268243178001,1006.81665
11202.301812514,1006.81665
11202.33538185,1006.81665
11202.368951186001,1006.81665
11202.402520522,1006.81665
11202.436089858,1006.81665
11202.469659194001,1006.81665
11202.503228529,1006.81665
11202.536797865001,1006.81665
11202.570367201,1006.81665
11202.603936537002,1006.81665
11202.637505873001,1006.81665
11202.671075209,1006.81665
11202.704644545001,1006.81665
11202.738213881,1006.81665
11202.771783217,1006.81665
11202.805352553001,1006.81665
11202.838921889,1006.81665
11202.872491225,1006.81665
11202.906060561001,1006.81665
11202.939629897,1006.81665
11202.973199233,1006.82666
11203.006768569001,1006.82666
11203.040337904,1006.82666
11203.073907240001,1006.82666
11203.107476576,1006.82666
11203.141045912002,1006.82666
11203.174615248001,1006.82666
11203.208184584,1006.82666
11203.241753920001,1006.82666
11203.275323256,1006.8249
11203.308892592,1006.81665
11203.342461928001,1006.8208
11203.376031264,1006.82666
11203.4096006,1006.81995
11203.443169936001,1006.81665
11203.476739272,1006.81665
11203.510308608,1006.81665
11203.543877944001,1006.81665
11203.577447279,1006.81665
11203.611016615001,1006.81665
11203.644585951,1006.81665
11203.678155287002,1006.81665
11203.711724623001,1006.81665
11203.745281136,1006.8077
11203.778850472001,1006.8068
11203.812419808,1006.81665
11203.845989144002,1006.81665
11203.879558480001,1006.81665
11203.913127816,1006.81665
11203.946697152001,1006.81665
11203.980266488,1006.81665
11204.013835824,1006.81665
11204.047405160001,1006.8166
11204.080974496,1006.80664
11204.114543831001,1006.80664
11204.148113167,1006.80664
11204.181682503,1006.80664
11204.215251839001,1006.80664
11204.248821175,1006.80664
11204.282390511,1006.81525
11204.315959847001,1006.81665
11204.349529183,1006.81665
11204.383098519002,1006.81665
11204.416667855001,1006.81665
11204.450237191,1006.81665
11204.483806527001,1006.81665
11204.517375863,1006.81665
11204.550945199,1006.81665
11204.584514535001,1006.81665
11204.618083871,1006.81665
11204.651653206001,1006.81665
11204.685222542,1006.81665
11204.718791878,1006.81665
11204.752361214001,1006.81665
11204.78593055,1006.8096
11204.819499886,1006.80664
11204.853069222001,1006.81616
11204.886638558,1006.81665
11204.920207894002,1006.81665
11204.953777230001,1006.81665
11204.987346566,1006.81665
11205.020915902001,1006.81665
11205.054485238,1006.81665
11205.088054574,1006.81665
11205.121623910001,1006.81665
11205.155193246,1006.81665
11205.188762581001,1006.81665
11205.222331917,1006.81665
11205.255901253,1006.81665
11205.289470589001,1006.81665
11205.323039925,1006.81665
11205.356609261,1006.81665
11205.390178597001,1006.81665
11205.423747933,1006.8171
11205.457317269002,1006.82666
11205.490886605001,1006.82666
11205.524455941,1006.82666
11205.558025277001,1006.82666
11205.591594613,1006.82666
11205.625163949,1006.82666
11205.658733285001,1006.82666
11205.692302621,1006.82666
11205.725871956001,1006.82666
11205.759441292,1006.82666
11205.793010628,1006.82666
11205.826579964001,1006.82666
11205.8601493,1006.82666
11205.893718636,1006.82666
11205.927287972001,1006.82666
11205.960857308,1006.82666
11205.994426644002,1006.82666
11206.027995980001,1006.82666
11206.061565316,1006.82666
11206.095134652001,1006.8216
11206.128703988,1006.81665
11206.162273324,1006.8241
11206.195842660001,1006.82666
11206.229411996,1006.82666
11206.262981331001,1006.82666
11206.296550667,1006.82666
11206.330120003,1006.82666
11206.363689339001,1006.82666
11206.397258675,1006.82666
11206.430828011,1006.82666
11206.464397347001,1006.82666
11206.497966683,1006.82666
11206.531536019002,1006.82666
11206.565105355001,1006.82666
11206.598674691,1006.82666
11206.632244027001,1006.82666
11206.665813363,1006.82666
11206.699382699,1006.82666
11206.732952035001,1006.82666
11206.766521371,1006.82666
11206.800090706001,1006.8275
11206.833660042,1006.8366
11206.867229378,1006.8366
11206.900798714001,1006.8366
11206.93436805,1006.8366
11206.967937386,1006.8296
11207.001506722001,1006.82666
11207.035076058,1006.82666
11207.068645394002,1006.82666
11207.102214730001,1006.82666
11207.135784066,1006.82666
11207.169353402001,1006.82666
11207.202922738,1006.82666
11207.236492074,1006.82666
11207.270061410001,1006.82666
11207.303630746,1006.82666
11207.337200081001,1006.82666
11207.370769417,1006.82666
11207.404338753,1006.82666
11207.437908089001,1006.82666
11207.471477425,1006.82666
11207.505046761,1006.82666
11207.538616097001,1006.82666
11207.572185433,1006.82666
11207.605754769002,1006.82666
11207.639324105001,1006.82666
11207.672893441,1006.82666
11207.706462777001,1006.82666
11207.740032113,1006.82666
11207.773601449,1006.82666
11207.807170785001,1006.82666
11207.840740121,1006.82666
11207.874309456001,1006.82666
11207.907878792,1006.82666
11207.941448128,1006.82666
11207.975017464001,1006.82666
11208.0085868,1006.82666
11208.042156136,1006.82666
11208.075725472001,1006.82666
11208.109294808,1006.82666
11208.142864144002,1006.82666
11208.176433480001,1006.82666
11208.210002816,1006.82666
11208.243572152001,1006.82666
11208.277141488,1006.8316
11208.310710824,1006.8366
11208.344280160001,1006.8366
11208.377849496,1006.8366
11208.411418831001,1006.8267
11208.444988167,1006.82666
11208.478557503,1006.82666
11208.512126839001,1006.8302
11208.545696175,1006.8366
11208.579265511,1006.8366
11208.612834847001,1006.8366
11208.646404183,1006.8366
11208.679973519002,1006.8366
11208.713542855001,1006.8366
11208.747112191,1006.8366
11208.780681527001,1006.8332
11208.814250863,1006.82666
11208.847820199,1006.82666
11208.881389535001,1006.82666
11208.914958871,1006.82666
11208.948528206001,1006.82666
11208.982097542,1006.82666
11209.015666878,1006.82666
11209.049236214001,1006.82666
11209.08280555,1006.82666
11209.116374886,1006.82666
11209.149944222001,1006.82666
11209.183513558,1006.82666
11209.217082894002,1006.82666
11209.250652230001,1006.82666
11209.284221566,1006.82666
11209.317790902001,1006.8235
11209.351360238,1006.81665
11209.384929574,1006.81665
11209.418498910001,1006.81665
11209.452068246,1006.8247
11209.485637581001,1006.82666
11209.519206917,1006.82666
11209.552776253,1006.82666
11209.586345589001,1006.82666
11209.619914925,1006.82666
11209.653484261,1006.82666
11209.687053597001,1006.82666
11209.720622933,1006.82666
11209.754192269002,1006.82666
11209.787761605001,1006.82666
11209.821330941,1006.82666
11209.854900277001,1006.82666
11209.888469613,1006.82666
11209.922038949,1006.82666
11209.955608285001,1006.82666
11209.989177621,1006.83435
11210.022746956001,1006.8366
11210.056316292,1006.8366
11210.089885628,1006.8366
11210.123454964001,1006.8366
11210.1570243,1006.8366
11210.190593636,1006.8366
11210.224162972001,1006.8366
11210.257732308,1006.8366
11210.291301644002,1006.8366
11210.324870980001,1006.8366
11210.358440316,1006.8366
11210.392009652001,1006.8366
11210.425578988,1006.8366
11210.459148324,1006.8366
11210.492717660001,1006.8366
11210.526286996,1006.8366
11210.559856331001,1006.8366
11210.593425667,1006.8366
11210.626995003,1006.8366
11210.660564339001,1006.8366
11210.694133675,1006.8366
11210.727703011,1006.8366
11210.761272347001,1006.8366
11210.794841683,1006.8366
11210.828411019002,1006.8366
11210.861980355001,1006.8366
11210.895549691,1006.8366
11210.929119027001,1006.8366
11210.962688363,1006.8366
11210.996257699,1006.8366
11211.029827035001,1006.8366
11211.063396371,1006.8366
11211.096965706001,1006.8366
11211.130535042,1006.8366
11211.164104378,1006.8366
11211.197673714001,1006.8366
11211.23124305,1006.8366
11211.264812386,1006.8366
11211.298381722001,1006.8366
11211.331951058,1006.8366
11211.365520394002,1006.8366
11211.399089730001,1006.8366
11211.432659066,1006.82666
11211.466228402001,1006.8284
11211.499797738,1006.8366
11211.533367074,1006.83234
11211.566936410001,1006.82666
11211.600505746,1006.82666
11211.634075081001,1006.8346
11211.667644417,1006.8366
11211.701213753,1006.8366
11211.734783089001,1006.8366
11211.768352425,1006.8366
11211.801921761,1006.8366
11211.835491097001,1006.8366
11211.869060433,1006.8366
11211.902629769002,1006.8366
11211.936199105001,1006.8366
11211.969768441,1006.8366
11212.003337777001,1006.8366
11212.036907113,1006.8366
11212.070476449,1006.8366
11212.104045785001,1006.8366
11212.137615121,1006.8366
11212.171184456001,1006.8366
11212.204753792,1006.8366
11212.238323128,1006.8366
11212.271892464001,1006.8366
11212.3054618,1006.8366
11212.339031136,1006.8366
11212.372600472001,1006.8366
11212.406169808,1006.8366
11212.439739144002,1006.8366
11212.473308480001,1006.8366
11212.506877816,1006.8366
11212.540447152001,1006.8366
11212.574016488,1006.8366
11212.607585824,1006.8366
11212.641155160001,1006.8366
11212.674724496,1006.8366
11212.708293831001,1006.8366
11212.741863167,1006.8366
11212.775432503,1006.8366
11212.809001839001,1006.8366
11212.842571175,1006.8366
11212.876140511,1006.8366
11212.909709847001,1006.8366
11212.943279183,1006.8307
11212.976848519002,1006.82666
11213.010417855001,1006.82666
11213.043987191,1006.82666
11213.077556527001,1006.82666
11213.111125863,1006.82666
11213.144695199,1006.82666
11213.178264535001,1006.82666
11213.211833871,1006.82666
11213.245403206001,1006.82666
11213.278972542,1006.82666
11213.312541878,1006.82666
11213.346111214001,1006.82666
11213.37968055,1006.82666
11213.413249886,1006.82666
11213.446819222001,1006.831
11213.480388558,1006.8366
11213.513957894002,1006.8298
11213.547527230001,1006.82666
11213.581096566,1006.82666
11213.614665902001,1006.82666
11213.648235238,1006.82666
11213.681804574,1006.82666
11213.715369492,1006.82666
11213.748938828001,1006.82666
11213.782508163,1006.82666
11213.816077499001,1006.82666
11213.849646835,1006.82666
11213.883216171002,1006.82666
11213.916785507,1006.82666
11213.950354843,1006.82666
11213.983924179001,1006.82666
11214.017493515,1006.82666
11214.051062851,1006.82666
11214.084632187001,1006.82666
11214.118201523,1006.82666
11214.151770859,1006.82666
11214.185340195001,1006.82666
11214.218909531,1006.82666
11214.252478867,1006.83057
11214.286048203001,1006.8366
11214.319617538,1006.8302
11214.353186874001,1006.82666
11214.38675621,1006.82666
11214.420325546002,1006.82666
11214.453894882,1006.82666
11214.487464218,1006.82666
11214.521033554001,1006.82666
11214.55460289,1006.82666
11214.588172226,1006.82666
11214.621741562001,1006.82666
11214.655310898,1006.82666
11214.688880234,1006.82666
11214.722449570001,1006.82666
11214.756018906,1006.82666
11214.789588242,1006.82666
11214.823157578001,1006.82666
11214.856726913,1006.82666
11214.890296249001,1006.834
11214.923865585,1006.8366
11214.957434921002,1006.8366
11214.991004257,1006.82666
11215.024573593,1006.82886
11215.058142929001,1006.8366
11215.091712265,1006.8319
11215.125281601,1006.82666
11215.158850937001,1006.8338
11215.192420273,1006.8366
11215.225989609,1006.8366
11215.259558945001,1006.8366
11215.293128281,1006.8366
11215.326697617,1006.8366
11215.360266953001,1006.8366
11215.393836288,1006.8366
11215.427405624001,1006.8366
11215.46097496,1006.8366
11215.494544296002,1006.8461
11215.528113632,1006.8459
11215.561682968,1006.8366
11215.595252304001,1006.8366
11215.62882164,1006.8366
11215.662390976,1006.8366
11215.695960312001,1006.8366
11215.729529648,1006.8366
11215.763098984,1006.8366
11215.796668320001,1006.8366
11215.830237656,1006.8366
11215.863806992,1006.8366
11215.897376328001,1006.8366
11215.930945663,1006.8366
11215.964514999001,1006.8366
11215.998084335,1006.8366
11216.031653671002,1006.8366
11216.065223007,1006.8366
11216.098792343,1006.8366
11216.132361679001,1006.8366
11216.165931015,1006.8366
11216.199500351,1006.8366
11216.233069687001,1006.8366
11216.266639023,1006.8366
11216.300208359,1006.8366
11216.333777695001,1006.8366
11216.367347031,1006.8366
11216.400916367,1006.83936
11216.434485703001,1006.8466
11216.468055038,1006.84143
11216.501624374001,1006.8366
11216.53519371,1006.8443
11216.568763046002,1006.8466
11216.602332382,1006.8466
11216.635901718,1006.8466
11216.669471054001,1006.8466
11216.70304039,1006.8466
11216.736609726,1006.8466
11216.770179062001,1006.8466
11216.803748398,1006.8466
11216.837317734,1006.8466
11216.870887070001,1006.8466
11216.904456406,1006.8466
11216.938025742,1006.8466
11216.971595078001,1006.8466
11217.005164413,1006.85156
11217.038733749001,1006.8566
11217.072303085,1006.8566
11217.105872421002,1006.8566
11217.139441757,1006.8566
11217.173011093,1006.8566
11217.206580429001,1006.8566
11217.240149765,1006.8566
11217.273719101,1006.8566
11217.307288437001,1006.8566
11217.340857773,1006.8566
11217.374427109,1006.8566
11217.407996445001,1006.8469
11217.441565781,1006.8466
11217.475135117,1006.8466
11217.508704453001,1006.8466
11217.542273788,1006.8466
11217.575843124001,1006.8466
11217.60941246,1006.83954
11217.642981796002,1006.8366
11217.676551132,1006.8366
11217.710120468,1006.8366
11217.743689804001,1006.8366
11217.77725914,1006.8334
11217.810828476,1006.82666
11217.844397812001,1006.82666
11217.877967148,1006.82666
11217.911536484,1006.82666
11217.945105820001,1006.82666
11217.978675156,1006.82666
11218.012244492,1006.82666
11218.045813828001,1006.82666
11218.079383163,1006.82666
11218.112952499001,1006.82666
11218.146521835,1006.82666
11218.180091171002,1006.82666
11218.213660507,1006.82666
11218.247229843,1006.82666
11218.280799179001,1006.82666
11218.314368515,1006.82666
11218.347937851,1006.82666
11218.381507187001,1006.82666
11218.415076523,1006.82666
11218.448645859,1006.82666
11218.482215195001,1006.82666
11218.515784531,1006.82666
11218.549353867,1006.82666
11218.582923203001,1006.82666
11218.616492538,1006.82666
11218.650061874001,1006.82666
11218.68363121,1006.82666
11218.717200546002,1006.819
11218.750769882,1006.81665
11218.784339218,1006.82666
11218.817908554001,1006.8252
11218.85147789,1006.81665
11218.885047226,1006.8205
11218.918616562001,1006.82666
11218.952185898,1006.82666
11218.985755234,1006.82666
11219.019324570001,1006.82666
11219.052893906,1006.81665
11219.086463242,1006.8179
11219.120032578001,1006.82666
11219.153601913,1006.82294
11219.187171249001,1006.81665
11219.220740585,1006.8228
11219.254309921002,1006.82666
11219.287879257,1006.82666
11219.321448593,1006.82666
11219.355017929001,1006.82556
11219.388587265,1006.81665
11219.422156601,1006.8202
11219.455725937001,1006.82666
11219.489295273,1006.82666
11219.522864609,1006.82666
11219.556433945001,1006.82666
11219.590003281,1006.82666
11219.623572617,1006.82666
11219.657141953001,1006.82666
11219.690711288,1006.82666
11219.724280624001,1006.82666
11219.75784996,1006.8208
11219.791419296002,1006.81665
11219.824988632,1006.82495
11219.858557968,1006.82666
11219.892127304001,1006.82666
11219.92569664,1006.82666
11219.959265976,1006.82666
11219.992835312001,1006.82666
11220.026404648,1006.82666
11220.059973984,1006.82666
11220.093543320001,1006.82666
11220.127112656,1006.82666
11220.160681992,1006.82666
11220.194251328001,1006.82666
11220.227820663,1006.82666
11220.261389999001,1006.82666
11220.294959335,1006.82666
11220.328528671002,1006.82666
11220.362098007,1006.82666
11220.395667343,1006.82666
11220.429236679001,1006.81665
11220.462806015,1006.8183
11220.496375351,1006.82666
11220.529944687001,1006.82666
11220.563514023,1006.82666
11220.597083359,1006.82666
11220.630652695001,1006.82666
11220.664222031,1006.82666
11220.697791367,1006.82666
11220.731360703001,1006.82666
11220.764930038,1006.82666
11220.798499374001,1006.82666
11220.83206871,1006.82666
11220.865638046002,1006.82666
11220.899207382,1006.82666
11220.932776718,1006.82666
11220.966346054001,1006.82666
11220.99991539,1006.82666
11221.033484726,1006.82666
11221.067054062001,1006.82666
11221.100623398,1006.82666
11221.134192734,1006.8203
11221.167762070001,1006.81665
11221.201331406,1006.81665
11221.234900742,1006.81665
11221.268470078001,1006.81665
11221.302039413,1006.81665
11221.335608749001,1006.81665
11221.369178085,1006.81665
11221.402747421002,1006.81665
11221.436316757,1006.81665
11221.469886093,1006.81665
11221.503455429001,1006.81665
11221.537024765,1006.81665
11221.570594101,1006.81665
11221.604163437001,1006.81665
11221.637732773,1006.81665
11221.671302109,1006.81665
11221.704871445001,1006.81665
11221.738440781,1006.81665
11221.772010117,1006.81665
11221.805579453001,1006.81665
11221.839148788,1006.81665
11221.872718124001,1006.81665
11221.90628746,1006.81665
11221.939856796002,1006.81665
11221.973426132,1006.81665
11222.006995468,1006.81665
11222.040564804001,1006.81665
11222.07413414,1006.81665
11222.107703476,1006.81665
11222.141272812001,1006.81665
11222.174842148,1006.81665
11222.208411484,1006.81665
11222.241980820001,1006.81665
11222.275550156,1006.81665
11222.309119492,1006.81665
11222.342688828001,1006.81665
11222.376258163,1006.81665
11222.409827499001,1006.81665
11222.443396835,1006.81665
11222.476966171002,1006.81665
11222.510535507,1006.81665
11222.544104843,1006.81665
11222.577674179001,1006.81665
11222.611243515,1006.81665
11222.644812851,1006.81665
11222.678382187001,1006.81665
11222.711951523,1006.81665
11222.745520859,1006.81665
11222.779090195001,1006.81665
11222.812659531,1006.81665
11222.846228867,1006.81665
11222.879798203001,1006.81665
11222.913367538,1006.81665
11222.946936874001,1006.81665
11222.98050621,1006.8207
11223.014075546002,1006.82666
11223.047644882,1006.8201
11223.081214218,1006.81665
11223.114783554001,1006.81665
11223.14835289,1006.81665
11223.181922226,1006.81665
11223.215491562001,1006.8193
11223.249060898,1006.82666
11223.282630234,1006.82666
11223.316199570001,1006.82666
11223.349768906,1006.82666
11223.383338242,1006.8178
11223.416907578001,1006.8167
11223.450476913,1006.82666
11223.484046249001,1006.82666
11223.517615585,1006.82666
11223.551184921002,1006.82666
11223.584754257,1006.82666
11223.618323593,1006.82666
11223.651892929001,1006.81793
11223.685462265,1006.81665
11223.719042089,1006.81665
11223.752611425001,1006.81665
11223.786180761,1006.81665
11223.819750097,1006.81665
11223.853319433001,1006.81665
11223.886888769,1006.81665
11223.920458105,1006.81665
11223.954027441001,1006.81665
11223.987596776,1006.81665
11224.021166112001,1006.81885
11224.054735448,1006.82666
11224.088304784002,1006.82666
11224.121874120001,1006.82666
11224.155443456,1006.81946
11224.189012792001,1006.81665
11224.222582128,1006.82623
11224.256151464,1006.82666
11224.289720800001,1006.82666
11224.323290136,1006.82666
11224.356859472,1006.8221
11224.390428808001,1006.81665
11224.423998144,1006.81665
11224.45756748,1006.81665
11224.491136816001,1006.81665
11224.524706151,1006.81665
11224.558275487001,1006.81665
11224.591844823,1006.81665
11224.625414159002,1006.82104
11224.658983495001,1006.82666
11224.692552831,1006.82666
11224.726122167001,1006.82666
11224.759691503,1006.82666
11224.793260839,1006.82666
11224.826830175001,1006.82666
11224.860399511,1006.82666
11224.893968847,1006.82666
11224.927538183001,1006.82666
11224.961107519,1006.81995
11224.994676855,1006.81665
11225.028246191001,1006.8258
11225.061815526,1006.82623
11225.095384862001,1006.81665
11225.128954198,1006.81665
11225.162523534002,1006.81665
11225.196092870001,1006.81665
11225.229662206,1006.81665
11225.263231542001,1006.81665
11225.296800878,1006.81665
11225.330370214,1006.81665
11225.363939550001,1006.81665
11225.397508886,1006.81665
11225.431078222,1006.81665
11225.464647558001,1006.81665
11225.498216894,1006.81665
11225.53178623,1006.81665
11225.565355566001,1006.81665
11225.598924901,1006.81665
11225.632494237001,1006.81665
11225.666063573,1006.81665
11225.699632909002,1006.81665
11225.733202245001,1006.81665
11225.766771581,1006.81665
11225.800340917001,1006.81665
11225.833910253,1006.81665
11225.867479589,1006.81665
11225.901048925001,1006.81665
11225.934618261,1006.81665
11225.968187597,1006.81665
11226.001756933001,1006.81177
11226.035326269,1006.80664
11226.068895605,1006.80664
11226.102464941001,1006.80664
11226.136034276,1006.80664
11226.169603612001,1006.80664
11226.203172948,1006.80664
11226.236742284002,1006.80664
11226.270311620001,1006.80664
11226.303880956,1006.80664
11226.337450292001,1006.80664
11226.371019628,1006.80664
11226.404588964,1006.8163
11226.438158300001,1006.8157
11226.471727636,1006.80664
11226.505296972,1006.80664
11226.538866308001,1006.80664
11226.572435644,1006.8125
11226.60600498,1006.81665
11226.639574316001,1006.81665
11226.673143651,1006.81665
11226.706712987001,1006.81665
11226.740282323,1006.81665
11226.773851659002,1006.81665
11226.807420995001,1006.81665
11226.840990331,1006.81665
11226.874559667001,1006.81665
11226.908129003,1006.81665
11226.941698339,1006.81665
11226.975267675001,1006.81665
11227.008837011,1006.81665
11227.042406347,1006.81665
11227.075975683001,1006.81665
11227.109545019,1006.81665
11227.143114355,1006.81665
11227.176683691001,1006.81665
11227.210253026,1006.81665
11227.243822362001,1006.81665
11227.277391698,1006.81665
11227.310961034002,1006.81665
11227.344530370001,1006.81665
11227.378099706,1006.81665
11227.411669042001,1006.81665
11227.445238378,1006.81665
11227.478807714,1006.81665
11227.512377050001,1006.81665
11227.545946386,1006.8182
11227.579515722,1006.82666
11227.613085058001,1006.82666
11227.646654394,1006.82666
11227.68022373,1006.82666
11227.713793066001,1006.82666
11227.747362401,1006.82666
11227.780931737001,1006.8366
11227.814501073,1006.8366
11227.848070409002,1006.8366
11227.881639745001,1006.8366
11227.915209081,1006.8366
11227.948778417001,1006.8366
11227.982347753,1006.8366
11228.015917089,1006.8366
11228.049486425001,1006.8366
11228.083055761,1006.8379
11228.116625097,1006.8466
11228.150194433001,1006.8466
11228.183763769,1006.8466
11228.217333105,1006.8466
11228.250902441001,1006.8466
11228.284471776,1006.8466
11228.318041112001,1006.8466
11228.351610448,1006.8466
11228.385179784002,1006.8466
11228.418749120001,1006.8466
11228.452318456,1006.8466
11228.485887792001,1006.8466
11228.519457128,1006.8466
11228.553026464,1006.8466
11228.586595800001,1006.8466
11228.620165136,1006.8466
11228.653734472,1006.8466
11228.687303808001,1006.8466
11228.720873144,1006.8466
11228.75444248,1006.85254
11228.788011816001,1006.8566
11228.821581151,1006.8566
11228.855150487001,1006.8566
11228.888719823,1006.8666
11228.922289159002,1006.8666
11228.955858495001,1006.8666
11228.989427831,1006.8666
11229.022997167001,1006.8724
11229.056566503,1006.8766
11229.090135839,1006.8766
11229.123705175001,1006.8766
11229.157274511,1006.8766
11229.190843847,1006.8766
11229.224413183001,1006.8766
11229.257982519,1006.8766
11229.291551855,1006.8766
11229.325121191001,1006.8766
11229.358690526,1006.8766
11229.392259862001,1006.8766
11229.425829198,1006.8866
11229.459398534002,1006.8866
11229.492967870001,1006.8866
11229.526537206,1006.8866
11229.560106542001,1006.8866
11229.593675878,1006.8866
11229.627245214,1006.8866
11229.660814550001,1006.8866
11229.694383886,1006.8866
11229.727953222,1006.8866
11229.761522558001,1006.8866
11229.795091894,1006.8907
11229.82866123,1006.8966
11229.862230566001,1006.8966
11229.895799901,1006.8966
11229.929369237001,1006.8966
11229.962938573,1006.8966
11229.996507909002,1006.8966
11230.030077245001,1006.8966
11230.063646581,1006.8966
11230.097215917001,1006.8966
11230.130785253,1006.8966
11230.164354589,1006.8966
11230.197923925001,1006.8966
11230.231493261,1006.8966
11230.265062597,1006.8966
11230.298631933001,1006.8966
11230.332201269,1006.8966
11230.365770605,1006.8966
11230.399339941001,1006.8966
11230.432909276,1006.8966
11230.466478612001,1006.8966
11230.500047948,1006.8966
11230.533617284002,1006.9066
11230.567186620001,1006.9066
11230.600755956,1006.9066
11230.634325292001,1006.9066
11230.667894628,1006.9066
11230.701463964,1006.9066
11230.735033300001,1006.9066
11230.768602636,1006.9066
11230.802171972,1006.9066
11230.835741308001,1006.9066
11230.869310644,1006.9066
11230.90287998,1006.9066
11230.936449316001,1006.9066
11230.970018651,1006.9066
11231.003587987001,1006.9066
11231.037157323,1006.9066
11231.070726659002,1006.9066
11231.104295995001,1006.9066
11231.137865331,1006.9066
11231.171434667001,1006.9066
11231.205004003,1006.9066
11231.238573339,1006.9066
11231.272142675001,1006.9066
11231.305712011,1006.9066
11231.339281347,1006.8966
11231.372850683001,1006.8966
11231.406420019,1006.8966
11231.439989355,1006.8966
11231.473558691001,1006.8966
11231.507128026,1006.8966
11231.540697362001,1006.8966
11231.574266698,1006.8966
11231.607836034002,1006.8966
11231.641405370001,1006.8966
11231.674974706,1006.8966
11231.708544042001,1006.8923
11231.742113378,1006.8866
11231.775682714,1006.8866
11231.809252050001,1006.8866
11231.842821386,1006.8866
11231.876390722,1006.8866
11231.909960058001,1006.8866
11231.943529394,1006.8866
11231.97709873,1006.8866
11232.010668066001,1006.8866
11232.044237401,1006.8866
11232.077806737001,1006.8866
11232.111376073,1006.8866
11232.144945409002,1006.8866
11232.178514745001,1006.8866
11232.212084081,1006.8838
11232.245653417001,1006.8766
11232.279222753,1006.8766
11232.312792089,1006.8701
11232.346361425001,1006.8666
11232.379930761,1006.8666
11232.413500097,1006.8668
11232.447069433001,1006.8766
11232.480638769,1006.8739
11232.514208105,1006.8666
11232.547777441001,1006.8666
11232.581346776,1006.8666
11232.614916112001,1006.8666
11232.648485448,1006.8578
11232.682054784002,1006.8566
11232.715624120001,1006.8566
11232.749193456,1006.8566
11232.782762792001,1006.8566
11232.816332128,1006.8566
11232.849901464,1006.8566
11232.883470800001,1006.8566
11232.917040136,1006.8566
11232.950609472,1006.8566
11232.984178808001,1006.8566
11233.017748144,1006.8566
11233.05131748,1006.8566
11233.084886816001,1006.8518
11233.118456151,1006.8466
11233.152025487001,1006.8466
11233.185594823,1006.8466
11233.219164159002,1006.8466
11233.252733495001,1006.8466
11233.286302831,1006.8466
11233.319872167001,1006.8466
11233.353441503,1006.8419
11233.387010839,1006.8366
11233.420580175001,1006.8366
11233.454149511,1006.8366
11233.487718847,1006.8366
11233.521288183001,1006.8366
11233.554857519,1006.8366
11233.588426855,1006.8366
11233.621996191001,1006.8366
11233.655565526,1006.8366
11233.689134862001,1006.8366
11233.722704198,1006.8366
11233.756280715,1006.8366
11233.789850051,1006.8366
11233.823419387001,1006.8366
11233.856988723,1006.8366
11233.890558059,1006.8366
11233.924127395001,1006.831
11233.957696731,1006.82666
11233.991266067002,1006.82666
11234.024835403,1006.82666
11234.058404739,1006.82605
11234.091974075001,1006.81665
11234.125543411,1006.81665
11234.159112747,1006.81665
11234.192682082,1006.81116
11234.226251418,1006.80664
11234.259820754001,1006.80664
11234.29339009,1006.80664
11234.326959426,1006.8062
11234.360528762001,1006.79663
11234.394098098,1006.79663
11234.427667434,1006.79663
11234.461236770001,1006.79126
11234.494806106,1006.7866
11234.528375442002,1006.7866
11234.561944778,1006.7866
11234.595514114,1006.7767
11234.629083450001,1006.7767
11234.662652786,1006.7767
11234.696222122,1006.7767
11234.729791457,1006.7714
11234.763360793,1006.76666
11234.796930129001,1006.76666
11234.830499465,1006.76666
11234.864068801,1006.75665
11234.897638137001,1006.75665
11234.931207473,1006.75665
11234.964776809,1006.75665
11234.998346145001,1006.7516
11235.031915481,1006.7467
11235.065484817002,1006.7542
11235.099054153,1006.75665
11235.132623489,1006.7467
11235.166192825001,1006.7467
11235.199762161,1006.7467
11235.233331497,1006.743
11235.266900832,1006.7367
11235.300470168,1006.7367
11235.334039504001,1006.7367
11235.36760884,1006.7367
11235.401178176,1006.7367
11235.434747512001,1006.7367
11235.468316848,1006.7367
11235.501886184,1006.7367
11235.535455520001,1006.7367
11235.569024856,1006.7367
11235.602594192002,1006.7367
11235.636163528,1006.7367
11235.669732864,1006.7367
11235.703302200001,1006.7367
11235.736871536,1006.7367
11235.770440872,1006.7367
11235.804010207,1006.7367
11235.837579543,1006.7367
11235.871148879001,1006.7367
11235.904718215,1006.7367
11235.938287551,1006.7367
11235.971856887001,1006.7367
11236.005426223,1006.7367
11236.038995559,1006.7399
11236.072564895001,1006.7467
11236.106134231,1006.7467
11236.139703567002,1006.7467
11236.173272903,1006.7467
11236.206842239,1006.7467
11236.240411575001,1006.7467
11236.273980911,1006.7467
11236.307550247,1006.7498
11236.341119582,1006.75665
11236.374688918,1006.75665
11236.408258254001,1006.75665
11236.44182759,1006.75665
11236.475396926,1006.75665
11236.508966262001,1006.75665
11236.542535598,1006.75665
11236.576104934,1006.75665
11236.609674270001,1006.75665
11236.643243606,1006.7621
11236.676812942002,1006.76666
11236.710382278,1006.76666
11236.743951614,1006.76666
11236.777520950001,1006.76666
11236.811090286,1006.76666
11236.844659622,1006.76666
11236.878228957,1006.76666
11236.911798293,1006.76666
11236.945367629001,1006.76666
11236.978936965,1006.7744
11237.012506301,1006.7767
11237.046075637001,1006.7767
11237.079644973,1006.7767
11237.113214309,1006.7767
11237.146783645001,1006.7767
11237.180352981,1006.7767
11237.213922317002,1006.7767
11237.247491653,1006.7767
11237.281060989,1006.7767
11237.314630325001,1006.7866
11237.348199661,1006.7866
11237.381768997,1006.7866
11237.415338332,1006.7866
11237.448907668,1006.7866
11237.482477004001,1006.7866
11237.51604634,1006.7866
11237.549615676,1006.7866
11237.583185012001,1006.7866
11237.616754348,1006.78784
11237.650323684,1006.79663
11237.683893020001,1006.79297
11237.717462356,1006.7866
11237.751031692002,1006.7927
11237.784601028,1006.79663
11237.818170364,1006.79663
11237.851739700001,1006.79663
11237.885309036,1006.79663
11237.918878372,1006.79663
11237.952447707,1006.79663
11237.986017043,1006.79663
11238.019586379001,1006.79663
11238.053155715,1006.79663
11238.086725051,1006.79663
11238.120294387001,1006.79663
11238.153863723,1006.79663
11238.187433059,1006.79663
11238.221002395001,1006.79663
11238.254571731,1006.79663
11238.288141067002,1006.79663
11238.321710403,1006.79663
11238.355279739,1006.79663
11238.388849075001,1006.79663
11238.422418411,1006.80664
11238.455987747,1006.80664
11238.489557082,1006.80664
11238.523126418,1006.80664
11238.556695754001,1006.80664
11238.59026509,1006.80664
11238.623834426,1006.80664
11238.657403762001,1006.80664
11238.690973098,1006.80664
11238.724542434,1006.80664
11238.758111770001,1006.80664
11238.791681106,1006.80664
11238.825250442002,1006.80664
11238.858819778,1006.80664
11238.892389114,1006.80664
11238.925958450001,1006.80664
11238.959527786,1006.80664
11238.993097122,1006.8083
11239.026666457,1006.81665
11239.060235793,1006.81665
11239.093805129001,1006.81665
11239.127374465,1006.81665
11239.160943801,1006.81665
11239.194513137001,1006.81665
11239.228082473,1006.81665
11239.261651809,1006.81665
11239.295221145001,1006.81665
11239.328790481,1006.81665
11239.362359817002,1006.81665
11239.395929153,1006.81665
11239.429498489,1006.81665
11239.463067825001,1006.81665
11239.496637161,1006.81665
11239.530206497,1006.81665
11239.563775832,1006.81665
11239.597345168,1006.81665
11239.630914504001,1006.81665
11239.66448384,1006.81665
11239.698053176,1006.81665
11239.731622512001,1006.81665
11239.765191848,1006.81665
11239.798761184,1006.80664
11239.832330520001,1006.8091
11239.865899856,1006.81665
11239.899469192002,1006.81665
11239.933038528,1006.81665
11239.966607864,1006.81665
11240.000177200001,1006.81665
11240.033746536,1006.81665
11240.067315872,1006.81665
11240.100885207,1006.81665
11240.134454543,1006.81665
11240.168023879001,1006.81665
11240.201593215,1006.81665
11240.235162551,1006.81665
11240.268731887001,1006.81665
11240.302301223,1006.81665
11240.335870559,1006.81665
11240.369439895001,1006.81665
11240.403009231,1006.81665
11240.436578567002,1006.81665
11240.470147903,1006.81665
11240.503717239,1006.81665
11240.537286575001,1006.81665
11240.570855911,1006.81665
11240.604425247,1006.81665
11240.637994582,1006.81665
11240.671563918,1006.81665
11240.705133254001,1006.81665
11240.73870259,1006.81665
11240.772271926,1006.81665
11240.805841262001,1006.81665
11240.839410598,1006.81665
11240.872979934,1006.81665
11240.906549270001,1006.81665
11240.940118606,1006.81665
11240.973687942002,1006.81665
11241.007257278,1006.81665
11241.040826614,1006.81665
11241.074395950001,1006.81665
11241.107965286,1006.81665
11241.141534622,1006.81665
11241.175103957,1006.81665
11241.208673293,1006.81665
11241.242242629001,1006.81665
11241.275811965,1006.81665
11241.309381301,1006.81665
11241.342950637001,1006.81665
11241.376519973,1006.81665
11241.410089309,1006.81665
11241.443658645001,1006.81665
11241.477227981,1006.81665
11241.510797317002,1006.81665
11241.544366653,1006.81665
11241.577935989,1006.81665
11241.611505325001,1006.81665
11241.645074661,1006.82574
11241.678643997,1006.82666
11241.712213332,1006.82666
11241.745782668,1006.82666
11241.779352004001,1006.82666
11241.81292134,1006.82666
11241.846490676,1006.82666
11241.880060012001,1006.83435
11241.913629348,1006.8366
11241.947198684,1006.8364
11241.980768020001,1006.82666
11242.014337356,1006.8293
11242.047906692002,1006.8366
11242.081476028,1006.8366
11242.115045364,1006.8366
11242.148614700001,1006.8366
11242.182184036,1006.8366
11242.215753372,1006.8366
11242.249322707,1006.8366
11242.282892043,1006.8366
11242.316461379001,1006.8366
11242.350030715,1006.8366
11242.383600051,1006.8366
11242.417169387001,1006.8366
11242.450738723,1006.8366
11242.484308059,1006.8366
11242.517877395001,1006.8366
11242.551446731,1006.8366
11242.585016067002,1006.8366
11242.618585403,1006.8366
11242.652154739,1006.8366
11242.685724075001,1006.8366
11242.719293411,1006.8366
11242.752862747,1006.8366
11242.786432082,1006.8366
11242.820001418,1006.8366
11242.853570754001,1006.8366
11242.88714009,1006.8366
11242.920709426,1006.8366
11242.954278762001,1006.8366
11242.987848098,1006.8366
11243.021417434,1006.8366
11243.054986770001,1006.8366
11243.088556106,1006.8366
11243.122125442002,1006.8366
11243.155694778,1006.8366
11243.189264114,1006.8366
11243.222833450001,1006.8366
11243.256402786,1006.8366
11243.289972122,1006.8366
11243.323541457,1006.8366
11243.357110793,1006.8366
11243.390680129001,1006.8366
11243.424249465,1006.8366
11243.457818801,1006.8366
11243.491388137001,1006.8366
11243.524957473,1006.8366
11243.558526809,1006.8366
11243.592096145001,1006.8366
11243.625665481,1006.8366
11243.659234817002,1006.8366
11243.692804153,1006.8366
11243.726373489,1006.8366
11243.759951784,1006.8366
11243.79352112,1006.8366
11243.827090456001,1006.8366
11243.860659791,1006.8366
11243.894229127001,1006.8366
11243.927798463,1006.8366
11243.961367799,1006.8366
11243.994937135001,1006.8366
11244.028506471,1006.8366
11244.062075807,1006.8366
11244.095645143001,1006.8366
11244.129214479,1006.8366
11244.162783815002,1006.8366
11244.196353151001,1006.8366
11244.229922487,1006.8366
11244.263491823001,1006.8366
11244.297061159,1006.8366
11244.330630495,1006.8366
11244.364199831001,1006.8366
11244.397769166,1006.8366
11244.431338502001,1006.8366
11244.464907838,1006.8366
11244.498477174,1006.84045
11244.532046510001,1006.8466
11244.565615846,1006.8466
11244.599185182,1006.8466
11244.632754518001,1006.8466
11244.666323854,1006.8366
11244.699893190002,1006.8366
11244.733462526001,1006.8366
11244.767031862,1006.84033
11244.800601198001,1006.8466
11244.834170534,1006.8466
11244.86773987,1006.8466
11244.901309206001,1006.8466
11244.934878541,1006.8466
11244.968447877001,1006.8466
11245.002017213,1006.8466
11245.035586549,1006.8466
11245.069155885001,1006.8466
11245.102725221,1006.8466
11245.136294557,1006.8466
11245.169863893001,1006.8466
11245.203433229,1006.8466
11245.237002565002,1006.8466
11245.270571901001,1006.8466
11245.304141237,1006.8466
11245.337710573001,1006.8466
11245.371279909,1006.8466
11245.404849245,1006.8466
11245.438418581001,1006.8466
11245.471987916,1006.8466
11245.505557252001,1006.8466
11245.539126588,1006.8466
11245.572695924,1006.8466
11245.606265260001,1006.8466
11245.639834596,1006.8466
11245.673403932,1006.8466
11245.706973268001,1006.8466
11245.740542604,1006.8466
11245.774111940002,1006.8466
11245.807681276001,1006.8466
11245.841250612,1006.8466
11245.874819948001,1006.8466
11245.908389284,1006.8466
11245.94195862,1006.8466
11245.975527956001,1006.8466
11246.009097291,1006.8466
11246.042666627001,1006.8466
11246.076235963,1006.8448
11246.109805299,1006.8366
11246.143374635001,1006.8366
11246.176943971,1006.8366
11246.210513307,1006.8434
11246.244082643001,1006.8466
11246.277651979,1006.8466
11246.311221315002,1006.8466
11246.344790651001,1006.8449
11246.378359987,1006.8366
11246.411929323001,1006.84076
11246.445498659,1006.8466
11246.479067995,1006.8466
11246.512637331001,1006.8466
11246.546206666,1006.8466
11246.579776002001,1006.8466
11246.613345338,1006.8466
11246.646914674,1006.8466
11246.680484010001,1006.8466
11246.714053346,1006.8466
11246.747622682,1006.8466
11246.781192018001,1006.8466
11246.814761354,1006.8466
11246.848330690002,1006.8466
11246.881900026001,1006.8466
11246.915469362,1006.8466
11246.949038698001,1006.8428
11246.982608034,1006.8366
11247.01617737,1006.8366
11247.049746706001,1006.8366
11247.083316041,1006.8366
11247.116885377001,1006.8366
11247.150454713,1006.8366
11247.184024049,1006.8366
11247.217593385001,1006.8366
11247.251162721,1006.8366
11247.284732057,1006.8366
11247.318301393001,1006.8366
11247.351870729,1006.8366
11247.385440065002,1006.8366
11247.419009401001,1006.8366
11247.452578737,1006.839
11247.486148073001,1006.8466
11247.519717409,1006.8466
11247.553286745,1006.8466
11247.586856081001,1006.8466
11247.620425416,1006.8466
11247.653994752001,1006.8466
11247.687564088,1006.8466
11247.721133424,1006.8466
11247.754702760001,1006.8466
11247.788272096,1006.8466
11247.821841432,1006.8466
11247.855410768001,1006.8466
11247.888980104,1006.8466
11247.922549440002,1006.8466
11247.956118776001,1006.8466
11247.989688112,1006.8466
11248.023257448001,1006.8466
11248.056826784,1006.8466
11248.09039612,1006.8466
11248.123965456001,1006.8466
11248.157534791,1006.8466
11248.191104127001,1006.8466
11248.224673463,1006.8459
11248.258242799,1006.8366
11248.291812135001,1006.8366
11248.325381471,1006.84106
11248.358950807,1006.8466
11248.392520143001,1006.8466
11248.426089479,1006.8466
11248.459658815002,1006.8466
11248.493228151001,1006.8466
11248.526797487,1006.8466
11248.560366823001,1006.8466
11248.593936159,1006.8466
11248.627505495,1006.8466
11248.661074831001,1006.8466
11248.694644166,1006.8466
11248.728213502001,1006.8466
11248.761782838,1006.8466
11248.795352174,1006.8466
11248.828921510001,1006.8466
11248.862490846,1006.8466
11248.896060182,1006.8466
11248.929629518001,1006.8466
11248.963198854,1006.8466
11248.996768190002,1006.8466
11249.030337526001,1006.8466
11249.063906862,1006.8466
11249.097476198001,1006.8438
11249.131045534,1006.8366
11249.16461487,1006.8366
11249.198184206001,1006.8366
11249.231753541,1006.84436
11249.265322877001,1006.8466
11249.298892213,1006.8466
11249.332461549,1006.8466
11249.366030885001,1006.8466
11249.399600221,1006.8466
11249.433169557,1006.8466
11249.466738893001,1006.8466
11249.500308229,1006.8466
11249.533877565002,1006.8466
11249.567446901001,1006.8466
11249.601016237,1006.8466
11249.634585573001,1006.8466
11249.668154909,1006.8466
11249.701724245,1006.8466
11249.735293581001,1006.8466
11249.768862916,1006.8466
11249.802432252001,1006.8466
11249.836001588,1006.8466
11249.869570924,1006.8466
11249.903140260001,1006.8466
11249.936709596,1006.8466
11249.970278932,1006.8466
11250.003848268001,1006.8466
11250.037417604,1006.8466
11250.070986940002,1006.8466
11250.104556276001,1006.8466
11250.138125612,1006.8476
11250.171694948001,1006.8566
11250.205264284,1006.8566
11250.23883362,1006.8566
11250.272402956001,1006.8566
11250.305972291,1006.8566
11250.339541627001,1006.8566
11250.373110963,1006.8566
11250.406680299,1006.8566
11250.440249635001,1006.8566
11250.473818971,1006.8566
11250.507388307,1006.8566
11250.540957643001,1006.8566
11250.574526979,1006.8566
11250.608096315002,1006.8566
11250.641665651001,1006.8566
11250.675234987,1006.85583
11250.708804323001,1006.8466
11250.742373659,1006.8466
11250.775942995,1006.8466
11250.809512331001,1006.8466
11250.843081666,1006.8466
11250.876651002001,1006.8466
11250.910220338,1006.8466
11250.943789674,1006.8466
11250.977359010001,1006.8466
11251.010928346,1006.8466
11251.044497682,1006.8466
11251.078067018001,1006.8466
11251.111636354,1006.8466
11251.145205690002,1006.8466
11251.178775026001,1006.8466
11251.212344362,1006.8366
11251.245913698001,1006.8366
11251.279483034,1006.8366
11251.31305237,1006.8366
11251.346621706001,1006.84204
11251.380191041,1006.8466
11251.413760377001,1006.8466
11251.447329713,1006.8466
11251.480899049,1006.8366
11251.514468385001,1006.8366
11251.548037721,1006.8366
11251.581607057,1006.8366
11251.615176393001,1006.84186
11251.648745729,1006.8466
11251.682315065002,1006.8466
11251.715884401001,1006.8466
11251.749453737,1006.8366
11251.783023073001,1006.8366
11251.816592409,1006.8366
11251.850161745,1006.8405
11251.883731081001,1006.8466
11251.917300416,1006.8466
11251.950869752001,1006.8466
11251.984439088,1006.8466
11252.018008424,1006.8466
11252.051577760001,1006.8466
11252.085147096,1006.8466
11252.118716432,1006.8466
11252.152285768001,1006.8466
11252.185855104,1006.8466
11252.219424440002,1006.8466
11252.252993776001,1006.8466
11252.286563112,1006.8466
11252.320132448001,1006.8478
11252.353701784,1006.8566
11252.38727112,1006.8566
11252.420840456001,1006.8566
11252.454409791,1006.8566
11252.487979127001,1006.8566
11252.521548463,1006.8566
11252.555117799,1006.8566
11252.588687135001,1006.8566
11252.622256471,1006.8566
11252.655825807,1006.8566
11252.689395143001,1006.8566
11252.722964479,1006.8566
11252.756533815002,1006.8566
11252.790103151001,1006.8566
11252.823672487,1006.8566
11252.857241823001,1006.8566
11252.890811159,1006.8566
11252.924380495,1006.8533
11252.957949831001,1006.8466
11252.991519166,1006.8466
11253.025088502001,1006.8466
11253.058657838,1006.8466
11253.092227174,1006.8466
11253.125796510001,1006.8566
11253.159365846,1006.8546
11253.192935182,1006.8466
11253.226504518001,1006.8466
11253.260073854,1006.8466
11253.293643190002,1006.8466
11253.327212526001,1006.85474
11253.360781862,1006.8566
11253.394351198001,1006.8566
11253.427920534,1006.8566
11253.46148987,1006.8566
11253.495059206001,1006.8566
11253.528628541,1006.8566
11253.562197877001,1006.8566
11253.595767213,1006.8566
11253.629336549,1006.8566
11253.662905885001,1006.8566
11253.696475221,1006.8566
11253.730033400001,1006.8566
11253.763602736,1006.8524
11253.797172072002,1006.8466
11253.830741408,1006.8466
11253.864310744,1006.8466
11253.897880080001,1006.8466
11253.931449416,1006.8466
11253.965018752,1006.8466
11253.998588088001,1006.8466
11254.032157424,1006.8466
11254.065726759001,1006.8466
11254.099296095,1006.8466
11254.132865431,1006.8466
11254.166434767001,1006.8466
11254.200004103,1006.8466
11254.233573439,1006.8466
11254.267142775001,1006.8466
11254.300712111,1006.8466
11254.334281447002,1006.8466
11254.367850783,1006.8466
11254.401420119,1006.8466
11254.434989455001,1006.8466
11254.468558791,1006.8466
11254.502128127,1006.8466
11254.535697463001,1006.8466
11254.569266799,1006.8466
11254.602836134001,1006.8466
11254.63640547,1006.8466
11254.669974806,1006.8466
11254.703544142001,1006.8466
11254.737113478,1006.8466
11254.770682814,1006.8466
11254.804252150001,1006.8466
11254.837821486,1006.8466
11254.871390822002,1006.8466
11254.904960158,1006.8466
11254.938529494,1006.8466
11254.972098830001,1006.8466
11255.005668166,1006.8466
11255.039237502,1006.8466
11255.072806838001,1006.8466
11255.106376174,1006.8466
11255.139945509001,1006.8466
11255.173514845,1006.8466
11255.207084181,1006.8394
11255.240653517001,1006.8366
11255.274222853,1006.8366
11255.307792189,1006.8366
11255.341361525001,1006.83875
11255.374930861,1006.8466
11255.408500197002,1006.8466
11255.442069533,1006.8466
11255.475638869,1006.8466
11255.509208205001,1006.8466
11255.542777541,1006.8466
11255.576346877,1006.8466
11255.609916213001,1006.8466
11255.643485549,1006.8466
11255.677054884001,1006.8466
11255.71062422,1006.8466
11255.744193556,1006.8466
11255.777762892001,1006.8466
11255.811332228,1006.8466
11255.844901564,1006.8466
11255.878470900001,1006.8466
11255.912040236,1006.8466
11255.945609572002,1006.8466
11255.979178908,1006.8466
11256.012748244,1006.8466
11256.046317580001,1006.8466
11256.079886916,1006.8466
11256.113456252,1006.8466
11256.147025588001,1006.8466
11256.180594924,1006.8436
11256.214164259001,1006.8366
11256.247733595,1006.8366
11256.281302931,1006.8366
11256.314872267001,1006.8366
11256.348441603,1006.8366
11256.382010939,1006.8366
11256.415580275001,1006.8366
11256.449149611,1006.8366
11256.482718947002,1006.8366
11256.516288283,1006.8366
11256.549857619,1006.8366
11256.583426955001,1006.8366
11256.616996291,1006.8366
11256.650565627,1006.8366
11256.684134963001,1006.8366
11256.717704299,1006.8366
11256.751273634001,1006.8366
11256.78484297,1006.8366
11256.818412306,1006.8366
11256.851981642001,1006.8366
11256.885550978,1006.8366
11256.919120314,1006.8366
11256.952689650001,1006.8366
11256.986258986,1006.8366
11257.019828322002,1006.8366
11257.053397658,1006.8366
11257.086966994,1006.8366
11257.120536330001,1006.8441
11257.154105666,1006.8466
11257.187675002,1006.8466
11257.221244338001,1006.8466
11257.254813674,1006.8466
11257.288383009001,1006.8466
11257.321952345,1006.8466
11257.355521681,1006.8466
11257.389091017001,1006.8466
11257.422660353,1006.8466
11257.456229689,1006.8466
11257.489799025001,1006.8466
11257.523368361,1006.8466
11257.556937697002,1006.8466
11257.590507033,1006.8466
11257.624076369,1006.8466
11257.657645705001,1006.8466
11257.691215041,1006.8466
11257.724784377,1006.8466
11257.758353713001,1006.8466
11257.791923049,1006.8466
11257.825492384001,1006.8466
11257.85906172,1006.8466
11257.892631056,1006.8466
11257.926200392001,1006.8466
11257.959769728,1006.8466
11257.993339064,1006.8466
11258.026908400001,1006.8466
11258.060477736,1006.8466
11258.094047072002,1006.8466
11258.127616408,1006.8466
11258.161185744,1006.8466
11258.194755080001,1006.8466
11258.228324416,1006.8466
11258.261893752,1006.83716
11258.295463088001,1006.8366
11258.329032424,1006.8366
11258.362601759001,1006.8366
11258.396171095,1006.8366
11258.429740431,1006.8366
11258.463309767001,1006.8366
11258.496879103,1006.8366
11258.530448439,1006.8366
11258.564017775001,1006.8366
11258.597587111,1006.8366
11258.631156447002,1006.83966
11258.664725783,1006.8466
11258.698295119,1006.8466
11258.731864455001,1006.8466
11258.765433791,1006.8466
11258.799003127,1006.8466
11258.832572463001,1006.8466
11258.866141799,1006.8466
11258.899711134001,1006.8466
11258.93328047,1006.8466
11258.966849806,1006.8466
11259.000419142001,1006.8466
11259.033988478,1006.8466
11259.067557814,1006.8466
11259.101127150001,1006.8466
11259.134696486,1006.8466
11259.168265822002,1006.8466
11259.201835158,1006.8466
11259.235404494,1006.8466
11259.268973830001,1006.8466
11259.302543166,1006.8389
11259.336112502,1006.8366
11259.369681838001,1006.8366
11259.403251174,1006.838
11259.436820509001,1006.8466
11259.470389845,1006.8466
11259.503959181,1006.8466
11259.537528517001,1006.8466
11259.571097853,1006.8466
11259.604667189,1006.8466
11259.638236525001,1006.8466
11259.671805861,1006.8466
11259.705375197002,1006.8466
11259.738944533,1006.8429
11259.772513869,1006.8366
11259.806083205001,1006.8366
11259.839652541,1006.8366
11259.873221877,1006.8366
11259.906791213001,1006.8366
11259.940360549,1006.8366
11259.973929884001,1006.8366
11260.00749922,1006.8366
11260.041068556,1006.8366
11260.074637892001,1006.8366
11260.108207228,1006.8366
11260.141776564,1006.82806
11260.175345900001,1006.82666
11260.208915236,1006.82666
11260.242484572002,1006.82666
11260.276053908,1006.82666
11260.309623244,1006.82666
11260.343192580001,1006.8207
11260.376761916,1006.81665
11260.410331252,1006.8251
11260.443900588001,1006.82666
11260.477469924,1006.82666
11260.511039259001,1006.82666
11260.544608595,1006.82666
11260.578177931,1006.82666
11260.611747267001,1006.82666
11260.645316603,1006.82666
11260.678885939,1006.82666
11260.712455275001,1006.82666
11260.746024611,1006.82666
11260.779593947002,1006.8246
11260.813163283,1006.81665
11260.846732619,1006.81665
11260.880301955001,1006.81665
11260.913871291,1006.81665
11260.947440627,1006.81665
11260.981009963001,1006.81665
11261.014579299,1006.81665
11261.048148634001,1006.8185
11261.08171797,1006.82666
11261.115287306,1006.82666
11261.148856642001,1006.82666
11261.182425978,1006.82666
11261.215995314,1006.82666
11261.249564650001,1006.82666
11261.283133986,1006.82666
11261.316703322002,1006.82666
11261.350272658,1006.82666
11261.383841994,1006.82666
11261.417411330001,1006.82666
11261.450980666,1006.82666
11261.484550002,1006.82666
11261.518119338001,1006.82666
11261.551688674,1006.82666
11261.585258009001,1006.82666
11261.618827345,1006.82666
11261.652396681,1006.82666
11261.685966017001,1006.82666
11261.719535353,1006.82666
11261.753104689,1006.82666
11261.786674025001,1006.82666
11261.820243361,1006.82666
11261.853812697002,1006.82666
11261.887382033,1006.82666
11261.920951369,1006.82263
11261.954520705001,1006.81665
11261.988090041,1006.81665
11262.021659377,1006.81665
11262.055228713001,1006.81665
11262.088798049,1006.81665
11262.122367384001,1006.81665
11262.15593672,1006.81665
11262.189506056,1006.81665
11262.223075392001,1006.81665
11262.256644728,1006.81665
11262.290214064,1006.81665
11262.323783400001,1006.80786
11262.357352736,1006.80664
11262.390922072002,1006.81665
11262.424491408,1006.81665
11262.458060744,1006.81665
11262.491630080001,1006.81665
11262.525199416,1006.81665
11262.558768752,1006.81665
11262.592338088001,1006.81665
11262.625907424,1006.81665
11262.659476759001,1006.81665
11262.693046095,1006.81665
11262.726615431,1006.81665
11262.760184767001,1006.81665
11262.793754103,1006.81665
11262.827323439,1006.81665
11262.860892775001,1006.81665
11262.894462111,1006.81665
11262.928031447002,1006.81665
11262.961600783,1006.81665
11262.995170119,1006.81665
11263.028739455001,1006.81665
11263.062308791,1006.81665
11263.095878127,1006.81665
11263.129447463001,1006.81665
11263.163016799,1006.81665
11263.196586134001,1006.81665
11263.23015547,1006.81665
11263.263724806,1006.81665
11263.297294142001,1006.81665
11263.330863478,1006.81665
11263.364432814,1006.81665
11263.398002150001,1006.81665
11263.431571486,1006.81665
11263.465140822002,1006.81665
11263.498710158,1006.81665
11263.532279494,1006.81665
11263.565848830001,1006.81665
11263.599418166,1006.81665
11263.632987502,1006.81665
11263.666556838001,1006.81665
11263.700126174,1006.81665
11263.733703549,1006.81665
11263.767272885001,1006.81665
11263.800842221,1006.81665
11263.834411557,1006.81665
11263.867980893001,1006.81665
11263.901550229,1006.81665
11263.935119565002,1006.81665
11263.968688901,1006.81665
11264.002258237,1006.81665
11264.035827573001,1006.81665
11264.069396909,1006.81665
11264.102966245,1006.81665
11264.136535581001,1006.81665
11264.170104917,1006.81665
11264.203674253,1006.81665
11264.237243589001,1006.81665
11264.270812924,1006.81665
11264.304382260001,1006.81665
11264.337951596,1006.8194
11264.371520932,1006.82666
11264.405090268001,1006.82666
11264.438659604,1006.82666
11264.472228940002,1006.82666
11264.505798276,1006.82666
11264.539367612,1006.82666
11264.572936948001,1006.82666
11264.606506284,1006.82666
11264.64007562,1006.82666
11264.673644956001,1006.82666
11264.707214292,1006.82666
11264.740783628,1006.82666
11264.774352964001,1006.82666
11264.807922299,1006.82666
11264.841491635001,1006.82666
11264.875060971,1006.82666
11264.908630307,1006.82666
11264.942199643001,1006.82666
11264.975768979,1006.82666
11265.009338315002,1006.8341
11265.042907651,1006.8366
11265.076476987,1006.8366
11265.110046323001,1006.8366
11265.143615659,1006.8366
11265.177184995,1006.8366
11265.210754331001,1006.8366
11265.244323667,1006.8366
11265.277893003,1006.8366
11265.311462339001,1006.8366
11265.345031674,1006.8366
11265.378601010001,1006.8366
11265.412170346,1006.8366
11265.445739682,1006.8366
11265.479309018001,1006.8366
11265.512878354,1006.8366
11265.546447690002,1006.8366
11265.580017026,1006.8366
11265.613586362,1006.8366
11265.647155698001,1006.8366
11265.680725034,1006.8366
11265.71429437,1006.8366
11265.747863706001,1006.8366
11265.781433042,1006.8366
11265.815002378,1006.8366
11265.848571714001,1006.8366
11265.882141049,1006.8366
11265.915710385001,1006.8366
11265.949279721,1006.8366
11265.982849057,1006.8366
11266.016418393001,1006.8366
11266.049987729,1006.8366
11266.083557065002,1006.8366
11266.117126401,1006.8366
11266.150695737,1006.8366
11266.184265073001,1006.8366
11266.217834409,1006.8366
11266.251403745,1006.8366
11266.284973081001,1006.8366
11266.318542417,1006.8366
11266.352111753,1006.8366
11266.385681089001,1006.8446
11266.419250424,1006.8466
11266.452819760001,1006.8466
11266.486389096,1006.8466
11266.519958432,1006.8466
11266.553527768001,1006.8466
11266.587097104,1006.8466
11266.620666440002,1006.8466
11266.654235776,1006.8466
11266.687805112,1006.8466
11266.721374448001,1006.8466
11266.754943784,1006.8466
11266.78851312,1006.8466
11266.822082456001,1006.8466
11266.855651792,1006.8466
11266.889221128,1006.8466
11266.922790464001,1006.8466
11266.956359799,1006.8466
11266.989929135001,1006.8466
11267.023498471,1006.8466
11267.057067807,1006.8466
11267.090637143001,1006.8466
11267.124206479,1006.8466
11267.157775815002,1006.8466
11267.191345151,1006.8466
11267.224914487,1006.8466
11267.258483823001,1006.8366
11267.292053159,1006.8366
11267.325622495,1006.8366
11267.359191831001,1006.8366
11267.392761167,1006.8366
11267.426330503,1006.8366
11267.459899839001,1006.8366
11267.493469174,1006.8366
11267.527038510001,1006.8366
11267.560607846,1006.8378
11267.594177182,1006.8466
11267.627746518001,1006.8466
11267.661315854,1006.8466
11267.694885190002,1006.8466
11267.728454526,1006.8466
11267.762023862,1006.8466
11267.795593198001,1006.8466
11267.829162534,1006.8466
11267.86273187,1006.8466
11267.896301206001,1006.85016
11267.929870542,1006.8566
11267.963439878,1006.8566
11267.997009214001,1006.8566
11268.030578549,1006.84814
11268.064147885001,1006.8466
11268.097717221,1006.8566
11268.131286557,1006.8566
11268.164855893001,1006.8566
11268.198425229,1006.8566
11268.231994565002,1006.8566
11268.265563901,1006.8566
11268.299133237,1006.84827
11268.332702573001,1006.8466
11268.366271909,1006.8466
11268.399841245,1006.8466
11268.433410581001,1006.8466
11268.466979917,1006.85114
11268.500549253,1006.8566
11268.534118589001,1006.8566
11268.567687924,1006.8484
11268.601257260001,1006.8466
11268.634826596,1006.8466
11268.668395932,1006.8466
11268.701965268001,1006.8466
11268.735534604,1006.8466
11268.769103940002,1006.8466
11268.802673276,1006.8466
11268.836242612,1006.8466
11268.869811948001,1006.8466
11268.903381284,1006.8466
11268.93695062,1006.84485
11268.970519956001,1006.8366
11269.004089292,1006.8409
11269.037658628,1006.8466
11269.071227964001,1006.8399
11269.104797299,1006.8366
11269.138366635001,1006.8366
11269.171935971,1006.8366
11269.205505307,1006.8366
11269.239074643001,1006.8366
11269.272643979,1006.8366
11269.306213315002,1006.8366
11269.339782651,1006.8366
11269.373351987,1006.8366
11269.406921323001,1006.8366
11269.440490659,1006.8366
11269.474059995,1006.8366
11269.507629331001,1006.8366
11269.541198667,1006.8366
11269.574768003,1006.8366
11269.608337339001,1006.8366
11269.641906674,1006.8366
11269.675476010001,1006.8366
11269.709045346,1006.8366
11269.742614682,1006.8366
11269.776184018001,1006.8366
11269.809753354,1006.8366
11269.843322690002,1006.8366
11269.876892026,1006.8366
11269.910461362,1006.8366
11269.944030698001,1006.8366
11269.977600034,1006.8366
11270.01116937,1006.8366
11270.044738706001,1006.8366
11270.078308042,1006.8366
11270.111877378,1006.8416
11270.145446714001,1006.8466
11270.179016049,1006.8466
11270.212585385001,1006.8466
11270.246154721,1006.8466
11270.279724057,1006.8466
11270.313293393001,1006.849
11270.346862729,1006.8566
11270.380432065002,1006.8566
11270.414001401,1006.8566
11270.447570737,1006.8566
11270.481140073001,1006.8566
11270.514709409,1006.8566
11270.548278745,1006.8566
11270.581848081001,1006.8566
11270.615417417,1006.8566
11270.648986753,1006.8566
11270.682556089001,1006.8566
11270.716125424,1006.8566
11270.749694760001,1006.8566
11270.783264096,1006.8566
11270.816833432,1006.8566
11270.850402768001,1006.8566
11270.883972104,1006.8566
11270.917541440002,1006.8566
11270.951110776,1006.8566
11270.984680112,1006.8566
11271.018249448001,1006.8566
11271.051818784,1006.8566
11271.08538812,1006.8566
11271.118957456001,1006.8566
11271.152526792,1006.8566
11271.186096128,1006.8566
11271.219665464001,1006.8566
11271.253234799,1006.8566
11271.286804135001,1006.8566
11271.320373471,1006.8566
11271.353942807,1006.8566
11271.387512143001,1006.8566
11271.421081479,1006.8566
11271.454650815002,1006.8566
11271.488220151,1006.8566
11271.521789487,1006.8566
11271.555358823001,1006.8566
11271.588928159,1006.8566
11271.622497495,1006.8566
11271.656066831001,1006.8566
11271.689636167,1006.85364
11271.723205503,1006.8466
11271.756774839001,1006.852
11271.790344174,1006.8566
11271.823913510001,1006.8566
11271.857482846,1006.8566
11271.891052182,1006.8566
11271.924621518001,1006.8566
11271.958190854,1006.8566
11271.991760190002,1006.8566
11272.025329526,1006.8566
11272.058898862,1006.8566
11272.092468198001,1006.8566
11272.126037534,1006.8566
11272.15960687,1006.8566
11272.193176206001,1006.8566
11272.226745542,1006.85394
11272.260314878,1006.8466
11272.293884214001,1006.8466
11272.327453549,1006.8466
11272.361022885001,1006.8466
11272.394592221,1006.8466
11272.428161557,1006.8466
11272.461730893001,1006.8466
11272.495300229,1006.8466
11272.528869565002,1006.8466
11272.562438901,1006.8466
11272.596008237,1006.8466
11272.629577573001,1006.8466
11272.663146909,1006.8466
11272.696716245,1006.8466
11272.730285581001,1006.8466
11272.763854917,1006.8466
11272.797424253,1006.8466
11272.830993589001,1006.8466
11272.864562924,1006.8466
11272.898132260001,1006.8466
11272.931701596,1006.8466
11272.965270932,1006.8466
11272.998840268001,1006.8466
11273.032409604,1006.8466
11273.065978940002,1006.8466
11273.099548276,1006.8466
11273.133117612,1006.8466
11273.166686948001,1006.8466
11273.200256284,1006.8466
11273.23382562,1006.85626
11273.267394956001,1006.8557
11273.300964292,1006.8466
11273.334533628,1006.85
11273.368102964001,1006.8566
11273.401672299,1006.8566
11273.435241635001,1006.8566
11273.468810971,1006.8566
11273.502380307,1006.8566
11273.535949643001,1006.8566
11273.569518979,1006.8566
11273.603088315002,1006.8566
11273.636657651,1006.8566
11273.670226987,1006.8566
11273.703796323001,1006.8566
11273.737365659,1006.8566
11273.770924153001,1006.8566
11273.804493489,1006.8566
11273.838062825002,1006.8566
11273.871632161,1006.8597
11273.905201497,1006.8666
11273.938770832001,1006.8666
11273.972340168,1006.8666
11274.005909504001,1006.8666
11274.03947884,1006.8666
11274.073048176,1006.8666
11274.106617512001,1006.8666
11274.140186848,1006.8666
11274.173756184,1006.8666
11274.207325520001,1006.8666
11274.240894856,1006.8666
11274.274464192,1006.8666
11274.308033528001,1006.8666
11274.341602864,1006.8666
11274.375172200002,1006.8666
11274.408741536,1006.8666
11274.442310872,1006.8706
11274.475880207001,1006.8766
11274.509449543,1006.8766
11274.543018879001,1006.8766
11274.576588215,1006.8766
11274.610157551,1006.8766
11274.643726887001,1006.8766
11274.677296223,1006.8766
11274.710865559,1006.8766
11274.744434895001,1006.8766
11274.778004231,1006.8766
11274.811573567,1006.8766
11274.845142903001,1006.8766
11274.878712239,1006.8766
11274.912281575002,1006.8766
11274.945850911,1006.8766
11274.979420247,1006.8766
11275.012989582001,1006.8766
11275.046558918,1006.8766
11275.080128254001,1006.8766
11275.11369759,1006.8766
11275.147266926,1006.8766
11275.180836262001,1006.8766
11275.214405598,1006.8766
11275.247974934,1006.8766
11275.281544270001,1006.8766
11275.315113606,1006.87054
11275.348682942,1006.8666
11275.382252278001,1006.8666
11275.415821614,1006.8666
11275.449390950002,1006.8666
11275.482960286,1006.8666
11275.516529622,1006.8666
11275.550098957001,1006.8666
11275.583668293,1006.8666
11275.617237629001,1006.8666
11275.650806965,1006.8666
11275.684376301,1006.8666
11275.717945637001,1006.8666
11275.751514973,1006.8666
11275.785084309,1006.8666
11275.818653645001,1006.8666
11275.852222981,1006.8666
11275.885792317,1006.8666
11275.919361653001,1006.8666
11275.952930989,1006.8666
11275.986500325002,1006.8666
11276.020069661,1006.8666
11276.053638997,1006.8666
11276.087208332001,1006.8666
11276.120777668,1006.8666
11276.154347004001,1006.8666
11276.18791634,1006.8666
11276.221485676,1006.8666
11276.255055012001,1006.8666
11276.288624348,1006.8666
11276.322193684,1006.8666
11276.355763020001,1006.8666
11276.389332356,1006.8666
11276.422901692,1006.8666
11276.456471028001,1006.8666
11276.490040364,1006.8666
11276.523609700002,1006.8666
11276.557179036,1006.8666
11276.590748372,1006.8666
11276.624317707001,1006.8666
11276.657887043,1006.8666
11276.691456379001,1006.8666
11276.725025715,1006.8666
11276.758595051,1006.8666
11276.792164387001,1006.8666
11276.825733723,1006.8666
11276.859303059,1006.8666
11276.892872395001,1006.8666
11276.926441731,1006.8666
11276.960011067,1006.8666
11276.993580403001,1006.8666
11277.027149739,1006.8666
11277.060719075002,1006.8666
11277.094288411,1006.8666
11277.127857747,1006.8666
11277.161427082001,1006.8666
11277.194996418,1006.8666
11277.228565754001,1006.8666
11277.26213509,1006.8666
11277.295704426,1006.8666
11277.329273762001,1006.8666
11277.362843098,1006.8666
11277.396412434,1006.864
11277.429981770001,1006.8566
11277.463551106,1006.8566
11277.497120442,1006.8566
11277.530689778001,1006.8566
11277.564259114,1006.8566
11277.597828450002,1006.8566
11277.631397786,1006.8566
11277.664967122,1006.8566
11277.698536457001,1006.8566
11277.732105793,1006.8615
11277.765675129001,1006.8666
11277.799244465,1006.8666
11277.832813801,1006.8666
11277.866383137001,1006.8666
11277.899952473,1006.8666
11277.933521809,1006.8666
11277.967091145001,1006.8666
11278.000660481,1006.8666
11278.034229817,1006.8666
11278.067799153001,1006.8666
11278.101368489,1006.8666
11278.134937825002,1006.8666
11278.168507161,1006.8666
11278.202076497,1006.8666
11278.235645832001,1006.8666
11278.269215168,1006.8666
11278.302784504001,1006.8666
11278.33635384,1006.8595
11278.369923176,1006.8566
11278.403492512001,1006.8566
11278.437061848,1006.8566
11278.470631184,1006.8566
11278.504200520001,1006.8566
11278.537769856,1006.8566
11278.571339192,1006.8566
11278.604908528001,1006.8566
11278.638477864,1006.8566
11278.672047200002,1006.8566
11278.705616536,1006.8566
11278.739185872,1006.8566
11278.772755207001,1006.85974
11278.806324543,1006.8666
11278.839893879001,1006.8666
11278.873463215,1006.85974
11278.907032551,1006.8566
11278.940601887001,1006.8659
11278.974171223,1006.8666
11279.007740559,1006.8666
11279.041309895001,1006.8666
11279.074879231,1006.8666
11279.108448567,1006.8666
11279.142017903001,1006.8666
11279.175587239,1006.8666
11279.209156575002,1006.8666
11279.242725911,1006.8666
11279.276295247,1006.8666
11279.309864582001,1006.8637
11279.343433918,1006.8566
11279.377003254001,1006.8566
11279.41057259,1006.8566
11279.444141926,1006.8566
11279.477711262001,1006.8566
11279.511280598,1006.8566
11279.544849934,1006.8566
11279.578419270001,1006.8566
11279.611988606,1006.8566
11279.645557942,1006.8566
11279.679127278001,1006.8566
11279.712696614,1006.8566
11279.746265950002,1006.8566
11279.779835286,1006.8566
11279.813404622,1006.8566
11279.846973957001,1006.8566
11279.880543293,1006.8566
11279.914112629001,1006.8566
11279.947681965,1006.8566
11279.981251301,1006.8566
11280.014820637001,1006.8566
11280.048389973,1006.8566
11280.081959309,1006.8566
11280.115528645001,1006.8566
11280.149097981,1006.8566
11280.182667317,1006.8566
11280.216236653001,1006.8566
11280.249805989,1006.8566
11280.283375325002,1006.8566
11280.316944661,1006.8566
11280.350513997,1006.8566
11280.384083332001,1006.8566
11280.417652668,1006.8566
11280.451222004001,1006.8566
11280.48479134,1006.8566
11280.518360676,1006.8566
11280.551930012001,1006.8566
11280.585499348,1006.8566
11280.619068684,1006.8566
11280.652638020001,1006.8566
11280.686207356,1006.8566
11280.719776692,1006.8566
11280.753346028001,1006.8566
11280.786915364,1006.8566
11280.820484700002,1006.8566
11280.854054036,1006.8566
11280.887623372,1006.8566
11280.921192707001,1006.8566
11280.954762043,1006.8566
11280.988331379001,1006.8566
11281.021900715,1006.85077
11281.055470051,1006.8466
11281.089039387001,1006.8549
11281.122608723,1006.8566
11281.156178059,1006.8566
11281.189747395001,1006.8566
11281.223316731,1006.8534
11281.256886067,1006.8466
11281.290455403001,1006.8466
11281.324024739,1006.8466
11281.357594075002,1006.8466
11281.391163411,1006.8466
11281.424732747,1006.8466
11281.458302082001,1006.84845
11281.491871418,1006.8566
11281.525440754001,1006.8566
11281.55901009,1006.8511
11281.592579426,1006.8466
11281.626148762001,1006.8466
11281.659718098,1006.8466
11281.693287434,1006.8466
11281.726856770001,1006.8466
11281.760426106,1006.8466
11281.793995442,1006.8466
11281.827564778001,1006.8466
11281.861134114,1006.8466
11281.894703450002,1006.8466
11281.928272786,1006.8466
11281.961842122,1006.8466
11281.995411457001,1006.8466
11282.028980793,1006.8466
11282.062550129001,1006.8466
11282.096119465,1006.8466
11282.129688801,1006.84015
11282.163258137001,1006.8366
11282.196827473,1006.8366
11282.230396809,1006.8366
11282.263966145001,1006.8366
11282.297535481,1006.8366
11282.331104817,1006.8366
11282.364674153001,1006.8366
11282.398243489,1006.8366
11282.431812825002,1006.8366
11282.465382161,1006.8366
11282.498951497,1006.8366
11282.532520832001,1006.8366
11282.566090168,1006.8366
11282.599659504001,1006.8328
11282.63322884,1006.82666
11282.666798176,1006.8329
11282.700367512001,1006.8366
11282.733936848,1006.8366
11282.767506184,1006.8366
11282.801075520001,1006.8366
11282.834644856,1006.8366
11282.868214192,1006.8366
11282.901783528001,1006.8366
11282.935352864,1006.8366
