0.0,0.0,0.0,0.0
1.0,1.29,0.0,0.0
2.0,2.57,0.0,0.0
3.0,3.86,0.0,0.0
4.0,5.15,0.0,0.0
5.0,6.44,0.0,0.0
6.0,7.72,0.0,0.0
7.0,9.01,0.0,0.0
8.0,10.3,0.0,0.0
9.0,11.58,0.0,0.0
10.0,12.87,0.0,0.0
11.0,14.16,0.0,0.0
12.0,15.44,0.0,0.0
13.0,16.73,0.0,0.0
14.0,18.0,-0.02,0.0
15.0,18.0,-1.55,0.0
16.0,18.0,-3.08,0.0
17.0,18.0,-4.61,0.0
18.0,18.0,-6.13,0.0
19.0,18.0,-7.66,0.0
20.0,18.0,-9.19,0.0
21.0,18.0,-10.72,0.0
22.0,18.0,-12.25,0.0
23.0,18.0,-13.78,0.0
24.0,18.0,-15.31,0.0
25.0,18.0,-16.83,0.0
26.0,17.21,-17.5,0.0
27.0,15.81,-17.5,0.0
28.0,14.4,-17.5,0.0
29.0,13.0,-17.5,0.0
30.0,11.6,-17.5,0.0
31.0,10.19,-17.5,0.0
32.0,8.79,-17.5,0.0
33.0,7.39,-17.5,0.0
34.0,5.99,-17.5,0.0
35.0,4.58,-17.5,0.0
36.0,3.18,-17.5,0.0
37.0,1.78,-17.5,0.0
38.0,0.37,-17.5,0.0
39.0,0.0,-16.59,0.0
40.0,0.0,-15.36,0.0
41.0,0.0,-14.13,0.0
42.0,0.0,-12.9,0.0
43.0,0.0,-11.66,0.0
44.0,0.0,-10.43,0.0
45.0,0.0,-9.2,0.0
46.0,0.0,-7.96,0.0
47.0,0.0,-6.73,0.0
48.0,0.0,-5.5,0.0
49.0,0.0,-4.26,0.0
50.0,0.0,-3.03,0.0
51.0,0.0,-1.8,0.0
52.0,0.0,-0.56,0.0
53.0,0.0,0.0,0.0
