0.0,0.0,0.0,0.0
1.0,1.18,0.0,0.0
2.0,2.35,0.0,0.0
3.0,3.53,0.0,0.0
4.0,4.7,0.0,0.0
5.0,5.88,0.0,0.0
6.0,7.06,0.0,0.0
7.0,8.23,0.0,0.0
8.0,9.41,0.0,0.0
9.0,10.58,0.0,0.0
10.0,11.76,0.0,0.0
11.0,12.94,0.0,0.0
12.0,14.0,0.08,-0.03
13.0,14.0,0.87,-0.3
14.0,14.0,1.67,-0.56
15.0,14.0,2.47,-0.83
16.0,14.0,3.27,-1.1
17.0,14.0,4.06,-1.37
18.0,14.0,4.86,-1.64
19.0,14.0,5.66,-1.91
20.0,14.0,6.45,-2.18
21.0,14.0,7.25,-2.45
22.0,14.0,8.05,-2.72
23.0,14.0,8.85,-2.99
24.0,14.0,9.64,-3.26
25.0,14.0,10.44,-3.53
26.0,14.0,11.24,-3.8
27.0,14.0,12.03,-4.07
28.0,14.0,12.83,-4.34
29.0,14.0,13.63,-4.61
30.0,14.0,14.43,-4.87
31.0,13.0,14.5,-4.9
32.0,11.89,14.5,-4.9
33.0,11.3,13.99,-4.9
34.0,11.3,12.89,-4.9
35.0,11.3,11.79,-4.9
36.0,11.3,10.69,-4.9
37.0,11.3,9.59,-4.9
38.0,11.3,8.49,-4.9
39.0,11.3,7.39,-4.9
40.0,11.3,6.3,-4.9
41.0,11.3,5.2,-4.9
42.0,11.3,4.87,-4.9
43.0,11.3,5.87,-4.9
44.0,11.3,6.88,-4.9
45.0,11.3,7.88,-4.9
46.0,11.3,8.89,-4.9
47.0,11.3,9.89,-4.9
48.0,11.3,10.9,-4.9
49.0,11.3,11.9,-4.9
50.0,11.3,12.91,-4.9
51.0,11.3,13.91,-4.9
52.0,11.73,14.5,-4.9
53.0,12.75,14.5,-4.9
54.0,13.78,14.5,-4.9
55.0,14.0,13.95,-4.72
56.0,14.0,13.26,-4.48
57.0,14.0,12.56,-4.25
58.0,14.0,11.87,-4.01
59.0,14.0,11.17,-3.78
60.0,14.0,10.48,-3.54
61.0,14.0,9.78,-3.31
62.0,14.0,9.09,-3.07
63.0,14.0,8.39,-2.84
64.0,14.0,7.7,-2.6
65.0,14.0,7.0,-2.37
66.0,14.0,6.31,-2.13
67.0,14.0,5.61,-1.9
68.0,14.0,4.92,-1.66
69.0,14.0,4.22,-1.43
70.0,14.0,3.53,-1.19
71.0,14.0,2.83,-0.96
72.0,14.0,2.14,-0.72
73.0,14.0,1.44,-0.49
74.0,14.0,0.75,-0.25
75.0,14.0,0.05,-0.02
76.0,14.97,0.0,0.0
77.0,16.01,0.0,0.0
78.0,17.06,0.0,0.0
79.0,18.11,0.0,0.0
80.0,19.15,0.0,0.0
81.0,20.2,0.0,0.0
82.0,21.24,0.0,0.0
83.0,22.0,-0.32,0.0
84.0,22.0,-1.47,0.0
85.0,22.0,-2.63,0.0
86.0,22.0,-3.79,0.0
87.0,22.0,-4.94,0.0
88.0,22.0,-6.1,0.0
89.0,22.0,-7.25,0.0
90.0,22.0,-8.41,0.0
91.0,22.0,-9.57,0.0
92.0,22.0,-10.72,0.0
93.0,22.0,-11.88,0.0
94.0,22.0,-13.03,0.0
95.0,22.0,-14.19,0.0
96.0,22.0,-15.35,0.0
97.0,22.0,-16.5,0.0
98.0,21.85,-17.5,0.0
99.0,20.74,-17.5,0.0
100.0,19.63,-17.5,0.0
101.0,18.53,-17.5,0.0
102.0,17.42,-17.5,0.0
103.0,16.31,-17.5,0.0
104.0,15.2,-17.5,0.0
105.0,14.09,-17.5,0.0
106.0,12.99,-17.5,0.0
107.0,11.88,-17.5,0.0
108.0,10.77,-17.5,0.0
109.0,9.66,-17.5,0.0
110.0,8.56,-17.5,0.0
111.0,7.45,-17.5,0.0
112.0,7.2,-16.69,0.0
113.0,7.2,-15.64,0.0
114.0,7.2,-14.59,0.0
115.0,7.2,-13.54,0.0
116.0,7.2,-12.49,0.0
117.0,7.2,-11.44,0.0
118.0,7.2,-10.39,0.0
119.0,7.2,-9.34,0.0
120.0,7.2,-8.29,0.0
121.0,7.2,-7.24,0.0
122.0,7.2,-6.19,0.0
123.0,7.2,-5.15,0.0
124.0,7.2,-4.1,0.0
125.0,7.2,-3.05,0.0
126.0,7.2,-2.0,0.0
127.0,7.2,-0.95,0.0
128.0,7.11,0.0,0.0
129.0,6.22,0.0,0.0
130.0,5.33,0.0,0.0
131.0,4.44,0.0,0.0
132.0,3.55,0.0,0.0
133.0,2.66,0.0,0.0
134.0,1.77,0.0,0.0
135.0,0.88,0.0,0.0
136.0,0.0,0.0,0.0
