0.0,0.0,0.0,0.0
1.0,1.36,0.0,0.0
2.0,2.72,0.0,0.0
3.0,4.08,0.0,0.0
4.0,5.45,0.0,0.0
5.0,6.81,0.0,0.0
6.0,8.17,0.0,0.0
7.0,9.53,0.0,0.0
8.0,10.89,0.0,0.0
9.0,12.25,0.0,0.0
10.0,13.61,0.0,0.0
11.0,14.98,0.0,0.0
12.0,16.34,0.0,0.0
13.0,17.7,0.0,0.0
14.0,18.0,-1.17,0.0
15.0,18.0,-2.68,0.0
16.0,18.0,-4.18,0.0
17.0,18.0,-5.69,0.0
18.0,18.0,-7.2,0.0
19.0,18.0,-8.7,0.0
20.0,18.0,-10.21,0.0
21.0,18.0,-11.71,0.0
22.0,18.0,-13.22,0.0
23.0,18.0,-14.72,0.0
24.0,18.0,-16.23,0.0
25.0,17.77,-17.5,0.0
26.0,16.3,-17.5,0.0
27.0,14.83,-17.5,0.0
28.0,13.36,-17.5,0.0
29.0,11.89,-17.5,0.0
30.0,10.42,-17.5,0.0
31.0,8.95,-17.5,0.0
32.0,7.48,-17.5,0.0
33.0,6.01,-17.5,0.0
34.0,4.54,-17.5,0.0
35.0,3.08,-17.5,0.0
36.0,1.61,-17.5,0.0
37.0,0.14,-17.5,0.0
38.0,0.0,-16.22,0.0
39.0,0.0,-14.82,0.0
40.0,0.0,-13.41,0.0
41.0,0.0,-12.0,0.0
42.0,0.0,-10.6,0.0
43.0,0.0,-9.19,0.0
44.0,0.0,-7.78,0.0
45.0,0.0,-6.38,0.0
46.0,0.0,-4.97,0.0
47.0,0.0,-3.56,0.0
48.0,0.0,-2.16,0.0
49.0,0.0,-0.75,0.0
50.0,0.0,0.0,0.0
