0.0,0.0,0.0,0.0
1.0,1.34,0.0,0.0
2.0,2.67,0.0,0.0
3.0,4.01,0.0,0.0
4.0,5.35,0.0,0.0
5.0,6.68,0.0,0.0
6.0,8.02,0.0,0.0
7.0,9.36,0.0,0.0
8.0,10.69,0.0,0.0
9.0,12.03,0.0,0.0
10.0,13.37,0.0,0.0
11.0,14.7,0.0,0.0
12.0,16.04,0.0,0.0
13.0,17.37,0.0,0.0
14.0,18.0,-0.82,0.0
15.0,18.0,-2.36,0.0
16.0,18.0,-3.9,0.0
17.0,18.0,-5.45,0.0
18.0,18.0,-6.99,0.0
19.0,18.0,-8.53,0.0
20.0,18.0,-10.07,0.0
21.0,18.0,-11.61,0.0
22.0,18.0,-13.16,0.0
23.0,18.0,-14.7,0.0
24.0,18.0,-16.24,0.0
25.0,17.72,-17.5,0.0
26.0,16.2,-17.5,0.0
27.0,14.67,-17.5,0.0
28.0,13.15,-17.5,0.0
29.0,11.62,-17.5,0.0
30.0,10.09,-17.5,0.0
31.0,8.57,-17.5,0.0
32.0,7.04,-17.5,0.0
33.0,5.52,-17.5,0.0
34.0,3.99,-17.5,0.0
35.0,2.47,-17.5,0.0
36.0,0.94,-17.5,0.0
37.0,0.0,-16.96,0.0
38.0,0.0,-15.55,0.0
39.0,0.0,-14.14,0.0
40.0,0.0,-12.73,0.0
41.0,0.0,-11.32,0.0
42.0,0.0,-9.91,0.0
43.0,0.0,-8.5,0.0
44.0,0.0,-7.09,0.0
45.0,0.0,-5.68,0.0
46.0,0.0,-4.27,0.0
47.0,0.0,-2.86,0.0
48.0,0.0,-1.45,0.0
49.0,0.0,-0.04,0.0
50.0,0.0,0.0,0.0
