333461.494509447,1006.4528
333461.528078783,1006.44684
333461.561648119,1006.44684
333461.595217455,1006.44684
333461.628786791,1006.44684
333461.662356127,1006.44684
333461.69592546305,1006.44684
333461.72949479904,1006.44684
333461.76306413504,1006.4501
333461.79663347104,1006.45685
333461.83020280703,1006.45685
333461.863772143,1006.45685
333461.89734147803,1006.45685
333461.93091081403,1006.45685
333461.96448015,1006.45685
333461.998049486,1006.45685
333462.031618822,1006.45685
333462.065188158,1006.45685
333462.098757494,1006.45685
333462.13232683,1006.45685
333462.165896166,1006.45685
333462.199465502,1006.45685
333462.23303483805,1006.45685
333462.26660417404,1006.45685
333462.30017351004,1006.45685
333462.33374284604,1006.45685
333462.36731218203,1006.45685
333462.400881518,1006.45685
333462.43445085303,1006.45685
333462.46802018903,1006.45685
333462.501589525,1006.45685
333462.535158861,1006.45685
333462.568728197,1006.45685
333462.602297533,1006.45685
333462.635866869,1006.45685
333462.669436205,1006.4614
333462.703005541,1006.4668
333462.736574877,1006.4668
333462.77014421305,1006.4668
333462.80371354904,1006.4668
333462.83728288504,1006.4668
333462.87085222104,1006.4668
333462.90442155703,1006.4668
333462.937990893,1006.4668
333462.97156022803,1006.4668
333463.00512956403,1006.4668
333463.0386989,1006.4668
333463.072268236,1006.4668
333463.105837572,1006.4668
333463.139406908,1006.4668
333463.172976244,1006.4668
333463.20654558,1006.4668
333463.240114916,1006.4668
333463.273684252,1006.4668
333463.30725358805,1006.4668
333463.34082292404,1006.4668
333463.37439226004,1006.4668
333463.40796159604,1006.4668
333463.44153093203,1006.4668
333463.475100268,1006.4668
333463.50866960303,1006.4668
333463.54223893903,1006.47156
333463.575808275,1006.4768
333463.609377611,1006.4768
333463.642946947,1006.4768
333463.676516283,1006.4768
333463.710085619,1006.4763
333463.743654955,1006.4668
333463.777224291,1006.4668
333463.810793627,1006.4668
333463.84436296305,1006.4668
333463.87793229904,1006.4668
333463.91150163504,1006.4668
333463.94507097104,1006.4668
333463.97864030703,1006.4668
333464.012209643,1006.4668
333464.04577897803,1006.4668
333464.07934831403,1006.4668
333464.11291765,1006.4668
333464.146486986,1006.4668
333464.180056322,1006.4601
333464.213625658,1006.45685
333464.247194994,1006.45685
333464.28076433,1006.45685
333464.314333666,1006.45685
333464.347903002,1006.45685
333464.38147233805,1006.45685
333464.41504167404,1006.45685
333464.44861101004,1006.45685
333464.48218034604,1006.45685
333464.51574968203,1006.45685
333464.549319018,1006.45685
333464.58288835303,1006.45685
333464.61645768903,1006.45685
333464.650027025,1006.45386
333464.683596361,1006.44684
333464.717165697,1006.45215
333464.750735033,1006.45685
333464.784304369,1006.4492
333464.817873705,1006.44684
333464.851443041,1006.44684
333464.885012377,1006.44684
333464.91858171305,1006.44684
333464.95215104904,1006.44684
333464.98572038504,1006.44684
333465.01928972104,1006.44684
333465.05285905703,1006.44684
333465.086428393,1006.44684
333465.11999772803,1006.4376
333465.15356706403,1006.4368
333465.1871364,1006.4368
333465.220705736,1006.4368
333465.254275072,1006.4368
333465.287844408,1006.44183
333465.321413744,1006.44684
333465.35498308,1006.4395
333465.388552416,1006.4368
333465.422121752,1006.4368
333465.45569108805,1006.44684
333465.48926042404,1006.44684
333465.52282976004,1006.44684
333465.55639909604,1006.44684
333465.58996843203,1006.44684
333465.623537768,1006.44684
333465.65710710303,1006.44684
333465.69067643903,1006.44684
333465.724245775,1006.44684
333465.757815111,1006.44684
333465.791384447,1006.44684
333465.824953783,1006.4433
333465.858523119,1006.4368
333465.892092455,1006.4368
333465.925661791,1006.4368
333465.959231127,1006.4368
333465.99280046305,1006.4368
333466.02636979904,1006.4368
333466.05993913504,1006.4368
333466.09350847104,1006.4368
333466.12707780703,1006.4368
333466.160647143,1006.4368
333466.19421647803,1006.4368
333466.22778581403,1006.4368
333466.26135515,1006.4368
333466.294924486,1006.4368
333466.328493822,1006.4359
333466.362063158,1006.4269
333466.395632494,1006.4269
333466.42920183,1006.4269
333466.462771166,1006.4269
333466.496340502,1006.4269
333466.52990983805,1006.4269
333466.56347917404,1006.4269
333466.59704851004,1006.4269
333466.63061784604,1006.4269
333466.66418718203,1006.4269
333466.697756518,1006.4269
333466.73132585303,1006.4269
333466.76489518903,1006.4269
333466.798464525,1006.4269
333466.832033861,1006.4269
333466.865603197,1006.4269
333466.899172533,1006.4269
333466.932741869,1006.42505
333466.966311205,1006.4169
333466.999880541,1006.42096
333467.033449877,1006.4269
333467.06701921305,1006.4269
333467.10058854904,1006.4269
333467.13415788504,1006.4269
333467.16772722104,1006.4269
333467.20129655703,1006.4269
333467.234865893,1006.4269
333467.26843522803,1006.4269
333467.30200456403,1006.4269
333467.3355739,1006.4269
333467.369143236,1006.4269
333467.402712572,1006.4269
333467.436281908,1006.4269
333467.469851244,1006.4368
333467.50342058,1006.43536
333467.536989916,1006.4269
333467.570559252,1006.4269
333467.60412858805,1006.4318
333467.63769792404,1006.4368
333467.67126726004,1006.4368
333467.70483659604,1006.4368
333467.73840593203,1006.4368
333467.771975268,1006.4368
333467.80554460303,1006.4368
333467.83911393903,1006.4368
333467.872683275,1006.4368
333467.906252611,1006.4368
333467.939821947,1006.4368
333467.973391283,1006.4368
333468.006960619,1006.4368
333468.040529955,1006.4368
333468.074099291,1006.4368
333468.107668627,1006.4368
333468.14123796305,1006.4368
333468.17480729904,1006.4368
333468.20837663504,1006.4368
333468.24194597104,1006.4368
333468.27551530703,1006.4368
333468.309084643,1006.4368
333468.34265397803,1006.4368
333468.37622331403,1006.4368
333468.40979265,1006.4368
333468.443361986,1006.4368
333468.476931322,1006.4368
333468.510500658,1006.4368
333468.544069994,1006.4368
333468.57763933,1006.4368
333468.611208666,1006.4368
333468.644778002,1006.4368
333468.67834733805,1006.4368
333468.71191667404,1006.4368
333468.74548601004,1006.4368
333468.77905534604,1006.4368
333468.81262468203,1006.4368
333468.846194018,1006.4368
333468.87976335303,1006.4368
333468.91333268903,1006.4368
333468.946902025,1006.4368
333468.980471361,1006.4368
333469.014040697,1006.4368
333469.047610033,1006.4368
333469.081179369,1006.4368
333469.114748705,1006.4368
333469.148318041,1006.4368
333469.181887377,1006.4368
333469.21545671305,1006.4368
333469.24902604904,1006.4368
333469.28259538504,1006.4368
333469.31616472104,1006.4368
333469.34973405703,1006.4368
333469.383303393,1006.4368
333469.41687272803,1006.4368
333469.45044206403,1006.4368
333469.4840114,1006.4368
333469.517580736,1006.4368
333469.551150072,1006.4368
333469.584719408,1006.4368
333469.618288744,1006.4368
333469.65185808,1006.4368
333469.685427416,1006.4368
333469.718996752,1006.4368
333469.75256608805,1006.4368
333469.78613542404,1006.4368
333469.81970476004,1006.4368
333469.85327409604,1006.4368
333469.88684343203,1006.4368
333469.920412768,1006.4368
333469.95398210303,1006.4368
333469.98755143903,1006.4368
333470.021120775,1006.4368
333470.054690111,1006.4368
333470.088259447,1006.4368
333470.121828783,1006.4368
333470.155398119,1006.4368
333470.188967455,1006.4368
333470.222536791,1006.4368
333470.256106127,1006.4368
333470.28967546305,1006.4368
333470.32324479904,1006.4368
333470.35681413504,1006.4368
333470.39038347104,1006.4368
333470.42395280703,1006.4368
333470.457522143,1006.4368
333470.49109147803,1006.4368
333470.52466081403,1006.4368
333470.55823015,1006.4368
333470.591799486,1006.4368
333470.625368822,1006.4368
333470.658938158,1006.4368
333470.692507494,1006.4368
333470.72607683,1006.4368
333470.759646166,1006.4368
333470.793215502,1006.4368
333470.82678483805,1006.4368
333470.86035417404,1006.4368
333470.89392351004,1006.4368
333470.92749284604,1006.4368
333470.96106218203,1006.4368
333470.994631518,1006.4368
333471.02820085303,1006.4368
333471.06177018903,1006.4368
333471.095339525,1006.4368
333471.128908861,1006.43005
333471.162478197,1006.4269
333471.196047533,1006.4269
333471.229616869,1006.4269
333471.263186205,1006.4269
333471.296755541,1006.4269
333471.330316046,1006.4269
333471.363885382,1006.4269
333471.397454718,1006.4269
333471.431024054,1006.4269
333471.46459339,1006.4269
333471.498162726,1006.4269
333471.531732062,1006.4269
333471.565301397,1006.4269
333471.598870733,1006.4269
333471.632440069,1006.4269
333471.66600940505,1006.4269
333471.69957874104,1006.4269
333471.73314807704,1006.4269
333471.76671741303,1006.4269
333471.800286749,1006.4269
333471.833856085,1006.4269
333471.867425421,1006.4269
333471.900994757,1006.4269
333471.934564093,1006.4269
333471.968133429,1006.4269
333472.001702765,1006.4269
333472.035272101,1006.4269
333472.068841437,1006.4269
333472.102410772,1006.4269
333472.135980108,1006.4269
333472.169549444,1006.42413
333472.20311878005,1006.4169
333472.23668811604,1006.4219
333472.27025745204,1006.4269
333472.30382678803,1006.4195
333472.337396124,1006.4169
333472.37096546,1006.4169
333472.404534796,1006.4169
333472.438104132,1006.4169
333472.471673468,1006.4169
333472.505242804,1006.42114
333472.53881214,1006.4269
333472.572381476,1006.4269
333472.605950812,1006.4269
333472.639520147,1006.4269
333472.673089483,1006.4269
333472.706658819,1006.4269
333472.74022815505,1006.4269
333472.77379749104,1006.4269
333472.80736682704,1006.4269
333472.84093616303,1006.4269
333472.874505499,1006.4269
333472.908074835,1006.4269
333472.941644171,1006.4269
333472.975213507,1006.4269
333473.008782843,1006.4269
333473.042352179,1006.4269
333473.075921515,1006.4269
333473.109490851,1006.4269
333473.143060187,1006.4269
333473.176629522,1006.4269
333473.210198858,1006.4269
333473.243768194,1006.4269
333473.27733753005,1006.4269
333473.31090686604,1006.4269
333473.34447620204,1006.4269
333473.37804553803,1006.4269
333473.411614874,1006.4269
333473.44518421,1006.4269
333473.478753546,1006.4269
333473.512322882,1006.4269
333473.545892218,1006.4269
333473.579461554,1006.4269
333473.61303089,1006.4269
333473.646600226,1006.4269
333473.680169562,1006.4269
333473.713738897,1006.4269
333473.747308233,1006.4269
333473.780877569,1006.4269
333473.81444690505,1006.4269
333473.84801624104,1006.4269
333473.88158557704,1006.4288
333473.91515491303,1006.4368
333473.948724249,1006.4368
333473.982293585,1006.4368
333474.015862921,1006.4368
333474.049432257,1006.4368
333474.083001593,1006.4368
333474.116570929,1006.4368
333474.150140265,1006.4368
333474.183709601,1006.43445
333474.217278937,1006.4269
333474.250848272,1006.4269
333474.284417608,1006.4269
333474.317986944,1006.4269
333474.35155628005,1006.4269
333474.38512561604,1006.4269
333474.41869495204,1006.4269
333474.45226428803,1006.4252
333474.485833624,1006.4169
333474.51940296,1006.4169
333474.552972296,1006.4169
333474.586541632,1006.4169
333474.620110968,1006.4244
333474.653680304,1006.4269
333474.68724964,1006.417
333474.720818976,1006.41785
333474.754388312,1006.4269
333474.787957647,1006.42346
333474.821526983,1006.4169
333474.855096319,1006.42255
333474.88866565505,1006.4269
333474.92223499104,1006.4188
333474.95580432704,1006.4169
333474.98937366303,1006.4169
333475.022942999,1006.4169
333475.056512335,1006.4169
333475.090081671,1006.4169
333475.123651007,1006.4169
333475.157220343,1006.4169
333475.190789679,1006.4169
333475.224359015,1006.4169
333475.257928351,1006.4169
333475.291497687,1006.4169
333475.325067022,1006.4169
333475.358636358,1006.4169
333475.392205694,1006.4169
333475.42577503005,1006.4169
333475.45934436604,1006.4169
333475.49291370204,1006.4169
333475.52648303803,1006.4259
333475.560052374,1006.4269
333475.59362171,1006.4269
333475.627191046,1006.4269
333475.660760382,1006.4269
333475.694329718,1006.4269
333475.727899054,1006.4269
333475.76146839,1006.4269
333475.795037726,1006.4352
333475.828607062,1006.4368
333475.862176397,1006.4368
333475.895745733,1006.4368
333475.929315069,1006.4368
333475.96288440505,1006.4368
333475.99645374104,1006.4368
333476.03002307704,1006.4368
333476.06359241303,1006.4368
333476.097161749,1006.4368
333476.130731085,1006.44684
333476.164300421,1006.44684
333476.197869757,1006.44684
333476.231439093,1006.44684
333476.265008429,1006.44684
333476.298577765,1006.4527
333476.332147101,1006.45685
333476.365716437,1006.45685
333476.399285772,1006.45685
333476.432855108,1006.4574
333476.466424444,1006.4668
333476.49999378005,1006.4668
333476.53356311604,1006.4668
333476.56713245204,1006.4668
333476.60070178803,1006.4668
333476.634271124,1006.47437
333476.66784046,1006.4768
333476.701409796,1006.4768
333476.734979132,1006.4768
333476.768548468,1006.4768
333476.802117804,1006.4768
333476.83568714,1006.4813
333476.869256476,1006.4868
333476.902825812,1006.4868
333476.936395147,1006.4868
333476.969964483,1006.4868
333477.003533819,1006.4872
333477.03710315505,1006.4968
333477.07067249104,1006.4968
333477.10424182704,1006.4968
333477.13781116303,1006.4968
333477.171380499,1006.4968
333477.204949835,1006.4968
333477.238519171,1006.5054
333477.272088507,1006.50684
333477.305657843,1006.50684
333477.339227179,1006.50684
333477.372796515,1006.50684
333477.406365851,1006.50684
333477.439935187,1006.50684
333477.473504522,1006.51355
333477.507073858,1006.5168
333477.540643194,1006.5168
333477.57421253005,1006.5168
333477.60778186604,1006.5168
333477.64135120204,1006.5168
333477.67492053803,1006.5168
333477.708489874,1006.5168
333477.74205921,1006.5168
333477.775628546,1006.5168
333477.809197882,1006.52515
333477.842767218,1006.5268
333477.876336554,1006.5268
333477.90990589,1006.5268
333477.943475226,1006.5268
333477.977044562,1006.5268
333478.010613897,1006.5268
333478.044183233,1006.5268
333478.077752569,1006.5345
333478.11132190505,1006.5368
333478.14489124104,1006.5368
333478.17846057704,1006.5368
333478.21202991303,1006.5368
333478.245599249,1006.5368
333478.279168585,1006.5368
333478.312737921,1006.5368
333478.346307257,1006.5438
333478.379876593,1006.54675
333478.413445929,1006.54675
333478.447015265,1006.54736
333478.480584601,1006.55676
333478.514153937,1006.55676
333478.547723272,1006.55676
333478.581292608,1006.55676
333478.614861944,1006.5632
333478.64843128005,1006.5668
333478.68200061604,1006.5668
333478.71556995204,1006.5668
333478.74913928803,1006.5768
333478.782708624,1006.5745
333478.81627796,1006.5668
333478.849847296,1006.5713
333478.883416632,1006.5768
333478.916985968,1006.5836
333478.950555304,1006.5868
333478.98412464,1006.5868
333479.017693976,1006.5768
333479.051263312,1006.5768
333479.084832647,1006.5768
333479.118401983,1006.5806
333479.151971319,1006.5868
333479.18554065505,1006.5868
333479.21910999104,1006.5868
333479.25267932704,1006.57825
333479.28624866303,1006.5768
333479.319817999,1006.5868
333479.353387335,1006.5868
333479.386956671,1006.5868
333479.420526007,1006.5868
333479.454095343,1006.5922
333479.487664679,1006.59674
333479.521234015,1006.60455
333479.554803351,1006.60675
333479.588372687,1006.60675
333479.621942022,1006.60675
333479.655511358,1006.60675
333479.689080694,1006.60675
333479.72265003005,1006.60675
333479.75621936604,1006.60675
333479.78978870204,1006.61383
333479.82335803803,1006.61676
333479.856927374,1006.61676
333479.89049671,1006.61676
333479.924066046,1006.61676
333479.957635382,1006.6196
333479.991204718,1006.6267
333480.024774054,1006.6267
333480.05834339,1006.6267
333480.091912726,1006.6267
333480.125482062,1006.6267
333480.159051397,1006.6267
333480.192620733,1006.6267
333480.226190069,1006.6267
333480.25975940505,1006.6267
333480.29332874104,1006.6267
333480.32689807704,1006.6267
333480.36046741303,1006.63354
333480.394036749,1006.6367
333480.427606085,1006.6367
333480.461175421,1006.6367
333480.494744757,1006.6367
333480.528314093,1006.6367
333480.561883429,1006.6367
333480.595452765,1006.6367
333480.629022101,1006.6306
333480.662591437,1006.6267
333480.696160772,1006.6267
333480.729730108,1006.6267
333480.763299444,1006.6267
333480.79686878005,1006.6267
333480.83043811604,1006.6267
333480.86400745204,1006.6267
333480.89757678803,1006.63214
333480.931146124,1006.6367
333480.96471546,1006.6367
333480.998284796,1006.6367
333481.031854132,1006.6367
333481.065423468,1006.6367
333481.098992804,1006.6367
333481.13256214,1006.6367
333481.166131476,1006.6367
333481.199700812,1006.6367
333481.233270147,1006.64374
333481.266839483,1006.6467
333481.300408819,1006.6467
333481.334015775,1006.6467
333481.367585111,1006.6467
333481.401154447,1006.64954
333481.434723783,1006.65674
333481.46829311905,1006.6516
333481.50186245504,1006.6467
333481.53543179104,1006.6467
333481.56900112703,1006.6467
333481.60257046303,1006.6467
333481.636139799,1006.65674
333481.669709135,1006.65674
333481.703278471,1006.65674
333481.736847807,1006.65674
333481.770417142,1006.65674
333481.803986478,1006.65674
333481.837555814,1006.65674
333481.87112515,1006.65674
333481.904694486,1006.65674
333481.938263822,1006.65674
333481.971833158,1006.65674
333482.00540249405,1006.6604
333482.03897183004,1006.66675
333482.07254116604,1006.66675
333482.10611050203,1006.66675
333482.13967983803,1006.66675
333482.173249174,1006.66675
333482.20681851,1006.66675
333482.240387846,1006.6685
333482.273957182,1006.6767
333482.307526517,1006.6767
333482.341095853,1006.6767
333482.374665189,1006.6767
333482.408234525,1006.6767
333482.441803861,1006.6767
333482.475373197,1006.6767
333482.508942533,1006.6767
333482.54251186905,1006.6767
333482.57608120504,1006.6801
333482.60965054104,1006.6867
333482.64321987703,1006.6867
333482.67678921303,1006.6867
333482.710358549,1006.6867
333482.743927885,1006.6867
333482.777497221,1006.6871
333482.811066557,1006.6967
333482.844635892,1006.6967
333482.878205228,1006.6967
333482.911774564,1006.6967
333482.9453439,1006.6967
333482.978913236,1006.6967
333483.012482572,1006.6967
333483.046051908,1006.6967
333483.07962124405,1006.6967
333483.11319058004,1006.69867
333483.14675991604,1006.70667
333483.18032925203,1006.70667
333483.21389858803,1006.70667
333483.247467924,1006.70667
333483.28103726,1006.70667
333483.314606596,1006.70667
333483.348175932,1006.70667
333483.381745267,1006.70795
333483.415314603,1006.7167
333483.448883939,1006.7167
333483.482453275,1006.7167
333483.516022611,1006.7167
333483.549591947,1006.7167
333483.583161283,1006.7167
333483.61673061905,1006.7167
333483.65029995504,1006.7167
333483.68386929104,1006.7167
333483.71743862703,1006.7167
333483.75100796303,1006.7167
333483.784577299,1006.7167
333483.818146635,1006.7167
333483.851715971,1006.7242
333483.885285307,1006.7267
333483.918854642,1006.7267
333483.952423978,1006.7267
333483.985993314,1006.7267
333484.01956265,1006.7267
333484.053131986,1006.7267
333484.086701322,1006.7323
333484.120270658,1006.7367
333484.15383999405,1006.7367
333484.18740933004,1006.7367
333484.22097866604,1006.73694
333484.25454800203,1006.7467
333484.28811733803,1006.7467
333484.321686674,1006.7467
333484.35525601,1006.7467
333484.388825346,1006.7467
333484.422394682,1006.7539
333484.455964017,1006.75665
333484.489533353,1006.75665
333484.523102689,1006.75665
333484.556672025,1006.75665
333484.590241361,1006.75665
333484.623810697,1006.76086
333484.657380033,1006.76666
333484.69094936905,1006.76666
333484.72451870504,1006.76666
333484.75808804104,1006.76666
333484.79165737703,1006.76666
333484.82522671303,1006.76666
333484.858796049,1006.76666
333484.892365385,1006.76666
333484.925934721,1006.76666
333484.959504057,1006.76666
333484.993073392,1006.76666
333485.026642728,1006.76666
333485.060212064,1006.76666
333485.0937814,1006.7767
333485.127350736,1006.7767
333485.160920072,1006.7767
333485.194489408,1006.7767
333485.22805874405,1006.78174
333485.26162808004,1006.7866
333485.29519741604,1006.7866
333485.32876675203,1006.7866
333485.36233608803,1006.7866
333485.395905424,1006.78754
333485.42947476,1006.79663
333485.463044096,1006.79663
333485.496613432,1006.79663
333485.530182767,1006.8021
333485.563752103,1006.80664
333485.597321439,1006.80664
333485.630890775,1006.80664
333485.664460111,1006.80664
333485.698029447,1006.80664
333485.731598783,1006.80664
333485.76516811905,1006.80664
333485.79873745504,1006.80664
333485.83230679104,1006.80664
333485.86587612703,1006.80664
333485.89944546303,1006.80664
333485.933014799,1006.81604
333485.966584135,1006.81665
333486.000153471,1006.81665
333486.033722807,1006.81665
333486.067292142,1006.8207
333486.100861478,1006.82666
333486.134430814,1006.82666
333486.16800015,1006.82666
333486.201569486,1006.82666
333486.235138822,1006.82666
333486.268708158,1006.82666
333486.30227749405,1006.82666
333486.33584683004,1006.82666
333486.36941616604,1006.82666
333486.40298550203,1006.82666
333486.43655483803,1006.82666
333486.470124174,1006.82666
333486.50369351,1006.82666
333486.537262846,1006.8366
333486.570832182,1006.8366
333486.604401517,1006.8366
333486.637970853,1006.8366
333486.671540189,1006.8366
333486.705109525,1006.8366
333486.738678861,1006.84393
333486.772248197,1006.8466
333486.805817533,1006.8466
333486.83938686905,1006.8466
333486.87295620504,1006.8466
333486.90652554104,1006.8466
333486.94009487703,1006.8466
333486.97366421303,1006.8466
333487.007233549,1006.8466
333487.040802885,1006.8466
333487.074372221,1006.8466
333487.107941557,1006.8466
333487.141510892,1006.8466
333487.175080228,1006.8466
333487.208649564,1006.8466
333487.2422189,1006.8513
333487.275788236,1006.8566
333487.309357572,1006.84955
333487.342926908,1006.8466
333487.37649624405,1006.8466
333487.41006558004,1006.8466
333487.44363491604,1006.8483
333487.47720425203,1006.8566
333487.51077358803,1006.8566
333487.544342924,1006.8566
333487.57791226,1006.8629
333487.611481596,1006.8666
333487.645050932,1006.8666
333487.678620267,1006.8666
333487.712189603,1006.8666
333487.745758939,1006.8666
333487.779328275,1006.8699
333487.812897611,1006.8766
333487.846466947,1006.8766
333487.880036283,1006.8766
333487.91360561905,1006.8766
333487.94717495504,1006.8766
333487.98074429104,1006.8766
333488.01431362703,1006.8766
333488.04788296303,1006.8766
333488.081452299,1006.8766
333488.115021635,1006.8766
333488.148590971,1006.8766
333488.182160307,1006.88385
333488.215729642,1006.8866
333488.249298978,1006.8866
333488.282868314,1006.8866
333488.31643765,1006.8866
333488.350006986,1006.88965
333488.383576322,1006.8966
333488.417145658,1006.8966
333488.45071499405,1006.8966
333488.48428433004,1006.90424
333488.51785366604,1006.9066
333488.55142300203,1006.9066
333488.58499233803,1006.9066
333488.618561674,1006.9066
333488.65213101,1006.9066
333488.685700346,1006.91125
333488.719269682,1006.91656
333488.752839017,1006.91656
333488.786408353,1006.91656
333488.819977689,1006.91656
333488.853547025,1006.91656
333488.887116361,1006.91656
333488.920685697,1006.91656
333488.954255033,1006.91656
333488.98782436905,1006.91656
333489.02139370504,1006.91656
333489.05496304104,1006.91656
333489.08853237703,1006.91656
333489.12210171303,1006.91656
333489.155671049,1006.91656
333489.189240385,1006.91656
333489.222809721,1006.91656
333489.256379057,1006.91656
333489.289948392,1006.91656
333489.323517728,1006.91656
333489.357087064,1006.91656
333489.3906564,1006.91656
333489.424225736,1006.9266
333489.457795072,1006.9266
333489.491364408,1006.9266
333489.52493374405,1006.9266
333489.55850308004,1006.9266
333489.59207241604,1006.9266
333489.62564175203,1006.9266
333489.65921108803,1006.9266
333489.692780424,1006.9266
333489.72634976,1006.9266
333489.759919096,1006.9266
333489.793488432,1006.9266
333489.827057767,1006.9266
333489.860627103,1006.92126
333489.894196439,1006.91656
333489.927765775,1006.9242
333489.961335111,1006.9266
333489.994904447,1006.9266
333490.028473783,1006.9266
333490.06204311905,1006.9266
333490.09561245504,1006.9266
333490.12918179104,1006.9266
333490.16275112703,1006.9266
333490.19632046303,1006.9266
333490.229889799,1006.9266
333490.263459135,1006.9358
333490.297028471,1006.9366
333490.330597807,1006.9366
333490.364167142,1006.9366
333490.397736478,1006.9366
333490.431305814,1006.9366
333490.46487515,1006.9366
333490.498444486,1006.9366
333490.532013822,1006.9366
333490.565583158,1006.9366
333490.59915249405,1006.9366
333490.63272183004,1006.9366
333490.66629116604,1006.9366
333490.69986050203,1006.9366
333490.73342983803,1006.931
333490.766999174,1006.9266
333490.80056851,1006.9344
333490.834137846,1006.9366
333490.867707182,1006.9366
333490.901276517,1006.93524
333490.934845853,1006.9266
333490.968415189,1006.9302
333491.001984525,1006.9366
333491.035553861,1006.9366
333491.069123197,1006.9366
333491.102692533,1006.9366
333491.13626186905,1006.9366
333491.16983120504,1006.93713
333491.20340054104,1006.94653
333491.23696987703,1006.94366
333491.27053921303,1006.9366
333491.304108549,1006.9366
333491.337654957,1006.9366
333491.371224293,1006.9366
333491.404793629,1006.9366
333491.438362964,1006.9366
333491.4719323,1006.94653
333491.505501636,1006.94653
333491.539070972,1006.94653
333491.572640308,1006.94653
333491.606209644,1006.94653
333491.63977898,1006.94653
333491.67334831605,1006.94653
333491.70691765205,1006.94653
333491.74048698804,1006.94653
333491.77405632404,1006.94653
333491.80762566003,1006.94653
333491.841194996,1006.94653
333491.874764332,1006.94653
333491.908333668,1006.94653
333491.941903004,1006.94653
333491.975472339,1006.94653
333492.009041675,1006.94653
333492.042611011,1006.94653
333492.076180347,1006.94653
333492.109749683,1006.94653
333492.143319019,1006.94653
333492.176888355,1006.94653
333492.21045769105,1006.94653
333492.24402702705,1006.94653
333492.27759636304,1006.94653
333492.31116569904,1006.9366
333492.34473503503,1006.93774
333492.378304371,1006.94653
333492.411873707,1006.94653
333492.445443043,1006.94653
333492.479012379,1006.94653
333492.512581714,1006.94653
333492.54615105,1006.94653
333492.579720386,1006.94653
333492.613289722,1006.94653
333492.646859058,1006.94653
333492.680428394,1006.94653
333492.71399773,1006.94653
333492.74756706605,1006.9414
333492.78113640205,1006.9366
333492.81470573804,1006.9366
333492.84827507404,1006.9366
333492.88184441003,1006.9366
333492.915413746,1006.9366
333492.948983082,1006.9366
333492.982552418,1006.9366
333493.016121754,1006.9366
333493.049691089,1006.9366
333493.083260425,1006.9366
333493.116829761,1006.9366
333493.150399097,1006.9366
333493.183968433,1006.93634
333493.217537769,1006.9266
333493.251107105,1006.9266
333493.28467644105,1006.9266
333493.31824577705,1006.9266
333493.35181511304,1006.9266
333493.38538444904,1006.9266
333493.41895378503,1006.9266
333493.452523121,1006.9266
333493.486092457,1006.9266
333493.519661793,1006.9266
333493.553231129,1006.9266
333493.586800464,1006.9266
333493.6203698,1006.9266
333493.653939136,1006.9266
333493.687508472,1006.9266
333493.721077808,1006.9266
333493.754647144,1006.9266
333493.78821648,1006.9266
333493.82178581605,1006.9266
333493.85535515205,1006.9266
333493.88892448804,1006.9266
333493.92249382404,1006.9266
333493.95606316003,1006.9266
333493.989632496,1006.9266
333494.023201832,1006.9266
333494.056771168,1006.9266
333494.090340504,1006.9266
333494.123909839,1006.9266
333494.157479175,1006.9266
333494.191048511,1006.9266
333494.224617847,1006.9266
333494.258187183,1006.9192
333494.291756519,1006.91656
333494.325325855,1006.91656
333494.35889519105,1006.91656
333494.39246452705,1006.91656
333494.42603386304,1006.91656
333494.45960319904,1006.91656
333494.49317253503,1006.91656
333494.526741871,1006.91656
333494.560311207,1006.91656
333494.593880543,1006.9076
333494.627449879,1006.9066
333494.661019214,1006.9066
333494.69458855,1006.9066
333494.728157886,1006.9066
333494.761727222,1006.9066
333494.795296558,1006.9066
333494.828865894,1006.9066
333494.86243523,1006.8983
333494.89600456605,1006.8966
333494.92957390205,1006.8966
333494.96314323804,1006.8966
333494.99671257404,1006.8966
333495.03028191003,1006.8966
333495.063851246,1006.8966
333495.097420582,1006.8966
333495.130989918,1006.8966
333495.164559254,1006.8966
333495.198128589,1006.8966
333495.231697925,1006.8966
333495.265267261,1006.8966
333495.298836597,1006.8966
333495.332405933,1006.8966
333495.365975269,1006.8966
333495.399544605,1006.8966
333495.43311394105,1006.90466
333495.46668327705,1006.9066
333495.50025261304,1006.9066
333495.53382194904,1006.9066
333495.56739128503,1006.9066
333495.600960621,1006.9066
333495.634529957,1006.9066
333495.668099293,1006.9066
333495.701668629,1006.9066
333495.735237964,1006.9066
333495.7688073,1006.8969
333495.802376636,1006.8966
333495.835945972,1006.89856
333495.869515308,1006.9066
333495.903084644,1006.9023
333495.93665398,1006.8966
333495.97022331605,1006.8966
333496.00379265205,1006.8966
333496.03736198804,1006.8966
333496.07093132404,1006.8966
333496.10450066003,1006.8966
333496.138069996,1006.8966
333496.171639332,1006.8966
333496.205208668,1006.8966
333496.238778004,1006.8966
333496.272347339,1006.8966
333496.305916675,1006.8966
333496.339486011,1006.8966
333496.373055347,1006.8966
333496.406624683,1006.8966
333496.440194019,1006.8966
333496.473763355,1006.8966
333496.50733269105,1006.8966
333496.54090202705,1006.8966
333496.57447136304,1006.8966
333496.60804069904,1006.8966
333496.64161003503,1006.9065
333496.675179371,1006.9066
333496.708748707,1006.9066
333496.742318043,1006.9066
333496.775887379,1006.9066
333496.809456714,1006.9066
333496.84302605,1006.9066
333496.876595386,1006.9066
333496.910164722,1006.9066
333496.943734058,1006.9066
333496.977303394,1006.9066
333497.01087273,1006.9066
333497.04444206605,1006.9066
333497.07801140205,1006.9066
333497.11158073804,1006.9066
333497.14515007404,1006.9066
333497.17871941003,1006.9066
333497.212288746,1006.9066
333497.245858082,1006.9066
333497.279427418,1006.9066
333497.312996754,1006.9066
333497.346566089,1006.911
333497.380135425,1006.91656
333497.413704761,1006.91656
333497.447274097,1006.91656
333497.480843433,1006.91656
333497.514412769,1006.91656
333497.547982105,1006.91656
333497.58155144105,1006.91656
333497.61512077705,1006.91656
333497.64869011304,1006.91656
333497.68225944904,1006.92267
333497.71582878503,1006.9266
333497.749398121,1006.9266
333497.782967457,1006.9266
333497.816536793,1006.91656
333497.850106129,1006.91656
333497.883675464,1006.91656
333497.9172448,1006.91656
333497.950814136,1006.91656
333497.984383472,1006.91656
333498.017952808,1006.91656
333498.051522144,1006.91656
333498.08509148,1006.91656
333498.11866081605,1006.91656
333498.15223015205,1006.91656
333498.18579948804,1006.91656
333498.21936882404,1006.91656
333498.25293816003,1006.91656
333498.286507496,1006.91656
333498.320076832,1006.91656
333498.353646168,1006.91656
333498.387215504,1006.9172
333498.420784839,1006.9266
333498.454354175,1006.9266
333498.487923511,1006.9266
333498.521492847,1006.9266
333498.555062183,1006.9266
333498.588631519,1006.9266
333498.622200855,1006.9266
333498.65577019105,1006.9266
333498.68933952705,1006.9266
333498.72290886304,1006.9266
333498.75647819904,1006.9266
333498.79004753503,1006.9266
333498.823616871,1006.9266
333498.857186207,1006.9266
333498.890755543,1006.9266
333498.924324879,1006.9266
333498.957894214,1006.9266
333498.99146355,1006.9266
333499.025032886,1006.9266
333499.058602222,1006.9266
333499.092171558,1006.9266
333499.125740894,1006.9266
333499.15931023,1006.9266
333499.19287956605,1006.9351
333499.22644890205,1006.9366
333499.26001823804,1006.9366
333499.29358757404,1006.9366
333499.32715691003,1006.9366
333499.360726246,1006.9366
333499.394295582,1006.9366
333499.427864918,1006.9366
333499.461434254,1006.9366
333499.495003589,1006.9366
333499.528572925,1006.94653
333499.562142261,1006.94653
333499.595711597,1006.94653
333499.629280933,1006.94653
333499.662850269,1006.94653
333499.696419605,1006.94653
333499.72998894105,1006.94653
333499.76355827705,1006.94653
333499.79712761304,1006.94653
333499.83069694904,1006.94653
333499.86426628503,1006.94653
333499.897835621,1006.94653
333499.931404957,1006.94653
333499.964974293,1006.94653
333499.998543629,1006.94653
333500.032112964,1006.94653
333500.0656823,1006.94653
333500.099251636,1006.94653
333500.132820972,1006.94653
333500.166390308,1006.94653
333500.199959644,1006.94653
333500.23352898,1006.94653
333500.26709831605,1006.94653
333500.30066765205,1006.9536
333500.33423698804,1006.95654
333500.36780632404,1006.95654
333500.40137566003,1006.95605
333500.434944996,1006.94653
333500.468514332,1006.9494
333500.502083668,1006.95654
333500.535653004,1006.95654
333500.569222339,1006.95654
333500.602791675,1006.95654
333500.636361011,1006.9652
333500.669930347,1006.96655
333500.703499683,1006.95654
333500.737069019,1006.95435
333500.770638355,1006.94653
333500.80420769105,1006.95105
333500.83777702705,1006.95654
333500.87134636304,1006.95654
333500.90491569904,1006.95654
333500.93848503503,1006.95654
333500.972054371,1006.94653
333501.005623707,1006.94653
333501.039193043,1006.94653
333501.072762379,1006.94653
333501.106331714,1006.94653
333501.13990105,1006.94037
333501.173470386,1006.9366
333501.207039722,1006.9366
333501.240609058,1006.9366
333501.274178394,1006.9366
333501.30774773,1006.9366
333501.34132458305,1006.93976
333501.37489391904,1006.94653
333501.40846325504,1006.94653
333501.44203259103,1006.94653
333501.475601927,1006.94653
333501.509171263,1006.94653
333501.542740599,1006.94653
333501.576309935,1006.94653
333501.609879271,1006.94653
333501.643448606,1006.94653
333501.677017942,1006.94165
333501.710587278,1006.9366
333501.744156614,1006.9366
333501.77772595,1006.9366
333501.811295286,1006.9366
333501.84486462205,1006.9366
333501.87843395805,1006.9366
333501.91200329404,1006.9396
333501.94557263004,1006.94653
333501.97914196603,1006.94653
333502.012711302,1006.94
333502.046280638,1006.9366
333502.079849974,1006.9366
333502.11341931,1006.9366
333502.146988646,1006.9366
333502.180557981,1006.9366
333502.214127317,1006.9366
333502.247696653,1006.9366
333502.281265989,1006.9366
333502.314835325,1006.9366
333502.348404661,1006.9366
333502.38197399705,1006.9366
333502.41554333305,1006.9366
333502.44911266904,1006.9366
333502.48268200504,1006.9366
333502.51625134103,1006.9366
333502.549820677,1006.9366
333502.583390013,1006.9366
333502.616959349,1006.9366
333502.650528685,1006.9366
333502.684098021,1006.9366
333502.717667356,1006.9366
333502.751236692,1006.9366
333502.784806028,1006.9366
333502.818375364,1006.9366
333502.8519447,1006.9366
333502.885514036,1006.9366
333502.91908337205,1006.9366
333502.95265270805,1006.9366
333502.98622204404,1006.9366
333503.01979138004,1006.9381
333503.05336071603,1006.94653
333503.086930052,1006.94653
333503.120499388,1006.94653
333503.154068724,1006.94653
333503.18763806,1006.94653
333503.221207396,1006.94653
333503.254776731,1006.94653
333503.288346067,1006.94653
333503.321915403,1006.94653
333503.355484739,1006.94653
333503.389054075,1006.94653
333503.422623411,1006.94653
333503.45619274705,1006.94653
333503.48976208305,1006.94653
333503.52333141904,1006.94653
333503.55690075504,1006.9468
333503.59047009103,1006.95654
333503.624039427,1006.95654
333503.657608763,1006.95654
333503.691178099,1006.95654
333503.724747435,1006.95654
333503.758316771,1006.94934
333503.791886106,1006.94653
333503.825455442,1006.94653
333503.859024778,1006.94653
333503.892594114,1006.9485
333503.92616345,1006.95654
333503.959732786,1006.9523
333503.99330212205,1006.94653
333504.02687145805,1006.94653
333504.06044079404,1006.94653
333504.09401013004,1006.95544
333504.12757946603,1006.9565
333504.161148802,1006.94653
333504.194718138,1006.94653
333504.228287474,1006.94653
333504.26185681,1006.94653
333504.295426146,1006.94653
333504.328995481,1006.94653
333504.362564817,1006.94653
333504.396134153,1006.94653
333504.429703489,1006.94653
333504.463272825,1006.94653
333504.496842161,1006.94653
333504.53041149705,1006.94653
333504.56398083305,1006.94653
333504.59755016904,1006.94653
333504.63111950504,1006.94653
333504.66468884103,1006.94653
333504.698258177,1006.9564
333504.731827513,1006.95654
333504.765396849,1006.95654
333504.798966185,1006.95654
333504.832535521,1006.95654
333504.866104856,1006.9508
333504.899674192,1006.94653
333504.933243528,1006.94653
333504.966812864,1006.9558
333505.0003822,1006.9562
333505.033951536,1006.94653
333505.06752087205,1006.94653
333505.10109020805,1006.94653
333505.13465954404,1006.9516
333505.16822888004,1006.95654
333505.20179821603,1006.95654
333505.235367552,1006.95654
333505.268936888,1006.95654
333505.302506224,1006.95654
333505.33607556,1006.95654
333505.369644896,1006.95654
333505.403214231,1006.95654
333505.436783567,1006.95654
333505.470352903,1006.95654
333505.503922239,1006.95654
333505.537491575,1006.94745
333505.571060911,1006.9468
333505.60463024705,1006.95654
333505.63819958305,1006.95654
333505.67176891904,1006.95276
333505.70533825504,1006.94653
333505.73890759103,1006.94653
333505.772476927,1006.94653
333505.806046263,1006.94653
333505.839615599,1006.94653
333505.873184935,1006.94653
333505.906754271,1006.94653
333505.940323606,1006.94653
333505.973892942,1006.94653
333506.007462278,1006.94653
333506.041031614,1006.94653
333506.07460095,1006.9388
333506.108170286,1006.9366
333506.14173962205,1006.9366
333506.17530895805,1006.93787
333506.20887829404,1006.94653
333506.24244763004,1006.94653
333506.27601696603,1006.94653
333506.309586302,1006.94653
333506.343155638,1006.94653
333506.376724974,1006.94653
333506.41029431,1006.93713
333506.443863646,1006.9366
333506.477432981,1006.9366
333506.511002317,1006.9366
333506.544571653,1006.9366
333506.578140989,1006.9366
333506.611710325,1006.9366
333506.645279661,1006.9366
333506.67884899705,1006.9366
333506.71241833305,1006.9366
333506.74598766904,1006.94653
333506.77955700504,1006.94653
333506.81312634103,1006.94653
333506.846695677,1006.94653
333506.880265013,1006.94653
333506.913834349,1006.94653
333506.947403685,1006.94653
333506.980973021,1006.94653
333507.014542356,1006.94653
333507.048111692,1006.94653
333507.081681028,1006.94653
333507.115250364,1006.94653
333507.1488197,1006.94653
333507.182389036,1006.94025
333507.21595837205,1006.9366
333507.24952770805,1006.9366
333507.28309704404,1006.9366
333507.31666638004,1006.94653
333507.35023571603,1006.94653
333507.383805052,1006.94653
333507.417374388,1006.94653
333507.450943724,1006.94653
333507.48451306,1006.94653
333507.518082396,1006.94653
333507.551651731,1006.94653
333507.585221067,1006.9366
333507.618790403,1006.93805
333507.652359739,1006.94653
333507.685929075,1006.94653
333507.719498411,1006.94653
333507.75306774705,1006.9404
333507.78663708305,1006.9366
333507.82020641904,1006.9366
333507.85377575504,1006.9366
333507.88734509103,1006.9374
333507.920914427,1006.94653
333507.954483763,1006.94653
333507.988053099,1006.94653
333508.021622435,1006.94653
333508.055191771,1006.94653
333508.088761106,1006.94653
333508.122330442,1006.94653
333508.155899778,1006.94653
333508.189469114,1006.94653
333508.22303845,1006.94653
333508.256607786,1006.94653
333508.29017712205,1006.94653
333508.32374645805,1006.94653
333508.35731579404,1006.94653
333508.39088513004,1006.94653
333508.42445446603,1006.94653
333508.458023802,1006.9459
333508.491593138,1006.9366
333508.525162474,1006.9366
333508.55873181,1006.9366
333508.592301146,1006.9366
333508.625870481,1006.9366
333508.659439817,1006.9366
333508.693009153,1006.9454
333508.726578489,1006.94653
333508.760147825,1006.9366
333508.793717161,1006.9366
333508.82728649705,1006.9366
333508.86085583305,1006.9366
333508.89442516904,1006.9366
333508.92799450504,1006.9366
333508.96156384103,1006.9447
333508.995133177,1006.94653
333509.028702513,1006.9366
333509.062271849,1006.9366
333509.095841185,1006.9366
333509.129410521,1006.9366
333509.162979856,1006.9366
333509.196549192,1006.9366
333509.230118528,1006.9366
333509.263687864,1006.9366
333509.2972572,1006.9464
333509.330826536,1006.94556
333509.36439587205,1006.9366
333509.39796520805,1006.9366
333509.43153454404,1006.9366
333509.46510388004,1006.94226
333509.49867321603,1006.94653
333509.532242552,1006.94653
333509.565811888,1006.94653
333509.599381224,1006.9366
333509.63295056,1006.9366
333509.666519896,1006.9366
333509.700089231,1006.9366
333509.733658567,1006.9315
333509.767227903,1006.9266
333509.800797239,1006.9266
333509.834366575,1006.9266
333509.867935911,1006.9266
333509.90150524705,1006.9266
333509.93507458305,1006.9266
333509.96864391904,1006.9266
333510.00221325504,1006.9222
333510.03578259103,1006.91656
333510.069351927,1006.91656
333510.102921263,1006.91656
333510.136490599,1006.90753
333510.170059935,1006.9068
333510.203629271,1006.91656
333510.237198606,1006.914
333510.270767942,1006.9066
333510.304337278,1006.9066
333510.337906614,1006.9066
333510.37147595,1006.9066
333510.405045286,1006.8982
333510.43861462205,1006.8966
333510.47218395805,1006.8966
333510.50575329404,1006.8985
333510.53932263004,1006.9066
333510.57289196603,1006.9066
333510.606461302,1006.9066
333510.640030638,1006.9066
333510.673599974,1006.9066
333510.70716931,1006.9066
333510.740738646,1006.8966
333510.774307981,1006.8978
333510.807877317,1006.9066
333510.841446653,1006.9066
333510.875015989,1006.9066
333510.908585325,1006.90063
333510.942154661,1006.8966
333510.97572399705,1006.8966
333511.00929333305,1006.8966
333511.04286266904,1006.9066
333511.07643200504,1006.9066
333511.11000134103,1006.9036
333511.143570677,1006.8966
333511.177140013,1006.8966
333511.210709349,1006.8966
333511.244278685,1006.8966
333511.277848021,1006.8966
333511.311417356,1006.8966
333511.344980949,1006.8966
333511.378550285,1006.8966
333511.412119621,1006.8966
333511.445688957,1006.89197
333511.479258293,1006.8866
333511.51282762905,1006.8866
333511.54639696504,1006.8866
333511.57996630104,1006.8866
333511.61353563704,1006.8866
333511.64710497303,1006.8866
333511.680674309,1006.8838
333511.714243645,1006.8766
333511.747812981,1006.8766
333511.781382317,1006.8766
333511.814951653,1006.8766
333511.848520988,1006.8679
333511.882090324,1006.8666
333511.91565966,1006.8666
333511.949228996,1006.8666
333511.982798332,1006.8666
333512.016367668,1006.8621
333512.04993700405,1006.8566
333512.08350634004,1006.8566
333512.11707567604,1006.8566
333512.15064501204,1006.8566
333512.18421434803,1006.8566
333512.217783684,1006.8551
333512.25135302,1006.8466
333512.284922356,1006.8466
333512.318491692,1006.8466
333512.352061028,1006.8466
333512.385630363,1006.8466
333512.419199699,1006.83813
333512.452769035,1006.8366
333512.486338371,1006.8366
333512.519907707,1006.8366
333512.553477043,1006.8366
333512.58704637905,1006.8366
333512.62061571504,1006.8311
333512.65418505104,1006.82666
333512.68775438704,1006.82666
333512.72132372303,1006.82666
333512.754893059,1006.81665
333512.788462395,1006.818
333512.822031731,1006.82666
333512.855601067,1006.82666
333512.889170403,1006.8218
333512.922739738,1006.81665
333512.956309074,1006.81665
333512.98987841,1006.81665
333513.023447746,1006.8262
333513.057017082,1006.8259
333513.090586418,1006.81665
333513.12415575405,1006.8136
333513.15772509004,1006.80664
333513.19129442604,1006.80664
333513.22486376204,1006.80664
333513.25843309803,1006.80664
333513.292002434,1006.80664
333513.32557177,1006.80664
333513.359141106,1006.80664
333513.392710442,1006.80664
333513.426279778,1006.80664
333513.459849113,1006.80664
333513.493418449,1006.80664
333513.526987785,1006.80664
333513.560557121,1006.80664
333513.594126457,1006.80664
333513.627695793,1006.79663
333513.66126512905,1006.79663
333513.69483446504,1006.79663
333513.72840380104,1006.80066
333513.76197313704,1006.80664
333513.79554247303,1006.8003
333513.829111809,1006.79663
333513.862681145,1006.79663
333513.896250481,1006.79663
333513.929819817,1006.79663
333513.963389153,1006.79663
333513.996958488,1006.79663
333514.030527824,1006.79663
333514.06409716,1006.79663
333514.097666496,1006.79663
333514.131235832,1006.79663
333514.164805168,1006.79663
333514.19837450405,1006.79663
333514.23194384004,1006.79663
333514.26551317604,1006.79663
333514.29908251204,1006.79663
333514.33265184803,1006.79663
333514.366221184,1006.79663
333514.39979052,1006.79663
333514.433359856,1006.79663
333514.466929192,1006.787
333514.500498528,1006.7858
333514.534067863,1006.7767
333514.567637199,1006.7767
333514.601206535,1006.7767
333514.634775871,1006.7767
333514.668345207,1006.7767
333514.701914543,1006.7767
333514.73548387905,1006.76764
333514.76905321504,1006.7665
333514.80262255104,1006.75665
333514.83619188704,1006.75916
333514.86976122303,1006.76666
333514.903330559,1006.76184
333514.936899895,1006.75665
333514.970469231,1006.75665
333515.004038567,1006.75665
333515.037607903,1006.75665
333515.071177238,1006.75665
333515.104746574,1006.75665
333515.13831591,1006.75665
333515.171885246,1006.75665
333515.205454582,1006.75665
333515.239023918,1006.75665
333515.27259325405,1006.75665
333515.30616259004,1006.75665
333515.33973192604,1006.75665
333515.37330126204,1006.75665
333515.40687059803,1006.75665
333515.440439934,1006.75665
333515.47400927,1006.75665
333515.507578606,1006.75665
333515.541147942,1006.75665
333515.574717278,1006.7485
333515.608286613,1006.7467
333515.641855949,1006.7467
333515.675425285,1006.7467
333515.708994621,1006.7467
333515.742563957,1006.7467
333515.776133293,1006.7467
333515.80970262905,1006.7467
333515.84327196504,1006.7392
333515.87684130104,1006.7367
333515.91041063704,1006.74646
333515.94397997303,1006.74567
333515.977549309,1006.7367
333516.011118645,1006.7367
333516.044687981,1006.7367
333516.078257317,1006.7367
333516.111826653,1006.7367
333516.145395988,1006.7367
333516.178965324,1006.72754
333516.21253466,1006.7267
333516.246103996,1006.7267
333516.279673332,1006.7267
333516.313242668,1006.7267
333516.34681200405,1006.7267
333516.38038134004,1006.7267
333516.41395067604,1006.71936
333516.44752001204,1006.7167
333516.48108934803,1006.7167
333516.514658684,1006.7167
333516.54822802,1006.7167
333516.581797356,1006.7167
333516.615366692,1006.7167
333516.648936028,1006.7167
333516.682505363,1006.7101
333516.716074699,1006.70667
333516.749644035,1006.71564
333516.783213371,1006.7167
333516.816782707,1006.7167
333516.850352043,1006.7167
333516.88392137905,1006.7167
333516.91749071504,1006.7167
333516.95106005104,1006.7107
333516.98462938704,1006.70667
333517.01819872303,1006.70667
333517.051768059,1006.70667
333517.085337395,1006.70667
333517.118906731,1006.7049
333517.152476067,1006.6967
333517.186045403,1006.6967
333517.219614738,1006.6967
333517.253184074,1006.6967
333517.28675341,1006.6967
333517.320322746,1006.6967
333517.353892082,1006.6967
333517.387461418,1006.6967
333517.42103075405,1006.6967
333517.45460009004,1006.69324
333517.48816942604,1006.6867
333517.52173876204,1006.6867
333517.55530809803,1006.6867
333517.588877434,1006.6867
333517.62244677,1006.6867
333517.656016106,1006.6862
333517.689585442,1006.6767
333517.723154778,1006.6767
333517.756724113,1006.6767
333517.790293449,1006.6767
333517.823862785,1006.6767
333517.857432121,1006.6767
333517.891001457,1006.6767
333517.924570793,1006.6767
333517.95814012905,1006.6767
333517.99170946504,1006.6767
333518.02527880104,1006.6767
333518.05884813704,1006.6722
333518.09241747303,1006.66675
333518.125986809,1006.66675
333518.159556145,1006.66675
333518.193125481,1006.66675
333518.226694817,1006.66675
333518.260264153,1006.66675
333518.293833488,1006.66675
333518.327402824,1006.66675
333518.36097216,1006.66675
333518.394541496,1006.66675
333518.428110832,1006.66675
333518.461680168,1006.6582
333518.49524950405,1006.65674
333518.52881884004,1006.65674
333518.56238817604,1006.65674
333518.59595751204,1006.65674
333518.62952684803,1006.65234
333518.663096184,1006.6467
333518.69666552,1006.6467
333518.730234856,1006.6467
333518.763804192,1006.6467
333518.797373528,1006.6467
333518.830942863,1006.6467
333518.864512199,1006.6467
333518.898081535,1006.64294
333518.931650871,1006.6367
333518.965220207,1006.6367
333518.998789543,1006.6367
333519.03235887905,1006.6367
333519.06592821504,1006.6367
333519.09949755104,1006.6367
333519.13306688704,1006.6367
333519.16663622303,1006.6367
333519.200205559,1006.6367
333519.233774895,1006.6367
333519.267344231,1006.6367
333519.300913567,1006.6289
333519.334482903,1006.6267
333519.368052238,1006.6267
333519.401621574,1006.6267
333519.43519091,1006.62427
333519.468760246,1006.61676
333519.502329582,1006.61676
333519.535898918,1006.61676
333519.56946825405,1006.6096
333519.60303759004,1006.60675
333519.63660692604,1006.60675
333519.67017626204,1006.6061
333519.70374559803,1006.59674
333519.737314934,1006.59674
333519.77088427,1006.59674
333519.804453606,1006.59674
333519.838022942,1006.59674
333519.871592278,1006.59674
333519.905161613,1006.59674
333519.938730949,1006.59674
333519.972300285,1006.59674
333520.005869621,1006.59674
333520.039438957,1006.59674
333520.073008293,1006.59674
333520.10657762905,1006.59674
333520.14014696504,1006.59674
333520.17371630104,1006.59674
333520.20728563704,1006.59674
333520.24085497303,1006.5868
333520.274424309,1006.5868
333520.307993645,1006.5868
333520.341562981,1006.5868
333520.375132317,1006.5868
333520.408701653,1006.5868
333520.442270988,1006.5868
333520.475840324,1006.5868
333520.50940966,1006.5868
333520.542978996,1006.5857
333520.576548332,1006.5768
333520.610117668,1006.5768
333520.64368700405,1006.5768
333520.67725634004,1006.5768
333520.71082567604,1006.5768
333520.74439501204,1006.5687
333520.77796434803,1006.5668
333520.811533684,1006.5668
333520.84510302,1006.5668
333520.878672356,1006.5668
333520.912241692,1006.5668
333520.945811028,1006.5668
333520.979380363,1006.5668
333521.012949699,1006.5668
333521.046519035,1006.5668
333521.080088371,1006.5668
333521.113657707,1006.5668
333521.147227043,1006.5668
333521.18079637905,1006.5668
333521.21436571504,1006.5668
333521.24793505104,1006.5668
333521.28150438704,1006.56006
333521.31507372303,1006.55676
333521.348641008,1006.55676
333521.382210344,1006.55676
333521.41577968,1006.55676
333521.449349016,1006.5542
333521.482918352,1006.54675
333521.516487687,1006.54675
333521.550057023,1006.54675
333521.583626359,1006.54675
333521.617195695,1006.54675
333521.650765031,1006.54675
333521.68433436705,1006.5368
333521.71790370304,1006.5368
333521.75147303904,1006.5368
333521.78504237504,1006.5368
333521.81861171103,1006.5368
333521.852181047,1006.5368
333521.885750383,1006.5368
333521.919319719,1006.5368
333521.952889055,1006.5368
333521.986458391,1006.5355
333522.020027727,1006.5268
333522.053597062,1006.5268
333522.087166398,1006.5268
333522.120735734,1006.5268
333522.15430507,1006.5268
333522.187874406,1006.5268
333522.22144374205,1006.5268
333522.25501307804,1006.5268
333522.28858241404,1006.5268
333522.32215175004,1006.5238
333522.35572108603,1006.5168
333522.389290422,1006.5168
333522.422859758,1006.5168
333522.456429094,1006.5168
333522.48999843,1006.5168
333522.523567766,1006.5168
333522.557137102,1006.5168
333522.590706437,1006.5168
333522.624275773,1006.5133
333522.657845109,1006.50684
333522.691414445,1006.50684
333522.724983781,1006.50684
333522.75855311705,1006.50684
333522.79212245304,1006.4975
333522.82569178904,1006.4973
333522.85926112504,1006.50684
333522.89283046103,1006.50397
333522.926399797,1006.4968
333522.959969133,1006.4968
333522.993538469,1006.4968
333523.027107805,1006.4968
333523.060677141,1006.4968
333523.094246477,1006.4968
333523.127815812,1006.4868
333523.161385148,1006.4868
333523.194954484,1006.4868
333523.22852382,1006.4868
333523.262093156,1006.4868
333523.29566249205,1006.48
333523.32923182804,1006.4768
333523.36280116404,1006.48596
333523.39637050004,1006.4868
333523.42993983603,1006.4868
333523.463509172,1006.4868
333523.497078508,1006.483
333523.530647844,1006.4768
333523.56421718,1006.4768
333523.597786516,1006.4768
333523.631355852,1006.4768
333523.664925187,1006.4768
333523.698494523,1006.4768
333523.732063859,1006.4768
333523.765633195,1006.47363
333523.799202531,1006.4668
333523.83277186705,1006.4668
333523.86634120304,1006.4668
333523.89991053904,1006.4668
333523.93347987504,1006.4668
333523.96704921103,1006.4668
333524.000618547,1006.4668
333524.034187883,1006.4668
333524.067757219,1006.4668
333524.101326555,1006.4668
333524.134895891,1006.4668
333524.168465227,1006.4668
333524.202034562,1006.4668
333524.235603898,1006.4573
333524.269173234,1006.45685
333524.30274257,1006.45685
333524.336311906,1006.45685
333524.36988124205,1006.45685
333524.40345057804,1006.45685
333524.43701991404,1006.45685
333524.47058925004,1006.45685
333524.50415858603,1006.44794
333524.537727922,1006.4469
333524.571297258,1006.45685
333524.604866594,1006.4544
333524.63843593,1006.44684
333524.672005266,1006.44684
333524.705574602,1006.44684
333524.739143937,1006.43976
333524.772713273,1006.4368
333524.806282609,1006.4368
333524.839851945,1006.4368
333524.873421281,1006.4368
333524.90699061705,1006.4368
333524.94055995304,1006.4368
333524.97412928904,1006.4368
333525.00769862504,1006.4368
333525.04126796103,1006.4368
333525.074837297,1006.4368
333525.108406633,1006.4368
333525.141975969,1006.4368
333525.175545305,1006.4368
333525.209114641,1006.4368
333525.242683977,1006.4368
333525.276253312,1006.4368
333525.309822648,1006.4368
333525.343391984,1006.4368
333525.37696132,1006.4368
333525.410530656,1006.4368
333525.44409999205,1006.4368
333525.47766932804,1006.4368
333525.51123866404,1006.4368
333525.54480800004,1006.4368
333525.57837733603,1006.4368
333525.611946672,1006.4368
333525.645516008,1006.4368
333525.679085344,1006.42706
333525.71265468,1006.4269
333525.746224016,1006.4269
333525.779793352,1006.4269
333525.813362687,1006.4269
333525.846932023,1006.4269
333525.880501359,1006.4269
333525.914070695,1006.4269
333525.947640031,1006.4269
333525.98120936705,1006.4269
333526.01477870304,1006.4269
333526.04834803904,1006.4269
333526.08191737504,1006.4269
333526.11548671103,1006.4269
333526.149056047,1006.4269
333526.182625383,1006.4269
333526.216194719,1006.4269
333526.249764055,1006.4269
333526.283333391,1006.4269
333526.316902727,1006.4269
333526.350472062,1006.4269
333526.384041398,1006.43115
333526.417610734,1006.4368
333526.45118007,1006.4368
333526.484749406,1006.4368
333526.51831874205,1006.4368
333526.55188807804,1006.4367
333526.58545741404,1006.4269
333526.61902675004,1006.4269
333526.65259608603,1006.4269
333526.686165422,1006.4269
333526.719734758,1006.4328
333526.753304094,1006.4368
333526.78687343,1006.4286
333526.820442766,1006.4269
333526.854012102,1006.4368
333526.887581437,1006.4368
333526.921150773,1006.4368
333526.954720109,1006.4368
333526.988289445,1006.4368
333527.021858781,1006.4368
333527.05542811705,1006.4368
333527.08899745304,1006.4368
333527.12256678904,1006.4368
333527.15613612504,1006.4368
333527.18970546103,1006.4368
333527.223274797,1006.4368
333527.256844133,1006.4368
333527.290413469,1006.4368
333527.323982805,1006.4368
333527.357552141,1006.4368
333527.391121477,1006.4368
333527.424690812,1006.4368
333527.458260148,1006.4368
333527.491829484,1006.4368
333527.52539882,1006.4368
333527.558968156,1006.4368
333527.59253749205,1006.4368
333527.62610682804,1006.4368
333527.65967616404,1006.4368
333527.69324550004,1006.4368
333527.72681483603,1006.4368
333527.760384172,1006.4347
333527.793953508,1006.4269
333527.827522844,1006.4269
333527.86109218,1006.4269
333527.894661516,1006.4269
333527.928230852,1006.4269
333527.961800187,1006.4269
333527.995369523,1006.4269
333528.028938859,1006.4269
333528.062508195,1006.4269
333528.096077531,1006.4269
333528.12964686705,1006.4269
333528.16321620304,1006.42065
333528.19678553904,1006.4169
333528.23035487504,1006.42535
333528.26392421103,1006.4269
333528.297493547,1006.4169
333528.331062883,1006.4169
333528.364632219,1006.4169
333528.398201555,1006.4169
333528.431770891,1006.4169
333528.465340227,1006.4169
333528.498909562,1006.4169
333528.532478898,1006.4169
333528.566048234,1006.4169
333528.59961757,1006.4169
333528.633186906,1006.4169
333528.66675624205,1006.4169
333528.70032557804,1006.4169
333528.73389491404,1006.4169
333528.76746425004,1006.4169
333528.80103358603,1006.4169
333528.834602922,1006.4169
333528.868172258,1006.4169
333528.901741594,1006.4169
333528.93531093,1006.4169
333528.968880266,1006.4169
333529.002449602,1006.4169
333529.036018937,1006.4169
333529.069588273,1006.4169
333529.103157609,1006.4169
333529.136726945,1006.4169
333529.170296281,1006.4169
333529.20386561705,1006.4169
333529.23743495304,1006.4169
333529.27100428904,1006.4216
333529.30457362504,1006.4269
333529.33814296103,1006.4269
333529.371712297,1006.4269
333529.405281633,1006.4269
333529.438850969,1006.4269
333529.472420305,1006.4269
333529.505989641,1006.4269
333529.539558977,1006.4269
333529.573128312,1006.4269
333529.606697648,1006.4269
333529.640266984,1006.4269
333529.67383632,1006.41815
333529.707405656,1006.4169
333529.74097499205,1006.4169
333529.77454432804,1006.4169
333529.80811366404,1006.4169
333529.84168300004,1006.4169
333529.87525233603,1006.4169
333529.908821672,1006.4169
333529.942391008,1006.4169
333529.975960344,1006.4169
333530.00952968,1006.4169
333530.043099016,1006.4169
333530.076668352,1006.4169
333530.110237687,1006.4169
333530.143807023,1006.4169
333530.177376359,1006.4169
333530.210945695,1006.4169
333530.244515031,1006.4169
333530.27808436705,1006.4169
333530.31165370304,1006.4169
333530.34522303904,1006.4169
333530.37879237504,1006.4169
333530.41236171103,1006.4169
333530.445931047,1006.4169
333530.479500383,1006.4169
333530.513069719,1006.4169
333530.546639055,1006.4169
333530.580208391,1006.4269
333530.613777727,1006.4269
333530.647347062,1006.4269
333530.680916398,1006.4269
333530.714485734,1006.4269
333530.74805507,1006.4269
333530.781624406,1006.4269
333530.81519374205,1006.4269
333530.84876307804,1006.4269
333530.88233241404,1006.42615
333530.91590175004,1006.4169
333530.94947108603,1006.4169
333530.983040422,1006.4169
333531.016609758,1006.4169
333531.050179094,1006.4169
333531.08374843,1006.4169
333531.117317766,1006.4169
333531.150887102,1006.4169
333531.184456437,1006.4169
333531.218025773,1006.4144
333531.251595109,1006.40686
333531.285164445,1006.41156
333531.318733781,1006.4169
333531.35230143,1006.4169
333531.385870766,1006.4169
333531.419440102,1006.4169
333531.453009438,1006.4169
333531.486578774,1006.4169
333531.52014811,1006.4169
333531.55371744605,1006.4128
333531.58728678204,1006.40686
333531.62085611804,1006.40686
333531.65442545403,1006.40686
333531.68799479003,1006.40686
333531.72156412504,1006.40686
333531.75513346103,1006.40796
333531.788702797,1006.4169
333531.822272133,1006.4169
333531.855841469,1006.4169
333531.889410805,1006.4169
333531.922980141,1006.4169
333531.956549477,1006.4169
333531.990118813,1006.4169
333532.023688149,1006.4169
333532.057257485,1006.4169
333532.09082682105,1006.4169
333532.12439615704,1006.4169
333532.15796549304,1006.4169
333532.19153482903,1006.4169
333532.22510416503,1006.4169
333532.25867350004,1006.4169
333532.29224283603,1006.4169
333532.325812172,1006.4177
333532.359381508,1006.4269
333532.392950844,1006.4269
333532.42652018,1006.4269
333532.460089516,1006.4269
333532.493658852,1006.4201
333532.527228188,1006.4169
333532.560797524,1006.4259
333532.59436686,1006.4269
333532.62793619605,1006.4269
333532.66150553204,1006.4269
333532.69507486804,1006.4269
333532.72864420403,1006.4269
333532.76221354003,1006.4269
333532.79578287504,1006.4269
333532.82935221103,1006.4269
333532.862921547,1006.4269
333532.896490883,1006.4368
333532.930060219,1006.4368
333532.963629555,1006.4368
333532.997198891,1006.4368
333533.030768227,1006.4368
333533.064337563,1006.4368
333533.097906899,1006.4368
333533.131476235,1006.4368
333533.16504557105,1006.4368
333533.19861490704,1006.4368
333533.23218424304,1006.4368
333533.26575357903,1006.4368
333533.29932291503,1006.4368
333533.33289225004,1006.4368
333533.36646158603,1006.4368
333533.400030922,1006.4368
333533.433600258,1006.4368
333533.467169594,1006.44684
333533.50073893,1006.44684
333533.534308266,1006.44684
333533.567877602,1006.44684
333533.601446938,1006.44684
333533.635016274,1006.44684
333533.66858561,1006.44684
333533.70215494605,1006.44684
333533.73572428204,1006.44684
333533.76929361804,1006.44684
333533.80286295403,1006.44684
333533.83643229003,1006.44684
333533.87000162504,1006.44684
333533.90357096103,1006.44684
333533.937140297,1006.44684
333533.970709633,1006.44684
333534.004278969,1006.4375
333534.037848305,1006.4368
333534.071417641,1006.4368
333534.104986977,1006.4397
333534.138556313,1006.44684
333534.172125649,1006.44165
333534.205694985,1006.4368
333534.23926432105,1006.4368
333534.27283365704,1006.4368
333534.30640299304,1006.4368
333534.33997232903,1006.4368
333534.37354166503,1006.4368
333534.40711100004,1006.4368
333534.44068033603,1006.4368
333534.474249672,1006.4368
333534.507819008,1006.4368
333534.541388344,1006.4368
333534.57495768,1006.4276
333534.608527016,1006.4269
333534.642096352,1006.4269
333534.675665688,1006.4269
333534.709235024,1006.4269
333534.74280436,1006.4269
333534.77637369605,1006.4269
333534.80994303204,1006.4269
333534.84351236804,1006.4269
333534.87708170403,1006.4269
333534.91065104003,1006.4269
333534.94422037504,1006.4269
333534.97778971103,1006.4269
333535.011359047,1006.4269
333535.044928383,1006.4269
333535.078497719,1006.4269
333535.112067055,1006.4269
333535.145636391,1006.4269
333535.179205727,1006.4269
333535.212775063,1006.4269
333535.246344399,1006.4269
333535.279913735,1006.4269
333535.31348307105,1006.4269
333535.34705240704,1006.4269
333535.38062174304,1006.4269
333535.41419107903,1006.4269
333535.44776041503,1006.4269
333535.48132975004,1006.4276
333535.51489908603,1006.4368
333535.548468422,1006.4368
333535.582037758,1006.4368
333535.615607094,1006.4368
333535.64917643,1006.4368
333535.682745766,1006.4368
333535.716315102,1006.4368
333535.749884438,1006.4367
333535.783453774,1006.4269
333535.81702311,1006.4293
333535.85059244605,1006.4368
333535.88416178204,1006.4368
333535.91773111804,1006.4368
333535.95130045403,1006.4297
333535.98486979003,1006.4269
333536.01843912504,1006.4269
333536.05200846103,1006.4269
333536.085577797,1006.42865
333536.119147133,1006.4368
333536.152716469,1006.4368
333536.186285805,1006.4368
333536.219855141,1006.4368
333536.253424477,1006.4368
333536.286993813,1006.4368
333536.320563149,1006.4368
333536.354132485,1006.44684
333536.38770182105,1006.44684
333536.42127115704,1006.44684
333536.45484049304,1006.44684
333536.48840982903,1006.44684
333536.52197916503,1006.44684
333536.55554850004,1006.44684
333536.58911783603,1006.44684
333536.622687172,1006.44684
333536.656256508,1006.44684
333536.689825844,1006.44684
333536.72339518,1006.4428
333536.756964516,1006.4368
333536.790533852,1006.4368
333536.824103188,1006.4368
333536.857672524,1006.4368
333536.89124186,1006.4368
333536.92481119605,1006.4368
333536.95838053204,1006.4368
333536.99194986804,1006.4368
333537.02551920403,1006.4368
333537.05908854003,1006.4425
333537.09265787504,1006.44684
333537.12622721103,1006.44684
333537.159796547,1006.44684
333537.193365883,1006.44684
333537.226935219,1006.44684
333537.260504555,1006.44684
333537.294073891,1006.44684
333537.327643227,1006.44684
333537.361212563,1006.44684
333537.394781899,1006.44684
333537.428351235,1006.44684
333537.46192057105,1006.44684
333537.49548990704,1006.44684
333537.52905924304,1006.44684
333537.56262857903,1006.44684
333537.59619791503,1006.44684
333537.62976725004,1006.44684
333537.66333658603,1006.44684
333537.696905922,1006.44684
333537.730475258,1006.44684
333537.764044594,1006.44684
333537.79761393,1006.44684
333537.831183266,1006.44684
333537.864752602,1006.44684
333537.898321938,1006.44684
333537.931891274,1006.44684
333537.96546061,1006.44684
333537.99902994605,1006.44684
333538.03259928204,1006.44684
333538.06616861804,1006.44684
333538.09973795403,1006.44684
333538.13330729003,1006.44684
333538.16687662504,1006.44684
333538.20044596103,1006.44684
333538.234015297,1006.44684
333538.267584633,1006.44684
333538.301153969,1006.44684
333538.334723305,1006.44684
333538.368292641,1006.44806
333538.401861977,1006.45685
333538.435431313,1006.45685
333538.469000649,1006.45685
333538.502569985,1006.45685
333538.53613932105,1006.45685
333538.56970865704,1006.45685
333538.60327799304,1006.45685
333538.63684732903,1006.45624
333538.67041666503,1006.44684
333538.70398600004,1006.4497
333538.73755533603,1006.45685
333538.771124672,1006.45685
333538.804694008,1006.45685
333538.838263344,1006.4492
333538.87183268,1006.44684
333538.905402016,1006.44684
333538.938971352,1006.44684
333538.972540688,1006.44684
333539.006110024,1006.44684
333539.03967936,1006.44684
333539.07324869605,1006.44684
333539.10681803204,1006.44684
333539.14038736804,1006.44684
333539.17395670403,1006.44684
333539.20752604003,1006.44684
333539.24109537504,1006.44684
333539.27466471103,1006.4496
333539.308234047,1006.45685
333539.341803383,1006.45685
333539.375372719,1006.45685
333539.408942055,1006.45685
333539.442511391,1006.45685
333539.476080727,1006.45685
333539.509650063,1006.45685
333539.543219399,1006.45685
333539.576788735,1006.45685
333539.61035807105,1006.45685
333539.64392740704,1006.45685
333539.67749674304,1006.45
333539.71106607903,1006.44684
333539.74463541503,1006.44684
333539.77820475004,1006.44684
333539.81177408603,1006.44684
333539.845343422,1006.44684
333539.878912758,1006.443
333539.912482094,1006.4368
333539.94605143,1006.443
333539.979620766,1006.44684
333540.013190102,1006.44684
333540.046759438,1006.44684
333540.080328774,1006.44684
333540.11389811,1006.44684
333540.14746744605,1006.44684
333540.18103678204,1006.44684
333540.21460611804,1006.44135
333540.24817545403,1006.4368
333540.28174479003,1006.4447
333540.31531412504,1006.44684
333540.34888346103,1006.44684
333540.382452797,1006.44543
333540.416022133,1006.4368
333540.449591469,1006.4368
333540.483160805,1006.4368
333540.516730141,1006.4368
333540.550299477,1006.4368
333540.583868813,1006.4368
333540.617438149,1006.4368
333540.651007485,1006.4375
333540.68457682105,1006.44684
333540.71814615704,1006.4438
333540.75171549304,1006.4368
333540.78528482903,1006.4368
333540.81885416503,1006.4368
333540.85242350004,1006.4368
333540.88599283603,1006.44574
333540.919562172,1006.44684
333540.953131508,1006.44684
333540.986700844,1006.44684
333541.02027018,1006.44684
333541.053839516,1006.44684
333541.087408852,1006.44684
333541.120978188,1006.44684
333541.154547524,1006.44684
333541.18811686,1006.44684
333541.22168619605,1006.44684
333541.25525553204,1006.44684
333541.28882486804,1006.44684
333541.32239420403,1006.4509
333541.355958401,1006.45685
333541.389527736,1006.45685
333541.423097072,1006.45685
333541.45666640805,1006.44806
333541.49023574404,1006.44684
333541.52380508004,1006.44794
333541.55737441604,1006.45685
333541.59094375203,1006.45337
333541.624513088,1006.44684
333541.658082424,1006.44684
333541.69165176,1006.44684
333541.725221096,1006.44684
333541.758790432,1006.44684
333541.792359768,1006.44684
333541.825929104,1006.44684
333541.85949844,1006.44684
333541.893067776,1006.44684
333541.926637111,1006.44165
333541.960206447,1006.4368
333541.99377578305,1006.4368
333542.02734511904,1006.4368
333542.06091445504,1006.44666
333542.09448379104,1006.44684
333542.12805312703,1006.44684
333542.161622463,1006.44684
333542.195191799,1006.44684
333542.228761135,1006.44684
333542.262330471,1006.44684
333542.295899807,1006.44684
333542.329469143,1006.4376
333542.363038479,1006.4372
333542.396607815,1006.44684
333542.430177151,1006.44684
333542.463746486,1006.44684
333542.497315822,1006.44684
333542.53088515805,1006.44684
333542.56445449404,1006.44684
333542.59802383004,1006.44684
333542.63159316604,1006.44684
333542.66516250203,1006.44684
333542.698731838,1006.44684
333542.732301174,1006.44684
333542.76587051,1006.44684
333542.799439846,1006.44684
333542.833009182,1006.44684
333542.866578518,1006.44684
333542.900147854,1006.44684
333542.93371719,1006.44684
333542.967286526,1006.44684
333543.000855861,1006.44684
333543.034425197,1006.44684
333543.06799453305,1006.44684
333543.10156386904,1006.44684
333543.13513320504,1006.44684
333543.16870254104,1006.44684
333543.20227187703,1006.44684
333543.235841213,1006.44684
333543.269410549,1006.4488
333543.302979885,1006.45685
333543.336549221,1006.45685
333543.370118557,1006.45685
333543.403687893,1006.45685
333543.437257229,1006.45685
333543.470826565,1006.45685
333543.504395901,1006.44684
333543.537965236,1006.44684
333543.571534572,1006.44684
333543.60510390805,1006.44684
333543.63867324404,1006.44684
333543.67224258004,1006.44684
333543.70581191604,1006.44684
333543.73938125203,1006.44684
333543.772950588,1006.4374
333543.806519924,1006.4368
333543.84008926,1006.4368
333543.873658596,1006.4368
333543.907227932,1006.4368
333543.940797268,1006.4422
333543.974366604,1006.44684
333544.00793594,1006.44684
333544.041505276,1006.44684
333544.075074611,1006.44684
333544.108643947,1006.44684
333544.14221328305,1006.44684
333544.17578261904,1006.44684
333544.20935195504,1006.44684
333544.24292129104,1006.44684
333544.27649062703,1006.4398
333544.310059963,1006.4368
333544.343629299,1006.4368
333544.377198635,1006.4368
333544.410767971,1006.4368
333544.444337307,1006.4368
333544.477906643,1006.4368
333544.511475979,1006.4368
333544.545045315,1006.4368
333544.578614651,1006.4368
333544.612183986,1006.4368
333544.645753322,1006.4368
333544.67932265805,1006.4368
333544.71289199404,1006.4368
333544.74646133004,1006.4368
333544.78003066604,1006.4368
333544.81360000203,1006.4368
333544.847169338,1006.4368
333544.880738674,1006.4368
333544.91430801,1006.4368
333544.947877346,1006.4368
333544.981446682,1006.4368
333545.015016018,1006.4368
333545.048585354,1006.4368
333545.08215469,1006.4368
333545.115724026,1006.4368
333545.149293361,1006.4368
333545.182862697,1006.4368
333545.21643203305,1006.4368
333545.25000136904,1006.43774
333545.28357070504,1006.44684
333545.31714004104,1006.44684
333545.35070937703,1006.44684
333545.384278713,1006.44684
333545.417848049,1006.44684
333545.451417385,1006.44684
333545.484986721,1006.44684
333545.518556057,1006.44684
333545.552125393,1006.44684
333545.585694729,1006.44684
333545.619264065,1006.44684
333545.652833401,1006.44684
333545.686402736,1006.44684
333545.719972072,1006.44684
333545.75354140805,1006.44684
333545.78711074404,1006.44684
333545.82068008004,1006.44684
333545.85424941604,1006.44684
333545.88781875203,1006.44684
333545.921388088,1006.44684
333545.954957424,1006.44684
333545.98852676,1006.44684
333546.022096096,1006.44684
333546.055665432,1006.44684
333546.089234768,1006.44684
333546.122804104,1006.44684
333546.15637344,1006.4444
333546.189942776,1006.4368
333546.223512111,1006.4368
333546.257081447,1006.4368
333546.29065078305,1006.4368
333546.32422011904,1006.4368
333546.35778945504,1006.4368
333546.39135879104,1006.4368
333546.42492812703,1006.4368
333546.458497463,1006.4368
333546.492066799,1006.4368
333546.525636135,1006.4368
333546.559205471,1006.4368
333546.592774807,1006.4368
333546.626344143,1006.4368
333546.659913479,1006.4368
333546.693482815,1006.4357
333546.727052151,1006.4269
333546.760621486,1006.4269
333546.794190822,1006.4269
333546.82776015805,1006.4269
333546.86132949404,1006.4269
333546.89489883004,1006.4269
333546.92846816604,1006.4269
333546.96203750203,1006.4269
333546.995606838,1006.4269
333547.029176174,1006.4269
333547.06274551,1006.4269
333547.096314846,1006.4269
333547.129884182,1006.4269
333547.163453518,1006.4194
333547.197022854,1006.4169
333547.23059219,1006.4169
333547.264161526,1006.41785
333547.297730861,1006.4269
333547.331300197,1006.4269
333547.36486953305,1006.4269
333547.39843886904,1006.4269
333547.43200820504,1006.42
333547.46557754104,1006.4169
333547.49914687703,1006.4169
333547.532716213,1006.4169
333547.566285549,1006.4169
333547.599854885,1006.4169
333547.633424221,1006.4169
333547.666993557,1006.4169
333547.700562893,1006.4169
333547.734132229,1006.4169
333547.767701565,1006.4169
333547.801270901,1006.4169
333547.834840236,1006.4169
333547.868409572,1006.4169
333547.90197890805,1006.4169
333547.93554824404,1006.42126
333547.96911758004,1006.4269
333548.00268691604,1006.4269
333548.03625625203,1006.4269
333548.069825588,1006.4269
333548.103394924,1006.4269
333548.13696426,1006.4269
333548.170533596,1006.4269
333548.204102932,1006.4269
333548.237672268,1006.4269
333548.271241604,1006.4269
333548.30481094,1006.4269
333548.338380276,1006.4269
333548.371949611,1006.4269
333548.405518947,1006.4269
333548.43908828305,1006.4269
333548.47265761904,1006.4237
333548.50622695504,1006.4169
333548.53979629104,1006.4169
333548.57336562703,1006.4169
333548.606934963,1006.4169
333548.640504299,1006.4169
333548.674073635,1006.4169
333548.707642971,1006.41815
333548.741212307,1006.4269
333548.774781643,1006.4269
333548.808350979,1006.4269
333548.841920315,1006.4269
333548.875489651,1006.4197
333548.909058986,1006.4169
333548.942628322,1006.42633
333548.97619765805,1006.4269
333549.00976699404,1006.4269
333549.04333633004,1006.4238
333549.07690566604,1006.4169
333549.11047500203,1006.4169
333549.144044338,1006.4169
333549.177613674,1006.4169
333549.21118301,1006.42566
333549.244752346,1006.4269
333549.278321682,1006.4269
333549.311891018,1006.42444
333549.345460354,1006.4169
333549.37902969,1006.4169
333549.412599026,1006.4169
333549.446168361,1006.4169
333549.479737697,1006.4169
333549.51330703305,1006.4169
333549.54687636904,1006.4169
333549.58044570504,1006.4169
333549.61401504104,1006.4169
333549.64758437703,1006.4169
333549.681153713,1006.4169
333549.714723049,1006.4104
333549.748292385,1006.40686
333549.781861721,1006.40686
333549.815431057,1006.40686
333549.849000393,1006.40686
333549.882569729,1006.40686
333549.916139065,1006.40686
333549.949708401,1006.40686
333549.983277736,1006.40686
333550.016847072,1006.40686
333550.05041640805,1006.40686
333550.08398574404,1006.40686
333550.11755508004,1006.40686
333550.15112441604,1006.40686
333550.18469375203,1006.40686
333550.218263088,1006.40686
333550.251832424,1006.40686
333550.28540176,1006.40686
333550.318971096,1006.40686
333550.352540432,1006.40686
333550.386109768,1006.40686
333550.419679104,1006.4079
333550.45324844,1006.4169
333550.486817776,1006.4169
333550.520387111,1006.4169
333550.553956447,1006.4169
333550.58752578305,1006.4169
333550.62109511904,1006.4169
333550.65466445504,1006.4169
333550.68823379104,1006.4169
333550.72180312703,1006.4169
333550.755372463,1006.4169
333550.788941799,1006.4169
333550.822511135,1006.42194
333550.856080471,1006.4269
333550.889649807,1006.4269
333550.923219143,1006.4269
333550.956788479,1006.4269
333550.990357815,1006.4169
333551.023927151,1006.4169
333551.057496486,1006.4169
333551.091065822,1006.42126
333551.12463515805,1006.4269
333551.15820449404,1006.4201
333551.19177383004,1006.4169
333551.22534316604,1006.42596
333551.25891250203,1006.4269
333551.292481838,1006.4269
333551.326051174,1006.4269
333551.359629908,1006.4269
333551.39319924405,1006.4269
333551.42676858004,1006.4207
333551.46033791604,1006.4169
333551.49390725204,1006.4169
333551.52747658803,1006.4169
333551.561045924,1006.4169
333551.59461525903,1006.4169
333551.628184595,1006.4169
333551.661753931,1006.4169
333551.695323267,1006.4169
333551.728892603,1006.4169
333551.762461939,1006.4169
333551.796031275,1006.4169
333551.829600611,1006.4169
333551.863169947,1006.4169
333551.896739283,1006.4169
333551.93030861905,1006.4132
333551.96387795504,1006.40686
333551.99744729104,1006.40686
333552.03101662704,1006.40686
333552.06458596303,1006.40686
333552.098155299,1006.4164
333552.13172463403,1006.41614
333552.16529397,1006.40686
333552.198863306,1006.40686
333552.232432642,1006.40686
333552.266001978,1006.40686
333552.299571314,1006.40686
333552.33314065,1006.40686
333552.366709986,1006.40686
333552.400279322,1006.40686
333552.433848658,1006.40686
333552.46741799405,1006.40686
333552.50098733004,1006.40686
333552.53455666604,1006.40686
333552.56812600204,1006.40686
333552.60169533803,1006.40686
333552.635264674,1006.40686
333552.66883400903,1006.40686
333552.702403345,1006.40686
333552.735972681,1006.40686
333552.769542017,1006.40686
333552.803111353,1006.40686
333552.836680689,1006.40686
333552.870250025,1006.40686
333552.903819361,1006.40686
333552.937388697,1006.40686
333552.970958033,1006.40686
333553.00452736905,1006.40686
333553.03809670504,1006.4046
333553.07166604104,1006.39685
333553.10523537704,1006.39685
333553.13880471303,1006.40265
333553.172374049,1006.40686
333553.20594338403,1006.40686
333553.23951272,1006.40686
333553.273082056,1006.40686
333553.306651392,1006.40686
333553.340220728,1006.40686
333553.373790064,1006.40686
333553.4073594,1006.40686
333553.440928736,1006.40686
333553.474498072,1006.40686
333553.508067408,1006.40686
333553.54163674405,1006.4167
333553.57520608004,1006.4169
333553.60877541604,1006.4169
333553.64234475204,1006.4169
333553.67591408803,1006.4169
333553.709483424,1006.4169
333553.74305275903,1006.4169
333553.776622095,1006.4169
333553.810191431,1006.4169
333553.843760767,1006.4169
333553.877330103,1006.4169
333553.910899439,1006.4169
333553.944468775,1006.4169
333553.978038111,1006.4118
333554.011607447,1006.40686
333554.045176783,1006.40686
333554.07874611905,1006.40686
333554.11231545504,1006.41656
333554.14588479104,1006.4169
333554.17945412704,1006.4169
333554.21302346303,1006.4169
333554.246592799,1006.4169
333554.28016213403,1006.4169
333554.31373147,1006.4169
333554.347300806,1006.4169
333554.380870142,1006.4169
333554.414439478,1006.4169
333554.448008814,1006.4169
333554.48157815,1006.41943
333554.515147486,1006.4269
333554.548716822,1006.4269
333554.582286158,1006.4208
333554.61585549405,1006.4169
333554.64942483004,1006.4169
333554.68299416604,1006.4169
333554.71656350204,1006.4169
333554.75013283803,1006.4169
333554.783702174,1006.4169
333554.81727150903,1006.4126
333554.850840845,1006.40686
333554.884410181,1006.40686
333554.917979517,1006.40686
333554.951548853,1006.40686
333554.985118189,1006.40686
333555.018687525,1006.40814
333555.052256861,1006.4169
333555.085826197,1006.4169
333555.119395533,1006.4169
333555.15296486905,1006.4109
333555.18653420504,1006.40686
333555.22010354104,1006.41516
333555.25367287704,1006.4169
333555.28724221303,1006.4169
333555.320811549,1006.4169
333555.35438088403,1006.4169
333555.38795022,1006.4169
333555.421519556,1006.4169
333555.455088892,1006.4169
333555.488658228,1006.4169
333555.522227564,1006.4169
333555.5557969,1006.4169
333555.589366236,1006.4169
333555.622935572,1006.4169
333555.656504908,1006.4169
333555.69007424405,1006.4169
333555.72364358004,1006.4169
333555.75721291604,1006.4169
333555.79078225204,1006.4169
333555.82435158803,1006.4169
333555.857920924,1006.4169
333555.89149025903,1006.4169
333555.925059595,1006.4169
333555.958628931,1006.4169
333555.992198267,1006.4169
333556.025767603,1006.4169
333556.059336939,1006.4169
333556.092906275,1006.4169
333556.126475611,1006.4169
333556.160044947,1006.4169
333556.193614283,1006.4169
333556.22718361905,1006.4169
333556.26075295504,1006.4169
333556.29432229104,1006.4169
333556.32789162704,1006.4169
333556.36146096303,1006.4169
333556.395030299,1006.4169
333556.42859963403,1006.4169
333556.46216897,1006.4169
333556.495738306,1006.4169
333556.529307642,1006.4169
333556.562876978,1006.4169
333556.596446314,1006.4169
333556.63001565,1006.4169
333556.663584986,1006.4169
333556.697154322,1006.4169
333556.730723658,1006.4169
333556.76429299405,1006.4169
333556.79786233004,1006.4169
333556.83143166604,1006.4169
333556.86500100204,1006.4169
333556.89857033803,1006.4169
333556.932139674,1006.4169
333556.96570900903,1006.4169
333556.999278345,1006.4169
333557.032847681,1006.4169
333557.066417017,1006.4141
333557.099986353,1006.40686
333557.133555689,1006.40686
333557.167125025,1006.40686
333557.200694361,1006.40686
333557.234263697,1006.40686
333557.267833033,1006.40686
333557.30140236905,1006.4078
333557.33497170504,1006.4169
333557.36854104104,1006.4136
333557.40211037704,1006.40686
333557.43567971303,1006.40686
333557.469249049,1006.40686
333557.50281838403,1006.40686
333557.53638772,1006.40686
333557.569957056,1006.40717
333557.603526392,1006.4169
333557.637095728,1006.4169
333557.670665064,1006.4169
333557.7042344,1006.4169
333557.737803736,1006.4169
333557.771373072,1006.4169
333557.804942408,1006.4169
333557.83851174405,1006.4169
333557.87208108004,1006.4169
333557.90565041604,1006.4169
333557.93921975204,1006.4169
333557.97278908803,1006.4125
333558.006358424,1006.40686
333558.03992775903,1006.4136
333558.073497095,1006.4169
333558.107066431,1006.40784
333558.140635767,1006.40686
333558.174205103,1006.4082
333558.207774439,1006.4169
333558.241343775,1006.4169
333558.274913111,1006.4169
333558.308482447,1006.4169
333558.342051783,1006.4169
333558.37562111905,1006.4169
333558.40919045504,1006.4169
333558.44275979104,1006.4169
333558.47632912704,1006.4169
333558.50989846303,1006.4169
333558.543467799,1006.4169
333558.57703713403,1006.4169
333558.61060647,1006.4169
333558.644175806,1006.4169
333558.677745142,1006.4169
333558.711314478,1006.4169
333558.744883814,1006.4169
333558.77845315,1006.4169
333558.812022486,1006.4169
333558.845591822,1006.4169
333558.879161158,1006.4169
333558.91273049405,1006.4169
333558.94629983004,1006.4169
333558.97986916604,1006.4169
333559.01343850204,1006.4169
333559.04700783803,1006.4169
333559.080577174,1006.4169
333559.11414650903,1006.4169
333559.147715845,1006.4169
333559.181285181,1006.4169
333559.214854517,1006.4169
333559.248423853,1006.4169
333559.281993189,1006.4169
333559.315562525,1006.4269
333559.349131861,1006.4269
333559.382701197,1006.4269
333559.416270533,1006.4269
333559.44983986905,1006.4269
333559.48340920504,1006.4198
333559.51697854104,1006.4169
333559.55054787704,1006.4169
333559.58411721303,1006.4169
333559.617686549,1006.4169
333559.65125588403,1006.4169
333559.68482522,1006.42096
333559.718394556,1006.4269
333559.751963892,1006.4269
333559.785533228,1006.4269
333559.819102564,1006.4269
333559.8526719,1006.4269
333559.886241236,1006.4269
333559.919810572,1006.4269
333559.953379908,1006.4269
333559.98694924405,1006.4269
333560.02051858004,1006.4269
333560.05408791604,1006.4269
333560.08765725204,1006.4269
333560.12122658803,1006.4269
333560.154795924,1006.4269
333560.18836525903,1006.4269
333560.221934595,1006.4269
333560.255503931,1006.4269
333560.289073267,1006.4269
333560.322642603,1006.4269
333560.356211939,1006.4269
333560.389781275,1006.4269
333560.423350611,1006.4269
333560.456919947,1006.42584
333560.490489283,1006.4169
333560.52405861905,1006.4169
333560.55762795504,1006.4169
333560.59119729104,1006.4169
333560.62476662704,1006.4169
333560.65833596303,1006.4169
333560.691905299,1006.4169
333560.72547463403,1006.41724
333560.75904397,1006.4269
333560.792613306,1006.4269
333560.826182642,1006.4269
333560.859751978,1006.4269
333560.893321314,1006.4269
333560.92689065,1006.4269
333560.960459986,1006.4269
333560.994029322,1006.4269
333561.027598658,1006.4269
333561.06116799405,1006.4269
333561.09473733004,1006.4269
333561.12830666604,1006.4269
333561.16187600204,1006.4269
333561.19544533803,1006.4269
333561.229014674,1006.4269
333561.26258400903,1006.4269
333561.296153345,1006.4269
333561.329722681,1006.4269
333561.36328084103,1006.4269
333561.396850177,1006.4269
333561.430419513,1006.4269
333561.463988849,1006.4269
333561.497558185,1006.4269
333561.531127521,1006.4269
333561.564696857,1006.4269
333561.598266193,1006.4169
333561.631835529,1006.4169
333561.665404865,1006.4169
333561.69897420105,1006.4169
333561.73254353704,1006.4169
333561.76611287304,1006.4169
333561.79968220805,1006.4169
333561.83325154404,1006.4169
333561.86682088004,1006.4169
333561.90039021603,1006.41815
333561.933959552,1006.4269
333561.967528888,1006.4269
333562.001098224,1006.4269
333562.03466756,1006.4269
333562.068236896,1006.4269
333562.101806232,1006.4269
333562.135375568,1006.4269
333562.168944904,1006.4269
333562.20251424,1006.4269
333562.23608357605,1006.4269
333562.26965291204,1006.4269
333562.30322224804,1006.4269
333562.33679158305,1006.4269
333562.37036091904,1006.4269
333562.40393025504,1006.4269
333562.43749959103,1006.4269
333562.471068927,1006.4269
333562.504638263,1006.4269
333562.538207599,1006.4269
333562.571776935,1006.4221
333562.605346271,1006.4169
333562.638915607,1006.4169
333562.672484943,1006.4169
333562.706054279,1006.4169
333562.739623615,1006.4169
333562.77319295105,1006.4169
333562.80676228704,1006.4169
333562.84033162304,1006.4209
333562.87390095805,1006.4269
333562.90747029404,1006.4205
333562.94103963004,1006.4169
333562.97460896603,1006.4169
333563.008178302,1006.4169
333563.041747638,1006.4169
333563.075316974,1006.4146
333563.10888631,1006.40686
333563.142455646,1006.40686
333563.176024982,1006.40686
333563.209594318,1006.40686
333563.243163654,1006.40686
333563.27673299,1006.40686
333563.31030232605,1006.40686
333563.34387166204,1006.40686
333563.37744099804,1006.40686
333563.41101033305,1006.41077
333563.44457966904,1006.4169
333563.47814900504,1006.4169
333563.51171834103,1006.4169
333563.545287677,1006.4169
333563.578857013,1006.4169
333563.612426349,1006.4169
333563.645995685,1006.4169
333563.679565021,1006.4169
333563.713134357,1006.4169
333563.746703693,1006.4169
333563.780273029,1006.4169
333563.813842365,1006.4169
333563.84741170105,1006.4169
333563.88098103704,1006.4169
333563.91455037304,1006.4169
333563.94811970805,1006.4169
333563.98168904404,1006.4169
333564.01525838004,1006.4169
333564.04882771603,1006.4169
333564.082397052,1006.4169
333564.115966388,1006.4169
333564.149535724,1006.4169
333564.18310506,1006.4169
333564.216674396,1006.4169
333564.250243732,1006.4169
333564.283813068,1006.4169
333564.317382404,1006.4169
333564.35095174,1006.4169
333564.38452107605,1006.4169
333564.41809041204,1006.4169
333564.45165974804,1006.4167
333564.48522908305,1006.40686
333564.51879841904,1006.40936
333564.55236775504,1006.4169
333564.58593709103,1006.4169
333564.619506427,1006.4169
333564.653075763,1006.4169
333564.686645099,1006.4085
333564.720214435,1006.40686
333564.753783771,1006.4169
333564.787353107,1006.4169
333564.820922443,1006.4169
333564.854491779,1006.4169
333564.888061115,1006.4169
333564.92163045105,1006.4169
333564.95519978704,1006.4169
333564.98876912304,1006.4257
333565.02233845805,1006.4269
333565.05590779404,1006.4269
333565.08947713004,1006.4269
333565.12304646603,1006.4269
333565.156615802,1006.4269
333565.190185138,1006.4269
333565.223754474,1006.4269
333565.25732381,1006.4269
333565.290893146,1006.4269
333565.324462482,1006.4269
333565.358031818,1006.4269
333565.391601154,1006.4269
333565.42517049,1006.4269
333565.45873982605,1006.4269
333565.49230916204,1006.4269
333565.52587849804,1006.43445
333565.55944783305,1006.4368
333565.59301716904,1006.4269
333565.62658650504,1006.4269
333565.66015584103,1006.4269
333565.693725177,1006.4269
333565.727294513,1006.4269
333565.760863849,1006.4269
333565.794433185,1006.4269
333565.828002521,1006.4269
333565.861571857,1006.4269
333565.895141193,1006.4269
333565.928710529,1006.4269
333565.962279865,1006.4269
333565.99584920105,1006.4269
333566.02941853704,1006.4269
333566.06298787304,1006.4269
333566.09655720805,1006.4269
333566.13012654404,1006.4269
333566.16369588004,1006.4269
333566.19726521603,1006.4269
333566.230834552,1006.4247
333566.264403888,1006.4169
333566.297973224,1006.4169
333566.33154256,1006.4169
333566.365111896,1006.4169
333566.398681232,1006.4169
333566.432250568,1006.4169
333566.465819904,1006.4169
333566.49938924,1006.4169
333566.53295857605,1006.4169
333566.56652791204,1006.4169
333566.60009724804,1006.4169
333566.63366658305,1006.4169
333566.66723591904,1006.4169
333566.70080525504,1006.4169
333566.73437459103,1006.4169
333566.767943927,1006.4169
333566.801513263,1006.4169
333566.835082599,1006.4169
333566.868651935,1006.4169
333566.902221271,1006.4169
333566.935790607,1006.4169
333566.969359943,1006.4169
333567.002929279,1006.4169
333567.036498615,1006.4169
333567.07006795105,1006.4169
333567.10363728704,1006.4169
333567.13720662304,1006.4169
333567.17077595805,1006.4169
333567.20434529404,1006.4169
333567.23791463004,1006.4169
333567.27148396603,1006.4169
333567.305053302,1006.4169
333567.338622638,1006.4169
333567.372191974,1006.4169
333567.40576131,1006.4169
333567.439330646,1006.4169
333567.472899982,1006.4169
333567.506469318,1006.4169
333567.540038654,1006.4169
333567.57360799,1006.4169
333567.60717732605,1006.4169
333567.64074666204,1006.4169
333567.67431599804,1006.4169
333567.70788533305,1006.4169
333567.74145466904,1006.4169
333567.77502400504,1006.4169
333567.80859334103,1006.4169
333567.842162677,1006.4169
333567.875732013,1006.4074
333567.909301349,1006.40686
333567.942870685,1006.40686
333567.976440021,1006.40686
333568.010009357,1006.40686
333568.043578693,1006.40686
333568.077148029,1006.4133
333568.110717365,1006.4169
333568.14428670105,1006.4081
333568.17785603704,1006.40686
333568.21142537304,1006.40686
333568.24499470805,1006.40686
333568.27856404404,1006.40686
333568.31213338004,1006.40686
333568.34570271603,1006.40686
333568.379272052,1006.40686
333568.412841388,1006.40686
333568.446410724,1006.40686
333568.47998006,1006.40686
333568.513549396,1006.40686
333568.547118732,1006.40686
333568.580688068,1006.40686
333568.614257404,1006.40686
333568.64782674,1006.40686
333568.68139607605,1006.40686
333568.71496541204,1006.40686
333568.74853474804,1006.40686
333568.78210408305,1006.4058
333568.81567341904,1006.39685
333568.84924275504,1006.39685
333568.88281209103,1006.39685
333568.916381427,1006.39685
333568.949950763,1006.39685
333568.983520099,1006.39685
333569.017089435,1006.39685
333569.050658771,1006.39685
333569.084228107,1006.39685
333569.117797443,1006.39417
333569.151366779,1006.38684
333569.184936115,1006.38684
333569.21850545105,1006.38684
333569.25207478704,1006.38684
333569.28564412304,1006.38684
333569.31921345805,1006.38684
333569.35278279404,1006.38684
333569.38635213004,1006.38684
333569.41992146603,1006.38684
333569.453490802,1006.38684
333569.487060138,1006.38684
333569.520629474,1006.38684
333569.55419881,1006.38684
333569.587768146,1006.3778
333569.621337482,1006.3769
333569.654906818,1006.3769
333569.688476154,1006.3769
333569.72204549,1006.3769
333569.75561482605,1006.3769
333569.78918416204,1006.3769
333569.82275349804,1006.3769
333569.85632283305,1006.3769
333569.88989216904,1006.3769
