0.0,0.0,0.0,0.0
11.062,14.0,0.0,0.0
27.872,14.0,14.5,-4.9
30.082,11.3,14.5,-4.9
37.372,11.3,4.5,-4.9
45.332,11.3,14.5,-4.9
48.073,14.0,14.5,-4.9
64.502,14.0,0.0,0.0
69.802,22.0,0.0,0.0
81.262,22.0,-17.5,0.0
90.902,7.2,-17.5,0.0
102.732,7.2,0.0,0.0
108.192,0.0,0.0,0.0
