0.0,0.0,0.0,0.0
12.809,18.0,0.0,0.0
24.5,52,5213,321
25.010,18.0,-17.5,0.0
25.111,11,41,0.0
25.235,31,531,5134
26.0,31,413,13
26.5,412,52,51
27.51,51,523,512
35.569,0.0,-17.5,0.0
47.0,0.0,0.0,0.0
