1.438660438953762E9,760.3421
1.4386604389786646E9,1004.6478
1.4386604390111961E9,1004.66785
1.4386604390431178E9,1004.6878
1.4386604390790672E9,1004.6978
1.438660439111935E9,1004.70776
1.438660439143795E9,1004.7378
1.438660439179531E9,1004.75775
1.4386604392126732E9,1004.76776
1.4386604392445335E9,1004.7778
1.4386604392802088E9,1004.7877
1.4386604393133812E9,1004.7977
1.4386604393452418E9,1004.82776
1.4386604393808556E9,1004.8577
1.438660439414059E9,1004.8777
1.4386604394459496E9,1004.8977
1.4386604394813805E9,1004.91766
1.4386604395147667E9,1004.9377
1.438660439546627E9,1004.96765
1.4386604395818748E9,1004.9976
1.4386604396154747E9,1005.0276
1.4386604396473658E9,1005.0376
1.4386604396825829E9,1005.0876
1.438660439716183E9,1005.11755
1.438660439748104E9,1005.11755
1.4386604397834132E9,1005.1376
1.4386604398168907E9,1005.1476
1.4386604398487816E9,1005.1376
1.4386604398840296E9,1005.0776
1.4386604399175987E9,1005.0476
1.4386604399494898E9,1005.0576
1.4386604399846764E9,1005.0876
1.438660440018307E9,1005.1476
1.4386604400501976E9,1005.27747
1.4386604400854454E9,1005.38745
1.4386604401190147E9,1005.4574
1.4386604401509056E9,1005.4974
1.438660440186123E9,1005.5573
1.4386604402196925E9,1005.6273
1.438660440251583E9,1005.7472
1.438660440286831E9,1005.9271
1.4386604403204308E9,1006.0071
1.4386604403523521E9,1006.0171
1.4386604403875694E9,1005.8572
1.4386604404211388E9,1005.6573
1.4386604404530296E9,1005.53735
1.438660440488308E9,1005.3474
1.4386604405218468E9,1005.2075
1.4386604405537071E9,1005.0876
1.438660440589016E9,1004.9976
1.4386604406225548E9,1004.9377
1.4386604406544762E9,1004.9277
1.4386604406896632E9,1004.9277
1.4386604407232933E9,1004.95764
1.4386604407551537E9,1005.0276
1.4386604407904017E9,1005.11755
1.438660440824093E9,1005.2175
1.4386604408559227E9,1005.27747
1.4386604408911095E9,1005.3075
1.4386604409246788E9,1005.2875
1.4386604409565392E9,1005.26746
1.438660440991848E9,1005.2375
1.4386604410255089E9,1005.1975
1.4386604410573387E9,1005.15753
1.4386604410925257E9,1005.10754
1.438660441127163E9,1005.0776
1.438660441158169E9,1005.0776
1.438660441193325E9,1005.10754
1.4386604412277489E9,1005.17755
1.4386604412588463E9,1005.22754
1.438660441294033E9,1005.31744
1.4386604413284874E9,1005.3974
1.4386604413595543E9,1005.48737
1.438660441394619E9,1005.52734
1.4386604414288902E9,1005.48737
1.4386604414608421E9,1005.4174
1.4386604414953575E9,1005.31744
1.4386604415295374E9,1005.2975
1.438660441561428E9,1005.2875
1.438660441596096E9,1005.27747
1.4386604416300318E9,1005.2475
1.4386604416619835E9,1005.2075
1.4386604416967735E9,1005.1476
1.4386604417305565E9,1005.10754
1.4386604417625084E9,1005.12756
1.4386604417975428E9,1005.1376
1.4386604418310509E9,1005.17755
1.4386604418632164E9,1005.2375
1.43866044189822E9,1005.2875
1.438660441931698E9,1005.3474
1.4386604419637108E9,1005.4074
1.4386604419989586E9,1005.38745
1.4386604420323448E9,1005.33746
1.4386604420642357E9,1005.3075
1.4386604420994835E9,1005.2375
1.4386604421330223E9,1005.15753
1.4386604421649132E9,1005.0876
1.438660442200924E9,1005.0876
1.4386604422337303E9,1005.10754
1.4386604422656517E9,1005.1376
1.43866044230151E9,1005.22754
1.4386604423344386E9,1005.27747
1.4386604423663292E9,1005.31744
1.4386604424020653E9,1005.3574
1.4386604424351463E9,1005.42737
1.4386604424670677E9,1005.4574
1.4386604425026817E9,1005.37744
1.4386604425358543E9,1005.27747
1.4386604425677454E9,1005.26746
1.4386604426032677E9,1005.27747
1.438660442636593E9,1005.27747
1.4386604426684837E9,1005.2475
1.4386604427038536E9,1005.2075
1.4386604427372704E9,1005.1975
1.4386604427691612E9,1005.1975
1.43866044280447E9,1005.22754
1.4386604428380089E9,1005.2475
1.4386604428698695E9,1005.26746
1.4386604429051476E9,1005.36743
1.4386604429386864E9,1005.51733
1.4386604429706078E9,1005.7073
1.4386604430058556E9,1005.7572
1.4386604430393944E9,1005.7172
1.4386604430712852E9,1005.6273
1.4386604431065333E9,1005.48737
1.4386604431401024E9,1005.32745
1.4386604431719935E9,1005.22754
1.4386604432072716E9,1005.0976
1.4386604432408412E9,1005.0376
1.4386604432727318E9,1005.0376
1.438660443307949E9,1005.0876
1.438660443341549E9,1005.1476
1.4386604433734093E9,1005.1875
1.4386604434086573E9,1005.2375
1.438660443442257E9,1005.2975
1.4386604434741173E9,1005.38745
1.4386604435093956E9,1005.38745
1.4386604435429652E9,1005.3075
1.4386604435748558E9,1005.1975
1.4386604436101036E9,1005.1875
1.438660443643673E9,1005.2075
1.4386604436755333E9,1005.2175
1.4386604437107813E9,1005.17755
1.4386604437443507E9,1005.11755
1.438660443776272E9,1005.0776
1.438660443811489E9,1005.0676
1.4386604438450892E9,1005.0676
1.4386604438769798E9,1005.0676
1.438660443912197E9,1005.0776
1.4386604439457664E9,1005.10754
1.4386604439776878E9,1005.1376
1.4386604440129359E9,1005.16754
1.4386604440464747E9,1005.2075
1.4386604440783653E9,1005.2175
1.4386604441136436E9,1005.1875
1.4386604441471825E9,1005.1376
1.4386604441790733E9,1005.0876
1.4386604442143517E9,1005.01764
1.4386604442478905E9,1004.97766
1.4386604442797816E9,1004.96765
1.4386604443150291E9,1004.9877
1.4386604443485987E9,1005.0376
1.43866044438052E9,1005.0976
1.4386604444157677E9,1005.1376
1.4386604444493065E9,1005.15753
1.4386604444811974E9,1005.17755
1.4386604445164452E9,1005.1875
1.4386604445500145E9,1005.2075
1.438660444581936E9,1005.17755
1.4386604446171532E9,1005.1376
1.4386604446507227E9,1005.11755
1.4386604446826441E9,1005.0876
1.4386604447178917E9,1005.0776
1.4386604447523463E9,1005.0676
1.438660444783352E9,1005.0376
1.4386604448185694E9,1005.01764
1.438660444852932E9,1005.01764
1.43866044488406E9,1005.0376
1.4386604449192772E9,1005.0776
1.4386604449535484E9,1005.11755
1.4386604449847682E9,1005.1476
1.4386604450199852E9,1005.17755
1.4386604450540733E9,1005.22754
1.4386604450861778E9,1005.27747
1.4386604451206934E9,1005.26746
1.4386604451546288E9,1005.2575
1.4386604451867638E9,1005.2575
1.438660445221432E9,1005.2075
1.4386604452552147E9,1005.1376
1.4386604452872887E9,1005.0976
1.4386604453221092E9,1005.0476
1.4386604453558006E9,1005.0376
1.4386604453879356E9,1005.0376
1.4386604454228175E9,1005.0576
1.438660445456417E9,1005.0676
1.4386604454885216E9,1005.0676
1.4386604455235252E9,1005.0876
1.438660445557125E9,1005.12756
1.4386604455891075E9,1005.1376
1.4386604456242638E9,1005.12756
1.4386604456578026E9,1005.0876
1.438660445689724E9,1005.0876
1.4386604457249415E9,1005.0776
1.438660445758541E9,1005.0576
1.438660445790432E9,1005.0576
1.4386604458257105E9,1005.0576
1.4386604458592186E9,1005.0576
1.43866044589114E9,1005.0476
1.4386604459272728E9,1005.0576
1.4386604459599571E9,1005.0576
1.438660445991848E9,1005.0776
1.4386604460277367E9,1005.0976
1.4386604460606651E9,1005.10754
1.4386604460925562E9,1005.11755
1.438660446128353E9,1005.15753
1.4386604461613426E9,1005.1875
1.4386604461932335E9,1005.17755
1.4386604462289085E9,1005.1376
1.4386604462620506E9,1005.10754
1.438660446293972E9,1005.0776
1.438660446329525E9,1005.0376
1.4386604463627892E9,1005.01764
1.4386604463946495E9,1005.01764
1.4386604464301112E9,1005.0376
1.4386604464634666E9,1005.0376
1.4386604464953575E9,1005.0576
1.4386604465307276E9,1005.0676
1.4386604465642052E9,1005.0676
1.4386604465960655E9,1005.10754
1.438660446631344E9,1005.15753
1.4386604466648827E9,1005.17755
1.4386604466968043E9,1005.1476
1.4386604467320518E9,1005.12756
1.4386604467655907E9,1005.11755
1.438660446797512E9,1005.10754
1.4386604468327293E9,1005.0876
1.4386604468662987E9,1005.0476
1.4386604468981895E9,1005.0376
1.4386604469334373E9,1005.0276
1.438660446967007E9,1005.0376
1.4386604469989283E9,1005.0676
1.4386604470341759E9,1005.0776
1.4386604470677147E9,1005.0876
1.438660447099636E9,1005.11755
1.4386604471348534E9,1005.12756
1.4386604471684532E9,1005.1376
1.438660447200344E9,1005.15753
1.4386604472355921E9,1005.15753
1.438660447269131E9,1005.15753
1.4386604473010523E9,1005.15753
1.4386604473362694E9,1005.12756
1.4386604473698695E9,1005.10754
1.43866044740176E9,1005.0776
1.4386604474369774E9,1005.0676
1.4386604474705772E9,1005.0876
1.438660447502468E9,1005.10754
1.4386604475376854E9,1005.12756
1.4386604475712852E9,1005.11755
1.4386604476031764E9,1005.12756
1.4386604476383934E9,1005.16754
1.4386604476719935E9,1005.1975
1.4386604477038536E9,1005.1975
1.438660447739132E9,1005.17755
1.4386604477727013E9,1005.12756
1.4386604478045921E9,1005.12756
1.4386604478398094E9,1005.1376
1.438660447873379E9,1005.12756
1.4386604479052696E9,1005.10754
1.4386604479405174E9,1005.0876
1.4386604479741173E9,1005.0776
1.4386604480059776E9,1005.0876
1.438660448041256E9,1005.10754
1.4386604480748253E9,1005.11755
1.4386604481066859E9,1005.1476
1.4386604481419334E9,1005.15753
1.4386604481755333E9,1005.17755
1.4386604482074242E9,1005.1975
1.438660448242672E9,1005.2075
1.4386604482762108E9,1005.2075
1.4386604483081017E9,1005.1975
1.43866044834338E9,1005.1975
1.4386604483778038E9,1005.15753
1.4386604484088402E9,1005.12756
1.4386604484440575E9,1005.0976
1.4386604484784203E9,1005.0776
1.4386604485095177E9,1005.0776
1.438660448544796E9,1005.0776
1.4386604485790367E9,1005.0976
1.4386604486102562E9,1005.12756
1.4386604486454737E9,1005.1476
1.4386604486796532E9,1005.17755
1.438660448710934E9,1005.22754
1.4386604487461815E9,1005.26746
1.4386604487802696E9,1005.26746
1.438660448812374E9,1005.2575
1.438660448846922E9,1005.2375
1.438660448880888E9,1005.2375
1.438660448912962E9,1005.2375
1.43866044894763E9,1005.2175
1.438660448981474E9,1005.1975
1.4386604490135784E9,1005.17755
1.4386604490483072E9,1005.17755
1.4386604490820904E9,1005.1875
1.4386604491141644E9,1005.2075
1.438660449149046E9,1005.2175
1.4386604491826763E9,1005.26746
1.4386604492147808E9,1005.2875
1.4386604492497232E9,1005.27747
1.4386604492833538E9,1005.2875
1.4386604493153667E9,1005.3075
1.4386604493504312E9,1005.3075
1.438660449384031E9,1005.3075
1.438660449415922E9,1005.2875
1.43866044945117E9,1005.2575
1.4386604494847088E9,1005.22754
1.4386604495166302E9,1005.2075
1.438660449551878E9,1005.1875
1.4386604495854168E9,1005.2175
1.4386604496173382E9,1005.2375
1.4386604496534402E9,1005.2575
1.4386604496861246E9,1005.26746
1.438660449718046E9,1005.2875
1.438660449753904E9,1005.31744
1.438660449786863E9,1005.32745
1.4386604498187542E9,1005.33746
1.438660449854429E9,1005.3075
1.4386604498875713E9,1005.2875
1.4386604499194314E9,1005.2975
1.438660449955015E9,1005.32745
1.4386604499882486E9,1005.32745
1.43866045002017E9,1005.3075
1.4386604500556314E9,1005.2475
1.4386604500889568E9,1005.2175
1.4386604501208477E9,1005.1975
1.4386604501562173E9,1005.22754
1.4386604501896954E9,1005.27747
1.4386604502215555E9,1005.3075
1.4386604502569256E9,1005.37744
1.4386604502904031E9,1005.3974
1.438660450322294E9,1005.37744
1.438660450357542E9,1005.38745
1.4386604503910809E9,1005.3574
1.4386604504230022E9,1005.32745
1.4386604504582498E9,1005.2875
1.4386604504918194E9,1005.2375
1.43866045052371E9,1005.1875
1.4386604505589275E9,1005.1376
1.4386604505924966E9,1005.11755
1.438660450624418E9,1005.1376
1.438660450659666E9,1005.1875
1.4386604506932354E9,1005.2075
1.4386604507251263E9,1005.1975
1.4386604507603738E9,1005.2075
1.4386604507939434E9,1005.2375
1.438660450825834E9,1005.2475
1.4386604508610818E9,1005.2375
1.4386604508946207E9,1005.2175
1.4386604509265423E9,1005.1975
1.4386604509617596E9,1005.1875
1.4386604509953594E9,1005.1975
1.4386604510272195E9,1005.1975
1.4386604510624673E9,1005.16754
1.4386604510960367E9,1005.1376
1.438660451127958E9,1005.1376
1.4386604511631756E9,1005.1376
1.4386604511967752E9,1005.1376
1.4386604512286358E9,1005.1376
1.4386604512638836E9,1005.1476
1.4386604512974834E9,1005.12756
1.4386604513293743E9,1005.12756
1.4386604513645914E9,1005.22754
1.4386604513981607E9,1005.2475
1.438660451430082E9,1005.2075
1.4386604514653301E9,1005.2075
1.4386604514988992E9,1005.2075
1.4386604515307903E9,1005.1875
1.4386604515660074E9,1005.1376
1.4386604515996075E9,1005.0976
1.4386604516314983E9,1005.10754
1.438660451666746E9,1005.10754
1.4386604517002847E9,1005.12756
1.4386604517321756E9,1005.1376
1.4386604517674236E9,1005.15753
1.4386604518018475E9,1005.1875
1.4386604518328838E9,1005.2075
1.4386604518681314E9,1005.1875
1.4386604519024026E9,1005.17755
1.4386604519336224E9,1005.2075
1.43866045196887E9,1005.2475
1.438660452002958E9,1005.2375
1.4386604520350626E9,1005.22754
1.4386604520695782E9,1005.2475
1.4386604521035442E9,1005.2475
1.4386604521356182E9,1005.22754
1.4386604521702554E9,1005.2175
1.4386604522040997E9,1005.2175
1.4386604522362041E9,1005.2175
1.4386604522709634E9,1005.2375
1.438660452304716E9,1005.2475
1.43866045233679E9,1005.2475
1.4386604523717022E9,1005.22754
1.4386604524053018E9,1005.2075
1.4386604524374065E9,1005.2375
1.4386604524724102E9,1005.22754
1.4386604525059795E9,1005.1975
1.4386604525379617E9,1005.1875
1.438660452573118E9,1005.1975
1.4386604526066873E9,1005.22754
1.4386604526386395E9,1005.2375
1.4386604526737957E9,1005.2075
