0.0,0.0,0.0,0.0
1.0,1.21,0.0,0.0
2.0,2.43,0.0,0.0
3.0,3.64,0.0,0.0
4.0,4.85,0.0,0.0
5.0,6.06,0.0,0.0
6.0,7.28,0.0,0.0
7.0,8.49,0.0,0.0
8.0,9.7,0.0,0.0
9.0,10.91,0.0,0.0
10.0,12.13,0.0,0.0
11.0,13.34,0.0,0.0
12.0,14.0,0.46,-0.15
13.0,14.0,1.46,-0.49
14.0,14.0,2.47,-0.83
15.0,14.0,3.47,-1.17
16.0,14.0,4.48,-1.51
17.0,14.0,5.49,-1.85
18.0,14.0,6.49,-2.19
19.0,14.0,7.5,-2.53
20.0,14.0,8.5,-2.87
21.0,14.0,9.51,-3.21
22.0,14.0,10.51,-3.55
23.0,14.0,11.52,-3.89
24.0,14.0,12.53,-4.23
25.0,14.0,13.53,-4.57
26.0,13.95,14.5,-4.9
27.0,12.72,14.5,-4.9
28.0,11.49,14.5,-4.9
29.0,11.3,13.39,-4.9
30.0,11.3,12.09,-4.9
31.0,11.3,10.78,-4.9
32.0,11.3,9.48,-4.9
33.0,11.3,8.17,-4.9
34.0,11.3,6.87,-4.9
35.0,11.3,5.56,-4.9
36.0,11.3,4.74,-4.9
37.0,11.3,6.01,-4.9
38.0,11.3,7.28,-4.9
39.0,11.3,8.55,-4.9
40.0,11.3,9.82,-4.9
41.0,11.3,11.09,-4.9
42.0,11.3,12.36,-4.9
43.0,11.3,13.63,-4.9
44.0,11.71,14.5,-4.9
45.0,13.02,14.5,-4.9
46.0,14.0,14.27,-4.82
47.0,14.0,13.35,-4.51
48.0,14.0,12.43,-4.2
49.0,14.0,11.51,-3.89
50.0,14.0,10.59,-3.58
51.0,14.0,9.66,-3.27
52.0,14.0,8.74,-2.95
53.0,14.0,7.82,-2.64
54.0,14.0,6.9,-2.33
55.0,14.0,5.98,-2.02
56.0,14.0,5.05,-1.71
57.0,14.0,4.13,-1.4
58.0,14.0,3.21,-1.08
59.0,14.0,2.29,-0.77
60.0,14.0,1.37,-0.46
61.0,14.0,0.45,-0.15
62.0,14.69,0.0,0.0
63.0,16.01,0.0,0.0
64.0,17.34,0.0,0.0
65.0,18.67,0.0,0.0
66.0,19.99,0.0,0.0
67.0,21.32,0.0,0.0
68.0,22.0,-0.71,0.0
69.0,22.0,-2.18,0.0
70.0,22.0,-3.65,0.0
71.0,22.0,-5.12,0.0
72.0,22.0,-6.59,0.0
73.0,22.0,-8.06,0.0
74.0,22.0,-9.52,0.0
75.0,22.0,-10.99,0.0
76.0,22.0,-12.46,0.0
77.0,22.0,-13.93,0.0
78.0,22.0,-15.4,0.0
79.0,22.0,-16.86,0.0
80.0,21.16,-17.5,0.0
81.0,19.68,-17.5,0.0
82.0,18.2,-17.5,0.0
83.0,16.73,-17.5,0.0
84.0,15.25,-17.5,0.0
85.0,13.77,-17.5,0.0
86.0,12.29,-17.5,0.0
87.0,10.81,-17.5,0.0
88.0,9.33,-17.5,0.0
89.0,7.85,-17.5,0.0
90.0,7.2,-16.63,0.0
91.0,7.2,-15.06,0.0
92.0,7.2,-13.49,0.0
93.0,7.2,-11.93,0.0
94.0,7.2,-10.36,0.0
95.0,7.2,-8.79,0.0
96.0,7.2,-7.23,0.0
97.0,7.2,-5.66,0.0
98.0,7.2,-4.09,0.0
99.0,7.2,-2.53,0.0
100.0,7.2,-0.96,0.0
101.0,6.75,0.0,0.0
102.0,5.57,0.0,0.0
103.0,4.4,0.0,0.0
104.0,3.22,0.0,0.0
105.0,2.05,0.0,0.0
106.0,0.87,0.0,0.0
107.0,0.0,0.0,0.0
