1.4384114096894214E9,1004.19806
1.4384114097225938E9,1004.19806
1.4384114097548816E9,1004.24805
1.4384114097901294E9,1004.19806
1.4384114098232715E9,1004.24805
1.4384114098555896E9,1004.1381
1.4384114098916004E9,1004.19806
1.4384114099283435E9,1004.1681
1.438411409958617E9,1004.1681
1.4384114099938035E9,1004.1681
1.4384114100290515E9,1004.1681
1.438411410059441E9,1004.04816
1.438411410094689E9,1004.1381
1.4384114101299367E9,1004.1381
1.438411410160149E9,1004.10815
1.438411410195397E9,1004.0781
1.4384114102306445E9,1004.0781
1.438411410260857E9,1004.10815
1.438411410296105E9,1004.10815
1.4384114103313527E9,1004.1381
1.438411410361565E9,1004.1681
1.4384114103967516E9,1004.10815
1.4384114104320912E9,1004.10815
1.4384114104622731E9,1004.0182
1.4384114104974902E9,1004.04816
1.4384114105327382E9,1004.19806
1.4384114105629504E9,1004.1681
1.438411410598229E9,1004.19806
1.4384114106334767E9,1004.1381
1.4384114106636891E9,1004.1381
1.438411410698937E9,1004.19806
1.4384114107341847E9,1004.1381
1.4384114107643971E9,1004.10815
1.438411410799645E9,1004.19806
1.438411410834905E9,1004.1381
1.4384114108651173E9,1004.1381
1.438411410900365E9,1004.19806
1.438411410935613E9,1004.1681
1.4384114109658253E9,1004.1681
1.4384114110010734E9,1004.19806
1.438411411036321E9,1004.10815
1.4384114110665333E9,1004.1381
1.4384114111017811E9,1004.1681
1.4384114111370595E9,1004.1381
1.4384114111672413E9,1004.2181
1.4384114112024891E9,1004.19806
1.438411411237737E9,1004.19806
1.4384114112679493E9,1004.1681
1.4384114113031974E9,1004.10815
1.438411411338445E9,1004.1681
1.4384114113686574E9,1004.10815
1.4384114114039052E9,1004.1681
1.4384114114390917E9,1004.10815
1.4384114114693043E9,1004.1381
1.4384114115045826E9,1004.19806
1.4384114115397694E9,1004.19806
1.438411411570043E9,1004.1681
1.4384114116053214E9,1004.1681
1.438411411640508E9,1004.10815
1.4384114116707203E9,1004.1681
1.4384114117059987E9,1004.19806
1.4384114117412465E9,1004.1681
1.4384114117714283E9,1004.1381
1.4384114118067372E9,1004.0781
1.4384114118419852E9,1004.1381
1.4384114118721974E9,1004.1381
1.4384114119074452E9,1004.1381
1.438411411942693E9,1004.1681
1.4384114119729054E9,1004.228
1.4384114120081532E9,1004.1681
1.438411412043401E9,1004.19806
1.4384114120736134E9,1004.1381
1.4384114121088612E9,1004.19806
1.4384114121441395E9,1004.1681
1.4384114121743214E9,1004.0781
1.4384114122095692E9,1004.1381
1.438411412244756E9,1004.19806
1.438411412274999E9,1004.1381
1.4384114123102467E9,1004.1381
1.438411412345464E9,1004.19806
1.4384114123756764E9,1004.1381
1.4384114124109852E9,1004.1681
1.4384114124464405E9,1004.19806
1.4384114124766529E9,1004.19806
1.4384114125119007E9,1004.25806
1.4384114125470874E9,1004.228
1.4384114125773306E9,1004.10815
1.4384114126125784E9,1004.228
1.4384114126478567E9,1004.228
1.438411412678069E9,1004.1681
1.4384114127133167E9,1004.19806
1.4384114127485645E9,1004.19806
1.438411412778777E9,1004.19806
1.4384114128140247E9,1004.19806
1.4384114128492727E9,1004.10815
1.4384114128794851E9,1004.19806
1.438411412914733E9,1004.1681
1.43841141294995E9,1004.19806
1.4384114129801931E9,1004.1681
1.4384114130154407E9,1004.04816
1.4384114130506885E9,1004.19806
1.438411413081023E9,1004.10815
1.438411413116088E9,1004.10815
1.4384114131513355E9,1004.1381
1.4384114131815786E9,1004.19806
1.4384114132167957E9,1004.20807
1.4384114132520864E9,1004.10815
1.438411413282299E9,1004.1381
1.4384114133175466E9,1004.1381
1.4384114133527944E9,1004.0781
1.4384114133830068E9,1004.04816
1.4384114134183156E9,1004.1381
1.4384114134535635E9,1004.1381
1.4384114134837453E9,1004.1381
1.4384114135189931E9,1004.1681
1.4384114135542412E9,1004.228
1.4384114135844536E9,1004.1381
1.4384114136197011E9,1004.1681
1.4384114136549184E9,1004.20807
1.4384114136851308E9,1004.10815
1.4384114137203484E9,1004.1681
1.438411413755596E9,1004.1381
1.4384114137858388E9,1004.1381
1.4384114138211172E9,1004.1681
1.4384114138563957E9,1004.25806
1.4384114138865776E9,1004.20807
1.4384114139218252E9,1004.1681
1.438411413957073E9,1004.1681
1.4384114139872854E9,1004.1381
1.4384114140225332E9,1004.0781
1.438411414057781E9,1004.20807
1.4384114140879934E9,1004.04816
1.4384114141232414E9,1004.1381
1.4384114141582448E9,1003.9582
1.4384114141884267E9,1004.1381
1.4384114142237053E9,1004.0781
1.4384114142589223E9,1004.04816
1.4384114142891347E9,1003.8683
1.438411414324352E9,1004.1381
1.4384114143596303E9,1004.04816
1.438411414389904E9,1003.9582
1.4384114144251516E9,1003.89825
1.4384114144603994E9,1003.4085
1.4384114144906118E9,1002.8888
1.4384114145258596E9,1004.1381
1.4384114145611076E9,1003.5084
1.4384114145913198E9,1004.04816
1.4384114146265678E9,1004.04816
1.4384114146618154E9,1004.10815
1.438411414692028E9,1004.04816
1.438411414727245E9,1004.1481
1.438411414762737E9,1004.1481
1.438411414792919E9,1004.04816
1.4384114148281972E9,1004.0781
1.4384114148636222E9,1004.1781
1.4384114148938346E9,1004.0781
1.4384114149290519E9,1004.10815
1.4384114149643304E9,1004.1481
1.4384114149945426E9,1004.1781
1.4384114150297906E9,1004.1781
1.4384114150650077E9,1004.1781
1.43841141509522E9,1004.1481
1.438411415130529E9,1004.10815
1.4384114151657767E9,1004.228
1.4384114151959586E9,1004.1481
1.4384114152311761E9,1004.1781
1.4384114152664545E9,1004.20807
1.4384114152966666E9,1004.10815
1.4384114153319147E9,1004.1781
1.4384114153671622E9,1004.25806
1.4384114153973746E9,1004.20807
1.4384114154326224E9,1004.1481
1.4384114154678397E9,1004.228
1.4384114154980826E9,1004.1481
1.4384114155333304E9,1004.20807
1.4384114155685477E9,1004.20807
1.438411415599401E9,1004.20807
1.438411415634649E9,1004.20807
1.438411415669909E9,1004.20807
1.4384114157001214E9,1004.20807
1.4384114157353692E9,1004.0781
1.4384114157705255E9,1004.1181
1.4384114158002193E9,1004.1481
1.4384114158354669E9,1004.228
1.4384114158707147E9,1004.228
1.438411415900927E9,1004.1781
1.4384114159361749E9,1004.288
1.438411415971423E9,1004.1781
1.4384114160016048E9,1004.288
1.438411416036883E9,1004.20807
1.4384114160721307E9,1004.25806
1.4384114161029537E9,1004.1481
1.4384114161382015E9,1004.20807
1.438411416173327E9,1004.25806
1.4384114162036614E9,1004.25806
1.4384114162389092E9,1004.25806
1.4384114162740655E9,1004.288
1.438411416304339E9,1004.20807
1.4384114163392818E9,1004.1781
1.4384114163742242E9,1004.25806
1.4384114164044366E9,1004.20807
1.438411416439715E9,1004.1781
1.4384114164749324E9,1004.288
1.438411416505175E9,1004.1481
1.438411416540423E9,1004.1781
1.438411416575671E9,1004.1781
1.4384114166058528E9,1004.1781
1.4384114166411312E9,1004.1481
1.4384114166763177E9,1004.1781
1.4384114167069879E9,1004.288
1.4384114167424188E9,1004.228
1.4384114167776363E9,1004.25806
1.438411416807879E9,1004.25806
1.438411416842547E9,1004.228
1.438411416877795E9,1004.25806
1.4384114169080071E9,1004.25806
1.4384114169432552E9,1004.1781
1.4384114169785028E9,1004.288
1.438411417008746E9,1004.1781
1.4384114170439935E9,1004.1781
1.4384114170792413E9,1004.1481
1.4384114171100335E9,1004.1181
1.4384114171453118E9,1004.228
1.4384114171805294E9,1004.1781
1.438411417210772E9,1004.20807
1.4384114172455866E9,1004.228
1.438411417280804E9,1004.228
1.4384114173110163E9,1004.1781
1.4384114173463252E9,1004.20807
1.4384114173815117E9,1004.1781
1.4384114174117548E9,1004.20807
1.438411417446972E9,1004.1181
1.43841141748222E9,1004.20807
1.438411417512432E9,1004.1781
1.4384114175477107E9,1004.25806
1.4384114175829585E9,1004.20807
1.4384114176131709E9,1004.25806
1.4384114176483881E9,1004.1781
1.4384114176842768E9,1004.1481
1.4384114177144892E9,1004.1781
1.438411417749737E9,1004.228
1.4384114177848933E9,1004.1481
1.4384114178145564E9,1004.20807
1.438411417849865E9,1004.20807
1.4384114178850825E9,1004.1481
1.4384114179152644E9,1004.20807
1.4384114179505427E9,1004.20807
1.4384114179857903E9,1004.20807
1.438411418016003E9,1004.1481
1.4384114180517516E9,1004.228
1.4384114180869992E9,1004.20807
1.4384114181172726E9,1004.1181
1.438411418152551E9,1004.1181
1.4384114181877072E9,1004.20807
1.4384114182180111E9,1004.20807
1.4384114182532284E9,1004.1781
1.4384114182884154E9,1004.1181
1.4384114183187194E9,1004.1781
1.438411418353387E9,1004.228
1.438411418388635E9,1004.1181
1.4384114184188473E9,1004.1781
1.4384114184540648E9,1004.1481
1.4384114184893432E9,1004.228
1.4384114185195553E9,1004.1781
1.4384114185548034E9,1004.1181
1.438411418590051E9,1004.1781
1.4384114186202636E9,1004.228
1.4384114186557858E9,1004.1781
1.438411418691278E9,1004.1181
1.4384114187215512E9,1004.20807
1.438411418756799E9,1004.20807
1.4384114187919858E9,1004.1181
1.4384114188224118E9,1004.1181
1.4384114188575985E9,1004.1181
1.4384114188926635E9,1004.1781
1.4384114189233944E9,1004.1481
1.4384114189576352E9,1004.1481
1.4384114189933102E9,1004.20807
1.4384114190230649E9,1004.20807
1.4384114190582824E9,1004.1481
1.4384114190935605E9,1004.1781
1.438411419123773E9,1004.1781
1.4384114191590514E9,1004.228
1.438411419194299E9,1004.228
1.4384114192245116E9,1004.228
1.4384114192597287E9,1004.1481
1.438411419295007E9,1004.228
1.4384114193252194E9,1004.318
1.438411419361047E9,1004.1781
1.4384114193957152E9,1004.25806
1.4384114194258971E9,1004.08813
1.4384114194611754E9,1004.20807
1.4384114194963925E9,1004.25806
1.4384114195266356E9,1004.25806
1.4384114195618832E9,1004.1781
1.4384114195971007E9,1004.1781
1.4384114196273434E9,1004.1181
1.4384114196637452E9,1004.1781
1.4384114196986876E9,1004.1481
1.438411419728839E9,1004.25806
1.4384114197641478E9,1004.228
1.4384114197993956E9,1004.228
1.4384114198295774E9,1004.25806
1.4384114198648863E9,1004.20807
1.438411419900073E9,1004.228
1.4384114199308653E9,1004.1181
1.4384114199655638E9,1004.20807
1.438411420000781E9,1004.1181
1.4384114200309935E9,1004.25806
1.4384114200656312E9,1004.1481
1.4384114201008482E9,1004.08813
1.4384114201310914E9,1004.20807
1.438411420166339E9,1004.1481
1.4384114202015867E9,1004.25806
1.4384114202317991E9,1004.1481
1.438411420267047E9,1004.1781
1.438411420302295E9,1004.08813
1.4384114203325071E9,1004.20807
1.438411420368335E9,1004.1481
1.4384114204036133E9,1004.1481
1.4384114204338865E9,1004.25806
1.438411420469086E9,1004.20807
1.4384114205037234E9,1004.228
1.4384114205339358E9,1004.20807
1.438411420569153E9,1004.1481
1.4384114206044314E9,1004.1781
1.4384114206346438E9,1004.1481
1.4384114206698916E9,1004.1781
1.4384114207056582E9,1004.1181
1.4384114207359316E9,1004.20807
1.43841142077121E9,1004.1781
1.4384114208064578E9,1004.1781
1.4384114208366704E9,1004.228
1.438411420871918E9,1004.1781
1.4384114209070742E9,1004.1481
1.4384114209373782E9,1004.20807
1.438411420972626E9,1004.288
1.4384114210078738E9,1004.25806
1.4384114210387578E9,1004.228
1.4384114210733035E9,1004.25806
1.4384114211079714E9,1004.288
1.438411421138306E9,1004.20807
1.438411421173401E9,1004.228
1.4384114212086794E9,1004.20807
1.4384114212388918E9,1004.1781
1.4384114212741396E9,1004.20807
1.4384114213091433E9,1003.8083
1.4384114213393557E9,1003.89825
1.4384114213746035E9,1004.25806
1.4384114214098513E9,1004.1481
1.4384114214401248E9,1003.8683
1.4384114214753423E9,1003.9582
1.4384114215110781E9,1004.1481
1.438411421541321E9,1003.68835
1.4384114215765078E9,1003.6584
1.4384114216112673E9,1003.5984
1.4384114216414797E9,1004.20807
1.4384114216767275E9,1003.68835
1.4384114217119753E9,1003.5984
1.438411421742188E9,1004.20807
1.4384114217774355E9,1004.1481
1.4384114218127139E9,1004.1481
1.438411421843445E9,1004.20807
1.4384114218786626E9,1004.08813
1.4384114219140017E9,1004.1781
1.4384114219441228E9,1004.1781
1.4384114219796755E9,1004.1781
1.438411422014313E9,1004.1181
1.4384114220444949E9,1004.1181
1.4384114220799806E9,1004.1481
1.4384114221152284E9,1004.20807
1.4384114221454713E9,1004.1781
1.4384114221807191E9,1004.20807
1.4384114222159672E9,1004.1781
1.4384114222461793E9,1004.1181
1.4384114222814274E9,1004.1481
1.4384114223166752E9,1004.1781
1.4384114223468876E9,1004.1181
1.438411422382715E9,1004.1481
1.4384114224173222E9,1004.1781
1.4384114224475954E9,1004.20807
1.4384114224828126E9,1004.1781
1.4384114225180912E9,1004.1181
1.4384114225483034E9,1004.288
1.438411422583521E9,1004.1481
1.438411422618738E9,1004.1781
1.4384114226490116E9,1004.20807
1.4384114226842592E9,1004.228
1.4384114227194765E9,1004.228
1.4384114227497194E9,1004.20807
1.4384114227849672E9,1004.20807
1.4384114228202152E9,1004.20807
1.4384114228504398E9,1004.1481
1.4384114228856876E9,1004.20807
1.4384114229209356E9,1004.1181
1.4384114229511478E9,1004.1481
1.438411422987006E9,1004.1181
1.4384114230222232E9,1004.08813
1.4384114230518253E9,1004.1781
1.438411423087073E9,1004.1181
1.438411423122321E9,1004.1481
1.4384114231525638E9,1004.1481
1.4384114231878116E9,1004.228
1.4384114232230597E9,1004.08813
1.4384114232532718E9,1004.20807
1.4384114232885196E9,1004.228
1.438411423323737E9,1004.228
1.4384114233539798E9,1004.1481
1.4384114233892276E9,1004.1181
1.438411423424445E9,1004.08813
1.4384114234546878E9,1004.08813
1.4384114234899356E9,1004.1781
1.4384114235251837E9,1004.1181
1.4384114235553958E9,1004.08813
1.438411423591254E9,1004.1181
1.4384114236264102E9,1004.1181
1.4384114236567144E9,1004.1781
1.4384114236913822E9,1004.20807
1.438411423726569E9,1004.228
1.4384114237567813E9,1004.1781
1.4384114237920294E9,1004.228
1.438411423827277E9,1004.1481
1.4384114238574893E9,1004.1481
1.4384114238927372E9,1004.05817
1.4384114239280155E9,1004.08813
1.4384114239581974E9,1004.1481
1.4384114239934146E9,1004.1781
1.4384114240287235E9,1004.1481
1.4384114240589054E9,1004.1781
1.4384114240941532E9,1004.1181
1.4384114241294315E9,1004.1481
1.4384114241596134E9,1004.1481
1.4384114241948917E9,1004.1181
1.4384114242301395E9,1004.1481
1.4384114242603214E9,1004.1181
1.4384114242955692E9,1004.1481
1.4384114243308475E9,1004.08813
1.43841142436106E9,1004.05817
1.4384114243963077E9,1004.1781
1.438411424431525E9,1004.228
1.4384114244619453E9,1004.1481
1.4384114244971929E9,1004.1781
1.4384114245324407E9,1004.1181
1.438411424562653E9,1004.1481
1.4384114245979314E9,1004.08813
1.4384114246331184E9,1004.08813
1.4384114246635137E9,1004.1181
1.4384114246986394E9,1004.1481
1.4384114247338567E9,1004.1481
1.4384114247640386E9,1004.05817
1.4384114247992864E9,1004.1181
1.4384114248345952E9,1004.1781
1.4384114248648076E9,1004.1781
1.4384114249000554E9,1004.25806
1.4384114249353642E9,1004.1481
1.4384114249660954E9,1004.08813
1.4384114250013433E9,1004.1781
1.4384114250365605E9,1004.1781
1.4384114250668035E9,1004.1481
1.4384114251020818E9,1004.1181
1.4384114251375432E9,1004.1781
1.4384114251675115E9,1004.1181
1.438411425203095E9,1004.1781
1.438411425238007E9,1004.1781
1.4384114252682621E9,1004.228
1.4384114253035405E9,1004.20807
1.4384114253384833E9,1004.1481
1.4384114253683295E9,1004.1181
1.4384114254036078E9,1004.1781
1.4384114254388251E9,1004.1181
1.438411425469068E9,1004.20807
1.4384114255043159E9,1004.1481
1.4384114255395637E9,1004.1781
1.4384114255697455E9,1004.20807
1.4384114256050847E9,1004.1481
1.4384114256403327E9,1004.20807
1.43841142567085E9,1004.20807
1.4384114257063117E9,1004.08813
1.43841142574159E9,1004.1781
1.4384114257718635E9,1004.1181
1.4384114258064399E9,1004.1181
1.4384114258416877E9,1004.1781
1.4384114258719E9,1004.1781
1.4384114259071784E9,1004.05817
1.438411425942365E9,1004.1481
1.4384114259725468E9,1004.228
1.438411426007856E9,1004.228
1.4384114260430732E9,1004.20807
1.4384114260732856E9,1004.228
1.4384114261085334E9,1004.288
1.4384114261438117E9,1004.05817
1.438411426174024E9,1004.1181
1.438411426209272E9,1004.1181
1.4384114262445197E9,1004.1481
1.4384114262747016E9,1004.1781
1.43841142630998E9,1004.20807
1.4384114263451972E9,1004.20807
1.4384114263754401E9,1004.20807
1.438411426410688E9,1004.1781
1.4384114264459357E9,1004.20807
1.4384114264761481E9,1004.1481
1.4384114265113654E9,1004.25806
1.4384114265466437E9,1004.1181
1.4384114265768256E9,1004.1481
1.4384114266121345E9,1004.20807
1.4384114266479316E9,1004.1481
1.4384114266781135E9,1004.20807
1.4384114267133613E9,1004.1481
1.438411426748548E9,1004.1481
1.438411426778852E9,1004.1481
1.4384114268140693E9,1004.1181
1.438411426848737E9,1004.1481
1.4384114268792183E9,1004.08813
1.438411426914466E9,1004.1481
1.4384114269497137E9,1004.1781
1.438411426979926E9,1004.1481
1.4384114270151434E9,1004.1181
1.4384114270503914E9,1004.08813
1.4384114270806038E9,1004.1781
1.4384114271158514E9,1004.20807
1.4384114271511297E9,1004.1481
1.4384114271813424E9,1004.25806
1.43841142721659E9,1004.20807
1.4384114272518377E9,1004.1781
1.4384114272821722E9,1004.228
1.4384114273184576E9,1004.228
1.4384114273525152E9,1004.1481
1.4384114273827581E9,1004.1181
1.4384114274180365E9,1004.1181
1.4384114274532537E9,1004.1181
1.4384114274834664E9,1004.228
1.438411427518714E9,1004.08813
1.4384114275539618E9,1004.1181
1.4384114275841742E9,1004.1481
1.438411427619422E9,1004.1481
1.4384114276547432E9,1004.1781
1.4384114276849556E9,1004.1481
1.4384114277202034E9,1004.1481
1.4384114277554204E9,1004.1181
1.438411427785633E9,1004.1181
1.4384114278209112E9,1004.1481
1.438411427856159E9,1004.08813
1.4384114278863714E9,1004.1481
1.438411427921589E9,1004.1181
1.4384114279568672E9,1004.1781
1.4384114279870796E9,1004.1481
1.438411428022297E9,1004.05817
1.4384114280575445E9,1004.1481
1.4384114280882454E9,1004.08813
1.4384114281236763E9,1004.1481
1.4384114281588326E9,1004.228
1.4384114281891365E9,1004.25806
1.4384114282244148E9,1004.228
1.438411428259571E9,1004.20807
1.4384114282898443E9,1004.1781
1.438411428325092E9,1004.25806
1.4384114283596685E9,1004.228
1.4384114283899117E9,1004.1181
1.4384114284251592E9,1004.318
1.438411428460407E9,1004.25806
1.4384114284906502E9,1004.1781
1.4384114285258675E9,1004.228
1.4384114285611153E9,1004.228
1.4384114285913277E9,1004.228
1.4384114286271553E9,1004.228
1.4384114286623116E9,1004.1481
1.4384114286926155E9,1004.228
1.438411428727863E9,1004.288
1.4384114287631414E9,1004.08813
1.4384114287933538E9,1004.20807
1.4384114288286016E9,1004.1781
1.4384114288637578E9,1004.228
1.4384114288940618E9,1004.1481
1.4384114289292793E9,1004.1481
1.438411428964527E9,1004.1781
1.438411428994129E9,1004.1181
1.4384114290294073E9,1004.1181
1.4384114290646248E9,1004.1481
1.4384114290948372E9,1004.20807
1.4384114291301155E9,1004.20807
1.4384114291653633E9,1004.25806
1.4384114291955757E9,1004.1481
1.4384114292308235E9,1004.1781
1.4384114292662482E9,1004.1781
1.4384114292964606E9,1004.1481
1.4384114293317084E9,1004.1481
1.4384114293669257E9,1004.1481
1.4384114293972297E9,1004.1781
1.4384114294324775E9,1004.1481
1.4384114294676642E9,1004.1481
1.4384114294978766E9,1004.1181
1.4384114295331244E9,1004.25806
1.4384114295683722E9,1004.20807
1.438411429598646E9,1004.1481
1.438411429633924E9,1004.20807
1.438411429669599E9,1004.25806
1.4384114297005439E9,1004.1481
1.4384114297351205E9,1004.1781
1.4384114297703986E9,1004.1781
1.4384114298006113E9,1004.1781
1.4384114298358283E9,1004.05817
1.4384114298711066E9,1004.1481
1.4384114299007087E9,1004.1481
1.4384114299359262E9,1004.1481
1.4384114299712045E9,1004.1181
1.4384114300014167E9,1004.20807
1.4384114300366645E9,1004.228
1.438411430071925E9,1004.228
1.438411430102137E9,1004.1781
1.4384114301373851E9,1004.1781
1.4384114301726327E9,1004.1781
1.4384114302034557E9,1004.228
1.438411430238734E9,1004.20807
1.4384114302743478E9,1004.228
1.438411430304255E9,1004.1781
1.4384114303394418E9,1004.25806
1.4384114303746896E9,1004.20807
1.4384114304048715E9,1004.1781
1.438411430439692E9,1004.20807
1.4384114304747567E9,1004.20807
1.4384114305049999E9,1004.228
1.4384114305402474E9,1004.228
1.4384114305754952E9,1004.20807
1.4384114306057076E9,1004.1781
1.4384114306409554E9,1004.1781
1.4384114306762033E9,1004.228
1.4384114307064157E9,1004.228
1.438411430741633E9,1004.20807
1.4384114307768807E9,1004.20807
1.438411430807124E9,1004.1781
1.4384114308423715E9,1004.228
1.4384114308781383E9,1004.1481
1.438411430908442E9,1004.20807
1.4384114309436593E9,1004.25806
1.4384114309796093E9,1004.1781
1.4384114310091805E9,1004.0282
1.4384114310448556E9,1004.1481
1.4384114310796459E9,1004.1781
1.438411431109248E9,1004.20807
1.4384114311444955E9,1004.08813
1.4384114311797128E9,1004.228
1.4384114312099557E9,1004.1481
1.4384114312452035E9,1004.1781
1.4384114312804515E9,1004.25806
1.4384114313104196E9,1004.1781
1.4384114313456674E9,1004.1781
1.4384114313809154E9,1003.8183
1.4384114314111886E9,1004.1181
1.4384114314469247E9,1003.93823
1.438411431482142E9,1004.1781
1.438411431512385E9,1003.53845
1.4384114315476022E9,1003.7483
1.4384114315828502E9,1003.7583
1.4384114316125436E9,1003.69836
1.4384114316477914E9,1003.93823
1.4384114316831858E9,1004.05817
1.4384114317133982E9,1004.1781
1.438411431748646E9,1004.20807
1.4384114317838938E9,1004.20807
1.4384114318141062E9,1004.228
1.438411431849354E9,1004.1781
1.4384114318846016E9,1004.20807
1.4384114319150584E9,1004.228
1.4384114319503062E9,1004.1481
1.4384114319855235E9,1004.328
1.4384114320157664E9,1004.288
1.4384114320510142E9,1004.228
1.4384114320862315E9,1004.25806
1.4384114321164744E9,1004.228
1.4384114321516917E9,1004.1781
1.4384114321870005E9,1004.1781
1.438411432217213E9,1004.20807
1.438411432252491E9,1004.20807
1.4384114322882273E9,1004.228
1.4384114323185008E9,1004.1781
1.438411432353718E9,1004.20807
1.4384114323889048E9,1004.1481
1.4384114324192088E9,1004.20807
1.4384114324544566E9,1004.20807
1.4384114324896562E9,1004.1781
1.4384114325199907E9,1004.228
1.4384114325552995E9,1004.228
1.4384114325903947E9,1004.08813
1.438411432620668E9,1004.1781
1.438411432655916E9,1004.1181
1.438411432690584E9,1004.1781
1.4384114327207658E9,1004.1781
1.4384114327560747E9,1004.1481
1.4384114327912612E9,1004.25806
1.4384114328215044E9,1004.1781
1.4384114328567214E9,1004.1781
1.4384114328919997E9,1004.20807
1.4384114329222121E9,1004.1781
1.438411432957979E9,1004.1781
1.4384114329932573E9,1004.1481
1.438411433023561E9,1004.1781
1.4384114330587785E9,1004.1781
1.438411433093965E9,1004.1781
1.4384114331242387E9,1004.228
1.4384114331594865E9,1004.0282
1.4384114331940322E9,1004.1481
1.4384114332243361E9,1004.1481
1.4384114332595537E9,1004.1781
1.438411433294832E9,1004.1481
1.4384114333250444E9,1004.20807
1.4384114333602922E9,1004.228
1.4384114333955092E9,1004.1481
1.4384114334257216E9,1004.1181
1.4384114334609694E9,1004.0282
1.4384114334962175E9,1004.1181
1.4384114335271013E9,1004.1481
1.4384114335625014E9,1004.1781
1.438411433598207E9,1004.20807
1.4384114336286333E9,1004.20807
1.4384114336630874E9,1004.1481
1.438411433698305E9,1004.1181
1.4384114337285476E9,1004.1481
1.438411433763124E9,1004.1181
1.4384114337983415E9,1004.1781
1.4384114338285842E9,1004.26807
1.4384114338638322E9,1004.228
1.4384114338990493E9,1004.29803
1.4384114339292924E9,1004.1781
1.4384114339645402E9,1004.20807
1.4384114339997878E9,1004.26807
1.4384114340300004E9,1004.23804
1.4384114340653338E9,1004.23804
1.438411434101253E9,1004.26807
1.4384114341314652E9,1004.23804
1.4384114341667132E9,1004.1481
1.438411434201961E9,1004.23804
1.438411434232204E9,1004.1781
1.4384114342674212E9,1004.23804
1.4384114343020587E9,1004.20807
1.4384114343322406E9,1004.20807
1.4384114343674884E9,1004.23804
1.4384114344027362E9,1004.23804
1.438411434432979E9,1004.23804
1.4384114344681964E9,1004.23804
1.438411434503444E9,1004.23804
1.4384114345336566E9,1004.1481
1.4384114345689347E9,1004.1481
1.4384114346041827E9,1004.08813
1.438411434634395E9,1004.1481
1.438411434669643E9,1004.1181
1.4384114347050128E9,1004.1481
1.4384114347350726E9,1004.1481
1.4384114347709002E9,1004.1781
1.4384114348055985E9,1004.08813
1.4384114348358111E9,1004.20807
1.4384114348711321E9,1004.23804
1.43841143490638E9,1004.20807
1.438411434936592E9,1004.1481
1.4384114349718401E9,1004.1781
1.438411435007149E9,1004.1181
1.4384114350373614E9,1004.1181
1.4384114350731585E9,1004.1781
1.4384114351083148E9,1004.26807
1.4384114351386187E9,1004.1481
1.4384114351738665E9,1004.1181
1.4384114352089922E9,1004.26807
1.4384114352393267E9,1004.26807
1.438411435274544E9,1004.1781
1.438411435309212E9,1004.20807
1.438411435339455E9,1004.1481
1.4384114353746722E9,1004.1781
1.438411435409981E9,1004.20807
1.4384114354401934E9,1004.1781
1.4384114354754107E9,1004.1781
1.4384114355106585E9,1004.1781
1.438411435540871E9,1004.1481
1.438411435576485E9,1004.1181
1.438411435611336E9,1004.1781
1.4384114356415484E9,1004.20807
1.4384114356767962E9,1004.23804
1.4384114357120135E9,1004.23804
1.4384114357422261E9,1004.23804
1.4384114357774737E9,1004.26807
1.4384114358127215E9,1004.26807
1.438411435843239E9,1004.23804
1.4384114358782122E9,1004.26807
1.43841143591346E9,1004.26807
1.4384114359436724E9,1004.23804
1.4384114359789202E9,1004.23804
1.4384114360141683E9,1004.328
1.4384114360443804E9,1004.358
1.4384114360795977E9,1004.23804
1.4384114361154864E9,1004.26807
1.4384114361456683E9,1004.26807
1.4384114361810076E9,1004.1781
1.4384114362161028E9,1004.1481
1.438411436246712E9,1004.1481
1.4384114362817156E9,1004.1481
1.4384114363168108E9,1004.1481
1.4384114363465044E9,1004.1781
1.4384114363817523E9,1004.1781
1.438411436417E9,1004.20807
1.438411436447182E9,1004.328
1.438411436482607E9,1004.1481
1.438411436517977E9,1004.1781
1.438411436548067E9,1004.26807
1.4384114365833151E9,1004.20807
1.4384114366186237E9,1004.23804
1.4384114366488361E9,1004.1481
1.438411436684084E9,1004.1781
1.4384114367193625E9,1004.20807
1.4384114367500937E9,1004.26807
1.4384114367853107E9,1004.26807
1.4384114368205588E9,1004.29803
1.4384114368508933E9,1004.20807
1.438411436886019E9,1004.20807
1.4384114369212973E9,1004.1781
1.4384114369508994E9,1004.1781
1.4384114369861472E9,1004.1481
1.4384114370213947E9,1004.23804
1.438411437051638E9,1004.1781
1.4384114370868247E9,1004.20807
1.438411437122103E9,1004.1481
1.4384114371523151E9,1004.1781
1.4384114371875632E9,1004.26807
1.438411437222811E9,1004.1481
1.4384114372535727E9,1004.1481
1.4384114372889242E9,1004.1481
1.438411437324172E9,1004.26807
1.4384114373543844E9,1004.1781
1.4384114373896325E9,1004.23804
1.43841143742488E9,1004.1481
1.438411437454482E9,1004.20807
1.4384114374897604E9,1004.1781
1.4384114375249777E9,1004.1481
1.43841143755519E9,1004.23804
1.4384114375904684E9,1004.1781
1.438411437625686E9,1004.1781
1.4384114376559286E9,1004.20807
1.438411437691146E9,1004.1781
1.4384114377264242E9,1004.20807
1.438411437756606E9,1004.1181
1.4384114377924337E9,1004.1781
1.4384114378276513E9,1004.23804
1.4384114378579245E9,1004.20807
1.4384114378932333E9,1004.1781
1.4384114379291525E9,1004.1781
1.438411437958663E9,1004.1481
1.4384114379933007E9,1004.20807
1.4384114380285482E9,1004.20807
1.4384114380587301E9,1004.23804
1.438411438093978E9,1004.1181
1.4384114381292562E9,1004.1181
1.4384114381594687E9,1004.1481
1.4384114381947165E9,1004.1481
1.4384114382299337E9,1004.1781
1.4384114382601464E9,1004.1181
1.4384114382954247E9,1004.1181
1.4384114383306723E9,1004.23804
1.438411438361495E9,1004.1181
1.4384114383967123E9,1004.23804
1.4384114384319906E9,1004.26807
1.438411438462203E9,1004.20807
1.4384114384968405E9,1004.23804
1.4384114385320885E9,1004.1181
1.4384114385623007E9,1004.23804
1.4384114385976095E9,1004.26807
1.438411438632827E9,1004.23804
1.4384114386630697E9,1004.1781
1.4384114386988363E9,1004.23804
1.4384114387340841E9,1004.29803
1.4384114387642965E9,1004.29803
1.4384114387995443E9,1004.29803
1.4384114388348227E9,1004.23804
1.4384114388650045E9,1004.26807
1.4384114389004598E9,1004.20807
1.4384114389357078E9,1004.1781
1.4384114389658592E9,1004.23804
1.4384114390011985E9,1004.1781
1.4384114390363243E9,1004.23804
1.438411439065987E9,1004.1781
1.4384114391016927E9,1004.1781
1.4384114391364524E9,1004.23804
1.4384114391666954E9,1004.23804
1.4384114392019432E9,1004.1781
1.438411439237191E9,1004.23804
1.4384114392674034E9,1004.26807
1.438411439302651E9,1004.26807
1.4384114393378987E9,1004.1781
1.4384114393680806E9,1004.1781
1.438411439404E9,1004.1781
1.4384114394392173E9,1004.23804
1.43841143946946E9,1004.1781
1.438411439504647E9,1004.20807
1.4384114395399253E9,1004.1781
1.4384114395701377E9,1004.1781
1.4384114396047444E9,1004.20807
1.438411439639962E9,1004.1781
1.4384114396702352E9,1004.1781
1.4384114397058618E9,1004.1481
1.4384114397408042E9,1004.08813
1.4384114397710166E9,1004.1481
1.438411439806234E9,1004.26807
1.438411439841482E9,1004.1781
1.438411439871694E9,1004.1781
1.4384114399069724E9,1004.23804
1.4384114399422812E9,1004.1181
1.4384114399724936E9,1004.1181
1.438411440008291E9,1004.1781
1.438411440043447E9,1004.23804
1.4384114400731714E9,1004.20807
1.4384114401083884E9,1004.1181
1.4384114401435752E9,1004.1481
1.438411440173818E9,1004.1781
1.4384114402090964E9,1004.1481
1.4384114402443445E9,1004.1881
1.4384114402745569E9,1004.1181
1.4384114403098044E9,1004.1181
1.4384114403450522E9,1004.1481
1.4384114403753257E9,1004.1881
1.438411440410543E9,1004.20807
1.4384114404462485E9,1004.1881
1.438411440476583E9,1004.1781
1.4384114405112205E9,1004.1481
1.4384114405464685E9,1004.05817
1.438411440576681E9,1004.1481
1.438411440611898E9,1004.20807
1.4384114406471155E9,1004.20807
1.4384114406773887E9,1004.20807
1.4384114407126365E9,1004.20807
1.4384114407478843E9,1004.20807
1.4384114407780967E9,1004.20807
1.4384114408133142E9,1004.1881
1.4384114408485925E9,1004.1181
1.438411440878805E9,1004.20807
1.4384114409140832E9,1004.08813
1.4384114409497888E9,1004.1881
1.4384114409801233E9,1004.20807
1.4384114410153403E9,1004.1481
1.4384114410504966E9,1004.23804
1.438411441080831E9,1004.20807
1.4384114411160789E9,1004.1881
1.4384114411507163E9,1004.23804
1.438411441180929E9,1004.23804
1.438411441216146E9,1004.1881
1.4384114412513938E9,1004.20807
1.4384114412817833E9,1004.20807
1.4384114413168175E9,1004.1881
1.4384114413520653E9,1003.87823
1.4384114413823082E9,1003.53845
1.4384114414175255E9,1003.8183
1.4384114414527428E9,1003.9082
1.4384114414829857E9,1003.93823
1.438411441518203E9,1004.20807
1.4384114415534813E9,1004.0282
1.4384114415836937E9,1004.1881
1.438411441618911E9,1003.38855
1.4384114416541893E9,1003.3585
1.4384114416844018E9,1004.23804
1.4384114417196496E9,1004.1481
1.4384114417548974E9,1004.26807
1.4384114417851095E9,1004.1881
1.4384114418203576E9,1004.26807
1.4384114418556054E9,1004.23804
1.4384114418858178E9,1004.1181
1.438411441921279E9,1004.1881
1.438411441956527E9,1004.1881
1.4384114419868004E9,1004.20807
1.438411442022048E9,1004.20807
1.438411442057235E9,1004.26807
1.438411442087551E9,1004.1481
1.438411442122799E9,1004.23804
1.4384114421580164E9,1004.20807
1.4384114421882591E9,1004.1181
1.4384114422234766E9,1004.1181
1.4384114422587242E9,1004.1181
1.4384114422889674E9,1004.23804
1.4384114423241844E9,1004.1881
1.4384114423594627E9,1004.1881
1.4384114423896751E9,1004.23804
1.4384114424248924E9,1004.1481
1.4384114424601405E9,1004.1881
1.4384114424903831E9,1004.20807
1.438411442525631E9,1004.1881
1.4384114425608788E9,1004.20807
1.4384114425910301E9,1004.26807
1.438411442626339E9,1004.20807
1.4384114426615868E9,1004.20807
1.4384114426917992E9,1004.26807
1.438411442727047E9,1004.20807
1.4384114427622948E9,1004.20807
1.4384114427925072E9,1004.1881
1.4384114428277245E9,1004.1881
1.4384114428629723E9,1004.1881
1.4384114428931847E9,1004.20807
1.438411442928463E9,1004.1581
1.4384114429637108E9,1004.1581
1.4384114429939232E9,1004.1581
1.4384114430291405E9,1004.26807
1.4384114430644188E9,1004.23804
1.4384114430946007E9,1004.1581
1.4384114431298792E9,1004.1581
1.4384114431651268E9,1004.1881
1.4384114431953394E9,1004.1881
1.438411443230587E9,1004.1881
1.438411443265774E9,1004.23804
1.4384114432960472E9,1004.20807
1.438411443331295E9,1004.1881
1.438411443366543E9,1004.20807
1.438411443396725E9,1004.20807
1.4384114434320033E9,1004.20807
1.4384114434672203E9,1004.20807
1.4384114434974635E9,1004.1881
1.438411443532711E9,1004.1881
1.4384114435679588E9,1004.23804
1.4384114435981407E9,1004.20807
1.4384114436333885E9,1004.29803
1.438411443668667E9,1004.23804
1.4384114436989956E9,1004.1881
1.4384114437342126E9,1004.26807
1.4384114437694607E9,1004.29803
1.4384114437996728E9,1004.1881
1.438411443834921E9,1004.23804
1.4384114438702295E9,1004.29803
1.4384114439004724E9,1004.23804
1.43841144393569E9,1004.26807
1.4384114439709682E9,1004.1881
1.4384114440016992E9,1004.1881
1.438411444036947E9,1004.26807
1.4384114440722558E9,1004.20807
1.4384114441023767E9,1004.20807
1.4384114441376855E9,1004.328
1.4384114441729336E9,1004.1881
1.4384114442033594E9,1004.1881
1.4384114442383938E9,1004.1581
1.4384114442736108E9,1004.08813
1.4384114443038232E9,1004.1881
1.4384114443387659E9,1004.20807
1.4384114443738E9,1004.23804
1.4384114444039514E9,1004.1881
1.4384114444391992E9,1004.08813
1.4384114444745204E9,1004.23804
1.4384114445047023E9,1004.23804
1.4384114445399806E9,1004.1881
1.4384114445752282E9,1004.1581
1.4384114446060817E9,1004.1881
1.43841144464136E9,1004.20807
1.4384114446765466E9,1004.29803
1.4384114447072475E9,1004.1281
1.4384114447423425E9,1004.29803
1.4384114447772243E9,1004.26807
1.4384114448068569E9,1004.26807
1.4384114448424706E9,1004.1281
1.4384114448773522E9,1004.29803
1.4384114449075954E9,1004.1881
1.4384114449427516E9,1004.26807
1.43841144497803E9,1004.23804
1.4384114450082726E9,1004.1281
1.4384114450434902E9,1004.26807
1.4384114450787685E9,1004.23804
1.438411445108981E9,1004.09814
1.4384114451442287E9,1004.20807
1.4384114451794457E9,1004.1281
1.4384114452102685E9,1004.20807
1.4384114452455163E9,1004.1581
1.438411445280642E9,1004.1881
1.438411445311007E9,1004.20807
1.4384114453456447E9,1004.20807
1.4384114453808618E9,1004.23804
1.4384114454121425E9,1004.20807
1.438411445446444E9,1004.26807
1.438411445481692E9,1004.20807
1.4384114455119042E9,1004.20807
1.4384114455478542E9,1004.20807
1.4384114455823085E9,1004.23804
1.4384114456125512E9,1004.23804
1.4384114456483486E9,1004.1581
1.438411445683627E9,1004.1581
1.4384114457138088E9,1004.23804
1.4384114457490563E9,1004.20807
1.4384114457843041E9,1004.1581
1.4384114458145165E9,1004.1281
1.4384114458491845E9,1004.1281
1.438411445884402E9,1004.20807
1.4384114459146447E9,1004.23804
1.4384114459498928E9,1004.20807
1.438411445985171E9,1004.1881
1.4384114460154138E9,1004.20807
1.4384114460506618E9,1004.1581
1.4384114460864222E9,1004.23804
1.4384114461168482E9,1004.20807
1.438411446152096E9,1004.1581
1.4384114461872218E9,1004.20807
1.438411446217526E9,1004.1581
1.4384114462530482E9,1004.1581
1.4384114462884486E9,1004.1281
1.4384114463182337E9,1004.1881
1.4384114463535426E9,1004.1581
1.4384114463887293E9,1004.09814
1.4384114464189417E9,1004.23804
1.4384114464585538E9,1004.23804
1.438411446488827E9,1004.20807
1.4384114465190394E9,1004.328
1.4384114465542872E9,1004.29803
1.438411446589535E9,1004.26807
1.4384114466197474E9,1004.23804
1.4384114466550257E9,1004.20807
1.438411446690243E9,1004.23804
1.438411446720486E9,1004.20807
1.438411446755734E9,1004.1881
1.438411446790951E9,1004.20807
1.4384114468211942E9,1004.20807
1.4384114468564417E9,1004.20807
1.4384114468923738E9,1004.09814
1.4384114469226167E9,1004.09814
1.4384114469581087E9,1004.1881
1.4384114469929903E9,1004.1581
1.4384114470232332E9,1004.20807
1.4384114470585115E9,1004.1281
1.438411447093088E9,1004.1581
1.4384114471233613E9,1004.23804
1.4384114471586092E9,1004.20807
1.4384114471938875E9,1004.20807
1.4384114472240694E9,1004.1581
1.4384114472593172E9,1004.23804
1.438411447294565E9,1004.20807
1.4384114473247774E9,1004.1581
1.4384114473599946E9,1004.1881
1.438411447395273E9,1004.20807
1.4384114474259737E9,1004.1881
1.4384114474614353E9,1004.1581
1.4384114474965916E9,1004.1881
1.4384114475268342E9,1004.1281
1.4384114475620518E9,1004.1881
1.4384114475966585E9,1004.23804
1.4384114476269014E9,1004.23804
1.4384114476621187E9,1004.20807
1.438411447697397E9,1004.1581
1.4384114477275789E9,1004.1281
1.4384114477628572E9,1004.1581
1.4384114477981052E9,1004.20807
1.438411447828287E9,1004.1881
1.438411447864145E9,1004.1281
1.4384114478994234E9,1004.1581
1.4384114479296663E9,1004.23804
1.4384114479648836E9,1004.20807
1.4384114480000093E9,1004.20807
1.4384114480303438E9,1004.1881
1.4384114480655613E9,1004.26807
1.438411448100229E9,1004.23804
1.4384114481304417E9,1004.1881
1.4384114481656892E9,1004.20807
1.438411448200937E9,1004.23804
1.4384114482311494E9,1004.1881
1.4384114482663972E9,1004.1281
1.438411448301645E9,1004.20807
1.438411448331827E9,1004.23804
1.4384114483676853E9,1004.20807
1.4384114484029636E9,1004.1281
1.4384114484331455E9,1004.1581
1.438411448468393E9,1004.23804
1.438411448503696E9,1004.1581
1.438411448534E9,1004.1281
1.438411448568668E9,1004.1581
1.438411448603916E9,1004.20807
1.4384114486341283E9,1004.20807
1.4384114486693454E9,1004.1581
1.4384114487046237E9,1004.1581
1.438411448734836E9,1004.23804
1.438411448770084E9,1004.1281
1.4384114488053317E9,1004.1281
1.438411448835544E9,1004.1581
1.438411448870792E9,1004.0681
1.43841144890604E9,1004.1581
1.4384114489377475E9,1004.26807
1.4384114489718966E9,1004.1881
1.4384114490080295E9,1004.20807
1.4384114490382419E9,1004.26807
1.4384114490727878E9,1004.20807
1.438411449108127E9,1004.1881
1.4384114491381872E9,1004.1881
1.4384114491729162E9,1004.20807
1.4384114492081027E9,1004.1881
1.4384114492383456E9,1004.1581
1.4384114492735934E9,1004.26807
1.4384114493089151E9,1004.29803
1.4384114493391273E9,1004.20807
1.4384114493744056E9,1004.1581
1.4384114494096534E9,1004.1881
1.4384114494398353E9,1004.20807
1.4384114494751136E9,1004.26807
1.4384114495103614E9,1004.1281
1.438411449540879E9,1004.20807
1.4384114495758216E9,1004.23804
1.4384114496117103E9,1004.26807
1.4384114496413124E9,1004.26807
1.4384114496764991E9,1004.1281
1.4384114497118385E9,1004.23804
1.43841144974199E9,1004.1581
1.4384114497771766E9,1004.26807
1.438411449812455E9,1004.1281
1.4384114498426979E9,1004.1881
1.4384114498779457E9,1004.26807
1.4384114499131935E9,1004.1581
1.4384114499434059E9,1004.26807
1.4384114499786232E9,1004.1881
1.438411450014512E9,1004.26807
1.4384114500447242E9,1004.20807
1.4384114500800025E9,1004.1581
1.4384114501151893E9,1004.1581
1.438411450144822E9,1004.1881
1.4384114501800392E9,1004.09814
1.4384114502153175E9,1004.20807
1.43841145024553E9,1004.20807
1.4384114502807472E9,1004.1881
1.438411450315995E9,1004.26807
1.4384114503462074E9,1004.20807
1.4384114503814857E9,1004.23804
1.4384114504167335E9,1004.20807
1.438411450446946E9,1004.1881
1.4384114504827735E9,1004.1281
1.4384114505180824E9,1004.20807
1.4384114505482643E9,1004.1581
1.438411450583512E9,1004.1581
1.4384114506187294E9,1004.20807
1.4384114506483314E9,1004.1881
1.4384114506835792E9,1004.23804
1.4384114507188575E9,1004.1881
1.43841145074907E9,1004.26807
1.4384114507842872E9,1004.1581
1.4384114508195658E9,1004.20807
1.438411450849778E9,1004.1281
1.438411450885026E9,1004.1881
1.4384114509204202E9,1004.1881
1.4384114509506326E9,1004.09814
1.438411450985911E9,1004.20807
1.438411451021647E9,1004.20807
1.4384114510520425E9,1004.23804
1.4384114510871377E9,1004.1881
1.438411451122416E9,1004.20807
1.4384114511527505E9,1004.20807
1.4384114511878762E9,1004.20807
1.4384114512230325E9,1004.20807
1.4384114512530618E9,1004.1881
1.4384114512880962E9,1004.20807
1.438411451323008E9,1004.03815
1.4384114513532205E9,1003.9682
1.4384114513884683E9,1004.1881
1.438411451423716E9,1003.4185
1.4384114514539285E9,1004.20807
1.4384114514891765E9,1003.72833
1.438411451525004E9,1004.1881
1.4384114515551553E9,1004.1281
1.4384114515904336E9,1004.1281
1.438411451625712E9,1004.0681
1.4384114516558938E9,1003.8183
1.438411451691111E9,1004.20807
1.4384114517265244E9,1004.1581
1.4384114517561264E9,1004.1881
1.438411451791374E9,1004.1881
1.4384114518266218E9,1004.1581
1.4384114518568342E9,1004.23804
1.438411451892082E9,1004.20807
1.4384114519275434E9,1004.20807
1.4384114519577558E9,1004.20807
1.4384114519930036E9,1004.1581
1.438411452028282E9,1004.1581
1.4384114520584943E9,1004.09814
1.4384114520937421E9,1004.09814
1.43841145212899E9,1004.1581
1.4384114521592023E9,1004.1881
1.4384114521944504E9,1004.1881
1.438411452229698E9,1004.1281
1.4384114522599106E9,1004.20807
1.4384114522951581E9,1004.1881
1.438411452330406E9,1004.1581
1.4384114523605878E9,1004.1581
1.4384114523958967E9,1004.1581
1.4384114524311445E9,1004.1281
1.4384114524613569E9,1004.20807
1.438411452497215E9,1004.20807
1.4384114525324628E9,1004.20807
1.4384114525626144E9,1004.1881
1.4384114525979536E9,1004.09814
1.4384114526331708E9,1004.20807
1.4384114526633527E9,1004.1581
1.438411452698631E9,1004.1281
1.4384114527338483E9,1004.1881
1.4384114527642133E9,1004.1281
1.4384114527986984E9,1004.1881
1.438411452834007E9,1004.20807
1.4384114528643112E9,1004.09814
1.438411452899437E9,1004.1881
1.4384114529346235E9,1004.1581
1.438411452964836E9,1004.1881
1.4384114530000837E9,1004.23804
1.4384114530353622E9,1004.26807
1.4384114530655744E9,1004.1581
1.4384114531008224E9,1004.1581
1.43841145313607E9,1004.1581
1.4384114531662827E9,1004.1881
1.4384114532021406E9,1004.328
1.438411453237297E9,1004.1581
1.4384114532669904E9,1004.1281
1.4384114533023546E9,1004.1581
1.4384114533376021E9,1004.1581
1.4384114533678148E9,1004.09814
1.438411453403093E9,1004.1281
1.4384114534383407E9,1004.1281
1.438411453468553E9,1004.09814
1.4384114535044112E9,1004.1281
1.438411453539659E9,1004.1281
1.4384114535698714E9,1004.23804
1.438411453605089E9,1004.23804
1.4384114536403673E9,1004.20807
1.4384114536705492E9,1004.1581
1.4384114537057967E9,1004.20807
1.4384114537409837E9,1004.1581
1.438411453771257E9,1004.1281
1.4384114538064744E9,1004.23804
1.438411453841173E9,1004.20807
1.438411453871385E9,1004.20807
1.4384114539066331E9,1004.20807
1.4384114539418502E9,1004.1581
1.4384114539720933E9,1004.23804
1.4384114540073104E9,1004.26807
1.4384114540425582E9,1004.23804
1.4384114540727706E9,1004.1281
1.4384114541081223E9,1004.20807
1.4384114541433702E9,1004.1881
1.4384114541735828E9,1004.1581
1.4384114542094407E9,1004.1881
1.4384114542445972E9,1004.1881
1.4384114542748704E9,1004.23804
1.4384114543101487E9,1004.1881
1.4384114543446946E9,1004.1581
1.4384114543749986E9,1004.09814
1.4384114544102464E9,1004.1881
1.4384114544454637E9,1004.1581
1.438411454475676E9,1004.0681
1.4384114545109544E9,1004.09814
1.4384114545462022E9,1004.09814
1.4384114545764146E9,1004.20807
1.4384114546116319E9,1004.09814
1.4384114546468797E9,1004.09814
1.4384114546771226E9,1004.1581
1.4384114547123706E9,1004.1581
1.4384114547476182E9,1004.1281
1.4384114547782884E9,1004.23804
1.4384114548138719E9,1004.1581
1.4384114548488145E9,1004.20807
1.438411454879149E9,1004.0681
1.4384114549137254E9,1004.1581
1.4384114549490342E9,1004.20807
1.4384114549791856E9,1004.20807
1.4384114550144947E9,1004.09814
1.4384114550497422E9,1004.1581
1.4384114550799546E9,1004.1881
1.438411455115233E9,1004.1581
1.4384114551510606E9,1004.20807
1.438411455181273E9,1004.23804
1.4384114552165208E9,1004.20807
1.438411455251799E9,1004.1581
1.4384114552819505E9,1004.20807
1.4384114553180223E9,1004.1581
1.438411455352446E9,1004.1581
1.438411455382689E9,1004.23804
1.4384114554179676E9,1004.1581
1.438411455453093E9,1004.1581
1.4384114554833665E9,1004.20807
1.438411455518004E9,1004.20807
1.4384114555532825E9,1004.1581
1.4384114555834947E9,1004.1581
1.438411455618712E9,1004.1881
1.4384114556539598E9,1004.20807
1.4384114556842027E9,1004.1281
1.438411455719597E9,1004.1281
1.4384114557548447E9,1004.1881
1.4384114557850266E9,1004.09814
1.4384114558203049E9,1004.09814
1.4384114558561022E9,1004.09814
1.4384114558864367E9,1004.1281
1.4384114559216235E9,1004.1881
1.4384114559562E9,1004.1281
1.4384114559864733E9,1004.1881
1.4384114560216904E9,1004.1881
1.4384114560569687E9,1004.1581
1.4384114560871813E9,1004.20807
1.4384114561224291E9,1004.1281
1.438411456157677E9,1004.09814
1.4384114561878893E9,1004.1581
1.4384114562237475E9,1004.1281
1.4384114562588732E9,1004.1581
1.4384114562892077E9,1004.1881
1.438411456324425E9,1004.1581
1.4384114563595812E9,1004.20807
1.4384114563894272E9,1004.1581
1.4384114564245226E9,1004.23804
1.438411456459801E9,1004.1881
1.4384114564900134E9,1004.20807
1.4384114565253344E9,1004.1281
1.4384114565605822E9,1004.1881
1.4384114565908558E9,1004.1581
1.4384114566261034E9,1004.1581
1.4384114566613512E9,1004.09814
1.4384114566920824E9,1004.1281
1.438411456727361E9,1004.1581
1.4384114567625475E9,1004.1281
1.4384114567928212E9,1004.09814
1.438411456828069E9,1004.1581
1.4384114568638356E9,1004.0681
1.4384114568938344E9,1004.1281
1.4384114569287767E9,1004.20807
1.438411456964635E9,1004.0681
1.4384114569944813E9,1004.1881
1.4384114570295153E9,1004.09814
1.4384114570647633E9,1004.1581
1.438411457094304E9,1004.1281
1.4384114571295824E9,1004.20807
1.4384114571648302E9,1004.1281
1.4384114571949818E9,1004.1281
1.4384114572302904E9,1004.1581
1.4384114572655385E9,1004.1281
1.4384114572957203E9,1004.1881
1.4384114573309987E9,1004.1881
1.4384114573662462E9,1004.1581
1.4384114573964894E9,1004.0681
1.438411457431737E9,1004.1881
1.4384114574669847E9,1004.1881
1.438411457497777E9,1004.1581
1.4384114575333605E9,1004.1281
1.4384114575727894E9,1004.1281
1.4384114575984547E9,1004.20807
1.438411457633092E9,1004.1881
1.4384114576683702E9,1004.1281
1.4384114576985521E9,1004.1581
